0;0;
1.3e-05;0.0;
0.00091;0.0;
0.044008;0.0;
0.087108;365152.0;
0.129568;218016.0;
0.172485;618992.0;
0.215553;1017408.0;
0.258583;1430496.0;
0.302284;1830912.0;
0.346067;1990344.0;
0.389192;2169144.0;
0.432613;2275832.0;
0.476069;2481552.0;
0.519232;2436408.0;
0.562633;2472184.0;
0.605986;2449560.0;
0.649615;2487288.0;
0.693275;2476080.0;
0.737298;2466288.0;
0.781412;2461568.0;
0.825291;2462288.0;
0.869292;2438944.0;
0.913003;2461936.0;
0.957312;2449824.0;
1.001194;2437688.0;
1.045043;2449800.0;
1.088571;2449800.0;
1.132594;2412584.0;
1.176442;2411704.0;
1.220298;2398896.0;
1.264803;2423096.0;
1.309219;2386760.0;
1.353215;2398872.0;
1.397514;2410984.0;
1.44164;2423096.0;
1.485728;2410288.0;
1.529784;2386064.0;
1.574134;2361840.0;
1.618694;2301280.0;
1.663073;2301280.0;
1.70735;2301280.0;
1.751565;2301280.0;
1.796009;2313392.0;
1.84059;2325504.0;
1.884881;2325504.0;
1.929663;2313392.0;
1.97393;2301280.0;
2.018326;2313392.0;
2.062831;2325504.0;
2.107272;2313392.0;
2.151797;2313392.0;
2.196255;2325504.0;
2.240665;2325504.0;
2.285131;2325504.0;
2.329545;2313392.0;
2.373957;2313392.0;
2.418193;2337616.0;
2.46262;2325504.0;
2.507024;2313392.0;
2.551298;2313392.0;
2.595815;2337616.0;
2.639733;2313392.0;
2.683893;2325504.0;
2.728053;2325504.0;
2.772147;2313392.0;
2.816228;2325504.0;
2.860355;2313392.0;
2.904644;2313392.0;
2.94863;2325504.0;
2.992592;2313392.0;
3.036853;2337616.0;
3.080736;2337616.0;
3.124891;2228608.0;
3.169008;2143824.0;
3.213175;1937920.0;
3.257367;1889472.0;
3.301506;1877360.0;
3.345705;1877360.0;
3.389685;1889472.0;
3.434425;1877360.0;
3.479328;1877360.0;
3.524042;1877360.0;
3.568765;1889472.0;
3.613544;1889472.0;
3.657703;1901584.0;
3.702638;1937920.0;
3.747126;1986368.0;
3.791643;2034816.0;
3.836088;2046928.0;
3.880355;2023264.0;
3.924585;2047488.0;
3.968906;2083824.0;
4.013283;2108048.0;
4.057713;2120160.0;
4.102019;2131712.0;
4.146328;2120160.0;
4.190393;2144384.0;
4.234577;2156496.0;
4.278919;2144384.0;
4.323135;2180720.0;
4.367522;2168048.0;
4.411854;2169728.0;
4.456141;2169728.0;
4.500486;2193952.0;
4.544764;2181840.0;
4.588625;2206064.0;
4.632377;2216496.0;
4.676328;2205504.0;
4.720465;2181280.0;
4.764755;2205504.0;
4.80892;2193392.0;
4.853155;2241840.0;
4.897314;2228608.0;
4.941454;2216496.0;
4.98612;2240720.0;
5.030457;2228608.0;
5.074631;2228608.0;
5.118743;2216496.0;
5.163478;2228608.0;
5.207853;2230288.0;
5.25215;2230288.0;
5.296696;2218176.0;
5.341151;2218176.0;
5.385711;2230288.0;
5.430054;2228608.0;
5.474639;2228608.0;
5.519004;2216496.0;
5.563468;2228608.0;
5.607895;2228608.0;
5.652229;2228608.0;
5.696642;2216496.0;
5.741203;2216496.0;
5.785612;2228608.0;
5.829973;2228608.0;
5.874281;2228608.0;
5.918647;2216496.0;
5.962943;2204384.0;
6.007372;2240720.0;
6.051603;2131712.0;
6.095828;2107488.0;
6.139811;2022704.0;
6.183779;2022704.0;
6.227438;2022704.0;
6.271069;2046928.0;
6.31517;2022704.0;
6.359142;2010592.0;
6.4032;2010592.0;
6.447307;2010592.0;
6.491268;1998480.0;
6.535613;2022704.0;
6.579959;2010592.0;
6.624686;2046928.0;
6.668832;2095376.0;
6.712998;2155936.0;
6.75733;2155936.0;
6.801687;2168048.0;
6.846199;2155936.0;
6.890667;2180160.0;
6.935054;2192272.0;
6.979677;2228608.0;
7.024335;2204384.0;
7.068849;2228608.0;
7.113236;2192272.0;
7.157585;2192272.0;
7.201972;2216496.0;
7.24642;2228608.0;
7.290785;2204384.0;
7.335265;2204384.0;
7.379794;2228608.0;
7.424204;2200000.0;
7.46863;2200000.0;
7.513117;2264944.0;
7.557332;2200000.0;
7.60175;2200000.0;
7.645967;2240720.0;
7.690309;2200000.0;
7.734645;2289168.0;
7.778957;2289168.0;
7.823181;2289168.0;
7.867172;2277056.0;
7.910893;2264944.0;
7.955219;2264944.0;
7.999269;2200000.0;
8.043507;2277056.0;
8.08752;2200000.0;
8.131642;2277056.0;
8.175656;2289168.0;
8.219831;2277056.0;
8.263924;2277056.0;
8.307887;2264944.0;
8.352025;2277056.0;
8.396572;2277056.0;
8.440807;2200000.0;
8.485011;2264944.0;
8.529204;2264944.0;
8.5735;2200000.0;
8.617874;2264944.0;
8.66222;2277056.0;
8.706601;2277056.0;
8.751064;2277056.0;
8.795526;2289168.0;
8.840085;2277056.0;
8.884501;2200000.0;
8.928961;2277056.0;
8.973422;2277056.0;
9.017879;2264944.0;
9.062482;2289168.0;
9.106719;2168048.0;
9.151092;2155936.0;
9.19553;2168048.0;
9.239943;2180160.0;
9.284355;2168048.0;
9.328689;2168048.0;
9.372964;2143824.0;
9.417156;2143824.0;
9.461137;2155936.0;
9.504984;2192272.0;
9.548735;2168048.0;
9.592855;2180160.0;
9.63663;2143824.0;
9.680142;2192272.0;
9.723804;2204384.0;
9.767329;2216496.0;
9.810945;2228608.0;
9.854727;2228608.0;
9.898484;2228608.0;
9.942254;2192272.0;
9.985933;2240720.0;
10.029924;2240720.0;
10.074168;2228608.0;
10.118271;2204384.0;
10.162554;2022704.0;
10.206811;1586672.0;
10.251074;1138528.0;
10.295272;726720.0;
10.339685;302800.0;
10.383915;0.0;
10.428139;0.0;
10.472539;193792.0;
10.516787;0.0;
10.561464;472368.0;
10.60581;617712.0;
10.650362;847840.0;
10.694758;1538224.0;
10.739241;1526112.0;
10.783703;1550336.0;
10.828136;1538224.0;
10.87254;1514000.0;
10.916998;1526112.0;
10.961386;1538224.0;
11.005797;1574560.0;
11.049954;1575120.0;
11.094145;1563008.0;
11.138624;1587232.0;
11.182895;1575120.0;
11.227331;1574560.0;
11.271756;1574560.0;
11.315908;1574560.0;
11.360103;1574560.0;
11.404506;1562448.0;
11.448678;1586672.0;
11.492834;1562448.0;
11.536879;1574560.0;
11.58071;1562448.0;
11.624475;1562448.0;
11.668438;1562448.0;
11.712564;1586672.0;
11.756521;1574560.0;
11.800515;1574560.0;
11.844662;1574560.0;
11.888714;1562448.0;
11.932967;1586672.0;
11.977274;1574560.0;
12.021751;1550336.0;
12.066292;1587792.0;
12.110717;1454560.0;
12.155101;1442448.0;
12.199534;1478784.0;
12.243809;1465552.0;
12.288021;1380768.0;
12.332478;1368656.0;
12.377134;1356544.0;
12.421507;1380768.0;
12.466026;1332320.0;
12.510479;1308096.0;
12.554747;1344432.0;
12.599053;1321328.0;
12.643512;1369776.0;
12.687979;1248656.0;
12.732478;1126416.0;
12.776898;1029520.0;
12.821159;1029520.0;
12.865514;1017968.0;
12.909854;1005856.0;
12.953872;993184.0;
12.997735;944736.0;
13.041699;944736.0;
13.08546;944736.0;
13.129141;944736.0;
13.173034;944736.0;
13.217103;944736.0;
13.261144;932624.0;
13.305288;956848.0;
13.349371;945296.0;
13.393867;969520.0;
13.437845;956848.0;
13.481914;956848.0;
13.526052;1029520.0;
13.570047;1065856.0;
13.614215;1065856.0;
13.658776;1005296.0;
13.702896;1053744.0;
13.74776;1017408.0;
13.792888;1029520.0;
13.837422;1065856.0;
13.882059;1077968.0;
13.927384;1090080.0;
13.971804;1102192.0;
14.016602;1090080.0;
14.06106;1053744.0;
14.105534;1053744.0;
14.150033;1065856.0;
14.194485;1065856.0;
14.238933;1041632.0;
14.283372;1065856.0;
14.327874;1077968.0;
14.372202;1065856.0;
14.416715;1005296.0;
14.460914;1029520.0;
14.50525;1017408.0;
14.549634;1017408.0;
14.59382;1005296.0;
14.638267;1029520.0;
14.682709;1017408.0;
14.727123;1005296.0;
14.771209;1053744.0;
14.815353;1065856.0;
14.859397;1065856.0;
14.90351;1041632.0;
14.947441;1029520.0;
14.991418;1029520.0;
15.035277;1005296.0;
15.079446;993184.0;
15.123654;1017408.0;
15.16775;1005296.0;
15.211899;1029520.0;
15.255898;1029520.0;
15.299933;993184.0;
15.344561;993184.0;
15.388993;1005296.0;
15.433485;993184.0;
15.478075;993184.0;
15.522933;993184.0;
15.566958;993184.0;
15.611052;968960.0;
15.655637;1005296.0;
15.700158;993184.0;
15.744602;1005296.0;
15.789099;1005296.0;
15.833498;981072.0;
15.877989;1005296.0;
15.92255;993184.0;
15.966998;993184.0;
16.011425;1005296.0;
16.055886;993184.0;
16.100258;944736.0;
16.144756;932624.0;
16.189166;896288.0;
16.233573;884176.0;
16.278023;932624.0;
16.322408;932624.0;
16.366841;932624.0;
16.411255;968960.0;
16.455533;993184.0;
16.499677;993184.0;
16.543762;993184.0;
16.587755;1005296.0;
16.631838;1005296.0;
16.675778;993184.0;
16.719808;993184.0;
16.763558;993184.0;
16.807534;993184.0;
16.851557;981072.0;
16.895608;1005296.0;
16.939622;956848.0;
16.983816;968960.0;
17.027997;956848.0;
17.071941;956848.0;
17.116468;981072.0;
17.161342;968960.0;
17.205637;981072.0;
17.250203;968960.0;
17.294636;968960.0;
17.339647;968960.0;
17.384418;968960.0;
17.429024;981072.0;
17.473618;956848.0;
17.518196;981072.0;
17.562771;968960.0;
17.60712;956848.0;
17.651643;981072.0;
17.696329;944736.0;
17.740756;956848.0;
17.78521;944736.0;
17.829581;944736.0;
17.873946;956848.0;
17.918241;956848.0;
17.962484;944736.0;
18.006911;932624.0;
18.051384;944736.0;
18.095839;932624.0;
18.140227;932624.0;
18.184645;956848.0;
18.229081;944736.0;
18.273256;932624.0;
18.317538;944736.0;
18.361738;956848.0;
18.405727;944736.0;
18.44981;944736.0;
18.493741;932624.0;
18.537819;956848.0;
18.581825;956848.0;
18.625796;944736.0;
18.669904;944736.0;
18.71391;944736.0;
18.758189;932624.0;
18.80217;956848.0;
18.846208;944736.0;
18.890325;944736.0;
18.934387;944736.0;
18.978425;932624.0;
19.022418;956848.0;
19.067253;944736.0;
19.111976;932624.0;
19.157012;944736.0;
19.201528;932624.0;
19.246474;944736.0;
19.291034;932624.0;
19.335611;920512.0;
19.379864;920512.0;
19.424216;908400.0;
19.468557;932624.0;
19.512926;920512.0;
19.557331;908400.0;
19.601815;932624.0;
19.646327;920512.0;
19.690675;908400.0;
19.735036;932624.0;
19.779516;920512.0;
19.824023;908400.0;
19.868439;932624.0;
19.912902;920512.0;
19.957098;908400.0;
20.001253;932624.0;
20.045447;920512.0;
20.089623;920512.0;
20.133695;908400.0;
20.177736;896288.0;
20.221788;920512.0;
20.265743;920512.0;
20.309748;920512.0;
20.353881;920512.0;
20.39796;908400.0;
20.442066;932624.0;
20.485828;932624.0;
20.52971;908400.0;
20.573742;920512.0;
20.617826;654048.0;
20.661843;205904.0;
20.705977;0.0;
20.749994;0.0;
20.794567;12112.0;
20.838956;266464.0;
20.883321;0.0;
20.927699;1102192.0;
20.972121;1356544.0;
21.01699;1465552.0;
21.061382;1550336.0;
21.105884;1550336.0;
21.150483;1550336.0;
21.194945;1526112.0;
21.239524;1562448.0;
21.284431;1550336.0;
21.329066;1538224.0;
21.373508;1538224.0;
21.417948;1538224.0;
21.461876;1526112.0;
21.506066;1550336.0;
21.550455;1550336.0;
21.594908;1550336.0;
21.639344;1550336.0;
21.683851;1538224.0;
21.728317;1562448.0;
21.772682;1538224.0;
21.816926;1526112.0;
21.861449;1550336.0;
21.905677;1538224.0;
21.949813;1538224.0;
21.994039;1538224.0;
22.038102;1550336.0;
22.082261;1526112.0;
22.126497;1514000.0;
22.170685;1501888.0;
22.214887;1501888.0;
22.258848;1489776.0;
22.302885;1514000.0;
22.346874;1501888.0;
22.390826;1501888.0;
22.434805;1501888.0;
22.47881;1501888.0;
22.522866;1489776.0;
22.567148;1501888.0;
22.611648;1489776.0;
22.65618;1489776.0;
22.700735;1501888.0;
22.744862;1501888.0;
22.78926;1501888.0;
22.833744;1501888.0;
22.878241;1514000.0;
22.922694;1501888.0;
22.966923;1501888.0;
23.011073;1465552.0;
23.055632;1501888.0;
23.100552;1489776.0;
23.144937;1259648.0;
23.189316;1162752.0;
23.233656;1090080.0;
23.277904;981072.0;
23.321947;944736.0;
23.365783;932624.0;
23.409899;920512.0;
23.453948;981072.0;
23.497871;968960.0;
23.541912;968960.0;
23.585992;968960.0;
23.629699;981072.0;
23.673379;968960.0;
23.717116;968960.0;
23.760818;968960.0;
23.804405;981072.0;
23.848134;981072.0;
23.892067;981072.0;
23.935858;993184.0;
23.979633;993184.0;
24.023615;981072.0;
24.067213;981072.0;
24.110897;968960.0;
24.15472;993184.0;
24.198544;993184.0;
24.242689;993184.0;
24.286469;968960.0;
24.330517;968960.0;
24.374491;993184.0;
24.418527;981072.0;
24.46241;981072.0;
24.506511;981072.0;
24.550471;981072.0;
24.594398;981072.0;
24.638469;981072.0;
24.682558;981072.0;
24.726302;981072.0;
24.770781;981072.0;
24.814967;956848.0;
24.859162;932624.0;
24.903237;920512.0;
24.947477;944736.0;
24.991785;944736.0;
25.036145;932624.0;
25.080615;932624.0;
25.124894;932624.0;
25.169258;932624.0;
25.21365;968960.0;
25.257963;956848.0;
25.30232;981072.0;
25.346878;968960.0;
25.391024;945296.0;
25.435294;981632.0;
25.479585;956848.0;
25.524091;956848.0;
25.568601;968960.0;
25.613042;956848.0;
25.657447;944736.0;
25.701589;956848.0;
25.745671;956848.0;
25.789634;944736.0;
25.83358;968960.0;
25.877397;956848.0;
25.921145;956848.0;
25.964675;944736.0;
26.008473;968960.0;
26.052332;968960.0;
26.096309;944736.0;
26.140249;956848.0;
26.183961;956848.0;
26.227444;956848.0;
26.271296;956848.0;
26.315497;956848.0;
26.359564;944736.0;
26.403667;944736.0;
26.447544;932624.0;
26.491583;932624.0;
26.535856;920512.0;
26.58049;944736.0;
26.624711;932624.0;
26.668776;908960.0;
26.712995;945296.0;
26.757147;932624.0;
26.801704;944736.0;
26.846524;956848.0;
26.890667;932624.0;
26.935224;944736.0;
26.979546;956848.0;
27.023904;932624.0;
27.0683;932624.0;
27.112822;944736.0;
27.157294;932624.0;
27.201714;944736.0;
27.245995;920512.0;
27.290369;944736.0;
27.334904;944736.0;
27.379374;956848.0;
27.42392;944736.0;
27.468218;932624.0;
27.512569;944736.0;
27.556948;932624.0;
27.601341;932624.0;
27.645742;920512.0;
27.689769;933184.0;
27.733989;957408.0;
27.777874;944736.0;
27.822099;932624.0;
27.866385;932624.0;
27.910518;944736.0;
27.954511;933184.0;
27.998335;933184.0;
28.042402;908400.0;
28.085988;908400.0;
28.129699;908400.0;
28.173704;908400.0;
28.217656;896288.0;
28.261607;908400.0;
28.305442;932624.0;
28.349424;908400.0;
28.393427;908400.0;
28.437463;908400.0;
28.482046;908400.0;
28.526601;908400.0;
28.570845;896288.0;
28.615416;908400.0;
28.659944;920512.0;
28.704037;944736.0;
28.748352;956848.0;
28.792618;932624.0;
28.836946;944736.0;
28.881376;944736.0;
28.925467;944736.0;
28.96987;920512.0;
29.014083;920512.0;
29.058496;956848.0;
29.102884;920512.0;
29.147581;932624.0;
29.191907;932624.0;
29.236123;944736.0;
29.280668;944736.0;
29.325388;932624.0;
29.369654;920512.0;
29.413842;920512.0;
29.458448;944736.0;
29.503133;932624.0;
29.547525;908400.0;
29.591861;944736.0;
29.635934;944736.0;
29.68039;932624.0;
29.72477;956848.0;
29.768958;944736.0;
29.813123;932624.0;
29.856719;932624.0;
29.900716;932624.0;
29.944474;908400.0;
29.987903;920512.0;
30.031398;944736.0;
30.075206;932624.0;
30.118932;932624.0;
30.162935;932624.0;
30.206922;956848.0;
30.250897;944736.0;
30.294838;932624.0;
30.340375;932624.0;
30.385363;920512.0;
30.430419;932624.0;
30.4752;920512.0;
30.520098;908400.0;
30.56541;921184.0;
30.610281;921184.0;
30.654896;932624.0;
30.699189;920512.0;
30.743565;920512.0;
30.787844;920512.0;
30.832082;920512.0;
30.8763;908400.0;
30.920627;823616.0;
30.964718;508704.0;
31.009005;121120.0;
31.053358;12112.0;
31.097609;0.0;
31.141578;0.0;
31.18545;157456.0;
31.22973;84784.0;
31.273778;1150640.0;
31.317859;1356544.0;
31.361847;1477664.0;
31.405706;1489776.0;
31.449763;1489776.0;
31.493537;1501888.0;
31.537495;1503568.0;
31.581643;1503568.0;
31.625574;1503568.0;
31.669848;1501888.0;
31.713964;1489776.0;
31.75824;1501888.0;
31.802987;1489776.0;
31.847221;1501888.0;
31.891882;1489776.0;
31.935986;1489776.0;
31.98012;1489776.0;
32.024675;1465552.0;
32.069149;1477664.0;
32.114198;1477664.0;
32.158717;1465552.0;
32.203053;1465552.0;
32.247631;1489776.0;
32.292109;1477664.0;
32.336448;1465552.0;
32.380836;1477664.0;
32.425198;1465552.0;
32.469549;1477664.0;
32.51381;1477664.0;
32.558316;1453440.0;
32.602713;1384000.0;
32.647137;1441328.0;
32.6916;1429216.0;
32.736073;1404992.0;
32.780455;1429216.0;
32.824692;1384000.0;
32.86897;1384000.0;
32.913303;1404992.0;
32.957524;1384000.0;
33.001915;1441328.0;
33.04619;1429216.0;
33.090218;1429216.0;
33.134308;1429216.0;
33.178541;1404992.0;
33.222586;1404992.0;
33.266732;1392880.0;
33.310751;1384000.0;
33.354693;1404992.0;
33.398753;1380768.0;
33.442707;1174864.0;
33.486903;1065856.0;
33.531501;1029520.0;
33.575836;920512.0;
33.620269;908400.0;
33.664662;932624.0;
33.708909;968960.0;
33.753268;968960.0;
33.798;968960.0;
33.842543;956848.0;
33.886976;944736.0;
33.931526;956848.0;
33.975812;968960.0;
34.020113;968960.0;
34.064649;968960.0;
34.109089;956848.0;
34.153531;956848.0;
34.197944;968960.0;
34.242404;968960.0;
34.286855;944736.0;
34.331262;968960.0;
34.375809;968960.0;
34.420321;981072.0;
34.464678;968960.0;
34.509175;956848.0;
34.553583;968960.0;
34.59802;956848.0;
34.64239;968960.0;
34.686804;956848.0;
34.730884;956848.0;
34.77513;981072.0;
34.819472;944736.0;
34.863592;968960.0;
34.90743;968960.0;
34.95105;968960.0;
34.994552;968960.0;
35.038396;956848.0;
35.082466;884176.0;
35.126512;908400.0;
35.170481;872064.0;
35.214788;896288.0;
35.259228;884176.0;
35.303925;896288.0;
35.348268;896288.0;
35.392629;896288.0;
35.437982;932624.0;
35.482146;932624.0;
35.526536;932624.0;
35.570885;956848.0;
35.615148;968960.0;
35.660192;956848.0;
35.704569;968960.0;
35.74901;968960.0;
35.793419;956848.0;
35.837837;981072.0;
35.88218;968960.0;
35.926296;956848.0;
35.970975;981072.0;
36.015445;968960.0;
36.059886;944736.0;
36.104373;956848.0;
36.148919;956848.0;
36.193378;968960.0;
36.237661;968960.0;
36.282091;968960.0;
36.326518;956848.0;
36.370867;968960.0;
36.415295;968960.0;
36.459616;956848.0;
36.504057;956848.0;
36.548391;968960.0;
36.592463;944736.0;
36.636784;956848.0;
36.681099;920512.0;
36.725038;920848.0;
36.768999;908736.0;
36.812813;908400.0;
36.856849;908400.0;
36.90093;932624.0;
36.944882;920512.0;
36.988856;908400.0;
37.032868;908400.0;
37.076996;896288.0;
37.121125;908400.0;
37.165351;896288.0;
37.209531;932624.0;
37.253951;920512.0;
37.298523;920512.0;
37.343124;920512.0;
37.387646;920512.0;
37.43214;908400.0;
37.477208;920512.0;
37.521479;920512.0;
37.565651;932624.0;
37.610039;920512.0;
37.654574;908400.0;
37.698917;920512.0;
37.743517;896288.0;
37.787876;908400.0;
37.832231;908400.0;
37.87684;896288.0;
37.921199;920512.0;
37.965624;920512.0;
38.00996;908400.0;
38.05431;932624.0;
38.098806;920512.0;
38.143233;932624.0;
38.187772;920512.0;
38.232207;920512.0;
38.27649;908400.0;
38.320815;896288.0;
38.36517;884176.0;
38.409544;884176.0;
38.453809;908400.0;
38.497952;872064.0;
38.542031;896288.0;
38.586294;908400.0;
38.630186;932624.0;
38.674287;956848.0;
38.718235;944736.0;
38.762351;944736.0;
38.806292;944736.0;
38.850172;908400.0;
38.89417;920512.0;
38.938189;932624.0;
38.982241;908400.0;
39.026401;932624.0;
39.070605;944736.0;
39.114817;932624.0;
39.15899;920512.0;
39.2032;944736.0;
39.247238;944736.0;
39.291968;932624.0;
39.33676;944736.0;
39.380999;920512.0;
39.425478;944736.0;
39.469839;944736.0;
39.514319;932624.0;
39.559006;944736.0;
39.603459;944736.0;
39.647805;956848.0;
39.692318;944736.0;
39.736805;932624.0;
39.781262;956848.0;
39.82573;920512.0;
39.870125;896288.0;
39.91456;944736.0;
39.958987;932624.0;
40.00339;920512.0;
40.047806;920512.0;
40.092265;932624.0;
40.136543;932624.0;
40.180961;932624.0;
40.225234;920512.0;
40.269639;932624.0;
40.31394;944736.0;
40.358233;944736.0;
40.402575;956848.0;
40.446831;944736.0;
40.490709;944736.0;
40.534602;944736.0;
40.578675;932624.0;
40.622638;956848.0;
40.66668;944736.0;
40.710793;932624.0;
40.754811;932624.0;
40.798776;920848.0;
40.842698;932960.0;
40.886621;932624.0;
40.930562;932624.0;
40.974735;956848.0;
41.018985;944736.0;
41.063583;932624.0;
41.107946;956848.0;
41.152517;932624.0;
41.196795;944736.0;
41.24131;932624.0;
41.285735;811504.0;
41.330049;411808.0;
41.374425;72672.0;
41.418897;12112.0;
41.463439;12112.0;
41.507864;0.0;
41.552389;96896.0;
41.596851;169568.0;
41.641277;1320208.0;
41.685737;1368656.0;
41.730104;1514000.0;
41.774583;1538224.0;
41.818977;1550336.0;
41.86346;1538224.0;
41.907785;1550336.0;
41.952121;1550336.0;
41.99646;1562448.0;
42.040698;1550336.0;
42.084569;1550336.0;
42.128704;1550336.0;
42.172834;1550336.0;
42.216862;1538224.0;
42.260895;1538224.0;
42.305015;1526112.0;
42.349213;1538224.0;
42.393465;1526112.0;
42.437591;1501888.0;
42.481552;1538224.0;
42.525728;1501888.0;
42.570461;1538224.0;
42.61491;1526112.0;
42.659485;1538224.0;
42.703884;1501888.0;
42.748299;1538224.0;
42.792741;1501888.0;
42.837199;1514000.0;
42.881595;1514000.0;
42.926134;1526112.0;
42.970258;1514000.0;
43.014689;1477664.0;
43.059259;1465552.0;
43.103786;1465552.0;
43.148231;1477664.0;
43.192742;1477664.0;
43.237307;1489776.0;
43.281697;1465552.0;
43.326125;1465552.0;
43.370516;1477664.0;
43.414826;1477664.0;
43.458941;1477664.0;
43.503125;1465552.0;
43.547074;1453440.0;
43.591416;1477664.0;
43.635338;1465552.0;
43.679396;1477664.0;
43.723249;1477664.0;
43.766764;1477664.0;
43.81052;1404992.0;
43.854453;1186976.0;
43.898403;1090080.0;
43.942408;1017408.0;
43.986313;981072.0;
44.030315;968960.0;
44.074435;968960.0;
44.119077;981072.0;
44.163506;920512.0;
44.207944;920512.0;
44.252233;956848.0;
44.296829;981072.0;
44.341311;981072.0;
44.385863;981072.0;
44.430366;981072.0;
44.47475;981072.0;
44.518944;981072.0;
44.563228;956848.0;
44.607622;993184.0;
44.651856;968960.0;
44.696225;993184.0;
44.740505;981072.0;
44.78511;981072.0;
44.829517;981072.0;
44.873656;993184.0;
44.917955;981072.0;
44.962131;993184.0;
45.006116;993184.0;
45.049778;981072.0;
45.093381;981072.0;
45.137164;956848.0;
45.180528;968960.0;
45.224297;993184.0;
45.268229;968960.0;
45.31212;1005296.0;
45.355818;1005296.0;
45.399331;981072.0;
45.442778;1005296.0;
45.486266;981072.0;
45.530306;944736.0;
45.573617;944736.0;
45.617292;932624.0;
45.660793;944736.0;
45.704363;908400.0;
45.747965;932624.0;
45.791437;944736.0;
45.834819;944736.0;
45.87863;956848.0;
45.922804;981072.0;
45.966526;944736.0;
46.010127;944736.0;
46.054189;932624.0;
46.098097;968960.0;
46.141991;968960.0;
46.186302;968960.0;
46.23031;944736.0;
46.274397;944736.0;
46.318693;956848.0;
46.362867;956848.0;
46.407155;944736.0;
46.451673;932624.0;
46.495795;956848.0;
46.539906;932624.0;
46.584347;932624.0;
46.628828;944736.0;
46.673202;932624.0;
46.717704;932624.0;
46.762148;932624.0;
46.806374;944736.0;
46.850537;944736.0;
46.895012;932624.0;
46.939518;932624.0;
46.984005;932624.0;
47.028464;944736.0;
47.073175;932624.0;
47.117581;908400.0;
47.161987;908400.0;
47.206397;920512.0;
47.250509;932624.0;
47.2949;920512.0;
47.339257;908400.0;
47.383549;932624.0;
47.427816;920512.0;
47.47188;920512.0;
47.515857;944736.0;
47.559759;932624.0;
47.603506;956848.0;
47.646924;920512.0;
47.690527;920512.0;
47.734464;944736.0;
47.778282;920512.0;
47.822007;932624.0;
47.865632;932624.0;
47.909563;932624.0;
47.953559;920512.0;
47.997602;920512.0;
48.041584;908400.0;
48.085949;920512.0;
48.130739;932624.0;
48.175249;932624.0;
48.219697;944736.0;
48.264104;944736.0;
48.308594;932624.0;
48.352907;920512.0;
48.397086;944736.0;
48.440991;944736.0;
48.485483;908400.0;
48.530309;932624.0;
48.574605;920512.0;
48.619022;944736.0;
48.663552;932624.0;
48.707997;920512.0;
48.752328;908400.0;
48.796765;920512.0;
48.841201;908400.0;
48.885781;908400.0;
48.930049;896288.0;
48.974298;932624.0;
49.018793;920512.0;
49.063233;932624.0;
49.107867;944736.0;
49.152213;944736.0;
49.196546;956848.0;
49.240481;944736.0;
49.284607;932624.0;
49.328805;932624.0;
49.372831;920512.0;
49.416681;908400.0;
49.460576;932624.0;
49.504608;932624.0;
49.548202;956848.0;
49.59214;944736.0;
49.635937;944736.0;
49.679585;944736.0;
49.723346;932624.0;
49.76719;932624.0;
49.811036;932624.0;
49.855026;920512.0;
49.899082;920512.0;
49.94319;896288.0;
49.987299;944736.0;
50.031384;944736.0;
50.075682;932624.0;
50.120061;944736.0;
50.164856;944736.0;
50.209167;944736.0;
50.253333;932624.0;
50.297502;932624.0;
50.34192;932624.0;
50.386335;944736.0;
50.430671;944736.0;
50.474814;944736.0;
50.519117;920512.0;
50.56402;944736.0;
50.608391;932624.0;
50.652781;956848.0;
50.697227;920512.0;
50.741602;908400.0;
50.786041;932624.0;
50.830486;920512.0;
50.875063;908400.0;
50.919502;920512.0;
50.96394;920512.0;
51.008205;896288.0;
51.052526;932624.0;
51.096978;908400.0;
51.141494;896288.0;
51.185774;920512.0;
51.230147;908400.0;
51.274526;908400.0;
51.318908;896288.0;
51.363019;896288.0;
51.407187;920512.0;
51.451443;908400.0;
51.495498;932624.0;
51.53954;932624.0;
51.583562;908400.0;
51.627674;775168.0;
51.671658;375472.0;
51.71558;0.0;
51.759747;12112.0;
51.803837;12112.0;
51.847956;0.0;
51.892139;60560.0;
51.936294;181680.0;
51.980585;1283872.0;
52.024661;1380768.0;
52.069329;1538224.0;
52.113719;1550336.0;
52.158427;1562448.0;
52.20266;1586672.0;
52.246814;1562448.0;
52.291406;1562448.0;
52.33572;1586672.0;
52.380269;1574560.0;
52.424554;1574560.0;
52.46919;1586672.0;
52.513558;1562448.0;
52.558027;1550336.0;
52.602527;1586672.0;
52.647074;1574560.0;
52.691636;1586672.0;
52.736062;1574560.0;
52.780633;1574560.0;
52.825069;1586672.0;
52.869477;1574560.0;
52.91398;1562448.0;
52.958314;1586672.0;
53.002677;1574560.0;
53.046923;1574560.0;
53.091292;1586672.0;
53.135803;1526112.0;
53.180022;1501888.0;
53.224045;1489776.0;
53.268402;1514000.0;
53.312738;1501888.0;
53.35674;1501888.0;
53.400656;1489776.0;
53.444682;1489776.0;
53.488795;1514000.0;
53.532497;1514000.0;
53.576352;1514000.0;
53.62073;1501888.0;
53.664566;1501888.0;
53.708639;1489776.0;
53.752753;1514000.0;
53.796888;1501888.0;
53.841004;1501888.0;
53.886158;1514000.0;
53.931126;1489776.0;
53.975637;1514000.0;
54.020332;1489776.0;
54.064691;1477664.0;
54.108849;1501888.0;
54.153061;1489776.0;
54.197296;1211200.0;
54.241621;1199088.0;
54.285986;1077968.0;
54.330284;993184.0;
54.374543;981072.0;
54.418973;1005296.0;
54.463512;993184.0;
54.508121;932624.0;
54.552543;956848.0;
54.597191;944736.0;
54.641749;932624.0;
54.686101;968960.0;
54.730681;956848.0;
54.775022;1005296.0;
54.819465;993184.0;
54.863677;993184.0;
54.90799;981072.0;
54.95231;1005296.0;
54.996364;993184.0;
55.040131;993184.0;
55.083666;993184.0;
55.127495;993520.0;
55.171013;993520.0;
55.214739;993184.0;
55.258504;993184.0;
55.302155;993184.0;
55.345938;981072.0;
55.38948;981072.0;
55.433359;981072.0;
55.477427;1005296.0;
55.521767;993184.0;
55.566298;993184.0;
55.611021;1005296.0;
55.6554;993184.0;
55.699749;993184.0;
55.743954;993184.0;
55.788218;993184.0;
55.832413;968960.0;
55.876937;884176.0;
55.921226;908400.0;
55.965599;896288.0;
56.00982;908400.0;
56.053818;932624.0;
56.098037;933184.0;
56.142531;921072.0;
56.186953;896288.0;
56.231459;932624.0;
56.276048;968960.0;
56.320534;981072.0;
56.364879;968960.0;
56.409276;968960.0;
56.45375;981072.0;
56.49827;968960.0;
56.542853;968960.0;
56.587367;981072.0;
56.631732;968960.0;
56.675964;956848.0;
56.720016;956848.0;
56.764297;981072.0;
56.808566;968960.0;
56.852888;968960.0;
56.897076;981072.0;
56.941168;968960.0;
56.985249;968960.0;
57.029198;968960.0;
57.072814;956848.0;
57.116554;968960.0;
57.160359;968960.0;
57.204158;956848.0;
57.248199;981072.0;
57.292228;981072.0;
57.336179;968960.0;
57.380337;968960.0;
57.424424;968960.0;
57.46852;944736.0;
57.512467;956848.0;
57.556631;944736.0;
57.600814;944736.0;
57.645245;932624.0;
57.689415;956848.0;
57.733798;944736.0;
57.777957;944736.0;
57.822038;932624.0;
57.866233;956848.0;
57.910442;944736.0;
57.954733;944736.0;
57.999208;932624.0;
58.043506;932624.0;
58.088063;944736.0;
58.132594;956848.0;
58.176993;945296.0;
58.221494;945296.0;
58.265952;956848.0;
58.310386;944736.0;
58.354798;932624.0;
58.399251;956848.0;
58.443741;932624.0;
58.488114;944736.0;
58.532466;956848.0;
58.576944;944736.0;
58.621423;944736.0;
58.665698;956848.0;
58.70971;944736.0;
58.754035;944736.0;
58.798186;932624.0;
58.842181;932624.0;
58.885916;956848.0;
58.929488;956848.0;
58.973282;956848.0;
59.017332;932624.0;
59.061196;944736.0;
59.105213;920512.0;
59.149379;908400.0;
59.193595;932624.0;
59.237783;920512.0;
59.282168;920512.0;
59.326624;908400.0;
59.371114;932624.0;
59.415801;920512.0;
59.46093;932624.0;
59.505396;920512.0;
59.55001;932624.0;
59.594533;908400.0;
59.638961;908400.0;
59.683461;920512.0;
59.727915;920512.0;
59.77241;908400.0;
59.816871;920512.0;
59.861152;920512.0;
59.905248;920512.0;
59.949636;932624.0;
59.993824;920512.0;
60.038083;920512.0;
60.082188;908400.0;
60.126102;920512.0;
60.170019;932624.0;
60.21428;921072.0;
60.258325;921072.0;
60.302051;920512.0;
60.345851;920512.0;
60.389441;920512.0;
60.433234;920512.0;
60.476993;908400.0;
60.520657;908400.0;
60.564602;932624.0;
60.608702;932624.0;
60.652721;920512.0;
60.696918;908400.0;
60.740889;896288.0;
60.785041;908400.0;
60.829197;932624.0;
60.873982;920512.0;
60.918304;932624.0;
60.962585;932624.0;
61.006821;920512.0;
61.050978;920512.0;
61.095458;932624.0;
61.14;920512.0;
61.184592;908400.0;
61.228995;932624.0;
61.274066;920512.0;
61.318552;932624.0;
61.363004;920512.0;
61.407441;908400.0;
61.451837;932624.0;
61.496438;920512.0;
61.540863;932624.0;
61.58532;920512.0;
61.629841;920512.0;
61.674212;932624.0;
61.718641;920512.0;
61.763101;920512.0;
61.807653;932624.0;
61.852123;920512.0;
61.89642;920512.0;
61.94086;932624.0;
61.985353;738832.0;
62.029789;375472.0;
62.073734;0.0;
62.117849;0.0;
62.162145;0.0;
62.206495;0.0;
62.250699;61120.0;
62.294764;423920.0;
62.338689;1271760.0;
62.382668;1384000.0;
62.427025;1501888.0;
62.471243;1514000.0;
62.515466;1562448.0;
62.559614;1562448.0;
62.603778;1538224.0;
62.648188;1538224.0;
62.692336;1562448.0;
62.736479;1550336.0;
62.780917;1550336.0;
62.825294;1562448.0;
62.869967;1550336.0;
62.914364;1550336.0;
62.958574;1562448.0;
63.003048;1550336.0;
63.048168;1550336.0;
63.092753;1550336.0;
63.137151;1538224.0;
63.181465;1550336.0;
63.22601;1550336.0;
63.270424;1550336.0;
63.315009;1562448.0;
63.359434;1538224.0;
63.40381;1550336.0;
63.448273;1562448.0;
63.492686;1550336.0;
63.537168;1550336.0;
63.581551;1562448.0;
63.625811;1550336.0;
63.669891;1538224.0;
63.713602;1489776.0;
63.757376;1489776.0;
63.801405;1465552.0;
63.845529;1501888.0;
63.889258;1489776.0;
63.933088;1453440.0;
63.976913;1453440.0;
64.020726;1489776.0;
64.064667;1489776.0;
64.10873;1453440.0;
64.152769;1465552.0;
64.196693;1465552.0;
64.240731;1465552.0;
64.284857;1489776.0;
64.329011;1465552.0;
64.373122;1429216.0;
64.41768;1453440.0;
64.461816;1429216.0;
64.505884;1392880.0;
64.550053;1199088.0;
64.594505;1102192.0;
64.638869;1053744.0;
64.683514;993184.0;
64.727911;981072.0;
64.772594;1005296.0;
64.817243;993184.0;
64.861719;1005296.0;
64.906287;993184.0;
64.950903;981072.0;
64.995269;993184.0;
65.039688;993184.0;
65.083889;981072.0;
65.128293;981072.0;
65.172728;968960.0;
65.217156;956848.0;
65.261547;1005296.0;
65.30598;993184.0;
65.350335;981072.0;
65.394643;993184.0;
65.438842;993184.0;
65.482937;993184.0;
65.526537;993184.0;
65.570399;993184.0;
65.614451;968960.0;
65.658433;1005296.0;
65.702292;981072.0;
65.746299;956848.0;
65.790167;968960.0;
65.833964;993184.0;
65.877923;993184.0;
65.921894;981072.0;
65.965836;981072.0;
66.009933;1005296.0;
66.053835;1005296.0;
66.097925;993184.0;
66.142671;968960.0;
66.186845;1005296.0;
66.231461;920512.0;
66.275641;908400.0;
66.320033;908400.0;
66.364289;897408.0;
66.408862;897408.0;
66.453493;932624.0;
66.498536;944736.0;
66.543042;956848.0;
66.58746;993184.0;
66.631893;981072.0;
66.676357;1005296.0;
66.721063;981072.0;
66.765537;981072.0;
66.809927;1005296.0;
66.854404;993184.0;
66.898829;981072.0;
66.94325;993184.0;
66.987729;993184.0;
67.032058;1005296.0;
67.076406;1005296.0;
67.120917;981072.0;
67.165309;1005296.0;
67.209659;993184.0;
67.253963;993184.0;
67.298133;993184.0;
67.342274;1005296.0;
67.386578;993184.0;
67.43063;993184.0;
67.474645;993184.0;
67.518649;981072.0;
67.562431;1005296.0;
67.606322;1005296.0;
67.650255;1005296.0;
67.694238;993184.0;
67.738211;981072.0;
67.782325;993184.0;
67.826729;981072.0;
67.870915;932624.0;
67.915266;944736.0;
67.959677;932624.0;
68.004085;956848.0;
68.048695;944736.0;
68.093448;956848.0;
68.13804;944736.0;
68.182409;932624.0;
68.226872;956848.0;
68.271175;944736.0;
68.31564;932624.0;
68.360004;956848.0;
68.404325;945296.0;
68.448827;945296.0;
68.49317;956848.0;
68.537461;944736.0;
68.58179;944736.0;
68.62613;956848.0;
68.670702;944736.0;
68.715129;944736.0;
68.75975;956848.0;
68.80419;944736.0;
68.848553;932624.0;
68.892955;956848.0;
68.937355;944736.0;
68.981829;945072.0;
69.026125;957184.0;
69.070514;944736.0;
69.11467;944736.0;
69.15891;956848.0;
69.20271;956848.0;
69.246731;956848.0;
69.290586;944736.0;
69.334706;944736.0;
69.378717;944736.0;
69.422527;932624.0;
69.466476;908400.0;
69.510499;932624.0;
69.554477;932624.0;
69.598397;920512.0;
69.642504;920512.0;
69.686869;908400.0;
69.731347;932624.0;
69.775493;920512.0;
69.819993;908400.0;
69.864504;932624.0;
69.909044;908400.0;
69.953342;908400.0;
69.997667;920512.0;
70.041798;908400.0;
70.086191;920512.0;
70.130615;932624.0;
70.174986;920512.0;
70.219339;920512.0;
70.263631;908400.0;
70.30826;920512.0;
70.353002;908400.0;
70.397485;932624.0;
70.441927;920512.0;
70.486411;908400.0;
70.530628;932624.0;
70.575031;908400.0;
70.619404;908400.0;
70.663897;932624.0;
70.708343;920512.0;
70.752735;908400.0;
70.79715;932624.0;
70.841369;920512.0;
70.885413;920512.0;
70.929318;908400.0;
70.973468;932624.0;
71.017417;932624.0;
71.061034;932624.0;
71.104834;932624.0;
71.148961;908400.0;
71.192967;920512.0;
71.236988;908400.0;
71.280974;908400.0;
71.325168;932624.0;
71.369224;920512.0;
71.413259;920512.0;
71.457068;908400.0;
71.501244;896288.0;
71.546442;920512.0;
71.591073;908400.0;
71.635345;932624.0;
71.67996;920512.0;
71.724551;932624.0;
71.768919;920512.0;
71.813293;920512.0;
71.857739;932624.0;
71.902268;920512.0;
71.946737;920512.0;
71.991467;932624.0;
72.035853;920512.0;
72.080268;908400.0;
72.124731;932624.0;
72.169183;920512.0;
72.213585;908400.0;
72.257997;932624.0;
72.302427;920512.0;
72.346789;666160.0;
72.391285;327024.0;
72.435698;0.0;
72.479884;0.0;
72.524152;0.0;
72.568859;254352.0;
72.613337;0.0;
72.657762;629824.0;
72.702135;1283872.0;
72.746585;1477664.0;
72.790641;1514000.0;
72.834936;1562448.0;
72.879154;1550336.0;
72.923211;1562448.0;
72.967302;1574560.0;
73.011431;1562448.0;
73.055383;1586672.0;
73.099297;1586672.0;
73.143439;1550336.0;
73.187571;1574560.0;
73.23174;1562448.0;
73.275855;1574560.0;
73.319874;1586672.0;
73.364093;1574560.0;
73.408783;1586672.0;
73.453002;1586672.0;
73.49804;1574560.0;
73.542546;1574560.0;
73.586766;1562448.0;
73.63166;1550336.0;
73.676029;1562448.0;
73.720402;1574560.0;
73.765189;1562448.0;
73.80968;1550336.0;
73.85402;1574560.0;
73.898526;1574560.0;
73.943081;1550336.0;
73.987574;1562448.0;
74.032033;1562448.0;
74.076484;1501888.0;
74.121008;1477664.0;
74.165415;1489776.0;
74.209721;1489776.0;
74.254076;1477664.0;
74.2985;1514000.0;
74.343001;1501888.0;
74.387315;1489776.0;
74.431726;1489776.0;
74.475611;1477664.0;
74.519629;1514000.0;
74.563878;1477664.0;
74.607658;1489776.0;
74.651529;1489776.0;
74.695095;1514000.0;
74.738912;1501888.0;
74.782931;1501888.0;
74.8271;1489776.0;
74.871018;1489776.0;
74.915037;1211200.0;
74.959342;1102192.0;
75.003372;1029520.0;
75.047555;981072.0;
75.091604;1005296.0;
75.136056;956848.0;
75.181487;932624.0;
75.225835;920512.0;
75.270064;896288.0;
75.314265;920512.0;
75.358462;944736.0;
75.403327;956848.0;
75.447894;944736.0;
75.492288;968960.0;
75.536755;956848.0;
75.581264;981072.0;
75.625742;1018080.0;
75.670384;1030192.0;
75.714839;1005296.0;
75.759186;1005296.0;
75.803581;1017408.0;
75.848091;1017408.0;
75.892406;1017408.0;
75.936952;1005296.0;
75.98118;1005296.0;
76.025588;1005296.0;
76.069829;993184.0;
76.113877;1017408.0;
76.158024;1005296.0;
76.202306;1017408.0;
76.246671;1005296.0;
76.290985;1005296.0;
76.335057;993184.0;
76.379239;993184.0;
76.423193;1005296.0;
76.467261;993184.0;
76.511085;1017408.0;
76.554807;1017408.0;
76.598644;956848.0;
76.642633;944736.0;
76.686612;968960.0;
76.73052;968960.0;
76.774626;932624.0;
76.819035;968960.0;
76.863515;956848.0;
76.908101;968960.0;
76.952493;956848.0;
76.996661;981072.0;
77.041042;956848.0;
77.085637;956848.0;
77.129833;968960.0;
77.174301;956848.0;
77.218619;968960.0;
77.26293;981072.0;
77.307328;944736.0;
77.35157;944736.0;
77.395815;920512.0;
77.440232;944736.0;
77.484709;932624.0;
77.529062;920512.0;
77.573556;920512.0;
77.617801;968960.0;
77.662201;957184.0;
77.7067;957184.0;
77.751188;968960.0;
77.795359;944736.0;
77.839757;956848.0;
77.884105;956848.0;
77.928492;956848.0;
77.972518;944736.0;
78.016369;944736.0;
78.060203;981072.0;
78.104076;956848.0;
78.147747;956848.0;
78.19154;944736.0;
78.235377;932624.0;
78.27887;932624.0;
78.322416;932624.0;
78.366054;920512.0;
78.409656;908400.0;
78.45323;920512.0;
78.497238;944736.0;
78.541189;944736.0;
78.585216;932624.0;
78.629541;956848.0;
78.673892;932624.0;
78.718536;920512.0;
78.762778;944736.0;
78.80711;908400.0;
78.851453;932624.0;
78.895683;920512.0;
78.939757;932624.0;
78.98435;932624.0;
79.028479;944736.0;
79.072788;944736.0;
79.117239;932624.0;
79.1616;932624.0;
79.20586;932624.0;
79.250103;920512.0;
79.294463;944736.0;
79.338862;932624.0;
79.383316;956848.0;
79.4281;944736.0;
79.472613;956848.0;
79.516949;932624.0;
79.56119;932624.0;
79.605515;932624.0;
79.649892;944736.0;
79.694354;932624.0;
79.738626;920512.0;
79.782883;932624.0;
79.827263;920512.0;
79.871526;920512.0;
79.91583;908400.0;
79.960155;920512.0;
80.004313;920512.0;
80.048159;920512.0;
80.092109;896288.0;
80.135938;896288.0;
80.180133;920512.0;
80.224301;920512.0;
80.268319;920512.0;
80.312381;920512.0;
80.356475;908400.0;
80.400176;932624.0;
80.444051;932624.0;
80.488028;920512.0;
80.532068;896288.0;
80.575853;908400.0;
80.62029;896288.0;
80.66454;896288.0;
80.708729;872064.0;
80.75332;896288.0;
80.798145;908400.0;
80.842288;920512.0;
80.886718;908400.0;
80.931093;932624.0;
80.975597;908400.0;
81.01994;896288.0;
81.064223;920512.0;
81.108609;896288.0;
81.152875;908400.0;
81.197179;896288.0;
81.24163;896288.0;
81.285936;932624.0;
81.330398;920512.0;
81.374882;908400.0;
81.419416;920512.0;
81.463727;908400.0;
81.508137;908400.0;
81.552401;932624.0;
81.596352;920512.0;
81.640681;920512.0;
81.684988;896288.0;
81.729106;920512.0;
81.773126;920512.0;
81.817119;884176.0;
81.860898;932624.0;
81.904738;932624.0;
81.948411;920512.0;
81.99214;920512.0;
82.035886;908400.0;
82.079427;884176.0;
82.12315;884176.0;
82.166658;884176.0;
82.210404;932624.0;
82.25415;896288.0;
82.298117;908400.0;
82.34193;932624.0;
82.385842;908400.0;
82.430324;920512.0;
82.474712;908400.0;
82.519066;932624.0;
82.563063;920512.0;
82.607218;920512.0;
82.65125;896288.0;
82.695442;484480.0;
82.739744;133232.0;
82.784044;0.0;
82.828627;0.0;
82.872741;0.0;
82.916861;145344.0;
82.961152;24224.0;
83.005291;1114304.0;
83.049341;1320208.0;
83.093591;1538224.0;
83.137912;1526112.0;
83.182121;1526112.0;
83.226562;1501888.0;
83.27104;1526112.0;
83.315527;1526112.0;
83.359893;1538224.0;
83.404485;1526112.0;
83.448992;1514000.0;
83.493407;1538224.0;
83.537918;1526112.0;
83.582254;1501888.0;
83.626603;1538224.0;
83.670839;1514000.0;
83.714964;1526112.0;
83.758879;1514000.0;
83.802497;1514000.0;
83.846347;1514000.0;
83.890048;1538224.0;
83.933586;1514000.0;
83.977128;1514000.0;
84.021007;1538224.0;
84.064747;1538224.0;
84.108107;1538224.0;
84.15197;1465552.0;
84.195796;1453440.0;
84.239679;1465552.0;
84.284011;1453440.0;
84.328183;1441328.0;
84.372223;1384000.0;
84.416258;1384000.0;
84.460506;1404992.0;
84.504849;1404992.0;
84.549037;1384000.0;
84.593062;1384000.0;
84.63723;1404992.0;
84.681602;1404992.0;
84.725736;1392880.0;
84.769753;1384000.0;
84.813681;1404992.0;
84.857856;1392880.0;
84.901947;1404992.0;
84.945901;1404992.0;
84.990095;1384000.0;
85.034211;1404992.0;
85.078439;1404992.0;
85.12259;1404992.0;
85.166536;1150640.0;
85.210682;1126416.0;
85.25481;993184.0;
85.298896;944736.0;
85.34303;944736.0;
85.387031;920512.0;
85.431095;968960.0;
85.474724;1005296.0;
85.518492;1005296.0;
85.561865;1005296.0;
85.605649;981072.0;
85.649503;981072.0;
85.693725;968960.0;
85.73767;968960.0;
85.781681;981072.0;
85.825847;1005296.0;
85.870052;981072.0;
85.914668;981072.0;
85.958895;981072.0;
86.003073;1005296.0;
86.047484;993184.0;
86.091801;981072.0;
86.136048;1005296.0;
86.180612;993184.0;
86.22524;981072.0;
86.269974;1005296.0;
86.31449;993184.0;
86.358959;1005296.0;
86.403627;993184.0;
86.448086;981072.0;
86.492834;968960.0;
86.537225;956848.0;
86.581592;981072.0;
86.626013;993184.0;
86.670224;993184.0;
86.714548;981072.0;
86.758929;1005296.0;
86.803364;968960.0;
86.847595;908400.0;
86.89196;932624.0;
86.936068;920512.0;
86.980356;944736.0;
87.024331;944736.0;
87.06835;932624.0;
87.112584;956848.0;
87.156581;944736.0;
87.200382;944736.0;
87.244497;956848.0;
87.288586;944736.0;
87.332736;981072.0;
87.376948;956848.0;
87.421112;944736.0;
87.465233;944736.0;
87.509413;956848.0;
87.553877;944736.0;
87.598791;944736.0;
87.643651;932624.0;
87.688099;944736.0;
87.732259;944736.0;
87.777017;944736.0;
87.821312;932624.0;
87.865495;956848.0;
87.909518;956848.0;
87.95394;944736.0;
87.998765;956848.0;
88.043325;944736.0;
88.087723;944736.0;
88.132185;956848.0;
88.176869;944736.0;
88.221348;920512.0;
88.265816;956848.0;
88.310313;944736.0;
88.354731;932624.0;
88.399096;944736.0;
88.443534;920512.0;
88.487806;908400.0;
88.532225;932624.0;
88.57663;920512.0;
88.620965;908400.0;
88.666981;908400.0;
88.711209;932624.0;
88.75555;920512.0;
88.799612;908400.0;
88.843732;932624.0;
88.888082;944736.0;
88.932317;944736.0;
88.97635;944736.0;
89.020519;932624.0;
89.064682;956848.0;
89.108806;956848.0;
89.152882;944736.0;
89.196902;944736.0;
89.241015;932624.0;
89.285375;956848.0;
89.329481;944736.0;
89.373837;944736.0;
89.417901;932624.0;
89.462696;944736.0;
89.507482;932624.0;
89.55209;956848.0;
89.596892;944736.0;
89.641662;956848.0;
89.686135;944736.0;
89.730368;932624.0;
89.774819;956848.0;
89.819117;944736.0;
89.863639;932624.0;
89.908042;956848.0;
89.952383;944736.0;
89.996814;932624.0;
90.04107;932624.0;
90.085502;920512.0;
90.129871;908400.0;
90.174251;932624.0;
90.218849;920512.0;
90.263308;908400.0;
90.307688;932624.0;
90.352128;908400.0;
90.39654;908400.0;
90.440708;932624.0;
90.484928;920512.0;
90.528893;920512.0;
90.572781;920512.0;
90.616922;908400.0;
90.660859;932624.0;
90.704671;932624.0;
90.748496;920512.0;
90.792599;920512.0;
90.836727;920512.0;
90.880971;908400.0;
90.925043;932624.0;
90.969249;932624.0;
91.013342;920512.0;
91.057665;920512.0;
91.102402;932624.0;
91.146808;920512.0;
91.19169;920512.0;
91.236142;908400.0;
91.280997;920512.0;
91.32558;920512.0;
91.369792;908400.0;
91.414582;932624.0;
91.458736;920512.0;
91.50305;920512.0;
91.547271;908400.0;
91.591844;932624.0;
91.636406;920512.0;
91.680896;932624.0;
91.725381;920512.0;
91.769831;920512.0;
91.814165;920512.0;
91.858616;920512.0;
91.902992;920512.0;
91.947446;932624.0;
91.991817;920512.0;
92.036031;920512.0;
92.080115;908400.0;
92.124335;932624.0;
92.168619;920512.0;
92.212724;920512.0;
92.256594;920512.0;
92.300311;920512.0;
92.344399;932624.0;
92.388496;920512.0;
92.432415;932624.0;
92.47638;920512.0;
92.520302;920512.0;
92.563942;920512.0;
92.607603;920512.0;
92.651491;920512.0;
92.695449;908400.0;
92.739289;908400.0;
92.783786;920512.0;
92.828347;920512.0;
92.872463;908400.0;
92.91687;932624.0;
92.961613;908400.0;
93.005821;738832.0;
93.050079;339136.0;
93.094528;0.0;
93.138908;0.0;
93.183204;12112.0;
93.227486;0.0;
93.27184;36336.0;
93.316068;484480.0;
93.360252;1283872.0;
93.404199;1404992.0;
93.448619;1489776.0;
93.49283;1501888.0;
93.537109;1501888.0;
93.581272;1501888.0;
93.625631;1514000.0;
93.669951;1489776.0;
93.714011;1514000.0;
93.757616;1514000.0;
93.801706;1465552.0;
93.84541;1489776.0;
93.889315;1514000.0;
93.933176;1514000.0;
93.976973;1501888.0;
94.020858;1501888.0;
94.064407;1501888.0;
94.108109;1489776.0;
94.152047;1501888.0;
94.195741;1501888.0;
94.239683;1501888.0;
94.283421;1514000.0;
94.327463;1514000.0;
94.371326;1477664.0;
94.415104;1489776.0;
94.458767;1489776.0;
94.502899;1514000.0;
94.546875;1501888.0;
94.590946;1465552.0;
94.634957;1477664.0;
94.67877;1404992.0;
94.722777;1380768.0;
94.766969;1392880.0;
94.81093;1356544.0;
94.8549;1380768.0;
94.899023;1404992.0;
94.942948;1380768.0;
94.986637;1380768.0;
95.030626;1392880.0;
95.074968;1404992.0;
95.119237;1404992.0;
95.163486;1380768.0;
95.20775;1380768.0;
95.251737;1392880.0;
95.296044;1392880.0;
95.339902;1404992.0;
95.383957;1392880.0;
95.427856;1368656.0;
95.472027;1271760.0;
95.516188;1126416.0;
95.560124;993184.0;
95.604125;956848.0;
95.648152;968960.0;
95.69205;981072.0;
95.736171;968960.0;
95.780364;993184.0;
95.824492;993184.0;
95.868314;968960.0;
95.912415;1017408.0;
95.956469;1041632.0;
96.000329;1005296.0;
96.044259;1017408.0;
96.088205;1017408.0;
96.132172;1029520.0;
96.176396;1017408.0;
96.220554;1005296.0;
96.264788;1029520.0;
96.309103;1053744.0;
96.35313;1041632.0;
96.397169;1041632.0;
96.441311;1017408.0;
96.485608;1041632.0;
96.529967;1029520.0;
96.574306;1017408.0;
96.618689;1017408.0;
96.662855;1041632.0;
96.707183;1017408.0;
96.751544;993184.0;
96.79634;1017408.0;
96.841025;1017408.0;
96.885243;1041632.0;
96.929534;1017408.0;
96.973947;1041632.0;
97.018471;1029520.0;
97.062719;1029520.0;
97.107015;1029520.0;
97.151492;1041632.0;
97.19585;968960.0;
97.240293;944736.0;
97.284841;932624.0;
97.329218;896288.0;
97.373627;920512.0;
97.418018;932624.0;
97.462329;944736.0;
97.506668;932624.0;
97.5507;920512.0;
97.594642;932624.0;
97.638669;993184.0;
97.682534;981072.0;
97.726496;981072.0;
97.770015;981072.0;
97.813866;981072.0;
97.857536;1005296.0;
97.901514;1005296.0;
97.945541;993184.0;
97.989701;993184.0;
98.033876;981072.0;
98.077971;1005296.0;
98.122045;993184.0;
98.166356;981072.0;
98.210795;956848.0;
98.255286;968960.0;
98.300052;993184.0;
98.344281;981072.0;
98.38867;1005296.0;
98.433289;993184.0;
98.477591;981072.0;
98.521975;993184.0;
98.566177;981072.0;
98.610338;981072.0;
98.654928;993184.0;
98.699672;993184.0;
98.74418;981072.0;
98.78866;981072.0;
98.833083;956848.0;
98.877396;944736.0;
98.921631;920512.0;
98.966006;932624.0;
99.010515;932624.0;
99.05495;944736.0;
99.09947;944736.0;
99.143828;956848.0;
99.187915;956848.0;
99.231984;944736.0;
99.27568;944736.0;
99.319871;944736.0;
99.363366;944736.0;
99.407217;932624.0;
99.451053;932624.0;
99.494528;944736.0;
99.538127;932624.0;
99.581733;932624.0;
99.625337;932624.0;
99.668986;944736.0;
99.712677;944736.0;
99.756577;932624.0;
99.800609;956848.0;
99.844674;932624.0;
99.888792;932624.0;
99.93283;932624.0;
99.977084;944736.0;
100.021287;932624.0;
100.065513;932624.0;
100.1099;944736.0;
100.154068;944736.0;
100.19837;945072.0;
100.242719;957184.0;
100.287078;944736.0;
100.331431;944736.0;
100.375679;956848.0;
100.420101;920512.0;
100.464374;896288.0;
100.508575;896288.0;
100.552981;908400.0;
100.597219;884176.0;
100.641221;908400.0;
100.685484;896288.0;
100.729684;908400.0;
100.774152;896288.0;
100.818558;908400.0;
100.863073;932624.0;
100.907501;944736.0;
100.951763;920512.0;
100.996309;956848.0;
101.040819;944736.0;
101.08481;944736.0;
101.129116;920512.0;
101.173295;944736.0;
101.217399;944736.0;
101.26143;944736.0;
101.305219;944736.0;
101.349009;932624.0;
101.392716;932624.0;
101.436255;932624.0;
101.47981;932624.0;
101.523611;932624.0;
101.567163;932624.0;
101.610581;932624.0;
101.654302;932624.0;
101.698439;944736.0;
101.742489;956848.0;
101.786657;932624.0;
101.830709;944736.0;
101.874801;920512.0;
101.919438;920512.0;
101.963687;932624.0;
102.007822;908400.0;
102.052032;908400.0;
102.096673;908400.0;
102.140887;920512.0;
102.186275;932624.0;
102.23101;908736.0;
102.275382;932960.0;
102.319636;920512.0;
102.36407;896288.0;
102.408517;920512.0;
102.453069;908400.0;
102.497632;896288.0;
102.54199;896288.0;
102.58643;908400.0;
102.630708;908400.0;
102.675093;932624.0;
102.719664;944736.0;
102.764145;932624.0;
102.808714;944736.0;
102.853178;944736.0;
102.897661;944736.0;
102.942034;932624.0;
102.986409;932624.0;
103.030848;920512.0;
103.07528;908400.0;
103.119535;932624.0;
103.163918;920512.0;
103.208095;956848.0;
103.252351;944736.0;
103.296623;944736.0;
103.340694;666160.0;
103.384452;272000.0;
103.428396;0.0;
103.472416;0.0;
103.516667;12112.0;
103.560661;12112.0;
103.604444;0.0;
103.648231;496592.0;
103.692058;1150640.0;
103.73561;1247536.0;
103.779515;1332320.0;
103.823571;1332320.0;
103.867339;1332320.0;
103.911458;1320208.0;
103.955549;1344432.0;
103.999618;1344432.0;
104.043693;1332320.0;
104.087819;1332320.0;
104.1323;1308096.0;
104.176931;1332320.0;
104.221487;1332320.0;
104.266375;1344432.0;
104.31151;1332320.0;
104.35671;1332320.0;
104.40081;1308096.0;
104.445093;1344432.0;
104.489375;1332320.0;
104.533839;1283872.0;
104.578173;1295984.0;
104.622344;1283872.0;
104.666749;1283872.0;
104.711204;1271760.0;
104.755566;1295984.0;
104.800144;1283872.0;
104.844493;1271760.0;
104.889116;1283872.0;
104.933847;1259648.0;
104.978244;1295984.0;
105.02276;1271760.0;
105.067186;1271760.0;
105.111531;1295984.0;
105.155741;1283872.0;
105.200113;1283872.0;
105.244362;1259648.0;
105.288297;1283872.0;
105.332452;1283872.0;
105.376795;1283872.0;
105.420795;1271760.0;
105.464896;1271760.0;
105.508877;1295984.0;
105.552633;1271760.0;
105.59662;1259648.0;
105.640129;1138528.0;
105.684031;1065856.0;
105.727962;993184.0;
105.771541;968960.0;
105.815371;956848.0;
105.859488;956848.0;
105.903532;981072.0;
105.947579;968960.0;
105.991792;968960.0;
106.035824;956848.0;
106.08061;981072.0;
106.124947;968960.0;
106.169248;968960.0;
106.213442;981072.0;
106.257702;956848.0;
106.302079;968960.0;
106.346375;956848.0;
106.390663;981072.0;
106.435383;968960.0;
106.479764;981072.0;
106.524192;968960.0;
106.568608;968960.0;
106.613186;981072.0;
106.65756;968960.0;
106.701887;956848.0;
106.746354;981072.0;
106.79086;968960.0;
106.835613;968960.0;
106.880226;981072.0;
106.924811;968960.0;
106.969274;944736.0;
107.01374;968960.0;
107.058131;968960.0;
107.10252;956848.0;
107.146889;968960.0;
107.191255;956848.0;
107.235583;981072.0;
107.280001;944736.0;
107.324268;944736.0;
107.368436;932624.0;
107.412856;956848.0;
107.456737;944736.0;
107.500626;944736.0;
107.54457;932624.0;
107.588663;944736.0;
107.632405;932624.0;
107.676323;932624.0;
107.720286;968960.0;
107.764176;981072.0;
107.808082;968960.0;
107.85195;968960.0;
107.895804;968960.0;
107.939998;968960.0;
107.983974;981072.0;
108.028066;981072.0;
108.07214;968960.0;
108.116704;968960.0;
108.161298;981072.0;
108.20554;968960.0;
108.250336;968960.0;
108.294845;981072.0;
108.339247;968960.0;
108.383473;957184.0;
108.428313;969296.0;
108.472734;968960.0;
108.517434;981072.0;
108.561749;968960.0;
108.606186;968960.0;
108.650689;968960.0;
108.69513;968960.0;
108.739504;944736.0;
108.783884;981072.0;
108.828096;956848.0;
108.87247;968960.0;
108.916756;981072.0;
108.961141;981072.0;
109.005466;968960.0;
109.049477;956848.0;
109.093026;956848.0;
109.136737;968960.0;
109.180654;956848.0;
109.224227;956848.0;
109.267997;981072.0;
109.311661;968960.0;
109.355277;981072.0;
109.398697;981072.0;
109.442722;981072.0;
109.486478;981072.0;
109.530464;968960.0;
109.574242;968960.0;
109.617846;968960.0;
109.661823;968960.0;
109.705648;968960.0;
109.749425;956848.0;
109.793598;981072.0;
109.837487;981072.0;
109.881619;968960.0;
109.92573;956848.0;
109.969845;968960.0;
110.014062;981072.0;
110.058268;981072.0;
110.10269;968960.0;
110.146686;968960.0;
110.191553;981072.0;
110.235983;968960.0;
110.280467;981072.0;
110.324952;968960.0;
110.369305;968960.0;
110.413492;956848.0;
110.458351;968960.0;
110.502926;968960.0;
110.547399;981072.0;
110.591685;968960.0;
110.635966;968960.0;
110.680368;981072.0;
110.724838;956848.0;
110.769532;968960.0;
110.814133;981072.0;
110.85863;968960.0;
110.903056;956848.0;
110.947525;968960.0;
110.992041;968960.0;
111.036515;981072.0;
111.080885;968960.0;
111.125296;968960.0;
111.169696;944736.0;
111.213884;968960.0;
111.258226;968960.0;
111.302642;956848.0;
111.346932;981072.0;
111.391323;968960.0;
111.435417;968960.0;
111.479398;956848.0;
111.523388;981072.0;
111.567503;981072.0;
111.611524;968960.0;
111.655447;968960.0;
111.699212;956848.0;
111.743162;956848.0;
111.787262;956848.0;
111.83118;981072.0;
111.87532;968960.0;
111.919464;968960.0;
111.963542;956848.0;
112.007599;956848.0;
112.051637;981072.0;
112.09578;981072.0;
112.140092;968960.0;
112.184349;956848.0;
112.228935;981072.0;
112.273217;968960.0;
112.317586;944736.0;
112.361971;981072.0;
112.406249;968960.0;
112.45027;968960.0;
112.494608;956848.0;
112.538888;981072.0;
112.583051;968960.0;
112.627387;956848.0;
112.671824;981072.0;
112.716229;968960.0;
112.760736;968960.0;
112.80513;981072.0;
112.849573;968960.0;
112.894284;956848.0;
112.938463;981072.0;
112.982934;968960.0;
113.027245;956848.0;
113.071299;981072.0;
113.11543;981072.0;
113.159393;968960.0;
113.203009;968960.0;
113.246671;968960.0;
113.290166;968960.0;
113.333784;981072.0;
113.377305;981072.0;
113.421172;968960.0;
113.465141;968960.0;
113.508968;968960.0;
113.552404;968960.0;
113.596033;956848.0;
113.63945;823616.0;
113.683257;436032.0;
113.727559;84784.0;
113.771897;12112.0;
113.816024;0.0;
113.860118;0.0;
113.90415;133232.0;
113.948267;121120.0;
113.992414;1320208.0;
114.036567;1380768.0;
114.080557;1465552.0;
114.124443;1514000.0;
114.168741;1514000.0;
114.212924;1538224.0;
114.257875;1514000.0;
114.302273;1526112.0;
114.346683;1514000.0;
114.391201;1538224.0;
114.43578;1489776.0;
114.48016;1514000.0;
114.525105;1526112.0;
114.569964;1501888.0;
114.614391;1526112.0;
114.658878;1526112.0;
114.703263;1514000.0;
114.747709;1538224.0;
114.792149;1526112.0;
114.8366;1501888.0;
114.881099;1526112.0;
114.925434;1514000.0;
114.969825;1501888.0;
115.014167;1538224.0;
115.058477;1526112.0;
115.102617;1526112.0;
115.146658;1514000.0;
115.190775;1526112.0;
115.235066;1501888.0;
115.279314;1489776.0;
115.323363;1514000.0;
115.367513;1489776.0;
115.411568;1489776.0;
115.455722;1465552.0;
115.499857;1466112.0;
115.543974;1454000.0;
115.587893;1490336.0;
115.631952;1465552.0;
115.675933;1453440.0;
115.72007;1477664.0;
115.764406;1441328.0;
115.808913;1453440.0;
115.853046;1441328.0;
115.897436;1453440.0;
115.942214;1489776.0;
115.987252;1477664.0;
116.032394;1429216.0;
116.076797;1453440.0;
116.121068;1477664.0;
116.166115;1344432.0;
116.210387;1223312.0;
116.254931;1065856.0;
116.299383;993184.0;
116.3439;956848.0;
116.38845;956848.0;
116.432894;944736.0;
116.477423;968960.0;
116.521773;981072.0;
116.566254;968960.0;
116.61067;956848.0;
116.65502;993184.0;
116.69935;981072.0;
116.743488;981072.0;
116.787544;981072.0;
116.831554;981072.0;
116.875738;981072.0;
116.919739;968960.0;
116.963838;1005296.0;
117.007593;981072.0;
117.051595;981072.0;
117.095611;993184.0;
117.139629;968960.0;
117.183627;993184.0;
117.227682;981072.0;
117.271713;1005296.0;
117.315786;1005296.0;
117.359741;993184.0;
117.403898;993184.0;
117.447839;981072.0;
117.492038;1005296.0;
117.536216;981072.0;
117.580391;981072.0;
117.624706;968960.0;
117.668925;993184.0;
117.713315;993184.0;
117.758133;993184.0;
117.802591;981072.0;
117.847179;968960.0;
117.891484;920512.0;
117.935995;908400.0;
117.980266;908400.0;
118.024538;896288.0;
118.069008;896288.0;
118.113539;908400.0;
118.158038;908400.0;
118.202476;896288.0;
118.246931;944736.0;
118.291487;981072.0;
118.335934;956848.0;
118.380457;944736.0;
118.424923;968960.0;
118.469249;956848.0;
118.513612;956848.0;
118.558075;956848.0;
118.602349;944736.0;
118.646737;968960.0;
118.691165;956848.0;
118.735574;956848.0;
118.779772;956848.0;
118.823887;944736.0;
118.868292;968960.0;
118.912585;956848.0;
118.95679;956848.0;
119.000875;956848.0;
119.0451;956848.0;
119.088892;944736.0;
119.132783;944736.0;
119.176636;956848.0;
119.220487;956848.0;
119.264656;944736.0;
119.308801;968960.0;
119.352917;956848.0;
119.397331;968960.0;
119.441881;944736.0;
119.486042;932624.0;
119.530225;944736.0;
119.574306;944736.0;
119.618513;920512.0;
119.663451;932624.0;
119.708929;944736.0;
119.753527;932624.0;
119.797929;920512.0;
119.842333;908400.0;
119.886766;944736.0;
119.931294;932624.0;
119.975754;848368.0;
120.020142;416000.0;
120.06462;0.0;
120.109046;0.0;
120.153359;0.0;
120.197717;0.0;
120.241985;0.0;
120.286092;0.0;
120.330232;0.0;
120.374489;0.0;
120.418735;0.0;
120.46294;0.0;
120.507209;0.0;
120.551502;0.0;
120.595627;0.0;
120.639802;0.0;
120.683714;0.0;
120.727249;0.0;
120.771421;0.0;
120.815883;0.0;
120.859868;0.0;
120.904077;0.0;
120.947282;0.0;
120.990914;0.0;
121.034854;0.0;
121.07908;0.0;
121.12282;0.0;
121.166798;0.0;
121.210397;0.0;
121.253563;0.0;
121.297353;0.0;
121.341164;0.0;
121.385157;0.0;
121.428673;0.0;
121.472077;0.0;
121.515883;0.0;
121.558617;0.0;
121.601185;0.0;
121.644104;0.0;
121.686668;0.0;
121.729736;0.0;
121.772454;0.0;
121.815005;0.0;
121.85826;0.0;
121.901987;0.0;
121.945735;0.0;
121.989558;0.0;
122.033555;0.0;
122.077643;0.0;
122.121859;0.0;
122.165977;0.0;
122.210068;0.0;
122.253866;0.0;
122.297719;0.0;
122.341559;0.0;
