Sending Rate;Sending Rate;Throughtput;Throughtput;
0;1.0;0;1.0;
0.2;0.900238599793;0.2;0.974569472696;
0.4;0.87663995214;0.4;0.98623437783;
0.6;0.808632845953;0.6;0.883961728947;
0.8;0.657282502444;0.8;0.714061209012;
1.0;0.802880594703;1.0;0.783115202071;
1.2;0.808415990382;1.2;0.860869565217;
1.4;0.698345517507;1.4;0.768308169889;
1.6;0.863513750219;1.6;0.778858532399;
1.8;0.903475409836;1.8;0.874979913225;
2.0;0.778190653137;2.0;0.826377295492;
2.2;0.849969154843;2.2;0.774647887324;
2.4;0.872577580747;2.4;0.893941881464;
2.6;0.795006570302;2.6;0.922530967526;
2.8;0.744971952387;2.8;0.776858325011;
3.0;0.823378194465;3.0;0.827885053976;
3.2;0.751923485654;3.2;0.866900175131;
3.4;0.745642235658;3.4;0.826377295492;
3.6;0.818920138367;3.6;0.835507135185;
3.8;0.960893687209;3.8;0.807983380323;
4.0;0.961084634347;4.0;0.957446808511;
4.2;0.785398047573;4.2;0.983029427695;
4.4;0.708112225467;4.4;0.725730840137;
4.6;0.802676644121;4.6;0.685336689742;
4.8;0.961165048544;4.8;0.887241323122;
5.0;0.721472392638;5.0;0.981965734896;
5.2;0.649661835749;5.2;0.694781166263;
5.4;0.887241323122;5.4;0.668180144803;
5.6;0.983384504244;5.6;0.964570416298;
5.8;0.679053721045;5.8;0.900148784923;
6.0;0.689502342662;6.0;0.687760515347;
6.2;0.905123966942;6.2;0.708892071345;
6.4;0.90376344086;6.4;0.915895710681;
6.6;0.669911914696;6.6;0.895256660169;
6.8;0.634849785408;6.8;0.638410130144;
7.0;0.736827516694;7.0;0.64232629468;
7.2;0.886076371519;7.2;0.807264640474;
7.4;0.557699729834;7.4;0.881495871782;
7.6;0.636023828992;7.6;0.580181140117;
7.8;0.740354648039;7.8;0.600927049994;
8.0;0.860325485859;8.0;0.888979591837;
8.2;0.598783137766;8.2;0.709657481329;
8.4;0.591269410359;8.4;0.580428525744;
8.6;0.90255033557;8.6;0.674804808526;
8.8;0.661111769586;8.8;0.897774113768;
9.0;0.568866328257;9.0;0.539910758552;
9.2;0.677505567929;9.2;0.591269410359;
9.4;0.834846818539;9.4;0.805354237539;
9.6;0.54613003096;9.6;0.81475385306;
9.8;0.582426440951;9.8;0.546851461284;
10.0;0.663360616273;10.0;0.543939992104;
10.2;0.61940463065;10.2;0.791769667006;
10.4;0.889230769231;10.4;0.635286704474;
10.6;0.465407922434;10.6;0.651241736645;
10.8;0.864477423429;10.8;0.775972637879;
11.0;0.791780821918;11.0;0.772011909826;
11.2;0.755505617978;11.2;0.790849673203;
11.4;0.748247904356;11.4;0.790849673203;
11.6;0.76147440273;11.6;0.790849673203;
11.8;0.771986222732;11.8;0.791384261918;
12.0;0.777978543196;12.0;0.790849673203;
12.2;0.772383861116;12.2;0.790849673203;
12.4;0.778665003119;12.4;0.790849673203;
12.6;0.754571592869;12.6;0.768525052929;
12.8;0.877603686636;12.8;0.785827680762;
13.0;0.830928512736;13.0;0.687066246057;
13.2;0.646290801187;13.2;0.86414854785;
13.4;0.890909090909;13.4;0.784469096672;
13.6;0.821378187737;13.6;0.738906228796;
13.8;0.731030640669;13.8;0.888399412628;
14.0;0.91052299937;14.0;0.891491426723;
14.2;0.936616702355;14.2;0.772449992907;
14.4;0.824852824185;14.4;0.890724685097;
14.6;0.860325485859;14.6;0.9177481881;
14.8;0.91167192429;14.8;0.823378194465;
15.0;0.854346338125;15.0;0.831932773109;
15.2;0.804561003421;15.2;0.929656820898;
15.4;0.93779637378;15.4;0.903134848234;
15.6;0.916014480262;15.6;0.79849319038;
15.8;0.788440629471;15.8;0.938631270471;
16.0;0.931565440547;16.0;0.903134848234;
16.2;0.892208720515;16.2;0.812565288763;
16.4;0.848892851835;16.4;0.946462715105;
16.6;0.943697340162;16.6;0.89364844904;
16.8;0.89642160052;16.8;0.894823336072;
17.0;0.891215403129;17.0;0.930292157868;
17.2;0.92885928393;17.2;0.907953976988;
17.4;0.900133868809;17.4;0.911544823023;
17.6;0.916699933466;17.6;0.931565440547;
17.8;0.929978738483;17.8;0.869669381888;
18.0;0.865996228787;18.0;0.935406287579;
18.2;0.930013831259;18.2;0.947121238476;
18.4;0.939195637355;18.4;0.880355699272;
18.6;0.881509916827;18.6;0.938631270471;
18.8;0.941736694678;18.8;0.924605196128;
19.0;0.924077800134;19.0;0.892935839274;
19.2;0.912347354138;19.2;0.915895710681;
19.4;0.924896836314;19.4;0.870782024628;
19.6;0.869857697283;19.6;0.919608174295;
19.8;0.908239947264;19.8;0.916512371655;
20.0;0.909878213802;20.0;0.889560529325;
20.2;0.889560529325;20.2;0.915895710681;
20.4;0.91604532764;20.4;0.885509838998;
20.6;0.920730593607;20.6;0.921297225008;
20.8;0.965714285714;20.8;0.81878945414;
21.0;0.680993832291;21.0;0.720625639526;
21.2;0.855028901734;21.2;0.837821203262;
21.4;0.832753486914;21.4;0.831502715751;
21.6;0.859782093794;21.6;0.837048424289;
21.8;0.848172386273;21.8;0.826377295492;
22.0;0.852946509519;22.0;0.837048424289;
22.2;0.82748603352;22.2;0.828388863533;
22.4;0.829398324448;22.4;0.828388863533;
22.6;0.838843226788;22.6;0.828388863533;
22.8;0.837048424289;22.8;0.837048424289;
23.0;0.840658123715;23.0;0.831502715751;
23.2;0.95663292488;23.2;0.837048424289;
23.4;0.888976689056;23.4;0.949102318285;
23.6;0.969368473396;23.6;0.776858325011;
23.8;0.79573964497;23.8;0.90343454455;
24.0;0.898959881129;24.0;0.941878567722;
24.2;0.938865510857;24.2;0.794542536116;
24.4;0.794542536116;24.4;0.913437342728;
24.6;0.913437342728;24.6;0.935369993211;
24.8;0.944708423326;24.8;0.808703401158;
25.0;0.827050583658;25.0;0.93572778828;
25.2;0.931340791451;25.2;0.907348775204;
25.4;0.905851413544;25.4;0.890142226582;
25.6;0.899881456393;25.6;0.947450843919;
25.8;0.956905129525;25.8;0.864422924274;
26.0;0.870372710044;26.0;0.919297653216;
26.2;0.923626373626;26.2;0.955430777329;
26.4;0.94253072529;26.4;0.877859190825;
26.6;0.884306873024;26.6;0.955095597264;
26.8;0.955095597264;26.8;0.936693617753;
27.0;0.927756006134;27.0;0.890142226582;
27.2;0.904334828102;27.2;0.951424078281;
27.4;0.961479413817;27.4;0.899851264254;
27.6;0.913437342728;27.6;0.929974380871;
27.8;0.943311347878;27.8;0.936371453138;
28.0;0.934705364996;28.0;0.878084179971;
28.2;0.877298992901;28.2;0.930928363823;
28.4;0.939927498705;28.4;0.921297225008;
28.6;0.924605196128;28.6;0.936371453138;
28.8;0.954803788904;28.8;0.936371453138;
29.0;0.930928363823;29.0;0.891891891892;
29.2;0.885509838998;29.2;0.919608174295;
29.4;0.912213101022;29.4;0.922412332712;
29.6;0.926489838099;29.6;0.932203389831;
29.8;0.933785157574;29.8;0.938631270471;
30.0;0.924896836314;30.0;0.922530967526;
30.2;0.912448879437;30.2;0.940252115351;
30.4;0.930013831259;30.4;0.930928363823;
30.6;0.922359396433;30.6;0.92523364486;
30.8;0.918987341772;30.8;0.941878567722;
31.0;0.876045627376;31.0;0.934122490993;
31.2;0.88401826484;31.2;0.88893360161;
31.4;0.891945313787;31.4;0.787162567487;
31.6;0.872577580747;31.6;0.878084179971;
31.8;0.870971971808;31.8;0.878084179971;
32.0;0.870971971808;32.0;0.878084179971;
32.2;0.872577580747;32.2;0.859782093794;
32.4;0.878084179971;32.4;0.859782093794;
32.6;0.85819644653;32.6;0.859782093794;
32.8;0.881228014071;32.8;0.813821618429;
33.0;0.854184748915;33.0;0.819413092551;
33.2;0.80892068808;33.2;0.819413092551;
33.4;0.892735703246;33.4;0.812565288763;
33.6;0.762369895917;33.6;0.875261212024;
33.8;0.839412196914;33.8;0.968688845401;
34.0;0.97096546864;34.0;0.760368663594;
34.2;0.744157441574;34.2;0.89364844904;
34.4;0.89642160052;34.4;0.956773853453;
34.6;0.944675555556;34.6;0.745361103598;
34.8;0.750844686649;34.8;0.939278937381;
35.0;0.945641729581;35.0;0.916512371655;
35.2;0.930797912006;35.2;0.80392735863;
35.4;0.846532098953;35.4;0.955766192733;
35.6;0.961410512309;35.6;0.859239387723;
35.8;0.859513412352;35.8;0.919608174295;
36.0;0.923626373626;36.0;0.950427648804;
36.2;0.945805106826;36.2;0.869000315358;
36.4;0.864697474988;36.4;0.952089526141;
36.6;0.954816354816;36.6;0.937338612498;
36.8;0.939794419971;36.8;0.855459544383;
37.0;0.871339414306;37.0;0.925862948478;
37.2;0.941763499658;37.2;0.873576127066;
37.4;0.901340482574;37.4;0.907651275213;
37.6;0.939195637355;37.6;0.927756006134;
37.8;0.937338612498;37.8;0.860855982505;
38.0;0.897730307076;38.0;0.932842213466;
38.2;0.956141568355;38.2;0.896591470443;
38.4;0.923626373626;38.4;0.932842213466;
38.6;0.944578313253;38.6;0.937338612498;
38.8;0.944492627927;38.8;0.915895710681;
39.0;0.924896836314;39.0;0.915279878971;
39.2;0.93760295848;39.2;0.932203389831;
39.4;0.945805106826;39.4;0.916699933466;
39.6;0.93033552404;39.6;0.932842213466;
39.8;0.932842213466;39.8;0.892476643173;
40.0;0.907953976988;40.0;0.918987341772;
40.2;0.923977600543;40.2;0.939927498705;
40.4;0.940765727779;40.4;0.903134848234;
40.6;0.905851413544;40.6;0.94253072529;
40.8;0.926367807977;40.8;0.943510656732;
41.0;0.92301836836;41.0;0.939515854074;
41.2;0.931755216553;41.2;0.945805106826;
41.4;0.719129082426;41.4;0.99339324751;
41.6;0.802578923966;41.6;0.539967897271;
41.8;0.797101449275;41.8;0.79827004838;
42.0;0.88125819135;42.0;0.847094989241;
42.2;0.870372710044;42.2;0.875824352582;
42.4;0.879721703716;42.4;0.875824352582;
42.6;0.852071737786;42.6;0.8576153725;
42.8;0.8576153725;42.8;0.8576153725;
43.0;0.839818564717;43.0;0.8576153725;
43.2;0.811903358869;43.2;0.817444828104;
43.4;0.823011015912;43.4;0.817444828104;
43.6;0.811903358869;43.6;0.811903358869;
43.8;0.862305404933;43.8;0.817444828104;
44.0;0.852446183953;44.0;0.87751813054;
44.2;0.775757575758;44.2;0.928072268621;
44.4;0.933471667997;44.4;0.875261212024;
44.6;0.874382314694;44.6;0.846416912793;
44.8;0.839112343967;44.8;0.929339477727;
45.0;0.926390964956;45.0;0.84222737819;
45.2;0.832441522703;45.2;0.871339414306;
45.4;0.876388218252;45.4;0.944021925317;
45.6;0.946540076684;45.6;0.815974823917;
45.8;0.834524530588;45.8;0.896591470443;
46.0;0.908648648649;46.0;0.957783641161;
46.2;0.945229622098;46.2;0.845103212789;
46.4;0.852526873095;46.4;0.940576956296;
46.6;0.941878567722;46.6;0.941227312014;
46.8;0.932586523993;46.8;0.888330109607;
47.0;0.886076371519;47.0;0.930928363823;
47.2;0.945347802882;47.2;0.910687405921;
47.4;0.913046325094;47.4;0.934122490993;
47.6;0.950427648804;47.6;0.939927498705;
47.8;0.936641740313;47.8;0.890142226582;
48.0;0.895411938826;48.0;0.93895499224;
48.2;0.951756685894;48.2;0.895706530679;
48.4;0.908559986651;48.4;0.921297225008;
48.6;0.935406287579;48.6;0.944492627927;
48.8;0.93602254712;48.8;0.896886839071;
49.0;0.903580106917;49.0;0.931246793227;
49.2;0.93031735314;49.2;0.896886839071;
49.4;0.913494928657;49.4;0.921163931653;
49.6;0.926390964956;49.6;0.930928363823;
49.8;0.923350856368;49.8;0.90977443609;
50.0;0.919608174295;50.0;0.947121238476;
50.2;0.936693617753;50.2;0.931575388776;
50.4;0.913644553645;50.4;0.92523364486;
50.6;0.922359396433;50.6;0.943510656732;
50.8;0.94041958042;50.8;0.923350856368;
51.0;0.932082090861;51.0;0.957110212691;
51.2;0.952506049084;51.2;0.936693617753;
51.4;0.929478420263;51.4;0.924605196128;
51.6;0.920863309353;51.6;0.94383775351;
51.8;0.96;51.8;0.901261926747;
52.0;0.651991786448;52.0;0.650514437438;
52.2;0.866325486182;52.2;0.849586518958;
52.4;0.840634533252;52.4;0.829903978052;
52.6;0.833209417596;52.6;0.829903978052;
52.8;0.894823336072;52.8;0.834524530588;
53.0;0.894823336072;53.0;0.836020267158;
53.2;0.864864864865;53.2;0.837048424289;
53.4;0.848172386273;53.4;0.829398324448;
53.6;0.825973641345;53.6;0.829398324448;
53.8;0.842606516291;53.8;0.829398324448;
54.0;0.837048424289;54.0;0.829398324448;
54.2;0.950011614402;54.2;0.829398324448;
54.4;0.787305747987;54.4;0.923768018773;
54.6;0.873262119967;54.6;0.964570416298;
54.8;0.965253077975;54.8;0.695846645367;
55.0;0.702600713921;55.0;0.903134848234;
55.2;0.904979811575;55.2;0.941878567722;
55.4;0.950862663906;55.4;0.707786299233;
55.6;0.702600713921;55.6;0.903134848234;
55.8;0.904979811575;55.8;0.947121238476;
56.0;0.956651718984;56.0;0.744354403025;
56.2;0.799524375743;56.2;0.947780678851;
56.4;0.952537903757;56.4;0.912213101022;
56.6;0.903553817378;56.6;0.878084179971;
56.8;0.878532052292;56.8;0.939927498705;
57.0;0.941736694678;57.0;0.859782093794;
57.2;0.855245189323;57.2;0.910992136523;
57.4;0.914266755143;57.4;0.963205377676;
57.6;0.961318681319;57.6;0.823378194465;
57.8;0.846834665028;57.8;0.902292075966;
58.0;0.922359396433;58.0;0.923977600543;
58.2;0.931575388776;58.2;0.833460890862;
58.4;0.84685138539;58.4;0.953089445125;
58.6;0.946941580756;58.6;0.914664874853;
58.8;0.900133868809;58.8;0.900148784923;
59.0;0.907953976988;59.0;0.958458017955;
59.2;0.958859180036;59.2;0.856536101935;
59.4;0.875824352582;59.4;0.925008392078;
59.6;0.944492627927;59.6;0.936693617753;
59.8;0.935406287579;59.8;0.878084179971;
60.0;0.902292075966;60.0;0.945148411734;
60.2;0.957834757835;60.2;0.867452604747;
60.4;0.877021005729;60.4;0.922099915326;
60.6;0.943057503506;60.6;0.935406287579;
60.8;0.935369993211;60.8;0.871339414306;
61.0;0.902292075966;61.0;0.940576956296;
61.2;0.957834757835;61.2;0.867359143846;
61.4;0.877021005729;61.4;0.922099915326;
61.6;0.943057503506;61.6;0.935406287579;
61.8;0.935369993211;61.8;0.871339414306;
62.0;0.952066574202;62.0;0.940576956296;
62.2;0.978523489933;62.2;0.825067144136;
62.4;0.723218390805;62.4;0.80941355674;
62.6;0.846879169755;62.6;0.850117096019;
62.8;0.829903978052;62.8;0.829903978052;
63.0;0.834524530588;63.0;0.829903978052;
63.2;0.825030674847;63.2;0.830410248589;
63.4;0.834524530588;63.4;0.827381856861;
63.6;0.838587948874;63.6;0.83250755287;
63.8;0.810256410256;63.8;0.827381856861;
64.0;0.826879271071;64.0;0.829903978052;
64.2;0.823378194465;64.2;0.828893286649;
64.4;0.81238342761;64.4;0.828893286649;
64.6;0.943706640238;64.6;0.819906640566;
64.8;0.934436564224;64.8;0.882639001459;
65.0;0.891779935275;65.0;0.76335342773;
65.2;0.747942157953;65.2;0.952422599265;
65.4;0.953494809689;65.4;0.870647709321;
65.6;0.882639001459;65.6;0.775088967972;
65.8;0.752982853904;65.8;0.956437730546;
66.0;0.954803788904;66.0;0.859239387723;
66.2;0.898632109431;66.2;0.780421384549;
66.4;0.786432748538;66.4;0.964570416298;
66.6;0.963020833333;66.6;0.81305061968;
66.8;0.836551305404;66.8;0.910992136523;
67.0;0.909438943894;67.0;0.961165048544;
67.2;0.959201141227;67.2;0.830750678324;
67.4;0.836551305404;67.4;0.910992136523;
67.6;0.906199460916;67.6;0.961165048544;
67.8;0.958803061935;67.8;0.836020267158;
68.0;0.867208672087;68.0;0.916512371655;
68.2;0.916699933466;68.2;0.960486858352;
68.4;0.950862663906;68.4;0.846943537098;
68.6;0.8405;68.6;0.941227312014;
68.8;0.952176917761;68.8;0.936641740313;
69.0;0.935187760779;69.0;0.855459544383;
69.2;0.868178954001;69.2;0.925862948478;
69.4;0.931428571429;69.4;0.865797424074;
69.6;0.867333118349;69.6;0.916512371655;
69.8;0.909570510653;69.8;0.945148411734;
70.0;0.933835593504;70.0;0.860325485859;
70.2;0.849969154843;70.2;0.947121238476;
70.4;0.924896836314;70.4;0.899640874959;
70.6;0.865797424074;70.6;0.916512371655;
70.8;0.907953976988;70.8;0.945148411734;
71.0;0.93031735314;71.0;0.860325485859;
71.2;0.853299492386;71.2;0.947121238476;
71.4;0.93031735314;71.4;0.903134848234;
71.6;0.869857697283;71.6;0.917129863567;
71.8;0.909438943894;71.8;0.949102318285;
72.0;0.93031735314;72.0;0.86414854785;
72.2;0.853299492386;72.2;0.947918816649;
72.4;0.904695652174;72.4;0.903134848234;
72.6;0.824299065421;72.6;0.834782608696;
72.8;0.887967283595;72.8;0.787353629977;
73.0;0.843010752688;73.0;0.894823336072;
73.2;0.834524530588;73.2;0.889477081988;
73.4;0.822004889976;73.4;0.894823336072;
73.6;0.833971511717;73.6;0.894823336072;
73.8;0.833971511717;73.8;0.859782093794;
74.0;0.828502705953;74.0;0.829903978052;
74.2;0.804340022842;74.2;0.840148125289;
74.4;0.846532098953;74.4;0.840148125289;
74.6;0.830917137189;74.6;0.829903978052;
74.8;0.836578538103;74.8;0.844498927367;
75.0;0.947371512482;75.0;0.840148125289;
75.2;0.971006499902;75.2;0.768091409226;
75.4;0.802676644121;75.4;0.870782024628;
75.6;0.902994981383;75.6;0.941878567722;
75.8;0.933835593504;75.8;0.790390477573;
76.0;0.810947616245;76.0;0.9128248114;
76.2;0.916512371655;76.2;0.933481913252;
76.4;0.941736694678;76.4;0.80440242281;
76.6;0.822695924765;76.6;0.917004991681;
76.8;0.914664874853;76.8;0.95009596929;
77.0;0.944492627927;77.0;0.845103212789;
77.2;0.859239387723;77.2;0.940576956296;
77.4;0.941328609389;77.4;0.941227312014;
77.6;0.933823769822;77.6;0.847998754088;
77.8;0.884359265876;77.8;0.936371453138;
78.0;0.935187760779;78.0;0.889560529325;
78.2;0.869857697283;78.2;0.916699933466;
78.4;0.914518871132;78.4;0.962524306169;
78.6;0.95624892851;78.6;0.893062161719;
78.8;0.905401260862;78.8;0.951091703057;
79.0;0.955452930728;79.0;0.937338612498;
79.2;0.931963241437;79.2;0.895411938826;
79.4;0.909438943894;79.4;0.951756685894;
79.6;0.962524306169;79.6;0.876388218252;
79.8;0.902326371201;79.8;0.921297225008;
80.0;0.945641729581;80.0;0.930928363823;
80.2;0.93779637378;80.2;0.871339414306;
80.4;0.902292075966;80.4;0.939927498705;
80.6;0.957613984502;80.6;0.897182402373;
80.8;0.913437342728;80.8;0.936693617753;
81.0;0.955095597264;81.0;0.936693617753;
81.2;0.929478420263;81.2;0.907953976988;
81.4;0.917129863567;81.4;0.962486901851;
81.6;0.962823200559;81.6;0.913437342728;
81.8;0.919183532261;81.8;0.955095597264;
82.0;0.954425942156;82.0;0.933481913252;
82.2;0.913644553645;82.2;0.916512371655;
82.4;0.913437342728;82.4;0.963205377676;
82.6;0.953089445125;82.6;0.921475715011;
82.8;0.910893512852;82.8;0.976280884265;
83.0;0.832475912667;83.0;0.595779892429;
83.2;0.748798874259;83.2;0.860869565217;
83.4;0.894823336072;83.4;0.872456337125;
83.6;0.894823336072;83.6;0.872456337125;
83.8;0.884102076399;83.8;0.874793650794;
84.0;0.900133868809;84.0;0.872456337125;
84.2;0.870407987605;84.2;0.872456337125;
84.4;0.81911834413;84.4;0.8576153725;
84.6;0.791384261918;84.6;0.841706600711;
84.8;0.807936749278;84.8;0.844316948364;
85.0;0.791384261918;85.0;0.849056603774;
85.2;0.927069246911;85.2;0.849056603774;
85.4;0.871191553544;85.4;0.978898756661;
85.6;0.970563961486;85.6;0.738505357385;
85.8;0.747426218257;85.8;0.883785099821;
86.0;0.89259081453;86.0;0.969378671889;
86.2;0.970274170274;86.2;0.729403884796;
86.4;0.741949380722;86.4;0.895411938826;
86.6;0.882447881641;86.6;0.97423510467;
86.8;0.97233592096;86.8;0.720142838249;
87.0;0.771986222732;87.0;0.882067066256;
87.2;0.909878213802;87.2;0.945966357707;
87.4;0.936641740313;87.4;0.802978911665;
87.6;0.819001218027;87.6;0.957110212691;
87.8;0.956141568355;87.8;0.903134848234;
88.0;0.885902503294;88.0;0.875261212024;
88.2;0.888330109607;88.2;0.968688845401;
88.4;0.974932855864;88.4;0.809665427509;
88.6;0.835897435897;88.6;0.894823336072;
88.8;0.934569536424;88.8;0.935369993211;
89.0;0.93779637378;89.0;0.851712810887;
89.2;0.853126934985;89.2;0.936693617753;
89.4;0.922359396433;89.4;0.882067066256;
89.6;0.861663539712;89.6;0.915279878971;
89.8;0.917326057299;89.8;0.961844197138;
90.0;0.957470465601;90.0;0.846943537098;
90.2;0.869857697283;90.2;0.937338612498;
90.4;0.951060820368;90.4;0.936323479443;
90.6;0.925319006044;90.6;0.895411938826;
90.8;0.912347354138;90.8;0.955095597264;
91.0;0.958803061935;91.0;0.874137100658;
91.2;0.873246753247;91.2;0.937338612498;
91.4;0.949552033081;91.4;0.937338612498;
91.6;0.927756006134;91.6;0.890142226582;
91.8;0.909570510653;91.8;0.952422599265;
92.0;0.958879147327;92.0;0.874793650794;
92.2;0.873246753247;92.2;0.937338612498;
92.4;0.949552033081;92.4;0.937338612498;
92.6;0.930013831259;92.6;0.890142226582;
92.8;0.909438943894;92.8;0.952422599265;
93.0;0.965363128492;93.0;0.872456337125;
93.2;0.978523489933;93.2;0.865924276169;
93.4;0.697173011685;93.4;0.75990668222;
93.6;0.841706600711;93.6;0.838079113437;
93.8;0.843459851807;93.8;0.838079113437;
94.0;0.846011781563;94.0;0.838079113437;
94.2;0.849109453494;94.2;0.847998754088;
94.4;0.853299492386;94.4;0.838079113437;
94.6;0.847118110236;94.6;0.852335292298;
94.8;0.797117589256;94.8;0.847998754088;
95.0;0.828919601724;95.0;0.84773470341;
95.2;0.832178217822;95.2;0.834994632725;
95.4;0.829906263949;95.4;0.825875929016;
95.6;0.899187843856;95.6;0.744564474224;
95.8;0.914050696659;95.8;0.777746036281;
96.0;0.797901711761;96.0;0.91867723975;
96.2;0.91475296953;96.2;0.923768018773;
96.4;0.935809018568;96.4;0.794542536116;
96.6;0.775547866205;96.6;0.903134848234;
96.8;0.895634586213;96.8;0.947121238476;
97.0;0.945229622098;97.0;0.756144979864;
97.2;0.795031055901;97.2;0.891599803504;
97.4;0.887656033287;97.4;0.969033635878;
97.6;0.961090788161;97.6;0.842488008665;
97.8;0.857463489623;97.8;0.943375556316;
98.0;0.941763499658;98.0;0.939927498705;
98.2;0.94572972973;98.2;0.841706600711;
98.4;0.852431289641;98.4;0.950427648804;
98.6;0.945347802882;98.6;0.939278937381;
98.8;0.941227312014;98.8;0.842748800495;
99.0;0.885126475548;99.0;0.957110212691;
99.2;0.950862663906;99.2;0.930928363823;
99.4;0.916699933466;99.4;0.907953976988;
99.6;0.916076294278;99.6;0.95647344672;
99.8;0.961479413817;99.8;0.905538000998;
100.0;0.908648648649;100.0;0.927124127363;
100.2;0.927756006134;100.2;0.927756006134;
100.4;0.922359396433;100.4;0.86195979104;
100.6;0.88632218845;100.6;0.944492627927;
100.8;0.933785157574;100.8;0.932842213466;
101.0;0.899700740274;101.0;0.927756006134;
101.2;0.933481913252;101.2;0.937597822389;
101.4;0.931575388776;101.4;0.910382879117;
101.6;0.908648648649;101.6;0.958458017955;
101.8;0.953757225434;101.8;0.923350856368;
102.0;0.921095510487;102.0;0.921475715011;
102.2;0.925319006044;102.2;0.963205377676;
102.4;0.961077952613;102.4;0.927124127363;
102.6;0.929022351135;102.6;0.962184131472;
102.8;0.956636875207;102.8;0.925008392078;
103.0;0.923015459441;103.0;0.930928363823;
103.2;0.932842213466;103.2;0.941878567722;
103.4;0.849799196787;103.4;0.95009596929;
103.6;0.981818181818;103.6;0.98944591029;
103.8;0.991358667361;103.8;0.854184748915;
104.0;0.934705364996;104.0;0.950427648804;
104.2;0.915443952076;104.2;0.959133345077;
104.4;0.948377997179;104.4;0.959133345077;
104.6;0.933585449307;104.6;0.959133345077;
104.8;0.929022351135;104.8;0.948441038147;
105.0;0.929022351135;105.0;0.98623437783;
105.2;0.954285714286;105.2;0.99126160568;
105.4;0.957834757835;105.4;0.887819990217;
105.6;0.991836734694;105.6;0.88263933376;
105.8;0.963927272727;105.8;0.859782093794;
106.0;0.87412631249;106.0;0.920229846206;
106.2;0.923626373626;106.2;0.937984496124;
106.4;0.934101694915;106.4;0.896591470443;
106.6;0.896533333333;106.6;0.968688845401;
106.8;0.968688845401;106.8;0.902536051716;
107.0;0.892019830481;107.0;0.891779935275;
107.2;0.887852965748;107.2;0.952422599265;
107.4;0.94383775351;107.4;0.898959881129;
107.6;0.906199460916;107.6;0.900744416873;
107.8;0.921148825065;107.8;0.934763948498;
108.0;0.93779637378;108.0;0.883785099821;
108.2;0.881509916827;108.2;0.930928363823;
108.4;0.937916950306;108.4;0.953757225434;
108.6;0.959201141227;108.6;0.879786718371;
108.8;0.888330109607;108.8;0.941763499658;
109.0;0.949717514124;109.0;0.956437730546;
109.2;0.956437730546;109.2;0.905538000998;
109.4;0.904067226891;109.4;0.959133345077;
109.6;0.95038337025;109.6;0.926493108729;
109.8;0.922359396433;109.8;0.897182402373;
110.0;0.89642160052;110.0;0.94383775351;
110.2;0.944345442084;110.2;0.911602209945;
110.4;0.911111111111;110.4;0.89554761131;
110.6;0.895256660169;110.6;0.925862948478;
110.8;0.922359396433;110.8;0.899553940195;
111.0;0.89876060013;111.0;0.92523364486;
111.2;0.926170798898;111.2;0.939927498705;
111.4;0.941763499658;111.4;0.88493417845;
111.6;0.88263933376;111.6;0.945805106826;
111.8;0.945710267229;111.8;0.960486858352;
112.0;0.960139372822;112.0;0.888330109607;
112.2;0.89059602649;112.2;0.949102318285;
112.4;0.948245010323;112.4;0.953757225434;
112.6;0.953758865248;112.6;0.906140788817;
112.8;0.907044107966;112.8;0.953757225434;
113.0;0.95830477908;113.0;0.9177481881;
113.2;0.915443952076;113.2;0.89364844904;
113.4;0.888330109607;113.4;0.94383775351;
113.6;0.941736694678;113.6;0.91335764004;
113.8;0.936283185841;113.8;0.888541370486;
114.0;0.690435563538;114.0;0.556438026474;
114.2;0.802126582278;114.2;0.854385689628;
114.4;0.86063879031;114.4;0.845365626456;
114.6;0.881958506224;114.6;0.86305278174;
114.8;0.865996228787;114.8;0.852071737786;
115.0;0.871339414306;115.0;0.8576153725;
115.2;0.871339414306;115.2;0.8576153725;
115.4;0.851404171457;115.4;0.864697474988;
115.6;0.824536205865;115.6;0.842748800495;
115.8;0.829074044459;115.8;0.842748800495;
116.0;0.81384083045;116.0;0.826879271071;
116.2;0.930103959301;116.2;0.829903978052;
116.4;0.876698821008;116.4;0.89671330947;
116.6;0.916512371655;116.6;0.890724685097;
116.8;0.890166744585;116.8;0.823378194465;
117.0;0.823378194465;117.0;0.925862948478;
117.2;0.926233222939;117.2;0.860869565217;
117.4;0.868680890827;117.4;0.839112343967;
117.6;0.830670626856;117.6;0.927124127363;
117.8;0.923935729667;117.8;0.860869565217;
118.0;0.880104438642;118.0;0.878418871533;
118.2;0.897182402373;118.2;0.975631607239;
118.4;0.958262036571;118.4;0.89364844904;
118.6;0.902536051716;118.6;0.949102318285;
118.8;0.948441038147;118.8;0.937338612498;
119.0;0.936693617753;119.0;0.856536101935;
119.2;0.856536101935;119.2;0.935406287579;
119.4;0.930928363823;119.4;0.896591470443;
119.6;0.889636698476;119.6;0.915785975407;
119.8;0.916076294278;119.8;0.960486858352;
120.0;1.0;120.0;1.0;
