0;0;
0.0;0.0;
0.0500399200264;0.0;
0.100079840053;0.0;
0.150119760079;0.0;
0.200159680106;0.0;
0.250199600132;21946.7221599;
0.300239520159;283562.612719;
0.350279440185;775319.75818;
0.400319360211;1006026.73532;
0.450359280238;999831.565006;
0.500399200264;979934.186281;
0.550439120291;1005296.0;
0.600479040317;998322.373651;
0.650518960344;1004073.79598;
0.70055888037;1007248.0;
0.750598800396;1005870.94645;
0.800638720423;993129.556809;
0.850678640449;867803.486368;
0.900718560476;533987.966814;
0.950758480502;225074.030867;
1.00079840053;124873.317554;
1.05083832056;103553.940452;
1.10087824058;47596.9267873;
1.15091816061;278.062613157;
1.20095808063;8793.83515267;
1.25099800066;5086.58941043;
1.30103792069;12112.0;
1.35107784071;2701.60064336;
1.40111776074;69722.8089086;
1.45115768077;95493.5913873;
1.50119760079;35973.3661341;
1.55123752082;20821.2638999;
1.60127744085;17266.2706674;
1.65131736087;17769.0594315;
1.7013572809;19708.0342421;
1.75139720093;24224.0;
1.80143712095;38772.9804356;
1.85147704098;117989.058816;
1.901516961;36336.0;
1.95155688103;29337.0364394;
2.00159680106;5572.45496428;
2.05163672108;7663.69124435;
2.10167664111;2520.28371038;
2.15171656114;20210.9096381;
2.20175648116;28479.3660637;
2.25179640119;95401.5570918;
2.30183632122;12112.0;
2.35187624124;17411.3242138;
2.40191616127;17587.7424986;
2.4519560813;12112.0;
2.50199600132;22285.1210666;
2.55203592135;12728.4920108;
2.60207584137;44700.9277716;
2.6521157614;86995.8211254;
2.70215568143;20234.8830881;
2.75219560145;0.0;
2.80223552148;9760.93098842;
2.85227544151;12112.0;
2.90231536153;12813.1354568;
2.95235528156;21231.0098472;
3.00239520159;30878.5877679;
3.05243512161;88976.0879186;
3.10247504164;61369.6945983;
3.15251496167;34069.5744344;
3.20255488169;5410.37599537;
3.25259480172;12112.0;
3.30263472174;9051.35284501;
3.35267464177;3837.91117791;
3.4027145618;23116.8214593;
3.45275448182;98347.0408163;
3.50279440185;46042.4130798;
3.55283432188;3471.60332578;
3.6028742419;11241.6498444;
3.65291416193;6256.72382358;
3.70295408196;24224.0;
3.75299400198;17261.3846424;
3.80303392201;20114.1495192;
3.85307384204;84312.7347993;
3.90311376206;65564.2607182;
3.95315368209;12112.0;
4.00319360211;15308.0614286;
4.05323352214;20216.8741233;
4.10327344217;17749.7824887;
4.15331336219;24224.0;
4.20335328222;14124.5674208;
4.25339320225;64669.8886378;
4.30343312227;92737.7405825;
4.3534730423;36336.0;
4.40351296233;28152.4613546;
4.45355288235;17817.4972455;
4.50359280238;17080.0687901;
4.55363272241;20259.2030656;
4.60367264243;14027.8939338;
4.65371256246;64157.4665612;
4.70375248248;101053.826258;
4.75379240251;27565.1142833;
4.80383232254;32147.5571903;
4.85387224256;16995.4549561;
4.90391216259;20326.9178224;
4.95395208262;13943.2504878;
5.00399200264;22768.6305823;
5.05403192267;43661.290724;
5.1040718427;85146.4894795;
5.15411176272;15677.8274886;
5.20415168275;7313.18848986;
5.25419160278;12112.0;
5.3042315228;1746.679235;
5.35427144283;10724.3383993;
5.40431136285;2611.05046669;
5.45435128288;48559.5138181;
5.50439120291;82861.7776336;
5.55443112293;30417.7922059;
5.60447104296;16814.1380232;
5.65451096299;12112.0;
5.70455088301;12112.0;
5.75459080304;13224.0771889;
5.80463072307;22821.8012797;
5.85467064309;52092.7085904;
5.90471056312;91190.3872453;
5.95475048315;30581.9783086;
6.00479040317;12112.0;
6.0548303232;1565.36230203;
6.10487024322;21864.4161086;
6.15491016325;0.0;
6.20495008328;9053.88880099;
6.2549900033;54492.0422093;
6.30502992333;92363.0766756;
6.35506984336;11942.5687216;
6.40510976338;0.0;
6.45514968341;12112.0;
6.50518960344;12112.0;
6.55522952346;12112.0;
6.60526944349;5990.70569003;
6.65530936352;22991.1603649;
6.70534928354;111262.756491;
6.75538920357;33159.3020538;
6.80542912359;0.0;
6.85546904362;1656.05686512;
6.90550896365;7415.8409007;
6.95554888367;12378.0181336;
7.0055888037;16475.682616;
7.05562872373;12112.0;
7.10566864375;111677.170068;
7.15570856378;57794.2430769;
7.20574848381;36336.0;
7.25578840383;31555.2259504;
7.30582832386;17967.333931;
7.35586824389;4279.06517956;
7.40590816391;10873.0370546;
7.45594808394;981.48856897;
7.50598800396;95445.4645362;
7.55602792399;72007.0990525;
7.60606784402;4865.3737981;
7.65610776404;12112.0;
7.70614768407;4194.42173355;
7.7561876041;8766.10260042;
7.80622752412;12112.0;
7.85626744415;27260.5004412;
7.90630736418;57997.5750496;
7.9563472842;69407.8620472;
8.00638720423;12112.0;
8.05642712426;12112.0;
8.10646704428;3278.19859727;
8.15650696431;0.0;
8.20654688433;0.0;
8.25658680436;1994.48626272;
8.30662672439;48361.0371777;
8.35666664441;85793.1648825;
8.40670656444;28249.2070348;
8.45674648447;15322.4838405;
8.50678640449;12112.0;
8.55682632452;12112.0;
8.60686624455;2079.12970873;
8.65690616457;12112.0;
8.7069460846;58294.0075937;
8.75698600463;80263.0614703;
8.80702592465;24683.3073529;
8.85706584468;12112.0;
8.90710576471;1721.33673645;
8.95714568473;12112.0;
9.00718560476;12112.0;
9.05722552478;17327.9054299;
9.10726544481;48992.0229921;
9.15730536484;87670.6637557;
9.20734528486;17738.5150732;
9.25738520489;1788.99373868;
9.30742512492;9863.65559247;
9.35746504494;4230.75731336;
9.40750496497;12112.0;
9.457544885;3771.34888995;
9.50758480502;27313.6777843;
9.55762472505;116085.483696;
9.60766464508;28749.5320361;
9.6577045651;12112.0;
9.70774448513;16410.4720702;
9.75778440515;18838.8397762;
9.80782432518;18852.1778903;
9.85786424521;24224.0;
9.90790416523;12746.5731688;
9.95794408526;116638.209271;
10.0079840053;34401.9527149;
10.0580239253;24224.0;
10.1080638453;13284.4728506;
10.1581037654;6807.89264708;
10.2081436854;3590.03195697;
10.2581836054;11562.0013622;
10.3082235254;430.319745469;
10.3582634455;0.0;
10.4083033655;0.0;
10.4583432855;0.0;
10.5083832056;6875.57461856;
10.5584231256;3505.46070418;
10.6084630456;9317.313224;
10.6585029656;12112.0;
10.7085428857;2069.46693068;
10.7585828057;12112.0;
10.8086227257;16623.1826188;
10.8586626457;58130.4830459;
10.9087025658;88204.8172582;
10.9587424858;37858.860096;
11.0087824058;12480.6827855;
11.0588223258;23938.7338009;
11.1088622459;2683.51948531;
11.1589021659;16690.8973756;
11.2089420859;18488.2760463;
11.2589820059;47215.1373664;
11.309021926;99035.5686864;
11.359061846;14384.3322962;
11.409101766;12112.0;
11.4591416861;14880.1629313;
11.5091816061;19577.4100243;
11.5592215261;12112.0;
11.6092614461;12112.0;
11.6593013662;3239.5003252;
11.7093412862;104830.896799;
11.7593812062;25910.3023994;
11.8094211262;24224.0;
11.8594610463;18494.3271634;
11.9095009663;9447.90184394;
11.9595408863;18306.9591134;
12.0095808063;12112.0;
12.0596207264;21709.7385294;
12.1096606464;108288.927772;
12.1597005664;36770.9873754;
12.2097404864;0.0;
12.2597804065;4791.64283042;
12.3098203265;12112.0;
12.3598602465;19345.3714989;
12.4099001666;6116.36678444;
12.4599400866;0.0;
12.5099800066;108964.432165;
12.5600199266;72647.7955316;
12.6100598467;21177.8466487;
12.6600997667;18198.2555854;
12.7101396867;24224.0;
12.7601796067;15085.5944154;
12.8102195268;24170.8079242;
12.8602594468;12347.7769868;
12.9102993668;60922.7782524;
12.9603392868;83961.6256218;
13.0103792069;18282.8622502;
13.0604191269;16855.2567421;
13.1104590469;21335.0313066;
13.160498967;0.0;
13.210538887;163.234801972;
13.260578807;14674.6126527;
13.310618727;53162.3124506;
13.3606586471;83188.2377261;
13.4106985671;14026.6259558;
13.4607384871;9307.67475259;
13.5107784071;0.0;
13.5608183272;495.614055441;
13.6108582472;21593.6725905;
13.6608981672;15412.0114961;
13.7109380872;55924.5686512;
13.7609780073;92288.136989;
13.8110179273;40542.5239677;
13.8610578473;12368.2785916;
13.9110977673;23891.5495263;
13.9611376874;12112.0;
14.0111776074;15496.5827489;
14.0612175274;17799.315017;
14.1112574475;42399.3190951;
14.1612973675;107944.447257;
14.2113372875;41011.2532124;
14.2613772075;23806.9782735;
14.3114171276;14877.6991686;
14.3614570476;17285.5476103;
14.4114969676;0.0;
14.4615368876;6521.43066322;
14.5115768077;12112.0;
14.5616167277;102843.253156;
14.6116566477;35934.667862;
14.6616965677;23710.2325933;
14.7117364878;8558.13035912;
14.7617764078;10550.3046923;
14.8118163278;17617.998084;
14.8618562479;19828.8833201;
14.9118961679;4907.58723128;
14.9619360879;84314.9553418;
15.0119760079;69680.3067025;
15.062015928;15022.7527149;
15.112055848;24224.0;
15.162095768;17533.354638;
15.212135688;19896.598077;
15.2621756081;14481.2082413;
15.3122155281;22338.3038971;
15.3622554481;76086.9105275;
15.4122953681;106425.792754;
15.4623352882;16753.6268523;
15.5123752082;6775.24842436;
15.5624151282;12112.0;
15.6124550482;12112.0;
15.6624949683;22406.0186539;
15.7125348883;12879.6209761;
15.7625748083;45546.8713178;
15.8126147284;93728.9686934;
15.8626546484;38608.4478054;
15.9126945684;5240.03770501;
15.9627344884;19824.1290583;
16.0127744085;13862.3159977;
16.0628143285;12964.1968043;
16.1128542485;21110.1607692;
16.1628941685;31634.0063633;
16.2129340886;78227.6028055;
16.2629740086;43044.6143404;
16.3130139286;12112.0;
16.3630538486;12112.0;
16.4130937687;24224.0;
16.4631336887;23275.0631716;
16.5131736087;16100.9725254;
16.5632135287;29847.2598077;
16.6132534488;85624.2389566;
16.6632933688;40469.7661762;
16.7133332888;13726.8948303;
16.7633732089;23406.8707975;
16.8134131289;13145.5137373;
16.8634530489;24224.0;
16.9134929689;18533.0254355;
16.963532889;19237.8204398;
17.013572809;115716.758726;
17.063612729;59278.6647964;
17.113652649;23339.1560407;
17.1636925691;13230.1571833;
17.2137324891;20065.7405825;
17.2637724091;17870.6618618;
17.3138123291;24224.0;
17.3638522492;16023.6048586;
17.4138921692;83950.1731266;
17.4639320892;80021.2291302;
17.5139720093;21818.5431278;
17.5640119293;0.0;
17.6140518493;8509.86580885;
17.6640917693;16928.9648614;
17.7141316894;20380.1098982;
17.7641716094;3529.64413419;
17.8142115294;32129.447155;
17.8642514494;109533.653061;
17.9142913695;15573.979293;
17.9643312895;24224.0;
18.0143712095;12416.5705669;
18.0644111295;14783.4172511;
18.1144510496;13792.1891403;
18.1644909696;22889.5304751;
18.2145308896;44019.2492007;
18.2645708096;111431.682417;
18.3146107297;23063.5571903;
18.3646506497;5971.39986992;
18.4146905697;12112.0;
18.4647304898;12112.0;
18.5147704098;22640.4937852;
18.5648103298;13277.2692647;
18.6148502498;35973.5105205;
18.6648901699;103084.835803;
18.7149300899;46997.3201498;
18.7649700099;16663.0495492;
18.8150099299;12112.0;
18.86504985;12112.0;
18.91508977;1189.41597849;
18.96512969;10558.6769975;
19.01516961;18373.4492081;
19.0652095301;65165.4645362;
19.1152494501;26798.5993777;
19.1652893701;8548.53520364;
19.2153292902;12112.0;
19.2653692102;12112.0;
19.3154091302;0.0;
19.3654490502;3742.40459843;
19.4154889703;21492.2159644;
19.4655288903;79625.1772117;
19.5155688103;59181.8695759;
19.5656087303;13441.6575085;
19.6156486504;23169.9557806;
19.6656885704;13834.5469599;
19.7157284904;16603.7976255;
19.7657684104;0.0;
19.8158083305;7814.78146918;
19.8658482505;90267.1626641;
19.9158881705;77652.0562499;
19.9659280905;28169.3178506;
20.0159680106;2891.38914026;
20.0660079306;22404.7795532;
20.1160478506;12112.0;
20.1660877707;5792.46006785;
20.2161276907;0.0;
20.2661676107;61328.8321088;
20.3162075307;106711.318849;
20.3662474508;22710.5906731;
20.4162873708;12112.0;
20.4663272908;12112.0;
20.5163672108;7156.00383202;
20.5664071309;0.0;
20.6164470509;8828.96050906;
20.6664869709;1063.6971295;
20.7165268909;0.0;
20.766566811;13919.0460195;
20.816606731;88806.8299038;
20.866646651;66652.1623161;
20.916686571;24224.0;
20.9667264911;16131.1559177;
21.0167664111;23244.8799593;
21.0668063311;12885.618914;
21.1168462512;1658.46287331;
21.1668861712;18367.5424775;
21.2169260912;79199.69836;
21.2669660112;55797.2291302;
21.3170059313;8177.41533513;
21.3670458513;21086.0140554;
21.4170857713;12994.3801965;
21.4671256913;23527.7776301;
21.5171656114;12112.0;
21.5672055314;16279.8834502;
21.6172454514;60777.6958287;
21.6672853714;69350.1178506;
21.7173252915;19787.6779694;
21.7673652115;12112.0;
21.8174051315;23595.4346324;
21.8674450516;12112.0;
21.9174849716;7876.40179297;
21.9675248916;0.0;
22.0175648116;53418.6395335;
22.0676047317;71819.8031957;
22.1176446517;26363.4964932;
22.1676845717;24224.0;
22.2177244917;1871.22225381;
22.2677644118;12112.0;
22.3178043318;12112.0;
22.3678442518;6708.72652007;
22.4178841718;50660.2542846;
22.4679240919;81858.7823586;
22.5179640119;27306.441681;
22.5680039319;24224.0;
22.6180438519;0.0;
22.668083772;4380.65175341;
22.718123692;6624.08307406;
22.768163612;6822.38279641;
22.8182035321;37732.1476032;
22.8682434521;106348.757176;
22.9182833721;3742.17358014;
22.9683232921;10095.7248915;
23.0183632122;0.0;
23.0684031322;0.0;
23.1184430522;6890.07233033;
23.1684829722;3487.30735292;
23.2185228923;34994.3846438;
23.2685628123;118683.031185;
23.3186027323;26307.9417251;
23.3686426523;31101.9412189;
23.4186825724;17769.1316247;
23.4687224924;17266.2129129;
23.5187624124;3402.71581834;
23.5688023324;9399.49290724;
23.6188422525;350.531631775;
23.6688821725;113867.091663;
23.7189220925;24224.0;
23.7689620126;28817.362302;
23.8190019326;24828.3897766;
23.8690418526;20905.9073459;
23.9190817726;14756.792336;
23.9691216927;12112.0;
24.0191616127;39759.1943891;
24.0692015327;97863.0236425;
24.1192414527;41915.6917647;
24.1692813728;12112.0;
24.2193212928;3233.44920811;
24.2693612128;0.0;
24.3194011328;11930.683067;
24.3694410529;135.37175904;
24.4194809729;14354.4376769;
24.4695208929;74746.3078013;
24.519560813;55434.8613264;
24.569600733;12112.0;
24.619640653;12112.0;
24.669680573;24127.326513;
24.7197204931;12179.6570022;
24.7697604131;21268.5412118;
24.8198003331;21704.8976357;
24.8698402531;84397.3060521;
24.9198801732;68088.088467;
24.9699200932;33283.8677249;
25.0199600132;12136.2043241;
25.0699999332;12112.0;
25.1200398533;21791.9182127;
25.1700797733;12112.0;
25.2201196933;6019.69329748;
25.2701596133;80364.8154333;
25.3201995334;60076.4881787;
25.3702394534;7093.1010916;
25.4202793734;12112.0;
25.4703192935;12112.0;
25.5203592135;12112.0;
25.5703991335;12112.0;
25.6204390535;18300.9801895;
25.6704789736;70369.4121183;
25.7205188936;84784.0;
25.7705588136;135.371759041;
25.8205987336;12293.316933;
25.8706386537;21002.5808329;
25.9206785737;12112.0;
25.9707184937;18385.6236355;
26.0207584137;14910.3296442;
26.0707983338;41761.0141855;
26.1208382538;107383.307873;
26.1708781738;12377.960379;
26.2209180939;20917.9570924;
26.2709580139;17188.8741233;
26.3209979339;17865.8051117;
26.3710378539;12112.0;
26.421077774;2161.28051469;
26.471117694;27947.4953052;
26.521157614;127724.92164;
26.571197534;24224.0;
26.6212374541;29368.5888801;
26.6712773741;29893.1616657;
26.7213172941;14741.0594315;
26.7713572141;2093.61352932;
26.8213971342;423.072843608;
26.8714370542;34276.3204978;
26.9214769742;91631.6134402;
26.9715168942;27598.8848688;
27.0215568143;0.0;
27.0715967343;9567.51182127;
27.1216366543;2025.90875565;
27.1716765744;11705.8269683;
27.2217164944;0.0;
27.2717564144;24918.9399533;
27.3217963344;90063.9606391;
27.3718362545;43999.5757352;
27.4218761745;0.0;
27.4719160945;0.0;
27.5219560145;11638.1699661;
27.5719959346;604.389776582;
27.6220358546;8467.50798924;
27.6720757746;10695.3507919;
27.7221156946;84494.268312;
27.7721556147;63127.3835496;
27.8221955347;33972.8287542;
27.8722354547;24224.0;
27.9222753747;24224.0;
27.9723152948;20494.8867705;
28.0223552148;17527.3323982;
28.0723951348;17442.7322681;
28.1224350549;98540.0557015;
28.1724749749;66676.222398;
28.2225148949;11502.7433576;
28.2725548149;0.0;
28.322594735;0.0;
28.372634655;0.0;
28.422674575;0.0;
28.472714495;7924.81072967;
28.5227544151;71620.3391799;
28.5727943351;74417.4834502;
28.6228342551;0.0;
28.6728741751;3118.68012445;
28.7229140952;8201.57091826;
28.7729540152;0.0;
28.8229939352;6962.58466487;
28.8730338553;12112.0;
28.9230737753;64283.1565329;
28.9731136953;92370.1430175;
29.0231536153;24224.0;
29.0731935354;21027.981086;
29.1232334554;12112.0;
29.1732733754;5064.77188912;
29.2233132954;0.0;
29.2733532155;10099.3723822;
29.3233931355;54158.2803846;
29.3734330555;101731.046019;
29.4234729755;27487.7336708;
29.4735128956;36336.0;
29.5235528156;30630.5605091;
29.5735927356;24224.0;
29.6236326556;3855.99233595;
29.6736725757;10579.284853;
29.7237124957;54069.007998;
29.7737524157;85688.2652885;
29.8237923358;15871.318849;
29.8738322558;5773.15424775;
29.9238721758;4883.45495614;
29.9739120958;0.0;
30.0239520159;0.0;
30.0739919359;967.023642533;
30.1240318559;20658.1725114;
30.1740717759;79852.0639139;
30.224111696;36766.3176936;
30.274151616;16910.8837034;
30.324191536;20394.5748247;
30.374231456;24224.0;
30.4242713761;13146.7383993;
30.4743112961;21612.9650963;
30.5243512161;31287.997975;
30.5743911362;91577.3699661;
30.6244310562;30968.9610294;
30.6744709762;20462.2895815;
30.7245108962;13774.035789;
30.7745508163;22019.2091969;
30.8245907363;0.0;
30.8746306563;0.0;
30.9246705763;0.0;
30.9747104964;0.0;
31.0247504164;0.0;
31.0747903364;73741.7482466;
31.1248302564;52204.8695249;
31.1748701765;12112.0;
31.2249100965;15723.8565104;
31.2749500165;15170.2555854;
31.3249899365;7566.97444146;
31.3750298566;3626.33865949;
31.4250697766;0.0;
31.4751096966;76491.9744063;
31.5251496167;87540.1328904;
31.5751895367;16864.9385294;
31.6252294567;0.0;
31.6752693767;7651.61788746;
31.7253092968;12112.0;
31.7753492168;22815.7585564;
31.8253891368;12112.0;
31.8754290568;28551.5463095;
31.9254689769;92012.2995869;
31.9755088969;4696.13110815;
32.0255488169;4375.81085974;
32.0755887369;0.0;
32.125628657;10788.3936086;
32.175668577;1049.20332578;
32.225708497;10383.4122262;
32.275748417;34334.122449;
32.3257883371;80323.6178875;
32.3758282571;17566.001793;
32.4258681771;0.0;
32.4759080972;0.0;
32.5259480172;0.0;
32.5759879372;11140.1354638;
32.6260278572;1825.27156392;
32.6760677773;39358.0932693;
32.7261076973;96896.0;
32.7761476173;58891.9708485;
32.8261875373;16294.3916926;
32.8762274574;23081.7105416;
32.9262673774;13016.1497794;
32.9763072974;24224.0;
33.0263472174;22302.0549491;
33.0763871375;26998.1418552;
33.1264270575;93260.0373077;
33.1764669775;69117.9859727;
33.2265068976;14227.2920248;
33.2765468176;836.488788468;
33.3265867376;10516.4109898;
33.3766266576;2006.5884969;
33.4266665777;16149.3525849;
33.4767064977;19165.2371874;
33.5267464177;85001.4070559;
33.5767863377;58742.0186539;
33.6268262578;14033.9450509;
33.6768661778;12112.0;
33.7269060978;2091.21947825;
33.7769460178;8006.99041291;
33.8269859379;5143.36421804;
33.8770258579;12112.0;
33.9270657779;57006.2747456;
33.9771056979;61436.3290794;
34.027145618;3457.17966878;
34.077185538;9936.1968043;
34.127225458;0.0;
34.1772653781;0.0;
34.2273052981;0.0;
34.2773452181;8280.13993918;
34.3273851381;68713.2108668;
34.3774250582;107136.826578;
34.4274649782;20607.2853733;
34.4775048982;2272.5353305;
34.5275448182;7861.93686653;
34.5775847383;0.0;
34.6276246583;8364.78338519;
34.6776645783;2988.09150451;
34.7277044983;34250.9635606;
34.7777444184;117295.318447;
34.8277843384;33978.8798713;
34.8778242584;19906.2221097;
34.9278641785;17521.324597;
34.9779040985;24224.0;
35.0279440185;15032.4205766;
35.0779839385;23613.5591063;
35.1280238586;12590.6709276;
35.1780637786;89570.709276;
35.2281036986;38632.6413225;
35.2781436186;5493.89584981;
35.3281835387;3578.00191601;
35.3782234587;18518.5605091;
35.4282633787;12637.7974477;
35.4783032987;12112.0;
35.5283432188;29276.6696549;
35.5783831388;61807.448948;
35.6284230588;51312.7642251;
35.6784629788;5217.086776;
35.7285028989;8630.74376417;
35.7785428189;441.223564969;
35.8285827389;11768.7008314;
35.878622659;10023.2173812;
35.928662579;7869.24152296;
35.978702499;87304.3408812;
36.028742419;82680.8679639;
36.0787823391;18905.3699661;
36.1288222591;356.582748863;
36.1788621791;11836.4155883;
36.2289020991;4312.9741853;
36.2789420192;24224.0;
36.3289819392;18476.2460054;
36.3790218592;61323.9948813;
36.4290617792;88096.041537;
36.4791016993;25583.6965143;
36.5291416193;24224.0;
36.5791815393;14336.1543778;
36.6292214593;21431.7047935;
36.6792613794;12112.0;
36.7293012994;5014.03410593;
36.7793412194;26653.5891473;
36.8293811395;103113.93892;
36.8794210595;13689.392343;
36.9294609795;12112.0;
36.9795008995;12112.0;
37.0295408196;12112.0;
37.0795807396;12112.0;
37.1296206596;12112.0;
37.1796605796;21719.4203168;
37.2297004997;120395.021041;
37.2797404197;12112.0;
37.3297803397;15073.5099053;
37.3798202597;19422.7102885;
37.4298601798;12112.0;
37.4799000998;21165.8166078;
37.5299400198;14548.9110609;
37.5799799399;6.05111708769;
37.6300198599;108983.795532;
37.6800597799;51421.5399462;
37.7300996999;19355.0187488;
37.78013962;18210.2856264;
37.83017954;9602.57942308;
37.88021946;9150.49009475;
37.93025938;24161.1261369;
37.9802993001;12565.4701126;
38.0303392201;72672.0;
38.0803791401;53815.0389706;
38.1304190601;6182.9290724;
38.1804589802;4733.57495474;
38.2304989002;9235.13354075;
38.2805388202;0.0;
38.3305787402;175.265815889;
38.3806186603;19828.8833201;
38.4306585803;64585.3514212;
38.4806985003;65135.2538733;
38.5307384204;16777.9179525;
38.5807783404;12112.0;
38.6308182604;12112.0;
38.6808581804;23964.0907381;
38.7308981005;12112.0;
38.7809380205;15424.041537;
38.8309779405;69959.4351527;
38.8810178605;101410.769973;
38.9310577806;25650.2588022;
38.9810977006;12112.0;
39.0311376206;23879.5194853;
39.0811775406;14819.6661991;
39.1312174607;17430.6300339;
39.1812573807;5149.42977377;
39.2312973007;44356.255066;
39.2813372207;101138.758477;
39.3313771408;38845.4783315;
39.3814170608;12112.0;
39.4314569808;14887.3809559;
39.4814969009;17261.3846424;
39.5315368209;5217.086776;
39.5815767409;12112.0;
39.6316166609;12112.0;
39.681656581;107968.651725;
39.731696501;411.011965503;
39.781736421;11586.2025523;
39.831776341;0.0;
39.8818162611;10569.6030656;
39.9318561811;17605.8958498;
39.9818961011;21770.2063844;
40.0319360211;3906.80309038;
40.0819759412;129881.303507;
40.1320158612;46616.677319;
40.1820557812;8461.45687215;
40.2320957013;0.0;
40.2821356213;0.0;
40.3321755413;9742.77763715;
40.3822154613;1885.69610294;
40.4322553814;14843.928422;
40.4822953014;74062.1603933;
40.5323352214;70750.1993355;
40.5823751414;6691.82670815;
40.6324150615;6787.31884899;
40.6824549815;2284.57891684;
40.7324949015;0.0;
40.7825348215;12112.0;
40.8325747416;14450.9667774;
40.8826146616;75186.3047865;
40.9326545816;89328.8956108;
40.9826945016;22592.1573298;
41.0327344217;12112.0;
41.0827743417;1750.3243439;
41.1328142617;0.0;
41.1828541818;0.0;
41.2328941018;0.0;
41.2829340218;11111.0901018;
41.3329739418;86832.8019301;
41.3830138619;77250.839621;
41.4330537819;48448.0;
41.4830937019;12112.0;
41.5331336219;13060.8702913;
41.583173542;16246.0549491;
41.633213462;5623.2598077;
41.683253382;5070.82300621;
41.733293302;64519.8794039;
41.7833332221;76709.3814621;
41.8333731421;20138.3539876;
41.8834130621;23190.4862627;
41.9334529822;12112.0;
41.9834929022;12112.0;
42.0335328222;6411.40140273;
42.0835727422;7137.85048076;
42.1336126623;73179.7162896;
42.1836525823;74209.5560407;
42.2336925023;0.0;
42.2837324223;1130.18722425;
42.3337723424;12112.0;
42.3838122624;16294.3916926;
42.4338521824;24224.0;
42.4838921024;16013.9622198;
42.5339320225;63485.1310095;
42.5839719425;104627.348247;
42.6340118625;10897.1693297;
42.6840517825;0.0;
42.7340917026;4267.00970522;
42.7841316226;6266.34785635;
42.8341715426;7319.16741374;
42.8842114627;12112.0;
42.9342513827;22831.4975057;
42.9842913027;121536.802663;
43.0343312227;27695.6033258;
43.0843711428;36336.0;
43.1344110628;24509.2661991;
43.1844509828;19515.8108597;
43.2344909028;13780.0869061;
43.2845308229;22899.1608252;
43.3345707429;30867.4177715;
43.3846106629;92707.5571903;
43.4346505829;42815.0006504;
43.484690503;18093.0531374;
43.534730423;16735.6178875;
43.584770343;12112.0;
43.634810263;22652.5865809;
43.6848501831;13286.951052;
43.7348901031;30147.1288923;
43.7849300231;72672.0;
43.8349699432;42428.3067025;
43.8850098632;12112.0;
43.9350497832;20602.5022342;
43.9850897032;24224.0;
44.0351296233;13354.6080543;
44.0851695433;22658.637698;
44.1352094633;23165.1148869;
44.1852493833;80770.9673926;
44.2352893034;56655.7663848;
44.2853292234;20670.1592364;
44.3353691434;13514.1987203;
44.3854090634;12112.0;
44.4354489835;10461.994252;
44.4854889035;3752.06849449;
44.5355288235;16814.1380232;
44.5855687436;93904.1623161;
44.6356086636;55599.1340611;
44.6856485836;13429.5552743;
44.7356885036;23179.6375679;
44.7857284237;13846.5770008;
44.8357683437;20404.256612;
44.8858082637;12112.0;
44.9358481837;19938.8837034;
44.9858881038;85078.8310714;
45.0359280238;65491.9360861;
45.0859679438;4883.52714935;
45.1360078638;13931.2204468;
45.1860477839;16449.0837104;
45.2360877039;4871.39587937;
45.2861276239;12112.0;
45.3361675439;3350.75424774;
45.386207464;76745.6159715;
45.436247384;95987.0093269;
45.486287304;34432.147455;
45.5363272241;24224.0;
45.5863671441;19268.003832;
45.6364070641;12112.0;
45.6864469841;20940.9605091;
45.7364869042;2127.394259;
45.7865268242;45082.6813638;
45.8365667442;115336.083689;
45.8866066642;28246.8299038;
45.9366465843;26254.720772;
45.9866865043;12112.0;
46.0367264243;21008.6175113;
46.0867663443;13091.1258767;
46.1368062644;773.618914025;
46.1868461844;52920.6287331;
46.2368861044;92326.7484451;
46.2869260245;12112.0;
46.3369659445;12112.0;
46.3870058645;3934.58466487;
46.4370457845;0.0;
46.4870857046;0.0;
46.5371256246;3452.2397511;
46.5871655446;39412.2645503;
46.6372054646;88168.5827489;
46.6872453847;34160.1390497;
46.7372853047;12112.0;
46.7873252247;21153.6710577;
46.8373651447;12909.8089437;
46.8874050648;13905.8346324;
46.9374449848;21969.6044754;
46.9874849048;38584.3310064;
47.0375248248;79339.6222398;
47.0875647449;43050.8498304;
47.1376046649;33333.3858145;
47.1876445849;24937.1654977;
47.237684505;32612.9189747;
47.287724425;12112.0;
47.337764345;7808.74479073;
47.387804265;26955.8562288;
47.4378441851;102716.3674;
47.4878841051;38526.4886953;
47.5379240251;12112.0;
47.5879639451;23730.8063914;
47.6380038652;14535.6102234;
47.6880437852;19853.0300339;
47.7380837052;12112.0;
47.7881236252;18924.6757862;
47.8381635453;100975.522702;
47.8882034653;52255.6555925;
47.9382433853;1701.9154072;
47.9882833053;2006.59336735;
48.0383232254;9591.71628962;
48.0883631454;5560.38594456;
48.1384030654;5231.60945701;
48.1884429855;0.0;
48.2384829055;104874.233824;
48.2885228255;73745.46043;
48.3385627455;32187.4801245;
48.3886026656;12112.0;
48.4386425856;17757.0293906;
48.4886825056;10327.8556625;
48.5387224256;8697.1616657;
48.5887623457;2722.1888801;
48.6388022657;93994.9290724;
48.6888421857;96896.0;
48.7388821057;33646.4454286;
48.7889220258;15056.6389706;
48.8389619458;0.0;
48.8890018658;7025.44408937;
48.9390417859;12112.0;
48.9890817059;23946.0095801;
49.0391216259;59921.6981341;
49.0891615459;71468.1190951;
49.139201466;12112.0;
49.189241386;17938.3463235;
49.239281306;10037.749953;
49.289321226;8878.47859868;
49.3393611461;12112.0;
49.3894010661;12112.0;
49.4394409861;64457.1976867;
49.4894809061;107394.166187;
49.5395208262;28952.7340611;
49.5895607462;24489.960379;
49.6396006662;21075.1220447;
49.6896405862;14621.4205769;
49.7396805063;12112.0;
49.7897204263;26578.6852432;
49.8397603463;62935.1290935;
49.8898002664;97379.5118213;
49.9398401864;30231.6632565;
49.9898801064;36336.0;
50.0399200264;7325.29072404;
50.0899599465;0.0;
50.1399998665;0.0;
