0;0;
0.0;118302.0;
0.0500399200264;118302.0;
0.100079840053;118302.0;
0.150119760079;118302.0;
0.200159680106;118302.0;
0.250199600132;241898.014693;
0.300239520159;446691.842966;
0.350279440185;651485.671239;
0.400319360211;856279.499511;
0.450359280238;1051030.73024;
0.500399200264;1239271.85731;
0.550439120291;1427512.98439;
0.600479040317;1615754.11146;
0.650518960344;1712500.90529;
0.70055888037;1750725.39028;
0.750598800396;1788949.87528;
0.800638720423;1827174.36028;
0.850678640449;1779546.49774;
0.900718560476;1677737.55252;
0.950758480502;1575928.60731;
1.00079840053;1474119.66209;
1.05083832056;1292823.97493;
1.10087824058;1062035.64047;
1.15091816061;831247.306021;
1.20095808063;600458.971568;
1.25099800066;509337.706255;
1.30103792069;504011.708637;
1.35107784071;498685.711019;
1.40111776074;493359.713401;
1.45115768077;494440.234121;
1.50119760079;499403.192206;
1.55123752082;504366.150291;
1.60127744085;509329.108376;
1.65131736087;507756.737271;
1.7013572809;502277.367334;
1.75139720093;496797.997398;
1.80143712095;491318.627461;
1.85147704098;493033.034011;
1.901516961;498989.784671;
1.95155688103;504946.535331;
2.00159680106;510903.285991;
2.05163672108;509436.947534;
2.10167664111;503652.577462;
2.15171656114;497868.20739;
2.20175648116;492083.837318;
2.25179640119;491490.108153;
2.30183632122;493874.509774;
2.35187624124;496258.911394;
2.40191616127;498643.313015;
2.4519560813;495328.799324;
2.50199600132;488789.333935;
2.55203592135;482249.868545;
2.60207584137;475710.403156;
2.6521157614;477825.521925;
2.70215568143;484770.810969;
2.75219560145;491716.100013;
2.80223552148;498661.389057;
2.85227544151;496167.385205;
2.90231536153;488478.002728;
2.95235528156;480788.62025;
3.00239520159;473099.237772;
3.05243512161;478523.227063;
3.10247504164;491064.744179;
3.15251496167;503606.261296;
3.20255488169;516147.778413;
3.25259480172;513982.909022;
3.30263472174;503947.155254;
3.35267464177;493911.401485;
3.4027145618;483875.647717;
3.45275448182;484771.753761;
3.50279440185;491436.819319;
3.55283432188;498101.884878;
3.6028742419;504766.950437;
3.65291416193;500695.052461;
3.70295408196;491036.5996;
3.75299400198;481378.146739;
3.80303392201;471719.693878;
3.85307384204;474776.006112;
3.90311376206;484354.645319;
3.95315368209;493933.284527;
4.00319360211;503511.923735;
4.05323352214;500685.142431;
4.10327344217;491584.873896;
4.15331336219;482484.605361;
4.20335328222;473384.336827;
4.25339320225;477954.667299;
4.30343312227;489339.747189;
4.3534730423;500724.827079;
4.40351296233;512109.906969;
4.45355288235;511474.947072;
4.50359280238;504933.730285;
4.55363272241;498392.513499;
4.60367264243;491851.296713;
4.65371256246;494064.922903;
4.70375248248;500518.56985;
4.75379240251;506972.216797;
4.80383232254;513425.863744;
4.85387224256;510769.724633;
4.90391216259;503765.388497;
4.95395208262;496761.052362;
5.00399200264;489756.716226;
5.05403192267;490689.141274;
5.1040718427;495354.867867;
5.15411176272;500020.59446;
5.20415168275;504686.321053;
5.25419160278;499896.984166;
5.3042315228;490725.169411;
5.35427144283;481553.354656;
5.40431136285;472381.539901;
5.45435128288;477203.126447;
5.50439120291;488415.568654;
5.55443112293;499628.010861;
5.60447104296;510840.453069;
5.65451096299;509686.026183;
5.70455088301;502966.917524;
5.75459080304;496247.808864;
5.80463072307;489528.700204;
5.85467064309;492044.479619;
5.90471056312;498654.00088;
5.95475048315;505263.52214;
6.00479040317;511873.043401;
6.0548303232;509240.678314;
6.10487024322;502572.602412;
6.15491016325;495904.52651;
6.20495008328;489236.450607;
6.2549900033;490929.639595;
6.30502992333;496219.108081;
6.35506984336;501508.576566;
6.40510976338;506798.045051;
6.45514968341;501553.45884;
6.50518960344;491846.467268;
6.55522952346;482139.475696;
6.60526944349;472432.484124;
6.65530936352;476188.816739;
6.70534928354;485561.791925;
6.75538920357;494934.76711;
6.80542912359;504307.742296;
6.85546904362;500393.282519;
6.90550896365;491020.307334;
6.95554888367;481647.332148;
7.0055888037;472274.356963;
7.05562872373;476796.774909;
7.10566864375;486939.626172;
7.15570856378;497082.477435;
7.20574848381;507225.328697;
7.25578840383;506702.272275;
7.30582832386;501931.967836;
7.35586824389;497161.663397;
7.40590816391;492391.358959;
7.45594808394;493932.306835;
7.50598800396;497947.258861;
7.55602792399;501962.210887;
7.60606784402;505977.162913;
7.65610776404;500372.256247;
7.70614768407;491055.575958;
7.7561876041;481738.895669;
7.80622752412;472422.215381;
7.85626744415;476620.982484;
7.90630736418;485952.174346;
7.9563472842;495283.366208;
8.00638720423;504614.558071;
8.05642712426;500193.041222;
8.10646704428;490632.154784;
8.15650696431;481071.268347;
8.20654688433;471510.381909;
8.25658680436;476130.810051;
8.30662672439;485965.653588;
8.35666664441;495800.497125;
8.40670656444;505635.340662;
8.45674648447;505173.041346;
8.50678640449;500985.701837;
8.55682632452;496798.362327;
8.60686624455;492611.022818;
8.65690616457;495479.424048;
8.7069460846;500858.714168;
8.75698600463;506238.004289;
8.80702592465;511617.294409;
8.85706584468;508548.709339;
8.90710576471;502523.153805;
8.95714568473;496497.598272;
9.00718560476;490472.042738;
9.05722552478;492399.726892;
9.10726544481;497065.203285;
9.15730536484;501730.679678;
9.20734528486;506396.156071;
9.25738520489;500353.88731;
9.30742512492;490687.177864;
9.35746504494;481020.468418;
9.40750496497;471353.758972;
9.457544885;475795.160794;
9.50758480502;484931.697414;
9.55762472505;494068.234033;
9.60766464508;503204.770653;
9.6577045651;498572.504204;
9.70774448513;489435.717384;
9.75778440515;480298.930565;
9.80782432518;471162.143746;
9.85786424521;475965.289374;
9.90790416523;485250.94492;
9.95794408526;494536.600466;
10.0079840053;503822.256012;
10.0580239253;503521.694208;
10.1080638453;500191.784554;
10.1581037654;496861.8749;
10.2081436854;493531.965246;
10.2581836054;471828.774791;
10.3082235254;444420.666129;
10.3582634455;417012.557467;
10.4083033655;389604.448805;
10.4583432855;374303.089135;
10.5083832056;362694.831255;
10.5584231256;351086.573375;
10.6084630456;339478.315495;
10.6585029656;364379.439495;
10.7085428857;400220.02327;
10.7585828057;436060.607044;
10.8086227257;471901.190819;
10.8586626457;487740.398308;
10.9087025658;497693.836428;
10.9587424858;507647.274547;
11.0087824058;517600.712667;
11.0588223258;512325.886564;
11.1088622459;502650.909;
11.1589021659;492975.931435;
11.2089420859;483300.953871;
11.2589820059;488193.246024;
11.309021926;497217.69325;
11.359061846;506242.140475;
11.409101766;515266.587701;
11.4591416861;509951.030847;
11.5091816061;500642.857343;
11.5592215261;491334.683838;
11.6092614461;482026.510334;
11.6593013662;485803.172153;
11.7093412862;493155.035451;
11.7593812062;500506.898748;
11.8094211262;507858.762045;
11.8594610463;503671.212119;
11.9095009663;496390.155291;
11.9595408863;489109.098464;
12.0095808063;481828.041636;
12.0596207264;486356.942897;
12.1096606464;493991.540777;
12.1597005664;501626.138656;
12.2097404864;509260.736535;
12.2597804065;504925.14369;
12.3098203265;497502.473923;
12.3598602465;490079.804155;
12.4099001666;482657.134388;
12.4599400866;488406.1564;
12.5099800066;497485.897724;
12.5600199266;506565.639048;
12.6100598467;515645.380372;
12.6600997667;509941.101046;
12.7101396867;500572.129054;
12.7601796067;491203.157061;
12.8102195268;481834.185068;
12.8602594468;485839.017693;
12.9102993668;493092.80277;
12.9603392868;500346.587848;
13.0103792069;507600.372926;
13.0604191269;503269.622513;
13.1104590469;496181.461081;
13.160498967;489093.29965;
13.210538887;482005.138218;
13.260578807;486841.733572;
13.310618727;494458.558182;
13.3606586471;502075.382793;
13.4106985671;509692.207404;
13.4607384871;504992.926515;
13.5107784071;497481.68611;
13.5608183272;489970.445705;
13.6108582472;482459.2053;
13.6608981672;488906.545097;
13.7109380872;498473.925326;
13.7609780073;508041.305554;
13.8110179273;517608.685782;
13.8610578473;511238.003434;
13.9110977673;501380.641938;
13.9611376874;491523.280442;
14.0111776074;481665.918946;
14.0612175274;487506.677503;
14.1112574475;496707.526373;
14.1612973675;505908.375242;
14.2113372875;515109.224112;
14.2613772075;509304.960865;
14.3114171276;500359.326495;
14.3614570476;491413.692125;
14.4114969676;482468.057754;
14.4615368876;487035.876247;
14.5115768077;494369.975377;
14.5616167277;501704.074507;
14.6116566477;509038.173637;
14.6616965677;504252.718013;
14.7117364878;497042.217456;
14.7617764078;489831.716899;
14.8118163278;482621.216342;
14.8618562479;487238.051783;
14.9118961679;494167.328057;
14.9619360879;501096.604331;
15.0119760079;508025.880604;
15.062015928;503135.646483;
15.112055848;495988.187689;
15.162095768;488840.728896;
15.212135688;481693.270103;
15.2621756081;487642.461212;
15.3122155281;496033.653401;
15.3622554481;504424.84559;
15.4122953681;512816.037778;
15.4623352882;508086.630341;
15.5123752082;500969.454212;
15.5624151282;493852.278084;
15.6124550482;486735.101955;
15.6624949683;490322.859561;
15.7125348883;495811.236681;
15.7625748083;501299.613801;
15.8126147284;506787.990921;
15.8626546484;503982.800481;
15.9126945684;499741.66807;
15.9627344884;495500.535659;
16.0127744085;491259.403249;
16.0628143285;492487.162413;
16.1128542485;494637.880227;
16.1628941685;496788.598041;
16.2129340886;498939.315854;
16.2629740086;497172.502651;
16.3130139286;494761.579879;
16.3630538486;492350.657107;
16.4130937687;489939.734335;
16.4631336887;491226.460043;
16.5131736087;493105.208392;
16.5632135287;494983.956742;
16.6132534488;496862.705091;
16.6632933688;496435.210138;
16.7133332888;495648.332584;
16.7633732089;494861.455029;
16.8134131289;494074.577474;
16.8634530489;494143.074297;
16.9134929689;494341.232333;
16.963532889;494539.390369;
17.013572809;494737.548405;
17.063612729;496877.784172;
17.113652649;499304.222208;
17.1636925691;501730.660244;
17.2137324891;504157.09828;
17.2637724091;500717.128796;
17.3138123291;496437.215456;
17.3638522492;492157.302117;
17.4138921692;487877.388777;
17.4639320892;492325.933055;
17.5139720093;497987.948656;
17.5640119293;503649.964257;
17.6140518493;509311.979858;
17.6640917693;503841.679299;
17.7141316894;496869.618904;
17.7641716094;489897.558509;
17.8142115294;482925.498114;
17.8642514494;488063.526011;
17.9142913695;494785.637065;
17.9643312895;501507.748119;
18.0143712095;508229.859173;
18.0644111295;503020.022661;
18.1144510496;496297.903594;
18.1644909696;489575.784526;
18.2145308896;482853.665459;
18.2645708096;488170.183014;
18.3146107297;494963.851136;
18.3646506497;501757.519259;
18.4146905697;508551.187382;
18.4647304898;502879.320411;
18.5147704098;495727.866945;
18.5648103298;488576.41348;
18.6148502498;481424.960014;
18.6648901699;488721.441106;
18.7149300899;497675.332061;
18.7649700099;506629.223017;
18.8150099299;515583.113972;
18.86504985;508505.995883;
18.91508977;499653.185542;
18.96512969;490800.375202;
19.01516961;481947.564861;
19.0652095301;487600.694758;
19.1152494501;494803.697915;
19.1652893701;502006.701073;
19.2153292902;509209.70423;
19.2653692102;503349.939315;
19.3154091302;496145.443547;
19.3654490502;488940.947779;
19.4154889703;481736.452011;
19.4655288903;487631.572078;
19.5155688103;494824.558667;
19.5656087303;502017.545256;
19.6156486504;509210.531846;
19.6656885704;503031.585791;
19.7157284904;495579.142278;
19.7657684104;488126.698765;
19.8158083305;480674.255253;
19.8658482505;489041.082111;
19.9158881705;498854.158288;
19.9659280905;508667.234465;
20.0159680106;518480.310642;
20.0660079306;510504.636909;
20.1160478506;500970.021454;
20.1660877707;491435.406;
20.2161276907;481900.790545;
20.2661676107;489604.091451;
20.3162075307;498753.138048;
20.3662474508;507902.184645;
20.4162873708;517051.231241;
20.4663272908;500440.135412;
20.5163672108;481764.741312;
20.5664071309;463089.347211;
20.6164470509;444413.953111;
20.6664869709;378941.648386;
20.7165268909;309892.830202;
20.766566811;240844.012018;
20.816606731;171795.193834;
20.866646651;246545.344433;
20.916686571;331755.801934;
20.9667264911;416966.259435;
21.0167664111;502176.716937;
21.0668063311;504190.072785;
21.1168462512;500455.840192;
21.1668861712;496721.607599;
21.2169260912;492987.375005;
21.2669660112;494083.151611;
21.3170059313;495495.027618;
21.3670458513;496906.903625;
21.4170857713;498318.779632;
21.4671256913;492819.179617;
21.5171656114;486892.202703;
21.5672055314;480965.225788;
21.6172454514;475038.248874;
21.6672853714;481819.006834;
21.7173252915;489340.005021;
21.7673652115;496861.003208;
21.8174051315;504382.001395;
21.8674450516;497256.220601;
21.9174849716;489329.398759;
21.9675248916;481402.576918;
22.0175648116;473475.755076;
22.0676047317;483464.037173;
22.1176446517;494368.746944;
22.1676845717;505273.456716;
22.2177244917;516178.166488;
22.2677644118;509839.600752;
22.3178043318;502679.640502;
22.3678442518;495519.680252;
22.4178841718;488359.720002;
22.4679240919;495202.025324;
22.5179640119;502662.475222;
22.5680039319;510122.92512;
22.6180438519;517583.375018;
22.668083772;510204.179429;
22.718123692;502221.312891;
22.768163612;494238.446352;
22.8182035321;486255.579813;
22.8682434521;490707.47729;
22.9182833721;495622.397064;
22.9683232921;500537.316837;
23.0183632122;505452.23661;
23.0684031322;497096.457414;
23.1184430522;488291.925089;
23.1684829722;479487.392763;
23.2185228923;470682.860438;
23.2685628123;481758.335101;
23.3186027323;493438.400249;
23.3686426523;505118.465397;
23.4186825724;516798.530545;
23.4687224924;509885.060708;
23.5187624124;502468.896129;
23.5688023324;495052.73155;
23.6188422525;487636.56697;
23.6688821725;494987.493344;
23.7189220925;502688.134801;
23.7689620126;510388.776258;
23.8190019326;518089.417715;
23.8690418526;510906.575822;
23.9190817726;503420.85577;
23.9691216927;495935.135718;
24.0191616127;488449.415667;
24.0692015327;493095.079027;
24.1192414527;497947.454699;
24.1692813728;502799.830372;
24.2193212928;507652.206045;
24.2693612128;498513.33091;
24.3194011328;489182.139048;
24.3694410529;479850.947186;
24.4194809729;470519.755323;
24.4695208929;479307.570368;
24.519560813;488285.23028;
24.569600733;497262.890191;
24.619640653;506240.550103;
24.669680573;497903.997751;
24.7197204931;489442.249292;
24.7697604131;480980.500833;
24.8198003331;472518.752374;
24.8698402531;483119.924923;
24.9198801732;493797.440513;
24.9699200932;504474.956103;
25.0199600132;515152.471692;
25.0699999332;508481.5;
25.1200398533;501796.660709;
25.1700797733;495111.821417;
25.2201196933;488453.962741;
25.2701596133;493029.111538;
25.3201995334;497604.260335;
25.3702394534;502179.409132;
25.4202793734;506675.586359;
25.4703192935;497113.96072;
25.5203592135;487552.335081;
25.5703991335;477990.709442;
25.6204390535;468598.530138;
25.6704789736;478344.05244;
25.7205188936;488089.574741;
25.7705588136;497835.097042;
25.8205987336;507355.024342;
25.8706386537;498248.261467;
25.9206785737;489141.498593;
25.9707184937;480034.735719;
26.0207584137;471221.626771;
26.0707983338;481489.577953;
26.1208382538;491757.529135;
26.1708781738;502025.480317;
26.2209180939;512003.128008;
26.2709580139;506451.950803;
26.3209979339;500900.773599;
26.3710378539;495349.596394;
26.421077774;490039.44564;
26.471117694;495677.191885;
26.521157614;501314.938131;
26.571197534;506952.684377;
26.6212374541;512318.561638;
26.6712773741;506963.540873;
26.7213172941;501608.520108;
26.7713572141;496253.499344;
26.8213971342;491167.418735;
26.8714370542;495444.32968;
26.9214769742;499721.240625;
26.9715168942;503998.151569;
27.0215568143;507873.679517;
27.0715967343;499249.291075;
27.1216366543;490624.902634;
27.1716765744;482000.514192;
27.2217164944;473980.405834;
27.2717564144;482970.075323;
27.3217963344;491959.744813;
27.3718362545;500949.414302;
27.4218761745;509221.178812;
27.4719160945;499065.079065;
27.5219560145;488908.979318;
27.5719959346;478752.879571;
27.6220358546;469415.137381;
27.6720757746;479372.578693;
27.7221156946;489330.020005;
27.7721556147;499287.461317;
27.8221955347;508625.951749;
27.8722354547;504476.892769;
27.9222753747;500327.833789;
27.9723152948;496178.77481;
28.0223552148;492455.695378;
28.0723951348;497357.110219;
28.1224350549;502258.52506;
28.1724749749;507159.939901;
28.2225148949;511302.560112;
28.2725548149;501107.179037;
28.322594735;490911.797962;
28.372634655;480716.416887;
28.422674575;471541.394292;
28.472714495;480435.237357;
28.5227544151;489329.080423;
28.5727943351;498222.923488;
28.6228342551;506118.615207;
28.6728741751;497390.404238;
28.7229140952;488662.193268;
28.7729540152;479933.982298;
28.8229939352;472247.42928;
28.8730338553;480928.852936;
28.9230737753;489610.276591;
28.9731136953;498291.700247;
29.0231536153;506208.020582;
29.0731935354;502749.258011;
29.1232334554;499290.495441;
29.1732733754;495831.73287;
29.2233132954;492933.946876;
29.2733532155;497946.944869;
29.3233931355;502959.942862;
29.3734330555;507972.940855;
29.4234729755;512291.259384;
29.4735128956;507295.525159;
29.5235528156;502299.790934;
29.5735927356;497304.056709;
29.6236326556;493001.527508;
29.6736725757;497554.408546;
29.7237124957;502107.289584;
29.7737524157;506660.170622;
29.8237923358;510114.468763;
29.8738322558;500171.789224;
29.9238721758;490229.109684;
29.9739120958;480286.430145;
30.0239520159;471809.521304;
30.0739919359;480426.153551;
30.1240318559;489042.785797;
30.1740717759;497659.418044;
30.224111696;505304.406343;
30.274151616;502096.598035;
30.324191536;498888.789726;
30.374231456;495680.981418;
30.4242713761;493156.87535;
30.4743112961;497958.454731;
30.5243512161;502760.034113;
30.5743911362;507561.613494;
30.6244310562;511332.990264;
30.6744709762;504500.791412;
30.7245108962;497668.59256;
30.7745508163;490836.393708;
30.8245907363;474676.718234;
30.8746306563;366174.685111;
30.9246705763;257672.651987;
30.9747104964;149170.618863;
31.0247504164;60371.1183369;
31.0747903364;159410.722904;
31.1248302564;258450.327471;
31.1748701765;357489.932038;
31.2249100965;447651.447826;
31.2749500165;456216.278496;
31.3249899365;464781.109166;
31.3750298566;473345.939835;
31.4250697766;481976.552944;
31.4751096966;491190.651422;
31.5251496167;500404.749899;
31.5751895367;509618.848376;
31.6252294567;516909.511044;
31.6752693767;507718.931324;
31.7253092968;498528.351603;
31.7753492168;489337.771883;
31.8253891368;481887.661986;
31.8754290568;488857.720785;
31.9254689769;495827.779583;
31.9755088969;502797.838382;
32.0255488169;508191.361317;
32.0755887369;500944.072788;
32.125628657;493696.784259;
32.175668577;486449.49573;
32.225708497;480879.825463;
32.275748417;488337.773366;
32.3257883371;495795.721268;
32.3758282571;503253.669171;
32.4258681771;508995.539035;
32.4759080972;501820.316613;
32.5259480172;494645.094191;
32.5759879372;487469.871769;
32.6260278572;482337.136643;
32.6760677773;492117.186481;
32.7261076973;501897.236319;
32.7761476173;511677.286157;
32.8261875373;519029.939486;
32.8762274574;509179.333378;
32.9262673774;499328.727269;
32.9763072974;489478.121161;
33.0263472174;482013.949826;
33.0763871375;490977.359049;
33.1264270575;499940.768272;
33.1764669775;508904.177494;
33.2265068976;515508.824543;
33.2765468176;506333.256795;
33.3265867376;497157.689047;
33.3766266576;487982.121299;
33.4266665777;481019.477293;
33.4767064977;488453.906439;
33.5267464177;495888.335585;
33.5767863377;503322.764731;
33.6268262578;508764.917624;
33.6768661778;501595.199592;
33.7269060978;494425.48156;
33.7769460178;487255.763528;
33.8269859379;482125.78371;
33.8770258579;489566.467844;
33.9270657779;497007.151979;
33.9771056979;504447.836113;
34.027145618;509745.042725;
34.077185538;502175.246604;
34.127225458;494605.450482;
34.1772653781;487035.654361;
34.2273052981;481972.670937;
34.2773452181;491573.577904;
34.3273851381;501174.48487;
34.3774250582;510775.391837;
34.4274649782;517491.47067;
34.4775048982;507754.955553;
34.5275448182;498018.440435;
34.5775847383;488281.925317;
34.6276246583;481396.007053;
34.6776645783;490367.411976;
34.7277044983;499338.816899;
34.7777444184;508310.221822;
34.8277843384;514590.558525;
34.8778242584;506263.167219;
34.9278641785;497935.775914;
34.9779040985;489608.384608;
35.0279440185;483651.494799;
35.0779839385;490256.019943;
35.1280238586;496860.545086;
35.1780637786;503465.070229;
35.2281036986;507898.192874;
35.2781436186;501094.76697;
35.3281835387;494291.341065;
35.3782234587;487487.91516;
35.4282633787;482857.676025;
35.4783032987;489213.995351;
35.5283432188;495570.314677;
35.5783831388;501926.634002;
35.6284230588;506156.355282;
35.6784629788;499879.099011;
35.7285028989;493601.84274;
35.7785428189;487324.586469;
35.8285827389;483318.98375;
35.878622659;490286.040155;
35.928662579;497253.096559;
35.978702499;504220.152963;
36.028742419;509053.791613;
36.0787823391;503809.602993;
36.1288222591;498565.414373;
36.1788621791;493321.225753;
36.2289020991;489626.618282;
36.2789420192;493092.632516;
36.3289819392;496558.646751;
36.3790218592;500024.660985;
36.4290617792;502484.528109;
36.4791016993;500394.611347;
36.5291416193;498304.694586;
36.5791815393;496214.777824;
36.6292214593;494468.687359;
36.6792613794;494244.508571;
36.7293012994;494020.329783;
36.7793412194;493796.150994;
36.8293811395;493712.127394;
36.8794210595;494235.544832;
36.9294609795;494758.962271;
36.9795008995;495282.37971;
37.0295408196;495513.990439;
37.0795807396;494506.936088;
37.1296206596;493499.881738;
37.1796605796;492492.827387;
37.2297004997;492105.260428;
37.2797404197;494293.755808;
37.3297803397;496482.251189;
37.3798202597;498670.746569;
37.4298601798;499885.484118;
37.4799000998;497132.288375;
37.5299400198;494379.092631;
37.5799799399;491625.896888;
37.6300198599;490386.819103;
37.6800597799;495195.153872;
37.7300996999;500003.488641;
37.78013962;504811.82341;
37.83017954;507367.818928;
37.88021946;501104.323632;
37.93025938;494840.828335;
37.9802993001;488577.333039;
38.0303392201;484797.582296;
38.0803791401;490554.930786;
38.1304190601;496312.279275;
38.1804589802;502069.627764;
38.2304989002;505408.610392;
38.2805388202;499639.759587;
38.3305787402;493870.908782;
38.3806186603;488102.057977;
38.4306585803;484911.716231;
38.4806985003;491248.269794;
38.5307384204;497584.823356;
38.5807783404;503921.376918;
38.6308182604;507429.358867;
38.6808581804;500682.478059;
38.7308981005;493935.59725;
38.7809380205;487188.716441;
38.8309779405;483903.25539;
38.8810178605;492934.207803;
38.9310577806;501965.160217;
38.9810977006;510996.11263;
39.0311376206;515901.5147;
39.0811775406;506396.923225;
39.1312174607;496892.331751;
39.1812573807;487387.740277;
39.2312973007;482169.53881;
39.2813372207;491650.600197;
39.3313771408;501131.661584;
39.3814170608;510612.722971;
39.4314569808;515816.948484;
39.4814969009;506618.612578;
39.5315368209;497420.276672;
39.5815767409;488221.940766;
39.6316166609;482851.796104;
39.681656581;490143.611512;
39.731696501;497435.42692;
39.781736421;504727.242327;
39.831776341;508527.17701;
39.8818162611;500981.409068;
39.9318561811;493435.641127;
39.9818961011;485889.873186;
40.0319360211;481882.545596;
40.0819759412;489171.117099;
40.1320158612;496459.688601;
40.1820557812;503748.260103;
40.2320957013;507510.327956;
40.2821356213;500210.005764;
40.3321755413;492909.683572;
40.3822154613;485609.36138;
40.4322553814;482563.121149;
40.4822953014;492632.401656;
40.5323352214;502701.682162;
40.5823751414;512770.962669;
40.6324150615;517909.681393;
40.6824549815;508106.112798;
40.7324949015;498302.544203;
40.7825348215;488498.975609;
40.8325747416;483435.857127;
40.8826146616;492496.333086;
40.9326545816;501556.809046;
40.9826945016;510617.285005;
41.0327344217;504728.343756;
41.0827743417;455045.160978;
41.1328142617;405361.9782;
41.1828541818;355678.795422;
41.2328941018;324846.52671;
41.2829340218;348319.496999;
41.3329739418;371792.467288;
41.3830138619;395265.437577;
41.4330537819;417835.727853;
41.4830937019;437848.438498;
41.5331336219;457861.149142;
41.583173542;477873.859786;
41.633213462;493999.79785;
41.683253382;499293.269528;
41.733293302;504586.741206;
41.7833332221;509880.212884;
41.8333731421;512348.929195;
41.8834130621;507072.721285;
41.9334529822;501796.513375;
41.9834929022;496520.305466;
42.0335328222;493911.8274;
42.0835727422;498499.992043;
42.1336126623;503088.156686;
42.1836525823;507676.321329;
42.2336925023;508336.73094;
42.2837324223;498570.942476;
42.3337723424;488805.154012;
42.3838122624;479039.365548;
42.4338521824;474508.238314;
42.4838921024;483652.030721;
42.5339320225;492795.823127;
42.5839719425;501939.615533;
42.6340118625;505910.957937;
42.6840517825;496582.76847;
42.7340917026;487254.579002;
42.7841316226;477926.389534;
42.8341715426;473652.999354;
42.8842114627;482173.294506;
42.9342513827;490693.589657;
42.9842913027;499213.884809;
43.0343312227;504404.817254;
43.0843711428;501300.087455;
43.1344110628;498195.357656;
43.1844509828;495090.627857;
43.2344909028;494391.713078;
43.2845308229;499594.612522;
43.3345707429;504797.511967;
43.3846106629;510000.411411;
43.4346505829;510561.882671;
43.484690503;499911.88903;
43.534730423;489261.89539;
43.584770343;478611.90175;
43.634810263;473280.683658;
43.6848501831;480601.272013;
43.7348901031;487921.860368;
43.7849300231;495242.448723;
43.8349699432;498773.080572;
43.8850098632;493425.065394;
43.9350497832;488077.050217;
43.9850897032;482729.035039;
44.0351296233;480388.71805;
44.0851695433;484988.391885;
44.1352094633;489588.065721;
44.1852493833;494187.739556;
44.2352893034;497364.264169;
44.2853292234;497306.217876;
44.3353691434;497248.171582;
44.3854090634;497190.125289;
44.4354489835;498065.825133;
44.4854889035;501032.190885;
44.5355288235;503998.556636;
44.5855687436;506964.922388;
44.6356086636;508084.457965;
44.6856485836;505130.101791;
44.7356885036;502175.745618;
44.7857284237;499221.389444;
44.8357683437;498108.152434;
44.8858082637;500996.455929;
44.9358481837;503884.759424;
44.9858881038;506773.06292;
45.0359280238;506714.836052;
45.0859679438;500346.249356;
45.1360078638;493977.662661;
45.1860477839;487609.075966;
45.2360877039;483895.318598;
45.2861276239;485784.325128;
45.3361675439;487673.331659;
45.386207464;489562.338189;
45.436247384;491780.763639;
45.486287304;494684.329306;
45.5363272241;497587.894974;
45.5863671441;500491.460641;
45.6364070641;502265.88455;
45.6864469841;501725.703742;
45.7364869042;501185.522934;
45.7865268242;500645.342126;
45.8365667442;500453.312768;
45.8866066642;500964.720628;
45.9366465843;501476.128489;
45.9866865043;501987.53635;
46.0367264243;502146.350652;
46.0867663443;501602.916602;
46.1368062644;501059.482552;
46.1868461844;500516.048502;
46.2368861044;499254.01774;
46.2869260245;496581.136049;
46.3369659445;493908.254358;
46.3870058645;491235.372667;
46.4370457845;488934.348214;
46.4870857046;487353.087118;
46.5371256246;485771.826022;
46.5871655446;484190.564927;
46.6372054646;484072.465927;
46.6872453847;486746.598615;
46.7372853047;489420.731304;
46.7873252247;492094.863993;
46.8373651447;492434.765508;
46.8874050648;488382.533751;
46.9374449848;484330.301993;
46.9874849048;480278.070235;
47.0375248248;480731.39083;
47.0875647449;489544.17975;
47.1376046649;498356.96867;
47.1876445849;507169.75759;
47.237684505;510843.719608;
47.287724425;505115.901527;
47.337764345;499388.083447;
47.387804265;493660.265367;
47.4378441851;490933.50888;
47.4878841051;493621.402544;
47.5379240251;496309.296207;
47.5879639451;498997.189871;
47.6380038652;498248.214667;
47.6880437852;491383.740074;
47.7380837052;484519.265481;
47.7881236252;477654.790889;
47.8381635453;475954.320782;
47.8882034653;483316.442261;
47.9382433853;490678.56374;
47.9882833053;498040.685218;
48.0383232254;499709.772431;
48.0883631454;491524.484706;
48.1384030654;483339.196982;
48.1884429855;475153.909258;
48.2384829055;474388.115508;
48.2885228255;486289.857449;
48.3385627455;498191.59939;
48.3886026656;510093.341331;
48.4386425856;514764.029228;
48.4886825056;507256.541816;
48.5387224256;499749.054404;
48.5887623457;492241.566993;
48.6388022657;490469.744273;
48.6888421857;498226.930826;
48.7388821057;505984.117379;
48.7889220258;513741.303932;
48.8389619458;515627.947608;
48.8890018658;507893.028814;
48.9390417859;500158.11002;
48.9890817059;492423.191226;
49.0391216259;118302.0;
49.0891615459;118302.0;
49.139201466;118302.0;
49.189241386;118302.0;
49.239281306;118302.0;
49.289321226;118302.0;
49.3393611461;118302.0;
49.3894010661;118302.0;
49.4394409861;118302.0;
49.4894809061;118302.0;
49.5395208262;118302.0;
49.5895607462;118302.0;
49.6396006662;118302.0;
49.6896405862;118302.0;
49.7396805063;118302.0;
49.7897204263;118302.0;
49.8397603463;118302.0;
49.8898002664;118302.0;
49.9398401864;118302.0;
49.9898801064;118302.0;
50.0399200264;118302.0;
50.0899599465;118302.0;
50.1399998665;118302.0;
