0;0;0;
0.0;10.0;0.0;
0.0500061027149;10.0;0.0;
0.10001220543;10.7249495614;0.0;
0.150018308145;19.1316525432;0.0;
0.20002441086;42.7971755342;0.0;
0.250030513575;77.7128583442;0.0;
0.30003661629;99.4362987569;0.0;
0.350042719005;102.0;0.0;
0.400048821719;102.0;0.0;
0.450054924434;102.0;0.0;
0.500061027149;102.0;0.0;
0.550067129864;102.0;0.0;
0.600073232579;102.0;0.0;
0.650079335294;102.0;0.0;
0.700085438009;79.6151405367;0.0;
0.750091540724;74.0;0.0;
0.800097643439;74.0;0.0;
0.850103746154;74.0;0.0;
0.900109848869;74.0;0.0;
0.950115951584;74.0;0.0;
1.0001220543;74.0;0.0;
1.05012815701;74.0;0.0;
1.10013425973;74.0;0.0;
1.15014036244;74.0;0.0;
1.20014646516;74.0;0.0;
1.25015256787;74.0;0.0;
1.30015867059;74.0;0.0;
1.3501647733;74.0;0.0;
1.40017087602;74.0;0.0;
1.45017697873;74.0;0.0;
1.50018308145;74.0;0.0;
1.55018918416;74.0;0.0;
1.60019528688;74.0;0.0;
1.65020138959;74.0;0.0;
1.70020749231;74.0;0.0;
1.75021359502;74.0;0.0;
1.80021969774;74.0;0.0;
1.85022580045;74.0;0.0;
1.90023190317;74.0;0.0;
1.95023800588;74.0;0.0;
2.0002441086;74.0;0.0;
2.05025021131;74.0;0.0;
2.10025631403;74.0;0.0;
2.15026241674;74.0;0.0;
2.20026851946;74.0;0.0;
2.25027462217;74.0;0.0;
2.30028072489;74.0;0.0;
2.3502868276;74.0;0.0;
2.40029293032;74.0;0.0;
2.45029903303;74.0;0.0;
2.50030513575;74.0;0.0;
2.55031123846;74.0;0.0;
2.60031734118;74.0;0.0;
2.65032344389;74.0;0.0;
2.70032954661;74.0;0.0;
2.75033564932;74.0;0.0;
2.80034175204;74.0;0.0;
2.85034785475;74.0;0.0;
2.90035395747;74.0;0.0;
2.95036006018;74.0;0.0;
3.0003661629;74.0;0.0;
3.05037226561;74.0;0.0;
3.10037836833;74.0;0.0;
3.15038447104;74.0;0.0;
3.20039057376;74.0;0.0;
3.25039667647;74.0;0.0;
3.30040277919;74.0;0.0;
3.3504088819;74.0;0.0;
3.40041498462;74.0;0.0;
3.45042108733;74.0;0.0;
3.50042719005;74.0;0.0;
3.55043329276;74.0;0.0;
3.60043939548;74.0;0.0;
3.65044549819;74.0;0.0;
3.7004516009;74.0;0.0;
3.75045770362;74.0;0.0;
3.80046380633;74.0;0.0;
3.85046990905;74.0;0.0;
3.90047601176;74.0;0.0;
3.95048211448;74.0;0.0;
4.00048821719;74.0;0.0;
4.05049431991;74.0;0.0;
4.10050042262;74.0;0.0;
4.15050652534;74.0;0.0;
4.20051262805;74.0;0.0;
4.25051873077;74.0;0.0;
4.30052483348;74.0;0.0;
4.3505309362;74.0;0.0;
4.40053703891;74.0;0.0;
4.45054314163;74.0;0.0;
4.50054924434;74.0;0.0;
4.55055534706;74.0;0.0;
4.60056144977;74.0;0.0;
4.65056755249;74.0;0.0;
4.7005736552;74.0;0.0;
4.75057975792;74.0;0.0;
4.80058586063;74.0;0.0;
4.85059196335;74.0;0.0;
4.90059806606;74.0;0.0;
4.95060416878;74.0;0.0;
5.00061027149;74.0;0.0;
5.05061637421;74.0;0.0;
5.10062247692;74.0;0.0;
5.15062857964;74.0;0.0;
5.20063468235;74.0;0.0;
5.25064078507;74.0;0.0;
5.30064688778;74.0;0.0;
5.3506529905;74.0;0.0;
5.40065909321;74.0;0.0;
5.45066519593;74.0;0.0;
5.50067129864;74.0;0.0;
5.55067740136;74.0;0.0;
5.60068350407;74.0;0.0;
5.65068960679;74.0;0.0;
5.7006957095;74.0;0.0;
5.75070181222;74.0;0.0;
5.80070791493;74.0;0.0;
5.85071401765;74.0;0.0;
5.90072012036;74.0;0.0;
5.95072622308;74.0;0.0;
6.00073232579;74.0;0.0;
6.05073842851;74.0;0.0;
6.10074453122;74.0;0.0;
6.15075063394;74.0;0.0;
6.20075673665;74.0;0.0;
6.25076283937;74.0;0.0;
6.30076894208;74.0;0.0;
6.3507750448;74.0;0.0;
6.40078114751;74.0;0.0;
6.45078725023;74.0;0.0;
6.50079335294;74.0;0.0;
6.55079945566;74.0;0.0;
6.60080555837;74.0;0.0;
6.65081166109;74.0;0.0;
6.7008177638;74.0;0.0;
6.75082386652;74.0;0.0;
6.80082996923;74.0;0.0;
6.85083607195;74.0;0.0;
6.90084217466;74.0;0.0;
6.95084827738;74.0;0.0;
7.00085438009;74.0;0.0;
7.05086048281;74.0;0.0;
7.10086658552;74.0;0.0;
7.15087268824;74.0;0.0;
7.20087879095;74.0;0.0;
7.25088489367;74.0;0.0;
7.30089099638;74.0;0.0;
7.3508970991;74.0;0.0;
7.40090320181;74.0;0.0;
7.45090930452;74.0;0.0;
7.50091540724;74.0;0.0;
7.55092150995;74.0;0.0;
7.60092761267;74.0;0.0;
7.65093371538;74.0;0.0;
7.7009398181;74.0;0.0;
7.75094592081;74.0;0.0;
7.80095202353;74.0;0.0;
7.85095812624;74.0;0.0;
7.90096422896;74.0;0.0;
7.95097033167;74.0;0.0;
8.00097643439;74.0;0.0;
8.0509825371;74.0;0.0;
8.10098863982;74.0;0.0;
8.15099474253;74.0;0.0;
8.20100084525;74.0;0.0;
8.25100694796;74.0;0.0;
8.30101305068;74.0;0.0;
8.35101915339;74.0;0.0;
8.40102525611;74.0;0.0;
8.45103135882;74.0;0.0;
8.50103746154;74.0;0.0;
8.55104356425;74.0;0.0;
8.60104966697;74.0;0.0;
8.65105576968;74.0;0.0;
8.7010618724;74.0;0.0;
8.75106797511;74.0;0.0;
8.80107407783;74.0;0.0;
8.85108018054;74.0;0.0;
8.90108628326;74.0;0.0;
8.95109238597;74.0;0.0;
9.00109848869;74.0;0.0;
9.0511045914;74.0;0.0;
9.10111069412;74.0;0.0;
9.15111679683;74.0;0.0;
9.20112289955;74.0;0.0;
9.25112900226;74.0;0.0;
9.30113510498;74.0;0.0;
9.35114120769;74.0;0.0;
9.40114731041;74.0;0.0;
9.45115341312;74.0;0.0;
9.50115951584;74.0;0.0;
9.55116561855;74.0;0.0;
9.60117172127;74.0;0.0;
9.65117782398;74.0;0.0;
9.7011839267;74.0;0.0;
9.75119002941;74.0;0.0;
9.80119613213;74.0;0.0;
9.85120223484;74.0;0.0;
9.90120833756;74.0;0.0;
9.95121444027;74.0;0.0;
10.001220543;74.0;0.0;
10.0512266457;74.0;0.0;
10.1012327484;74.0;0.0;
10.1512388511;74.0;0.0;
10.2012449538;4.0;0.0;
10.2512510566;4.0;0.0;
10.3012571593;4.0;0.0;
10.351263262;4.0;0.0;
10.4012693647;4.0;0.0;
10.4512754674;51.1362446635;0.0;
10.5012815701;76.0;0.0;
10.5512876729;76.0;0.0;
10.6012937756;76.0;0.0;
10.6512998783;76.0;0.0;
10.701305981;76.0;0.0;
10.7513120837;76.0;0.0;
10.8013181864;76.0;0.0;
10.8513242891;76.0;0.0;
10.9013303919;76.0;0.0;
10.9513364946;76.0;0.0;
11.0013425973;76.0;0.0;
11.0513487;76.0;0.0;
11.1013548027;76.0;0.0;
11.1513609054;76.0;0.0;
11.2013670081;76.0;0.0;
11.2513731109;76.0;0.0;
11.3013792136;76.0;0.0;
11.3513853163;76.0;0.0;
11.401391419;76.0;0.0;
11.4513975217;76.0;0.0;
11.5014036244;76.0;0.0;
11.5514097271;76.0;0.0;
11.6014158299;76.0;0.0;
11.6514219326;76.0;0.0;
11.7014280353;76.0;0.0;
11.751434138;76.0;0.0;
11.8014402407;76.0;0.0;
11.8514463434;76.0;0.0;
11.9014524462;76.0;0.0;
11.9514585489;76.0;0.0;
12.0014646516;76.0;0.0;
12.0514707543;76.0;0.0;
12.101476857;76.0;0.0;
12.1514829597;76.0;0.0;
12.2014890624;76.0;0.0;
12.2514951652;76.0;0.0;
12.3015012679;76.0;0.0;
12.3515073706;76.0;0.0;
12.4015134733;76.0;0.0;
12.451519576;76.0;0.0;
12.5015256787;76.0;0.0;
12.5515317814;76.0;0.0;
12.6015378842;76.0;0.0;
12.6515439869;76.0;0.0;
12.7015500896;76.0;0.0;
12.7515561923;76.0;0.0;
12.801562295;76.0;0.0;
12.8515683977;76.0;0.0;
12.9015745005;76.0;0.0;
12.9515806032;76.0;0.0;
13.0015867059;76.0;0.0;
13.0515928086;76.0;0.0;
13.1015989113;76.0;0.0;
13.151605014;76.0;0.0;
13.2016111167;76.0;0.0;
13.2516172195;76.0;0.0;
13.3016233222;76.0;0.0;
13.3516294249;76.0;0.0;
13.4016355276;76.0;0.0;
13.4516416303;76.0;0.0;
13.501647733;76.0;0.0;
13.5516538357;76.0;0.0;
13.6016599385;76.0;0.0;
13.6516660412;76.0;0.0;
13.7016721439;76.0;0.0;
13.7516782466;76.0;0.0;
13.8016843493;76.0;0.0;
13.851690452;76.0;0.0;
13.9016965548;76.0;0.0;
13.9517026575;76.0;0.0;
14.0017087602;76.0;0.0;
14.0517148629;76.0;0.0;
14.1017209656;76.0;0.0;
14.1517270683;76.0;0.0;
14.201733171;76.0;0.0;
14.2517392738;76.0;0.0;
14.3017453765;76.0;0.0;
14.3517514792;76.0;0.0;
14.4017575819;76.0;0.0;
14.4517636846;76.0;0.0;
14.5017697873;76.0;0.0;
14.55177589;76.0;0.0;
14.6017819928;76.0;0.0;
14.6517880955;76.0;0.0;
14.7017941982;76.0;0.0;
14.7518003009;76.0;0.0;
14.8018064036;76.0;0.0;
14.8518125063;76.0;0.0;
14.901818609;76.0;0.0;
14.9518247118;76.0;0.0;
15.0018308145;76.0;0.0;
15.0518369172;76.0;0.0;
15.1018430199;76.0;0.0;
15.1518491226;76.0;0.0;
15.2018552253;76.0;0.0;
15.2518613281;76.0;0.0;
15.3018674308;76.0;0.0;
15.3518735335;76.0;0.0;
15.4018796362;76.0;0.0;
15.4518857389;76.0;0.0;
15.5018918416;76.0;0.0;
15.5518979443;76.0;0.0;
15.6019040471;76.0;0.0;
15.6519101498;76.0;0.0;
15.7019162525;76.0;0.0;
15.7519223552;76.0;0.0;
15.8019284579;76.0;0.0;
15.8519345606;76.0;0.0;
15.9019406633;76.0;0.0;
15.9519467661;76.0;0.0;
16.0019528688;76.0;0.0;
16.0519589715;76.0;0.0;
16.1019650742;76.0;0.0;
16.1519711769;76.0;0.0;
16.2019772796;76.0;0.0;
16.2519833824;76.0;0.0;
16.3019894851;76.0;0.0;
16.3519955878;76.0;0.0;
16.4020016905;76.0;0.0;
16.4520077932;76.0;0.0;
16.5020138959;76.0;0.0;
16.5520199986;76.0;0.0;
16.6020261014;76.0;0.0;
16.6520322041;76.0;0.0;
16.7020383068;76.0;0.0;
16.7520444095;76.0;0.0;
16.8020505122;76.0;0.0;
16.8520566149;76.0;0.0;
16.9020627176;76.0;0.0;
16.9520688204;76.0;0.0;
17.0020749231;76.0;0.0;
17.0520810258;76.0;0.0;
17.1020871285;76.0;0.0;
17.1520932312;76.0;0.0;
17.2020993339;76.0;0.0;
17.2521054367;76.0;0.0;
17.3021115394;76.0;0.0;
17.3521176421;76.0;0.0;
17.4021237448;76.0;0.0;
17.4521298475;76.0;0.0;
17.5021359502;76.0;0.0;
17.5521420529;76.0;0.0;
17.6021481557;76.0;0.0;
17.6521542584;76.0;0.0;
17.7021603611;76.0;0.0;
17.7521664638;76.0;0.0;
17.8021725665;76.0;0.0;
17.8521786692;76.0;0.0;
17.9021847719;76.0;0.0;
17.9521908747;76.0;0.0;
18.0021969774;76.0;0.0;
18.0522030801;77.9004692829;0.0;
18.1022091828;78.0;0.0;
18.1522152855;78.0;0.0;
18.2022213882;78.0;0.0;
18.252227491;78.0;0.0;
18.3022335937;82.7493227379;0.0;
18.3522396964;93.2321710909;0.0;
18.4022457991;111.240903833;0.0;
18.4522519018;127.641942609;0.0;
18.5022580045;142.216188171;0.0;
18.5522641072;144.0;0.0;
18.60227021;144.0;0.0;
18.6522763127;144.0;0.0;
18.7022824154;144.0;0.0;
18.7522885181;144.0;0.0;
18.8022946208;144.0;0.0;
18.8523007235;144.0;0.0;
18.9023068262;144.0;0.0;
18.952312929;144.0;0.0;
19.0023190317;144.0;0.0;
19.0523251344;144.0;0.0;
19.1023312371;144.0;0.0;
19.1523373398;144.0;0.0;
19.2023434425;144.0;0.0;
19.2523495452;144.0;0.0;
19.302355648;144.0;0.0;
19.3523617507;144.0;0.0;
19.4023678534;144.0;0.0;
19.4523739561;144.0;0.0;
19.5023800588;144.0;0.0;
19.5523861615;144.0;0.0;
19.6023922643;144.0;0.0;
19.652398367;144.0;0.0;
19.7024044697;144.0;0.0;
19.7524105724;144.0;0.0;
19.8024166751;144.0;0.0;
19.8524227778;144.0;0.0;
19.9024288805;144.0;0.0;
19.9524349833;144.0;0.0;
20.002441086;144.0;0.0;
20.0524471887;144.0;0.0;
20.1024532914;144.0;0.0;
20.1524593941;144.0;0.0;
20.2024654968;144.0;0.0;
20.2524715995;144.0;0.0;
20.3024777023;144.0;0.0;
20.352483805;144.0;0.0;
20.4024899077;144.0;0.0;
20.4524960104;4.0;0.0;
20.5025021131;4.0;0.0;
20.5525082158;4.0;0.0;
20.6025143186;4.0;0.0;
20.6525204213;4.0;0.0;
20.702526524;84.522436013;0.0;
20.7525326267;140.0;0.0;
20.8025387294;140.0;0.0;
20.8525448321;140.0;0.0;
20.9025509348;140.0;0.0;
20.9525570376;140.0;0.0;
21.0025631403;140.0;0.0;
21.052569243;140.0;0.0;
21.1025753457;140.0;0.0;
21.1525814484;140.0;0.0;
21.2025875511;140.0;0.0;
21.2525936538;140.0;0.0;
21.3025997566;140.0;0.0;
21.3526058593;140.0;0.0;
21.402611962;140.0;0.0;
21.4526180647;140.0;0.0;
21.5026241674;140.0;0.0;
21.5526302701;140.0;0.0;
21.6026363729;140.0;0.0;
21.6526424756;140.0;0.0;
21.7026485783;140.0;0.0;
21.752654681;140.0;0.0;
21.8026607837;140.0;0.0;
21.8526668864;140.0;0.0;
21.9026729891;140.0;0.0;
21.9526790919;140.0;0.0;
22.0026851946;140.0;0.0;
22.0526912973;140.0;0.0;
22.1026974;140.0;0.0;
22.1527035027;140.0;0.0;
22.2027096054;140.0;0.0;
22.2527157081;140.0;0.0;
22.3027218109;140.0;0.0;
22.3527279136;140.0;0.0;
22.4027340163;140.0;0.0;
22.452740119;140.0;0.0;
22.5027462217;140.0;0.0;
22.5527523244;140.0;0.0;
22.6027584271;140.0;0.0;
22.6527645299;140.0;0.0;
22.7027706326;140.0;0.0;
22.7527767353;140.0;0.0;
22.802782838;140.0;0.0;
22.8527889407;140.0;0.0;
22.9027950434;140.0;0.0;
22.9528011462;140.0;0.0;
23.0028072489;140.0;0.0;
23.0528133516;140.0;0.0;
23.1028194543;140.0;0.0;
23.152825557;140.0;0.0;
23.2028316597;140.0;0.0;
23.2528377624;140.0;0.0;
23.3028438652;140.0;0.0;
23.3528499679;140.0;0.0;
23.4028560706;140.0;0.0;
23.4528621733;140.0;0.0;
23.502868276;140.0;0.0;
23.5528743787;140.0;0.0;
23.6028804814;140.0;0.0;
23.6528865842;140.0;0.0;
23.7028926869;140.0;0.0;
23.7528987896;140.0;0.0;
23.8029048923;140.0;0.0;
23.852910995;140.0;0.0;
23.9029170977;140.0;0.0;
23.9529232005;140.0;0.0;
24.0029293032;140.0;0.0;
24.0529354059;140.0;0.0;
24.1029415086;140.0;0.0;
24.1529476113;140.0;0.0;
24.202953714;140.0;0.0;
24.2529598167;140.0;0.0;
24.3029659195;140.0;0.0;
24.3529720222;140.0;0.0;
24.4029781249;140.0;0.0;
24.4529842276;140.0;0.0;
24.5029903303;140.0;0.0;
24.552996433;140.0;0.0;
24.6030025357;140.0;0.0;
24.6530086385;140.0;0.0;
24.7030147412;140.0;0.0;
24.7530208439;140.0;0.0;
24.8030269466;140.0;0.0;
24.8530330493;140.0;0.0;
24.903039152;140.0;0.0;
24.9530452548;140.0;0.0;
25.0030513575;140.0;0.0;
25.0530574602;140.0;0.0;
25.1030635629;140.0;0.0;
25.1530696656;140.0;0.0;
25.2030757683;140.0;0.0;
25.253081871;140.0;0.0;
25.3030879738;140.0;0.0;
25.3530940765;140.0;0.0;
25.4031001792;140.0;0.0;
25.4531062819;140.0;0.0;
25.5031123846;140.0;0.0;
25.5531184873;140.0;0.0;
25.60312459;140.0;0.0;
25.6531306928;140.0;0.0;
25.7031367955;140.0;0.0;
25.7531428982;140.0;0.0;
25.8031490009;140.0;0.0;
25.8531551036;140.0;0.0;
25.9031612063;140.0;0.0;
25.953167309;140.0;0.0;
26.0031734118;140.0;0.0;
26.0531795145;140.0;0.0;
26.1031856172;140.0;0.0;
26.1531917199;140.0;0.0;
26.2031978226;140.0;0.0;
26.2532039253;140.0;0.0;
26.3032100281;140.0;0.0;
26.3532161308;140.0;0.0;
26.4032222335;140.0;0.0;
26.4532283362;140.0;0.0;
26.5032344389;140.0;0.0;
26.5532405416;140.0;0.0;
26.6032466443;140.0;0.0;
26.6532527471;140.0;0.0;
26.7032588498;140.0;0.0;
26.7532649525;140.0;0.0;
26.8032710552;140.0;0.0;
26.8532771579;140.0;0.0;
26.9032832606;140.0;0.0;
26.9532893633;140.0;0.0;
27.0032954661;140.0;0.0;
27.0533015688;140.0;0.0;
27.1033076715;140.0;0.0;
27.1533137742;140.0;0.0;
27.2033198769;140.0;0.0;
27.2533259796;140.0;0.0;
27.3033320824;140.0;0.0;
27.3533381851;140.0;0.0;
27.4033442878;140.0;0.0;
27.4533503905;140.0;0.0;
27.5033564932;140.0;0.0;
27.5533625959;140.0;0.0;
27.6033686986;140.0;0.0;
27.6533748014;140.0;0.0;
27.7033809041;140.0;0.0;
27.7533870068;140.0;0.0;
27.8033931095;140.0;0.0;
27.8533992122;140.0;0.0;
27.9034053149;140.0;0.0;
27.9534114176;140.0;0.0;
28.0034175204;140.0;0.0;
28.0534236231;140.0;0.0;
28.1034297258;140.0;0.0;
28.1534358285;140.0;0.0;
28.2034419312;140.0;0.0;
28.2534480339;140.0;0.0;
28.3034541367;140.0;0.0;
28.3534602394;140.0;0.0;
28.4034663421;140.0;0.0;
28.4534724448;140.0;0.0;
28.5034785475;140.0;0.0;
28.5534846502;140.0;0.0;
28.6034907529;140.0;0.0;
28.6534968557;140.0;0.0;
28.7035029584;140.0;0.0;
28.7535090611;140.0;0.0;
28.8035151638;140.0;0.0;
28.8535212665;140.0;0.0;
28.9035273692;140.0;0.0;
28.9535334719;140.0;0.0;
29.0035395747;140.0;0.0;
29.0535456774;140.0;0.0;
29.1035517801;140.0;0.0;
29.1535578828;140.0;0.0;
29.2035639855;140.0;0.0;
29.2535700882;140.0;0.0;
29.303576191;140.0;0.0;
29.3535822937;140.0;0.0;
29.4035883964;140.0;0.0;
29.4535944991;140.0;0.0;
29.5036006018;140.0;0.0;
29.5536067045;140.0;0.0;
29.6036128072;140.0;0.0;
29.65361891;140.0;0.0;
29.7036250127;140.0;0.0;
29.7536311154;140.0;0.0;
29.8036372181;140.0;0.0;
29.8536433208;140.0;0.0;
29.9036494235;140.0;0.0;
29.9536555262;140.0;0.0;
30.003661629;140.0;0.0;
30.0536677317;140.0;0.0;
30.1036738344;140.0;0.0;
30.1536799371;140.0;0.0;
30.2036860398;140.0;0.0;
30.2536921425;140.0;0.0;
30.3036982452;140.0;0.0;
30.353704348;140.0;0.0;
30.4037104507;140.0;0.0;
30.4537165534;140.0;0.0;
30.5037226561;140.0;0.0;
30.5537287588;140.0;0.0;
30.6037348615;140.0;0.0;
30.6537409643;140.0;0.0;
30.703747067;112.304724893;0.0;
30.7537531697;4.0;0.0;
30.8037592724;4.0;0.0;
30.8537653751;4.0;0.0;
30.9037714778;4.0;0.0;
30.9537775805;4.0;0.0;
31.0037836833;128.903820954;0.0;
31.053789786;140.0;0.0;
31.1037958887;140.0;0.0;
31.1538019914;140.0;0.0;
31.2038080941;140.0;0.0;
31.2538141968;140.0;0.0;
31.3038202995;140.0;0.0;
31.3538264023;140.0;0.0;
31.403832505;140.0;0.0;
31.4538386077;140.0;0.0;
31.5038447104;140.0;0.0;
31.5538508131;140.0;0.0;
31.6038569158;140.0;0.0;
31.6538630186;140.0;0.0;
31.7038691213;140.0;0.0;
31.753875224;140.0;0.0;
31.8038813267;140.0;0.0;
31.8538874294;140.0;0.0;
31.9038935321;140.0;0.0;
31.9538996348;140.0;0.0;
32.0039057376;140.0;0.0;
32.0539118403;140.0;0.0;
32.103917943;140.0;0.0;
32.1539240457;140.0;0.0;
32.2039301484;140.0;0.0;
32.2539362511;140.0;0.0;
32.3039423538;140.0;0.0;
32.3539484566;140.0;0.0;
32.4039545593;140.0;0.0;
32.453960662;140.0;0.0;
32.5039667647;140.0;0.0;
32.5539728674;140.0;0.0;
32.6039789701;140.0;0.0;
32.6539850729;140.0;0.0;
32.7039911756;140.0;0.0;
32.7539972783;140.0;0.0;
32.804003381;140.0;0.0;
32.8540094837;140.0;0.0;
32.9040155864;140.0;0.0;
32.9540216891;140.0;0.0;
33.0040277919;140.0;0.0;
33.0540338946;140.0;0.0;
33.1040399973;140.0;0.0;
33.1540461;140.0;0.0;
33.2040522027;140.0;0.0;
33.2540583054;140.0;0.0;
33.3040644081;140.0;0.0;
33.3540705109;140.0;0.0;
33.4040766136;140.0;0.0;
33.4540827163;140.0;0.0;
33.504088819;140.0;0.0;
33.5540949217;140.0;0.0;
33.6041010244;140.0;0.0;
33.6541071271;140.0;0.0;
33.7041132299;140.0;0.0;
33.7541193326;140.0;0.0;
33.8041254353;140.0;0.0;
33.854131538;140.0;0.0;
33.9041376407;140.0;0.0;
33.9541437434;140.0;0.0;
34.0041498462;140.0;0.0;
34.0541559489;140.0;0.0;
34.1041620516;140.0;0.0;
34.1541681543;140.0;0.0;
34.204174257;140.0;0.0;
34.2541803597;140.0;0.0;
34.3041864624;140.0;0.0;
34.3541925652;140.0;0.0;
34.4041986679;140.0;0.0;
34.4542047706;140.0;0.0;
34.5042108733;140.0;0.0;
34.554216976;140.0;0.0;
34.6042230787;140.0;0.0;
34.6542291814;140.0;0.0;
34.7042352842;140.0;0.0;
34.7542413869;140.0;0.0;
34.8042474896;140.0;0.0;
34.8542535923;140.0;0.0;
34.904259695;140.0;0.0;
34.9542657977;140.0;0.0;
35.0042719005;140.0;0.0;
35.0542780032;140.0;0.0;
35.1042841059;140.0;0.0;
35.1542902086;140.0;0.0;
35.2042963113;140.0;0.0;
35.254302414;140.0;0.0;
35.3043085167;140.0;0.0;
35.3543146195;140.0;0.0;
35.4043207222;140.0;0.0;
35.4543268249;140.0;0.0;
35.5043329276;140.0;0.0;
35.5543390303;140.0;0.0;
35.604345133;140.0;0.0;
35.6543512357;140.0;0.0;
35.7043573385;140.0;0.0;
35.7543634412;140.0;0.0;
35.8043695439;140.0;0.0;
35.8543756466;140.0;0.0;
35.9043817493;140.0;0.0;
35.954387852;140.0;0.0;
36.0043939548;140.0;0.0;
36.0544000575;140.0;0.0;
36.1044061602;140.0;0.0;
36.1544122629;140.0;0.0;
36.2044183656;140.0;0.0;
36.2544244683;140.0;0.0;
36.304430571;140.0;0.0;
36.3544366738;140.0;0.0;
36.4044427765;140.0;0.0;
36.4544488792;140.0;0.0;
36.5044549819;140.0;0.0;
36.5544610846;140.0;0.0;
36.6044671873;140.0;0.0;
36.65447329;140.0;0.0;
36.7044793928;140.0;0.0;
36.7544854955;140.0;0.0;
36.8044915982;140.0;0.0;
36.8544977009;140.0;0.0;
36.9045038036;140.0;0.0;
36.9545099063;140.0;0.0;
37.004516009;140.0;0.0;
37.0545221118;140.0;0.0;
37.1045282145;140.0;0.0;
37.1545343172;140.0;0.0;
37.2045404199;140.0;0.0;
37.2545465226;140.0;0.0;
37.3045526253;140.0;0.0;
37.3545587281;140.0;0.0;
37.4045648308;140.0;0.0;
37.4545709335;140.0;0.0;
37.5045770362;140.0;0.0;
37.5545831389;140.0;0.0;
37.6045892416;140.0;0.0;
37.6545953443;139.790973788;0.0;
37.7046014471;126.0;0.0;
37.7546075498;126.0;0.0;
37.8046136525;126.0;0.0;
37.8546197552;97.659357683;0.0;
37.9046258579;74.0;0.0;
37.9546319606;74.0;0.0;
38.0046380633;74.0;0.0;
38.0546441661;74.0;0.0;
38.1046502688;74.0;0.0;
38.1546563715;74.0;0.0;
38.2046624742;74.0;0.0;
38.2546685769;74.0;0.0;
38.3046746796;74.0;0.0;
38.3546807824;74.0;0.0;
38.4046868851;74.0;0.0;
38.4546929878;74.0;0.0;
38.5046990905;74.0;0.0;
38.5547051932;74.0;0.0;
38.6047112959;74.0;0.0;
38.6547173986;74.0;0.0;
38.7047235014;74.0;0.0;
38.7547296041;74.0;0.0;
38.8047357068;74.0;0.0;
38.8547418095;74.0;0.0;
38.9047479122;74.0;0.0;
38.9547540149;74.0;0.0;
39.0047601176;74.0;0.0;
39.0547662204;74.0;0.0;
39.1047723231;74.0;0.0;
39.1547784258;74.0;0.0;
39.2047845285;74.0;0.0;
39.2547906312;74.0;0.0;
39.3047967339;74.0;0.0;
39.3548028367;74.0;0.0;
39.4048089394;74.0;0.0;
39.4548150421;74.0;0.0;
39.5048211448;74.0;0.0;
39.5548272475;74.0;0.0;
39.6048333502;74.0;0.0;
39.6548394529;74.0;0.0;
39.7048455557;74.0;0.0;
39.7548516584;74.0;0.0;
39.8048577611;74.0;0.0;
39.8548638638;74.0;0.0;
39.9048699665;74.0;0.0;
39.9548760692;74.0;0.0;
40.0048821719;74.0;0.0;
40.0548882747;74.0;0.0;
40.1048943774;74.0;0.0;
40.1549004801;74.0;0.0;
40.2049065828;74.0;0.0;
40.2549126855;74.0;0.0;
40.3049187882;74.0;0.0;
40.354924891;74.0;0.0;
40.4049309937;74.0;0.0;
40.4549370964;74.0;0.0;
40.5049431991;74.0;0.0;
40.5549493018;74.0;0.0;
40.6049554045;74.0;0.0;
40.6549615072;74.0;0.0;
40.70496761;74.0;0.0;
40.7549737127;74.0;0.0;
40.8049798154;74.0;0.0;
40.8549859181;74.0;0.0;
40.9049920208;74.0;0.0;
40.9549981235;49.1785576044;0.0;
41.0050042262;4.0;0.0;
41.055010329;4.0;0.0;
41.1050164317;4.0;0.0;
41.1550225344;4.0;0.0;
41.2050286371;4.0;0.0;
41.2550347398;76.0;0.0;
41.3050408425;76.0;0.0;
41.3550469452;76.0;0.0;
41.405053048;76.0;0.0;
41.4550591507;76.0;0.0;
41.5050652534;76.0;0.0;
41.5550713561;76.0;0.0;
41.6050774588;76.0;0.0;
41.6550835615;76.0;0.0;
41.7050896643;76.0;0.0;
41.755095767;76.0;0.0;
41.8051018697;76.0;0.0;
41.8551079724;76.0;0.0;
41.9051140751;76.0;0.0;
41.9551201778;76.0;0.0;
42.0051262805;76.0;0.0;
42.0551323833;76.0;0.0;
42.105138486;76.0;0.0;
42.1551445887;76.0;0.0;
42.2051506914;76.0;0.0;
42.2551567941;76.0;0.0;
42.3051628968;76.0;0.0;
42.3551689995;76.0;0.0;
42.4051751023;76.0;0.0;
42.455181205;76.0;0.0;
42.5051873077;76.0;0.0;
42.5551934104;76.0;0.0;
42.6051995131;76.0;0.0;
42.6552056158;76.0;0.0;
42.7052117186;76.0;0.0;
42.7552178213;76.0;0.0;
42.805223924;76.0;0.0;
42.8552300267;76.0;0.0;
42.9052361294;76.0;0.0;
42.9552422321;76.0;0.0;
43.0052483348;76.0;0.0;
43.0552544376;76.0;0.0;
43.1052605403;76.0;0.0;
43.155266643;76.0;0.0;
43.2052727457;76.0;0.0;
43.2552788484;76.0;0.0;
43.3052849511;76.0;0.0;
43.3552910538;76.0;0.0;
43.4052971566;76.0;0.0;
43.4553032593;76.0;0.0;
43.505309362;76.0;0.0;
43.5553154647;76.0;0.0;
43.6053215674;76.0;0.0;
43.6553276701;76.0;0.0;
43.7053337729;76.0;0.0;
43.7553398756;76.0;0.0;
43.8053459783;76.0;0.0;
43.855352081;76.0;0.0;
43.9053581837;76.0;0.0;
43.9553642864;76.0;0.0;
44.0053703891;76.0;0.0;
44.0553764919;76.0;0.0;
44.1053825946;76.0;0.0;
44.1553886973;76.0;0.0;
44.2053948;76.0;0.0;
44.2554009027;76.0;0.0;
44.3054070054;76.0;0.0;
44.3554131081;76.0;0.0;
44.4054192109;76.0;0.0;
44.4554253136;76.0;0.0;
44.5054314163;76.0;0.0;
44.555437519;76.0;0.0;
44.6054436217;76.0;0.0;
44.6554497244;76.0;0.0;
44.7054558271;76.0;0.0;
44.7554619299;76.0;0.0;
44.8054680326;76.0;0.0;
44.8554741353;76.0;0.0;
44.905480238;76.0;0.0;
44.9554863407;76.0;0.0;
45.0054924434;76.0;0.0;
45.0554985462;76.0;0.0;
45.1055046489;76.0;0.0;
45.1555107516;76.0;0.0;
45.2055168543;76.0;0.0;
45.255522957;76.0;0.0;
45.3055290597;76.0;0.0;
45.3555351624;76.0;0.0;
45.4055412652;76.0;0.0;
45.4555473679;76.0;0.0;
45.5055534706;76.0;0.0;
45.5555595733;76.0;0.0;
45.605565676;76.0;0.0;
45.6555717787;76.0;0.0;
45.7055778814;76.0;0.0;
45.7555839842;76.0;0.0;
45.8055900869;76.0;0.0;
45.8555961896;76.0;0.0;
45.9056022923;76.0;0.0;
45.955608395;76.0;0.0;
46.0056144977;76.0;0.0;
46.0556206005;76.0;0.0;
46.1056267032;76.0;0.0;
46.1556328059;76.0;0.0;
46.2056389086;76.0;0.0;
46.2556450113;76.0;0.0;
46.305651114;76.0;0.0;
46.3556572167;76.0;0.0;
46.4056633195;76.0;0.0;
46.4556694222;76.0;0.0;
46.5056755249;76.0;0.0;
46.5556816276;76.0;0.0;
46.6056877303;76.0;0.0;
46.655693833;76.0;0.0;
46.7056999357;76.0;0.0;
46.7557060385;76.0;0.0;
46.8057121412;76.0;0.0;
46.8557182439;76.0;0.0;
46.9057243466;76.0;0.0;
46.9557304493;76.0;0.0;
47.005736552;76.0;0.0;
47.0557426548;76.0;0.0;
47.1057487575;76.0;0.0;
47.1557548602;76.0;0.0;
47.2057609629;76.0;0.0;
47.2557670656;76.0;0.0;
47.3057731683;76.0;0.0;
47.355779271;76.0;0.0;
47.4057853738;76.0;0.0;
47.4557914765;76.0;0.0;
47.5057975792;76.0;0.0;
47.5558036819;76.0;0.0;
47.6058097846;76.0;0.0;
47.6558158873;76.0;0.0;
47.70582199;76.0;0.0;
47.7558280928;76.0;0.0;
47.8058341955;76.0;0.0;
47.8558402982;76.0;0.0;
47.9058464009;76.0;0.0;
47.9558525036;76.0;0.0;
48.0058586063;76.0;0.0;
48.055864709;76.0;0.0;
48.1058708118;76.0;0.0;
48.1558769145;76.0;0.0;
48.2058830172;76.0;0.0;
48.2558891199;76.0;0.0;
48.3058952226;76.0;0.0;
48.3559013253;76.0;0.0;
48.4059074281;76.0;0.0;
48.4559135308;76.0;0.0;
48.5059196335;76.0;0.0;
48.5559257362;76.0;0.0;
48.6059318389;76.0;0.0;
48.6559379416;76.0;0.0;
48.7059440443;76.0;0.0;
48.7559501471;76.0;0.0;
48.8059562498;76.0;0.0;
48.8559623525;76.0;0.0;
48.9059684552;76.0;0.0;
48.9559745579;76.0;0.0;
49.0059806606;76.0;0.0;
49.0559867633;76.0;0.0;
49.1059928661;76.0;0.0;
49.1559989688;76.0;0.0;
49.2060050715;76.0;0.0;
49.2560111742;76.0;0.0;
49.3060172769;76.0;0.0;
49.3560233796;76.0;0.0;
49.4060294824;76.0;0.0;
49.4560355851;76.0;0.0;
49.5060416878;76.0;0.0;
49.5560477905;76.0;0.0;
49.6060538932;76.0;0.0;
49.6560599959;76.0;0.0;
49.7060660986;76.0;0.0;
49.7560722014;76.0;0.0;
49.8060783041;76.0;0.0;
49.8560844068;76.0;0.0;
49.9060905095;76.0;0.0;
49.9560966122;76.0;0.0;
50.0061027149;76.0;0.0;
50.0561088176;76.0;0.0;
50.1061149204;76.0;0.0;
50.1561210231;76.0;0.0;
50.2061271258;76.0;0.0;
50.2561332285;76.0;0.0;
50.3061393312;76.0;0.0;
50.3561454339;76.0;0.0;
50.4061515367;76.0;0.0;
50.4561576394;76.0;0.0;
50.5061637421;76.0;0.0;
50.5561698448;76.0;0.0;
50.6061759475;76.0;0.0;
50.6561820502;76.0;0.0;
50.7061881529;76.0;0.0;
50.7561942557;76.0;0.0;
50.8062003584;76.0;0.0;
50.8562064611;76.0;0.0;
50.9062125638;76.0;0.0;
50.9562186665;76.0;0.0;
51.0062247692;76.0;0.0;
51.0562308719;76.0;0.0;
51.1062369747;76.0;0.0;
51.1562430774;76.0;0.0;
51.2062491801;76.0;0.0;
51.2562552828;51.0380757636;0.0;
51.3062613855;4.0;0.0;
51.3562674882;4.0;0.0;
51.406273591;4.0;0.0;
51.4562796937;4.0;0.0;
51.5062857964;72.6642763179;0.0;
51.5562918991;74.0;0.0;
51.6062980018;74.0;0.0;
51.6563041045;74.0;0.0;
51.7063102072;74.0;0.0;
51.75631631;74.0;0.0;
51.8063224127;74.0;0.0;
51.8563285154;74.0;0.0;
51.9063346181;74.0;0.0;
51.9563407208;74.0;0.0;
52.0063468235;74.0;0.0;
52.0563529262;74.0;0.0;
52.106359029;74.0;0.0;
52.1563651317;74.0;0.0;
52.2063712344;74.0;0.0;
52.2563773371;74.0;0.0;
52.3063834398;74.0;0.0;
52.3563895425;74.0;0.0;
52.4063956452;74.0;0.0;
52.456401748;74.0;0.0;
52.5064078507;74.0;0.0;
52.5564139534;74.0;0.0;
52.6064200561;74.0;0.0;
52.6564261588;74.0;0.0;
52.7064322615;74.0;0.0;
52.7564383643;74.0;0.0;
52.806444467;74.0;0.0;
52.8564505697;74.0;0.0;
52.9064566724;74.0;0.0;
52.9564627751;74.0;0.0;
53.0064688778;74.0;0.0;
53.0564749805;74.0;0.0;
53.1064810833;74.0;0.0;
53.156487186;74.0;0.0;
53.2064932887;74.0;0.0;
53.2564993914;74.0;0.0;
53.3065054941;74.0;0.0;
53.3565115968;74.0;0.0;
53.4065176995;74.0;0.0;
53.4565238023;74.0;0.0;
53.506529905;74.0;0.0;
53.5565360077;74.0;0.0;
53.6065421104;74.0;0.0;
53.6565482131;74.0;0.0;
53.7065543158;74.0;0.0;
53.7565604186;74.0;0.0;
53.8065665213;74.0;0.0;
53.856572624;74.0;0.0;
53.9065787267;74.0;0.0;
53.9565848294;74.0;0.0;
54.0065909321;74.0;0.0;
54.0565970348;74.0;0.0;
54.1066031376;74.0;0.0;
54.1566092403;74.0;0.0;
54.206615343;74.0;0.0;
54.2566214457;74.0;0.0;
54.3066275484;74.0;0.0;
54.3566336511;74.0;0.0;
54.4066397538;74.0;0.0;
54.4566458566;74.0;0.0;
54.5066519593;74.0;0.0;
54.556658062;74.0;0.0;
54.6066641647;74.0;0.0;
54.6566702674;74.0;0.0;
54.7066763701;74.0;0.0;
54.7566824729;74.0;0.0;
54.8066885756;74.0;0.0;
54.8566946783;74.0;0.0;
54.906700781;74.0;0.0;
54.9567068837;74.0;0.0;
55.0067129864;74.0;0.0;
55.0567190891;74.0;0.0;
55.1067251919;74.0;0.0;
55.1567312946;74.0;0.0;
55.2067373973;74.0;0.0;
55.2567435;74.0;0.0;
55.3067496027;74.0;0.0;
55.3567557054;74.0;0.0;
55.4067618081;74.0;0.0;
55.4567679109;74.0;0.0;
55.5067740136;74.0;0.0;
55.5567801163;74.0;0.0;
55.606786219;74.0;0.0;
55.6567923217;74.0;0.0;
55.7067984244;74.0;0.0;
55.7568045271;74.0;0.0;
55.8068106299;74.0;0.0;
55.8568167326;74.0;0.0;
55.9068228353;74.0;0.0;
55.956828938;74.0;0.0;
56.0068350407;74.0;0.0;
56.0568411434;74.0;0.0;
56.1068472462;74.0;0.0;
56.1568533489;74.0;0.0;
56.2068594516;74.0;0.0;
56.2568655543;74.0;0.0;
56.306871657;74.0;0.0;
56.3568777597;74.0;0.0;
56.4068838624;74.0;0.0;
56.4568899652;74.0;0.0;
56.5068960679;74.0;0.0;
56.5569021706;74.0;0.0;
56.6069082733;74.0;0.0;
56.656914376;74.0;0.0;
56.7069204787;74.0;0.0;
56.7569265814;74.0;0.0;
56.8069326842;74.0;0.0;
56.8569387869;74.0;0.0;
56.9069448896;74.0;0.0;
56.9569509923;74.0;0.0;
57.006957095;74.0;0.0;
57.0569631977;74.0;0.0;
57.1069693005;74.0;0.0;
57.1569754032;74.0;0.0;
57.2069815059;74.0;0.0;
57.2569876086;70.1436714043;0.0;
57.3069937113;66.0;0.0;
57.356999814;66.0;0.0;
57.4070059167;57.4350381624;0.0;
57.4570120195;56.0;0.0;
57.5070181222;56.0;0.0;
57.5570242249;56.0;0.0;
57.6070303276;56.0;0.0;
57.6570364303;56.0;0.0;
57.707042533;56.0;0.0;
57.7570486357;56.0;0.0;
57.8070547385;56.0;0.0;
57.8570608412;56.0;0.0;
57.9070669439;56.0;0.0;
57.9570730466;56.0;0.0;
58.0070791493;56.0;0.0;
58.057085252;56.0;0.0;
58.1070913548;56.0;0.0;
58.1570974575;56.0;0.0;
58.2071035602;56.0;0.0;
58.2571096629;56.0;0.0;
58.3071157656;56.0;0.0;
58.3571218683;56.0;0.0;
58.407127971;56.0;0.0;
58.4571340738;56.0;0.0;
58.5071401765;56.0;0.0;
58.5571462792;56.0;0.0;
58.6071523819;55.9877360358;0.0;
58.6571584846;52.0;0.0;
58.7071645873;52.0;0.0;
58.75717069;48.8929918512;0.0;
58.8071767928;44.0;0.0;
58.8571828955;44.0;0.0;
58.9071889982;44.0;0.0;
58.9571951009;44.0;0.0;
59.0072012036;44.0;0.0;
59.0572073063;44.0;0.0;
59.107213409;44.0;0.0;
59.1572195118;44.0;0.0;
59.2072256145;44.0;0.0;
59.2572317172;44.0;0.0;
59.3072378199;44.0;0.0;
59.3572439226;44.0;0.0;
59.4072500253;44.0;0.0;
59.4572561281;44.0;0.0;
59.5072622308;44.0;0.0;
59.5572683335;44.0;0.0;
59.6072744362;44.0;0.0;
59.6572805389;44.0;0.0;
59.7072866416;44.0;0.0;
59.7572927443;44.0;0.0;
59.8072988471;44.0;0.0;
59.8573049498;44.0;0.0;
59.9073110525;44.0;0.0;
59.9573171552;43.3316307192;0.0;
60.0073232579;42.0;0.0;
60.0573293606;42.0;0.0;
60.1073354633;37.7227044146;0.0;
60.1573415661;36.0;0.0;
60.2073476688;36.0;0.0;
60.2573537715;36.0;0.0;
60.3073598742;36.0;0.0;
60.3573659769;36.0;0.0;
60.4073720796;36.0;0.0;
60.4573781824;36.0;0.0;
60.5073842851;36.0;0.0;
60.5573903878;36.0;0.0;
60.6073964905;36.0;0.0;
60.6574025932;36.0;0.0;
60.7074086959;36.0;0.0;
60.7574147986;36.0;0.0;
60.8074209014;36.0;0.0;
60.8574270041;36.0;0.0;
60.9074331068;36.0;0.0;
60.9574392095;36.0;0.0;
61.0074453122;36.0;0.0;
61.0574514149;36.0;0.0;
61.1074575176;36.0;0.0;
61.1574636204;36.0;0.0;
61.2074697231;36.0;0.0;
61.2574758258;36.0;0.0;
61.3074819285;34.5910505967;0.0;
61.3574880312;34.0;0.0;
61.4074941339;34.0;0.0;
61.4575002367;28.5799648099;0.0;
61.5075063394;4.0;0.0;
61.5575124421;4.0;0.0;
61.6075185448;4.0;0.0;
61.6575246475;4.0;0.0;
61.7075307502;4.0;0.0;
61.7575368529;4.0;0.0;
61.8075429557;4.0;0.0;
61.8575490584;78.0;0.0;
61.9075551611;78.0;0.0;
61.9575612638;78.0;0.0;
62.0075673665;78.0;0.0;
62.0575734692;78.0;0.0;
62.1075795719;78.0;0.0;
62.1575856747;78.0;0.0;
62.2075917774;78.0270749295;0.0;
62.2575978801;80.0;0.0;
62.3076039828;80.0;0.0;
62.3576100855;80.813550167;0.0;
62.4076161882;83.0723466195;0.0;
62.457622291;89.2580718244;0.0;
62.5076283937;99.8474105029;0.0;
62.5576344964;102.0;0.0;
62.6076405991;104.029792013;0.0;
62.6576467018;107.47026885;0.0;
62.7076528045;118.199757277;0.0;
62.7576589072;125.618044474;0.0;
62.80766501;129.06976055;0.0;
62.8576711127;133.970684959;0.0;
62.9076772154;143.876162642;0.0;
62.9576833181;155.144873794;0.0;
63.0076894208;158.366431762;0.0;
63.0576955235;167.77121016;0.0;
63.1077016262;179.004289828;0.0;
63.157707729;189.404638001;0.0;
63.2077138317;197.287556221;0.0;
63.2577199344;201.345441768;0.0;
63.3077260371;203.600579305;0.0;
63.3577321398;205.852750183;0.0;
63.4077382425;206.0;0.0;
63.4577443452;206.0;0.0;
63.507750448;206.0;0.0;
63.5577565507;206.0;0.0;
63.6077626534;206.0;0.0;
63.6577687561;206.0;0.0;
63.7077748588;206.0;0.0;
63.7577809615;206.0;0.0;
63.8077870643;206.0;0.0;
63.857793167;206.0;0.0;
63.9077992697;206.0;0.0;
63.9578053724;206.0;0.0;
64.0078114751;206.0;0.0;
64.0578175778;206.0;0.0;
64.1078236805;206.0;0.0;
64.1578297833;206.0;0.0;
64.207835886;206.0;0.0;
64.2578419887;206.0;0.0;
64.3078480914;206.0;0.0;
64.3578541941;206.0;0.0;
64.4078602968;206.0;0.0;
64.4578663995;206.0;0.0;
64.5078725023;206.0;0.0;
64.557878605;206.0;0.0;
64.6078847077;206.0;0.0;
64.6578908104;206.0;0.0;
64.7078969131;206.0;0.0;
64.7579030158;206.0;0.0;
64.8079091186;206.0;0.0;
64.8579152213;206.0;0.0;
64.907921324;206.0;0.0;
64.9579274267;206.0;0.0;
65.0079335294;206.0;0.0;
65.0579396321;206.0;0.0;
65.1079457348;206.0;0.0;
65.1579518376;206.0;0.0;
65.2079579403;206.0;0.0;
65.257964043;206.0;0.0;
65.3079701457;206.0;0.0;
65.3579762484;206.0;0.0;
65.4079823511;206.0;0.0;
65.4579884538;206.0;0.0;
65.5079945566;206.0;0.0;
65.5580006593;206.0;0.0;
65.608006762;206.0;0.0;
65.6580128647;206.0;0.0;
65.7080189674;206.0;0.0;
65.7580250701;206.0;0.0;
65.8080311729;206.0;0.0;
65.8580372756;206.0;0.0;
65.9080433783;206.0;0.0;
65.958049481;206.0;0.0;
66.0080555837;206.0;0.0;
66.0580616864;206.0;0.0;
66.1080677891;206.0;0.0;
66.1580738919;206.0;0.0;
66.2080799946;206.0;0.0;
66.2580860973;206.0;0.0;
66.3080922;206.0;0.0;
66.3580983027;206.0;0.0;
66.4081044054;206.0;0.0;
66.4581105081;206.0;0.0;
66.5081166109;206.0;0.0;
66.5581227136;206.0;0.0;
66.6081288163;206.0;0.0;
66.658134919;206.0;0.0;
66.7081410217;206.0;0.0;
66.7581471244;206.0;0.0;
66.8081532271;206.0;0.0;
66.8581593299;206.0;0.0;
66.9081654326;206.0;0.0;
66.9581715353;206.0;0.0;
67.008177638;206.0;0.0;
67.0581837407;206.0;0.0;
67.1081898434;206.0;0.0;
67.1581959462;206.0;0.0;
67.2082020489;206.0;0.0;
67.2582081516;206.0;0.0;
67.3082142543;206.0;0.0;
67.358220357;206.0;0.0;
67.4082264597;206.0;0.0;
67.4582325624;206.0;0.0;
67.5082386652;206.0;0.0;
67.5582447679;206.0;0.0;
67.6082508706;206.0;0.0;
67.6582569733;206.0;0.0;
67.708263076;206.0;0.0;
67.7582691787;206.0;0.0;
67.8082752814;206.0;0.0;
67.8582813842;206.0;0.0;
67.9082874869;206.0;0.0;
67.9582935896;206.0;0.0;
68.0082996923;206.0;0.0;
68.058305795;206.0;0.0;
68.1083118977;206.0;0.0;
68.1583180005;206.0;0.0;
68.2083241032;206.0;0.0;
68.2583302059;206.0;0.0;
68.3083363086;206.0;0.0;
68.3583424113;206.0;0.0;
68.408348514;206.0;0.0;
68.4583546167;206.0;0.0;
68.5083607195;206.0;0.0;
68.5583668222;206.0;0.0;
68.6083729249;206.0;0.0;
68.6583790276;206.0;0.0;
68.7083851303;206.0;0.0;
68.758391233;206.0;0.0;
68.8083973357;206.0;0.0;
68.8584034385;206.0;0.0;
68.9084095412;206.0;0.0;
68.9584156439;206.0;0.0;
69.0084217466;206.0;0.0;
69.0584278493;206.0;0.0;
69.108433952;206.0;0.0;
69.1584400548;206.0;0.0;
69.2084461575;206.0;0.0;
69.2584522602;206.0;0.0;
69.3084583629;206.0;0.0;
69.3584644656;206.0;0.0;
69.4084705683;206.0;0.0;
69.458476671;206.0;0.0;
69.5084827738;206.0;0.0;
69.5584888765;206.0;0.0;
69.6084949792;206.0;0.0;
69.6585010819;206.0;0.0;
69.7085071846;206.0;0.0;
69.7585132873;206.0;0.0;
69.80851939;206.0;0.0;
69.8585254928;206.0;0.0;
69.9085315955;206.0;0.0;
69.9585376982;206.0;0.0;
70.0085438009;206.0;0.0;
70.0585499036;206.0;0.0;
70.1085560063;206.0;0.0;
70.158562109;206.0;0.0;
70.2085682118;206.0;0.0;
70.2585743145;206.0;0.0;
70.3085804172;206.0;0.0;
70.3585865199;206.0;0.0;
70.4085926226;206.0;0.0;
70.4585987253;206.0;0.0;
70.5086048281;206.0;0.0;
70.5586109308;206.0;0.0;
70.6086170335;206.0;0.0;
70.6586231362;206.0;0.0;
70.7086292389;206.0;0.0;
70.7586353416;206.0;0.0;
70.8086414443;206.0;0.0;
70.8586475471;206.0;0.0;
70.9086536498;206.0;0.0;
70.9586597525;206.0;0.0;
71.0086658552;206.0;0.0;
71.0586719579;206.0;0.0;
71.1086780606;206.0;0.0;
71.1586841633;206.0;0.0;
71.2086902661;206.0;0.0;
71.2586963688;206.0;0.0;
71.3087024715;206.0;0.0;
71.3587085742;206.0;0.0;
71.4087146769;206.0;0.0;
71.4587207796;206.0;0.0;
71.5087268824;206.0;0.0;
71.5587329851;206.0;0.0;
71.6087390878;206.0;0.0;
71.6587451905;206.0;0.0;
71.7087512932;206.0;0.0;
71.7587573959;206.0;0.0;
71.8087634986;206.0;0.0;
71.8587696014;106.822715297;0.0;
71.9087757041;4.0;0.0;
71.9587818068;4.0;0.0;
72.0087879095;4.0;0.0;
72.0587940122;4.0;0.0;
72.1088001149;4.0;0.0;
72.1588062176;4.0;0.0;
72.2088123204;81.3790768107;0.0;
72.2588184231;206.0;0.0;
72.3088245258;206.0;0.0;
72.3588306285;206.0;0.0;
72.4088367312;206.0;0.0;
72.4588428339;206.0;0.0;
72.5088489367;206.0;0.0;
72.5588550394;206.0;0.0;
72.6088611421;206.0;0.0;
72.6588672448;206.0;0.0;
72.7088733475;206.0;0.0;
72.7588794502;206.0;0.0;
72.8088855529;206.0;0.0;
72.8588916557;206.0;0.0;
72.9088977584;206.0;0.0;
72.9589038611;206.0;0.0;
73.0089099638;206.0;0.0;
73.0589160665;206.0;0.0;
73.1089221692;206.0;0.0;
73.1589282719;206.0;0.0;
73.2089343747;206.0;0.0;
73.2589404774;206.0;0.0;
73.3089465801;206.0;0.0;
73.3589526828;206.0;0.0;
73.4089587855;206.0;0.0;
73.4589648882;206.0;0.0;
73.508970991;206.0;0.0;
73.5589770937;206.0;0.0;
73.6089831964;206.0;0.0;
73.6589892991;206.0;0.0;
73.7089954018;206.0;0.0;
73.7590015045;206.0;0.0;
73.8090076072;206.0;0.0;
73.85901371;206.0;0.0;
73.9090198127;206.0;0.0;
73.9590259154;206.0;0.0;
74.0090320181;206.0;0.0;
74.0590381208;206.0;0.0;
74.1090442235;206.0;0.0;
74.1590503262;206.0;0.0;
74.209056429;206.0;0.0;
74.2590625317;206.0;0.0;
74.3090686344;206.0;0.0;
74.3590747371;206.0;0.0;
74.4090808398;206.0;0.0;
74.4590869425;206.0;0.0;
74.5090930452;206.0;0.0;
74.559099148;206.0;0.0;
74.6091052507;206.0;0.0;
74.6591113534;206.0;0.0;
74.7091174561;206.0;0.0;
74.7591235588;206.0;0.0;
74.8091296615;206.0;0.0;
74.8591357643;206.0;0.0;
74.909141867;206.0;0.0;
74.9591479697;206.0;0.0;
75.0091540724;206.0;0.0;
75.0591601751;206.0;0.0;
75.1091662778;206.0;0.0;
75.1591723805;206.0;0.0;
75.2091784833;206.0;0.0;
75.259184586;206.0;0.0;
75.3091906887;206.0;0.0;
75.3591967914;206.0;0.0;
75.4092028941;206.0;0.0;
75.4592089968;206.0;0.0;
75.5092150995;206.0;0.0;
75.5592212023;206.0;0.0;
75.609227305;206.0;0.0;
75.6592334077;206.0;0.0;
75.7092395104;206.0;0.0;
75.7592456131;206.0;0.0;
75.8092517158;206.0;0.0;
75.8592578186;206.0;0.0;
75.9092639213;206.0;0.0;
75.959270024;206.0;0.0;
76.0092761267;206.0;0.0;
76.0592822294;199.990153585;0.0;
76.1092883321;84.0;0.0;
76.1592944348;84.0;0.0;
76.2093005376;84.0;0.0;
76.2593066403;84.0;0.0;
76.309312743;84.0;0.0;
76.3593188457;84.0;0.0;
76.4093249484;84.0;0.0;
76.4593310511;84.0;0.0;
76.5093371538;84.0;0.0;
76.5593432566;84.0;0.0;
76.6093493593;84.0;0.0;
76.659355462;84.0;0.0;
76.7093615647;84.0;0.0;
76.7593676674;82.5333810722;0.0;
76.8093737701;82.0;0.0;
76.8593798729;82.0;0.0;
76.9093859756;82.0;0.0;
76.9593920783;82.0;0.0;
77.009398181;82.0;0.0;
77.0594042837;82.0;0.0;
77.1094103864;82.0;0.0;
77.1594164891;82.0;0.0;
77.2094225919;82.0;0.0;
77.2594286946;82.0;0.0;
77.3094347973;82.0;0.0;
77.3594409;82.0;0.0;
77.4094470027;82.0;0.0;
77.4594531054;82.0;0.0;
77.5094592081;82.0;0.0;
77.5594653109;82.0;0.0;
77.6094714136;82.0;0.0;
77.6594775163;82.0;0.0;
77.709483619;82.0;0.0;
77.7594897217;82.0;0.0;
77.8094958244;82.0;0.0;
77.8595019271;82.0;0.0;
77.9095080299;82.0;0.0;
77.9595141326;82.0;0.0;
78.0095202353;82.0;0.0;
78.059526338;82.0;0.0;
78.1095324407;82.0;0.0;
78.1595385434;82.0;0.0;
78.2095446462;82.0;0.0;
78.2595507489;82.0;0.0;
78.3095568516;82.0;0.0;
78.3595629543;82.0;0.0;
78.409569057;82.0;0.0;
78.4595751597;82.0;0.0;
78.5095812624;82.0;0.0;
78.5595873652;82.0;0.0;
78.6095934679;82.0;0.0;
78.6595995706;82.0;0.0;
78.7096056733;82.0;0.0;
78.759611776;82.0;0.0;
78.8096178787;82.0;0.0;
78.8596239814;82.0;0.0;
78.9096300842;82.0;0.0;
78.9596361869;82.0;0.0;
79.0096422896;82.0;0.0;
79.0596483923;82.0;0.0;
79.109654495;82.0;0.0;
79.1596605977;82.0;0.0;
79.2096667005;82.0;0.0;
79.2596728032;82.0;0.0;
79.3096789059;82.0;0.0;
79.3596850086;82.0;0.0;
79.4096911113;82.0;0.0;
79.459697214;82.0;0.0;
79.5097033167;82.0;0.0;
79.5597094195;82.0;0.0;
79.6097155222;82.0;0.0;
79.6597216249;82.0;0.0;
79.7097277276;82.0;0.0;
79.7597338303;82.0;0.0;
79.809739933;82.0;0.0;
79.8597460357;82.0;0.0;
79.9097521385;82.0;0.0;
79.9597582412;82.0;0.0;
80.0097643439;82.0;0.0;
80.0597704466;82.0;0.0;
80.1097765493;82.0;0.0;
80.159782652;82.0;0.0;
80.2097887548;82.0;0.0;
80.2597948575;82.0;0.0;
80.3098009602;82.0;0.0;
80.3598070629;82.0;0.0;
80.4098131656;82.0;0.0;
80.4598192683;82.0;0.0;
80.509825371;82.0;0.0;
80.5598314738;82.0;0.0;
80.6098375765;82.0;0.0;
80.6598436792;82.0;0.0;
80.7098497819;82.0;0.0;
80.7598558846;82.0;0.0;
80.8098619873;82.0;0.0;
80.85986809;82.0;0.0;
80.9098741928;82.0;0.0;
80.9598802955;82.0;0.0;
81.0098863982;82.0;0.0;
81.0598925009;82.0;0.0;
81.1098986036;82.0;0.0;
81.1599047063;82.0;0.0;
81.209910809;82.0;0.0;
81.2599169118;82.0;0.0;
81.3099230145;82.0;0.0;
81.3599291172;82.0;0.0;
81.4099352199;82.0;0.0;
81.4599413226;82.0;0.0;
81.5099474253;82.0;0.0;
81.5599535281;82.0;0.0;
81.6099596308;82.0;0.0;
81.6599657335;82.0;0.0;
81.7099718362;82.0;0.0;
81.7599779389;82.0;0.0;
81.8099840416;82.0;0.0;
81.8599901443;82.0;0.0;
81.9099962471;82.0;0.0;
81.9600023498;82.0;0.0;
82.0100084525;82.0;0.0;
82.0600145552;82.0;0.0;
82.1100206579;82.0;0.0;
82.1600267606;82.0;0.0;
82.2100328633;82.0;0.0;
82.2600389661;82.0;0.0;
82.3100450688;82.0;0.0;
82.3600511715;82.0;0.0;
82.4100572742;82.0;0.0;
82.4600633769;82.0;0.0;
82.5100694796;82.0;0.0;
82.5600755824;82.0;0.0;
82.6100816851;82.0;0.0;
82.6600877878;82.0;0.0;
82.7100938905;82.0;0.0;
82.7600999932;82.0;0.0;
82.8101060959;82.0;0.0;
82.8601121986;82.0;0.0;
82.9101183014;82.0;0.0;
82.9601244041;82.0;0.0;
83.0101305068;82.0;0.0;
83.0601366095;82.0;0.0;
83.1101427122;82.0;0.0;
83.1601488149;82.0;0.0;
83.2101549176;82.0;0.0;
83.2601610204;82.0;0.0;
83.3101671231;82.0;0.0;
83.3601732258;82.0;0.0;
83.4101793285;82.0;0.0;
83.4601854312;82.0;0.0;
83.5101915339;82.0;0.0;
83.5601976367;82.0;0.0;
83.6102037394;82.0;0.0;
83.6602098421;82.0;0.0;
83.7102159448;82.0;0.0;
83.7602220475;82.0;0.0;
83.8102281502;82.0;0.0;
83.8602342529;82.0;0.0;
83.9102403557;82.0;0.0;
83.9602464584;82.0;0.0;
84.0102525611;82.0;0.0;
84.0602586638;82.0;0.0;
84.1102647665;82.0;0.0;
84.1602708692;82.0;0.0;
84.2102769719;82.0;0.0;
84.2602830747;82.0;0.0;
84.3102891774;82.0;0.0;
84.3602952801;82.0;0.0;
84.4103013828;82.0;0.0;
84.4603074855;82.0;0.0;
84.5103135882;82.0;0.0;
84.560319691;82.0;0.0;
84.6103257937;82.0;0.0;
84.6603318964;82.0;0.0;
84.7103379991;82.0;0.0;
84.7603441018;82.0;0.0;
84.8103502045;82.0;0.0;
84.8603563072;82.0;0.0;
84.91036241;82.0;0.0;
84.9603685127;82.0;0.0;
85.0103746154;82.0;0.0;
85.0603807181;82.0;0.0;
85.1103868208;82.0;0.0;
85.1603929235;82.0;0.0;
85.2103990262;82.0;0.0;
85.260405129;82.0;0.0;
85.3104112317;82.0;0.0;
85.3604173344;82.0;0.0;
85.4104234371;82.0;0.0;
85.4604295398;82.0;0.0;
85.5104356425;82.0;0.0;
85.5604417452;82.0;0.0;
85.610447848;82.0;0.0;
85.6604539507;82.0;0.0;
85.7104600534;82.0;0.0;
85.7604661561;82.0;0.0;
85.8104722588;82.0;0.0;
85.8604783615;82.0;0.0;
85.9104844643;82.0;0.0;
85.960490567;82.0;0.0;
86.0104966697;82.0;0.0;
86.0605027724;82.0;0.0;
86.1105088751;68.84910931;0.0;
86.1605149778;4.0;0.0;
86.2105210805;4.0;0.0;
86.2605271833;4.0;0.0;
86.310533286;4.0;0.0;
86.3605393887;4.0;0.0;
86.4105454914;69.907783335;0.0;
86.4605515941;74.0;0.0;
86.5105576968;74.0;0.0;
86.5605637995;74.0;0.0;
86.6105699023;74.0;0.0;
86.660576005;74.0;0.0;
86.7105821077;74.0;0.0;
86.7605882104;74.0;0.0;
86.8105943131;74.0;0.0;
86.8606004158;74.0;0.0;
86.9106065186;74.0;0.0;
86.9606126213;74.0;0.0;
87.010618724;74.0;0.0;
87.0606248267;74.0;0.0;
87.1106309294;74.0;0.0;
87.1606370321;74.0;0.0;
87.2106431348;74.0;0.0;
87.2606492376;74.0;0.0;
87.3106553403;74.0;0.0;
87.360661443;74.0;0.0;
87.4106675457;74.0;0.0;
87.4606736484;74.0;0.0;
87.5106797511;74.0;0.0;
87.5606858538;74.0;0.0;
87.6106919566;74.0;0.0;
87.6606980593;74.0;0.0;
87.710704162;74.0;0.0;
87.7607102647;74.0;0.0;
87.8107163674;74.0;0.0;
87.8607224701;74.0;0.0;
87.9107285729;74.0;0.0;
87.9607346756;74.0;0.0;
88.0107407783;74.0;0.0;
88.060746881;74.0;0.0;
88.1107529837;74.0;0.0;
88.1607590864;74.0;0.0;
88.2107651891;74.0;0.0;
88.2607712919;74.0;0.0;
88.3107773946;74.0;0.0;
88.3607834973;74.0;0.0;
88.4107896;74.0;0.0;
88.4607957027;74.0;0.0;
88.5108018054;74.0;0.0;
88.5608079081;74.0;0.0;
88.6108140109;74.0;0.0;
88.6608201136;74.0;0.0;
88.7108262163;74.0;0.0;
88.760832319;74.0;0.0;
88.8108384217;74.0;0.0;
88.8608445244;74.0;0.0;
88.9108506271;74.0;0.0;
88.9608567299;74.0;0.0;
89.0108628326;74.0;0.0;
89.0608689353;74.0;0.0;
89.110875038;74.0;0.0;
89.1608811407;74.0;0.0;
89.2108872434;74.0;0.0;
89.2608933462;74.0;0.0;
89.3108994489;74.0;0.0;
89.3609055516;74.0;0.0;
89.4109116543;74.0;0.0;
89.460917757;74.0;0.0;
89.5109238597;74.0;0.0;
89.5609299624;74.0;0.0;
89.6109360652;74.0;0.0;
89.6609421679;74.0;0.0;
89.7109482706;74.0;0.0;
89.7609543733;74.0;0.0;
89.810960476;74.0;0.0;
89.8609665787;74.0;0.0;
89.9109726814;74.0;0.0;
89.9609787842;74.0;0.0;
90.0109848869;74.0;0.0;
90.0609909896;74.0;0.0;
90.1109970923;74.0;0.0;
90.161003195;74.0;0.0;
90.2110092977;74.0;0.0;
90.2610154005;74.0;0.0;
90.3110215032;74.0;0.0;
90.3610276059;74.0;0.0;
90.4110337086;74.0;0.0;
90.4610398113;74.0;0.0;
90.511045914;74.0;0.0;
90.5610520167;74.0;0.0;
90.6110581195;74.0;0.0;
90.6610642222;74.0;0.0;
90.7110703249;74.0;0.0;
90.7610764276;74.0;0.0;
90.8110825303;74.0;0.0;
90.861088633;74.0;0.0;
90.9110947357;74.0;0.0;
90.9611008385;74.0;0.0;
91.0111069412;74.0;0.0;
91.0611130439;74.0;0.0;
91.1111191466;74.0;0.0;
91.1611252493;74.0;0.0;
91.211131352;74.0;0.0;
91.2611374548;74.0;0.0;
91.3111435575;74.0;0.0;
91.3611496602;74.0;0.0;
91.4111557629;74.0;0.0;
91.4611618656;74.0;0.0;
91.5111679683;74.0;0.0;
91.561174071;74.0;0.0;
91.6111801738;74.0;0.0;
91.6611862765;74.0;0.0;
91.7111923792;74.0;0.0;
91.7611984819;74.0;0.0;
91.8112045846;74.0;0.0;
91.8612106873;74.0;0.0;
91.91121679;74.0;0.0;
91.9612228928;74.0;0.0;
92.0112289955;74.0;0.0;
92.0612350982;74.0;0.0;
92.1112412009;74.0;0.0;
92.1612473036;74.0;0.0;
92.2112534063;74.0;0.0;
92.261259509;74.0;0.0;
92.3112656118;74.0;0.0;
92.3612717145;74.0;0.0;
92.4112778172;74.0;0.0;
92.4612839199;74.0;0.0;
92.5112900226;74.0;0.0;
92.5612961253;74.0;0.0;
92.6113022281;74.0;0.0;
92.6613083308;74.0;0.0;
92.7113144335;74.0;0.0;
92.7613205362;74.0;0.0;
92.8113266389;74.0;0.0;
92.8613327416;74.0;0.0;
92.9113388443;74.0;0.0;
92.9613449471;74.0;0.0;
93.0113510498;74.0;0.0;
93.0613571525;74.0;0.0;
93.1113632552;74.0;0.0;
93.1613693579;74.0;0.0;
93.2113754606;74.0;0.0;
93.2613815633;74.0;0.0;
93.3113876661;74.0;0.0;
93.3613937688;74.0;0.0;
93.4113998715;74.0;0.0;
93.4614059742;74.0;0.0;
93.5114120769;74.0;0.0;
93.5614181796;74.0;0.0;
93.6114242824;74.0;0.0;
93.6614303851;74.0;0.0;
93.7114364878;74.0;0.0;
93.7614425905;74.0;0.0;
93.8114486932;74.0;0.0;
93.8614547959;74.0;0.0;
93.9114608986;74.0;0.0;
93.9614670014;74.0;0.0;
94.0114731041;74.0;0.0;
94.0614792068;74.0;0.0;
94.1114853095;74.0;0.0;
94.1614914122;74.0;0.0;
94.2114975149;74.0;0.0;
94.2615036176;74.0;0.0;
94.3115097204;74.0;0.0;
94.3615158231;74.0;0.0;
94.4115219258;74.0;0.0;
94.4615280285;74.0;0.0;
94.5115341312;74.0;0.0;
94.5615402339;74.0;0.0;
94.6115463367;74.0;0.0;
94.6615524394;74.0;0.0;
94.7115585421;74.0;0.0;
94.7615646448;74.0;0.0;
94.8115707475;74.0;0.0;
94.8615768502;74.0;0.0;
94.9115829529;74.0;0.0;
94.9615890557;74.0;0.0;
95.0115951584;74.0;0.0;
95.0616012611;74.0;0.0;
95.1116073638;74.0;0.0;
95.1616134665;74.0;0.0;
95.2116195692;74.0;0.0;
95.2616256719;74.0;0.0;
95.3116317747;74.0;0.0;
95.3616378774;74.0;0.0;
95.4116439801;74.0;0.0;
95.4616500828;74.0;0.0;
95.5116561855;74.0;0.0;
95.5616622882;74.0;0.0;
95.611668391;74.0;0.0;
95.6616744937;74.0;0.0;
95.7116805964;74.0;0.0;
95.7616866991;74.0;0.0;
95.8116928018;74.0;0.0;
95.8616989045;74.0;0.0;
95.9117050072;74.0;0.0;
95.96171111;74.0;0.0;
96.0117172127;74.0;0.0;
96.0617233154;74.0;0.0;
96.1117294181;74.0;0.0;
96.1617355208;74.0;0.0;
96.2117416235;74.0;0.0;
96.2617477262;74.0;0.0;
96.311753829;74.0;0.0;
96.3617599317;74.0;0.0;
96.4117660344;4.0;0.0;
96.4617721371;4.0;0.0;
96.5117782398;4.0;0.0;
96.5617843425;4.0;0.0;
96.6117904452;4.0;0.0;
96.661796548;53.4013023397;0.0;
96.7118026507;74.0;0.0;
96.7618087534;74.0;0.0;
96.8118148561;74.0;0.0;
96.8618209588;74.0;0.0;
96.9118270615;74.0;0.0;
96.9618331643;74.0;0.0;
97.011839267;74.0;0.0;
97.0618453697;74.0;0.0;
97.1118514724;74.0;0.0;
97.1618575751;74.0;0.0;
97.2118636778;74.0;0.0;
97.2618697805;74.0;0.0;
97.3118758833;74.0;0.0;
97.361881986;74.0;0.0;
97.4118880887;74.0;0.0;
97.4618941914;74.0;0.0;
97.5119002941;74.0;0.0;
97.5619063968;74.0;0.0;
97.6119124995;74.0;0.0;
97.6619186023;74.0;0.0;
97.711924705;74.0;0.0;
97.7619308077;74.0;0.0;
97.8119369104;74.0;0.0;
97.8619430131;74.0;0.0;
97.9119491158;74.0;0.0;
97.9619552186;74.0;0.0;
98.0119613213;74.0;0.0;
98.061967424;74.0;0.0;
98.1119735267;74.0;0.0;
98.1619796294;74.0;0.0;
98.2119857321;74.0;0.0;
98.2619918348;74.0;0.0;
98.3119979376;74.0;0.0;
98.3620040403;74.0;0.0;
98.412010143;74.0;0.0;
98.4620162457;74.0;0.0;
98.5120223484;74.0;0.0;
98.5620284511;74.0;0.0;
98.6120345538;74.0;0.0;
98.6620406566;74.0;0.0;
98.7120467593;74.0;0.0;
98.762052862;74.0;0.0;
98.8120589647;74.0;0.0;
98.8620650674;74.0;0.0;
98.9120711701;74.0;0.0;
98.9620772729;74.0;0.0;
99.0120833756;74.0;0.0;
99.0620894783;74.0;0.0;
99.112095581;74.0;0.0;
99.1621016837;74.0;0.0;
99.2121077864;74.0;0.0;
99.2621138891;74.0;0.0;
99.3121199919;74.0;0.0;
99.3621260946;74.0;0.0;
99.4121321973;74.0;0.0;
99.4621383;74.0;0.0;
99.5121444027;74.0;0.0;
99.5621505054;74.0;0.0;
99.6121566081;74.0;0.0;
99.6621627109;74.0;0.0;
99.7121688136;74.0;0.0;
99.7621749163;74.0;0.0;
99.812181019;74.0;0.0;
99.8621871217;74.0;0.0;
99.9121932244;74.0;0.0;
99.9621993271;74.0;0.0;
100.01220543;74.0;0.0;
100.062211533;74.0;0.0;
100.112217635;74.0;0.0;
100.162223738;74.0;0.0;
100.212229841;74.0;0.0;
100.262235943;74.0;0.0;
100.312242046;74.0;0.0;
100.362248149;74.0;0.0;
100.412254252;74.0;0.0;
100.462260354;74.0;0.0;
100.512266457;74.0;0.0;
100.56227256;74.0;0.0;
100.612278662;74.0;0.0;
100.662284765;74.0;0.0;
100.712290868;74.0;0.0;
100.762296971;74.0;0.0;
100.812303073;74.0;0.0;
100.862309176;74.0;0.0;
100.912315279;74.0;0.0;
100.962321381;74.0;0.0;
101.012327484;74.0;0.0;
101.062333587;74.0;0.0;
101.11233969;74.0;0.0;
101.162345792;74.0;0.0;
101.212351895;74.0;0.0;
101.262357998;74.0;0.0;
101.3123641;74.0;0.0;
101.362370203;74.0;0.0;
101.412376306;74.0;0.0;
101.462382409;74.0;0.0;
101.512388511;74.0;0.0;
101.562394614;74.0;0.0;
101.612400717;74.0;0.0;
101.662406819;74.0;0.0;
101.712412922;74.0;0.0;
101.762419025;74.0;0.0;
101.812425128;74.0;0.0;
101.86243123;74.0;0.0;
101.912437333;74.0;0.0;
101.962443436;74.0;0.0;
102.012449538;74.0;0.0;
102.062455641;74.0;0.0;
102.112461744;74.0;0.0;
102.162467847;74.0;0.0;
102.212473949;74.0;0.0;
102.262480052;74.0;0.0;
102.312486155;74.0;0.0;
102.362492257;74.0;0.0;
102.41249836;74.0;0.0;
102.462504463;74.0;0.0;
102.512510566;74.0;0.0;
102.562516668;74.0;0.0;
102.612522771;74.0;0.0;
102.662528874;74.0;0.0;
102.712534976;74.0;0.0;
102.762541079;74.0;0.0;
102.812547182;74.0;0.0;
102.862553285;74.0;0.0;
102.912559387;74.0;0.0;
102.96256549;74.0;0.0;
103.012571593;74.0;0.0;
103.062577695;74.0;0.0;
103.112583798;74.0;0.0;
103.162589901;74.0;0.0;
103.212596004;74.0;0.0;
103.262602106;74.0;0.0;
103.312608209;74.0;0.0;
103.362614312;74.0;0.0;
103.412620414;74.0;0.0;
103.462626517;74.0;0.0;
103.51263262;74.0;0.0;
103.562638723;74.0;0.0;
103.612644825;74.0;0.0;
103.662650928;74.0;0.0;
103.712657031;74.0;0.0;
103.762663133;74.0;0.0;
103.812669236;74.0;0.0;
103.862675339;74.0;0.0;
103.912681442;74.0;0.0;
103.962687544;74.0;0.0;
104.012693647;74.0;0.0;
104.06269975;74.0;0.0;
104.112705852;74.0;0.0;
104.162711955;74.0;0.0;
104.212718058;74.0;0.0;
104.262724161;74.0;0.0;
104.312730263;74.0;0.0;
104.362736366;74.0;0.0;
104.412742469;74.0;0.0;
104.462748571;74.0;0.0;
104.512754674;74.0;0.0;
104.562760777;74.0;0.0;
104.61276688;74.0;0.0;
104.662772982;74.0;0.0;
104.712779085;74.0;0.0;
104.762785188;74.0;0.0;
104.81279129;74.0;0.0;
104.862797393;74.0;0.0;
104.912803496;74.0;0.0;
104.962809599;74.0;0.0;
105.012815701;74.0;0.0;
105.062821804;74.0;0.0;
105.112827907;74.0;0.0;
105.16283401;74.0;0.0;
105.212840112;74.0;0.0;
105.262846215;74.0;0.0;
105.312852318;74.0;0.0;
105.36285842;74.0;0.0;
105.412864523;74.0;0.0;
105.462870626;74.0;0.0;
105.512876729;74.0;0.0;
105.562882831;74.0;0.0;
105.612888934;74.0;0.0;
105.662895037;74.0;0.0;
105.712901139;74.0;0.0;
105.762907242;74.0;0.0;
105.812913345;74.0;0.0;
105.862919448;74.0;0.0;
105.91292555;74.0;0.0;
105.962931653;74.0;0.0;
106.012937756;74.0;0.0;
106.062943858;74.0;0.0;
106.112949961;74.0;0.0;
106.162956064;74.0;0.0;
106.212962167;74.0;0.0;
106.262968269;74.0;0.0;
106.312974372;74.0;0.0;
106.362980475;74.0;0.0;
106.412986577;74.0;0.0;
106.46299268;74.0;0.0;
106.512998783;74.0;0.0;
106.563004886;74.0;0.0;
106.613010988;74.0;0.0;
106.663017091;4.0;0.0;
106.713023194;4.0;0.0;
106.763029296;4.0;0.0;
106.813035399;4.0;0.0;
106.863041502;4.0;0.0;
106.913047605;55.7201617086;0.0;
106.963053707;76.0;0.0;
107.01305981;76.0;0.0;
107.063065913;76.0;0.0;
107.113072015;76.0;0.0;
107.163078118;76.0;0.0;
107.213084221;76.0;0.0;
107.263090324;76.0;0.0;
107.313096426;76.0;0.0;
107.363102529;76.0;0.0;
107.413108632;76.0;0.0;
107.463114734;76.0;0.0;
107.513120837;76.0;0.0;
107.56312694;76.0;0.0;
107.613133043;76.0;0.0;
107.663139145;76.0;0.0;
107.713145248;76.0;0.0;
107.763151351;76.0;0.0;
107.813157453;76.0;0.0;
107.863163556;76.0;0.0;
107.913169659;76.0;0.0;
107.963175762;76.0;0.0;
108.013181864;76.0;0.0;
108.063187967;76.0;0.0;
108.11319407;76.0;0.0;
108.163200172;76.0;0.0;
108.213206275;76.0;0.0;
108.263212378;76.0;0.0;
108.313218481;76.0;0.0;
108.363224583;76.0;0.0;
108.413230686;76.0;0.0;
108.463236789;76.0;0.0;
108.513242891;76.0;0.0;
108.563248994;76.0;0.0;
108.613255097;76.0;0.0;
108.6632612;76.0;0.0;
108.713267302;76.0;0.0;
108.763273405;76.0;0.0;
108.813279508;76.0;0.0;
108.86328561;76.0;0.0;
108.913291713;76.0;0.0;
108.963297816;76.0;0.0;
109.013303919;76.0;0.0;
109.063310021;76.0;0.0;
109.113316124;76.0;0.0;
109.163322227;76.0;0.0;
109.213328329;76.0;0.0;
109.263334432;76.0;0.0;
109.313340535;76.0;0.0;
109.363346638;76.0;0.0;
109.41335274;76.0;0.0;
109.463358843;76.0;0.0;
109.513364946;76.0;0.0;
109.563371048;76.0;0.0;
109.613377151;76.0;0.0;
109.663383254;76.0;0.0;
109.713389357;76.0;0.0;
109.763395459;76.0;0.0;
109.813401562;76.0;0.0;
109.863407665;76.0;0.0;
109.913413767;76.0;0.0;
109.96341987;76.0;0.0;
110.013425973;10.0;0.0;
110.063432076;10.0;0.0;
110.113438178;10.0;0.0;
110.163444281;10.0;0.0;
110.213450384;10.0;0.0;
110.263456486;10.0;0.0;
110.313462589;10.0;0.0;
110.363468692;10.0;0.0;
110.413474795;10.0;0.0;
110.463480897;10.0;0.0;
110.513487;10.0;0.0;
