0;
0.050093908;
0.640710908;
0.717209908;
0.717210908;
0.717211908;
0.718404908;
0.719599908;
0.719601908;
0.719602908;
0.720795908;
0.721990908;
0.721991908;
0.721992908;
0.723185908;
0.724380908;
0.724381908;
0.724383908;
0.725575908;
0.726771908;
0.726772908;
0.726773908;
0.727966908;
0.729161908;
0.729162908;
0.729163908;
0.730356908;
0.731551908;
0.731553908;
0.731554908;
0.732747908;
0.733942908;
0.733943908;
0.733944908;
0.735137908;
0.736332908;
0.736333908;
0.736335908;
0.737527908;
0.738723908;
0.738724908;
0.738725908;
0.739918908;
0.741113908;
0.741114908;
0.741115908;
0.742308908;
0.743503908;
0.743505908;
0.743506908;
0.744699908;
0.745894908;
0.745895908;
0.745896908;
0.747089908;
0.748284908;
0.748285908;
0.748287908;
0.749479908;
0.750675908;
0.750676908;
0.750677908;
0.751870908;
0.753065908;
0.753066908;
0.753067908;
0.754260908;
0.755455908;
0.755457908;
0.755458908;
0.756651908;
0.757846908;
0.757847908;
0.757848908;
0.759041908;
0.760236908;
0.760237908;
0.760239908;
0.761431908;
0.762627908;
0.762628908;
0.762629908;
0.763822908;
0.765017908;
0.765018908;
0.765019908;
0.766212908;
0.767407908;
0.767409908;
0.767410908;
0.768603908;
0.769798908;
0.769799908;
0.769800908;
0.770993908;
0.772188908;
0.772189908;
0.772191908;
0.773383908;
0.774579908;
0.774580908;
0.774581908;
0.775774908;
0.776969908;
0.776970908;
0.776971908;
0.778164908;
0.779359908;
0.779361908;
0.779362908;
0.780555908;
0.781750908;
0.781751908;
0.781752908;
0.782945908;
0.784140908;
0.784141908;
0.784143908;
0.785335908;
0.786531908;
0.786532908;
0.786533908;
0.787726908;
0.788921908;
0.788922908;
0.788923908;
0.790116908;
0.790117908;
0.791311908;
0.792507908;
0.793702908;
0.794897908;
0.796092908;
0.797287908;
0.798483908;
0.799678908;
0.800873908;
0.802068908;
0.803263908;
0.804459908;
0.805654908;
0.806849908;
0.808044908;
0.809239908;
0.810435908;
0.811630908;
0.812825908;
0.814020908;
0.815215908;
0.816411908;
0.817606908;
0.818801908;
0.819996908;
0.821191908;
0.822387908;
0.823582908;
0.824777908;
0.825972908;
0.827167908;
0.828363908;
0.829558908;
0.830753908;
0.831948908;
0.833143908;
0.834339908;
0.835534908;
0.836729908;
0.837924908;
0.839119908;
0.840315908;
0.841510908;
0.842705908;
0.843900908;
0.845095908;
0.846291908;
0.847486908;
0.848681908;
0.849876908;
0.851071908;
0.852267908;
0.853462908;
0.854657908;
0.855852908;
0.857047908;
0.858243908;
0.859438908;
0.860633908;
0.861828908;
0.863023908;
0.864219908;
0.865414908;
0.866609908;
0.867804908;
0.868999908;
0.870195908;
0.871390908;
0.872585908;
0.873780908;
0.874975908;
0.876171908;
0.877366908;
0.878561908;
0.879756908;
0.880951908;
0.882147908;
0.883342908;
0.884537908;
0.885732908;
0.886927908;
0.888123908;
0.889318908;
0.890513908;
0.891708908;
0.892903908;
0.894099908;
0.895294908;
0.896489908;
0.897684908;
0.898879908;
0.900075908;
0.901270908;
0.902465908;
0.903660908;
0.904855908;
0.906050908;
0.907246908;
0.908441908;
0.909636908;
0.910831908;
0.912026908;
0.913222908;
0.914417908;
0.915612908;
0.916807908;
0.918002908;
0.919198908;
0.920393908;
0.921588908;
0.922783908;
0.923978908;
0.925174908;
0.926369908;
0.927564908;
0.928759908;
0.929954908;
0.931150908;
0.932345908;
0.933540908;
0.934735908;
0.935924908;
0.937119908;
1.138969908;
1.191413908;
1.191414908;
1.191415908;
1.191417908;
1.191418908;
1.191419908;
1.191420908;
1.191421908;
1.191423908;
1.191424908;
1.191425908;
1.191426908;
1.191427908;
1.191429908;
1.191430908;
1.191431908;
1.191432908;
1.191433908;
1.191435908;
1.191436908;
1.191437908;
1.191438908;
1.191439908;
1.191440908;
1.191442908;
1.191443908;
1.191444908;
1.191445908;
1.191446908;
1.191448908;
1.191449908;
1.191450908;
1.191451908;
1.191452908;
1.191454908;
1.191455908;
1.191456908;
1.191457908;
1.191458908;
1.191460908;
1.191461908;
1.191462908;
1.191463908;
1.191464908;
1.191466908;
1.191467908;
1.191468908;
1.191469908;
1.191470908;
1.191472908;
1.191473908;
1.191474908;
1.191475908;
1.191476908;
1.191478908;
1.191479908;
1.191480908;
1.191481908;
1.191482908;
1.191484908;
1.191485908;
1.241466908;
1.242662908;
1.242663908;
1.243857908;
1.243858908;
1.245052908;
1.245053908;
1.246247908;
1.246248908;
1.247442908;
1.247444908;
1.248638908;
1.248639908;
1.249833908;
1.249834908;
1.251028908;
1.251029908;
1.252223908;
1.252224908;
1.253418908;
1.253420908;
1.254614908;
1.254615908;
1.255809908;
1.255810908;
1.257004908;
1.257005908;
1.258199908;
1.258200908;
1.259394908;
1.259396908;
1.260590908;
1.260591908;
1.261785908;
1.261786908;
1.262980908;
1.262981908;
1.264175908;
1.264176908;
1.265370908;
1.265372908;
1.266566908;
1.266567908;
1.267761908;
1.267762908;
1.268956908;
1.268957908;
1.270151908;
1.270152908;
1.271346908;
1.271348908;
1.272542908;
1.272543908;
1.273737908;
1.273738908;
1.274932908;
1.274933908;
1.276127908;
1.276128908;
1.277322908;
1.277324908;
1.278518908;
1.278519908;
1.279713908;
1.279714908;
1.280908908;
1.280909908;
1.282103908;
1.282104908;
1.283298908;
1.283300908;
1.284494908;
1.284495908;
1.285689908;
1.285690908;
1.286884908;
1.286885908;
1.288079908;
1.288080908;
1.289274908;
1.289275908;
1.290470908;
1.290471908;
1.291665908;
1.291666908;
1.292860908;
1.292861908;
1.294055908;
1.294056908;
1.295250908;
1.295251908;
1.296445908;
1.296447908;
1.297641908;
1.297642908;
1.298836908;
1.298837908;
1.300031908;
1.300032908;
1.301226908;
1.301227908;
1.302421908;
1.302423908;
1.303617908;
1.303618908;
1.304812908;
1.304813908;
1.306007908;
1.306008908;
1.307202908;
1.307203908;
1.308397908;
1.308399908;
1.309593908;
1.309594908;
1.310788908;
1.310789908;
1.311983908;
1.311984908;
1.313178908;
1.313179908;
1.314373908;
1.314375908;
1.315569908;
1.317959908;
1.320349908;
1.322740908;
1.325130908;
1.327521908;
1.329911908;
1.332301908;
1.334692908;
1.337082908;
1.339473908;
1.341863908;
1.344253908;
1.346644908;
1.349034908;
1.351425908;
1.353815908;
1.356205908;
1.358596908;
1.360986908;
1.363377908;
1.365767908;
1.368157908;
1.370548908;
1.372938908;
1.375329908;
1.377719908;
1.380109908;
1.382500908;
1.384890908;
1.387281908;
1.389671908;
1.392061908;
1.394452908;
1.396842908;
1.399233908;
1.401623908;
1.404013908;
1.406404908;
1.408794908;
1.411185908;
1.413575908;
1.415965908;
1.418356908;
1.420746908;
1.423137908;
1.425527908;
1.427917908;
1.430308908;
1.432698908;
1.435089908;
1.437479908;
1.439869908;
1.442260908;
1.444650908;
1.447041908;
1.449431908;
1.451821908;
1.454212908;
1.456602908;
1.458993908;
8.839346908;
16.145598908;
16.297388908;
23.602444908;
30.908696908;
31.060486908;
38.365542908;
45.671794908;
45.823584908;
