0;0;
0.0;50.093;
0.0500498497578;50.093;
0.100099699516;51.25338613;
0.150149549273;52.3554490033;
0.200199399031;52.436;
0.250249248789;52.8389493969;
0.300299098547;53.5791840496;
0.350348948304;55.9742340256;
0.400398798062;70.4267907987;
0.45044864782;70.1523282132;
0.500498497578;81.2716989457;
0.550548347335;105.862864909;
0.600598197093;131.469225226;
0.650648046851;151.153852425;
0.700697896609;141.886613252;
0.750747746366;132.61937408;
0.800797596124;123.352134907;
0.850847445882;114.084895734;
0.90089729564;104.817656562;
0.950947145397;95.5504173889;
1.00099699516;86.2831782162;
1.05104684491;77.0159390435;
1.10109669467;67.7486998708;
1.15114654443;58.4814606981;
1.20119639419;55.1687327704;
1.25124624394;73.0475306863;
1.3012960937;90.9263286023;
1.35134594346;108.805126518;
1.40139579322;126.683924434;
1.45144564297;144.56272235;
1.50149549273;149.391;
1.55154534249;149.391;
1.60159519225;149.391;
1.65164504201;104.943865994;
1.70169489176;76.491035125;
1.75174474152;76.4919727451;
1.80179459128;76.4910892539;
1.85184444104;78.882;
1.90189429079;78.882;
1.95194414055;78.882;
2.00199399031;81.272;
2.05204384007;81.272;
2.10209368983;81.272462016;
2.15214353958;81.2724757974;
2.20219338934;83.6624138358;
2.2522432391;83.662648397;
2.30229308886;83.6622894943;
2.35234293861;86.0537727905;
2.40239278837;86.053;
2.45244263813;86.053;
2.50249248789;86.1505390595;
2.55254233765;88.4430211591;
2.6025921874;88.4430831467;
2.65264203716;88.4438545082;
2.70269188692;90.834;
2.75274173668;90.8332695278;
2.80279158643;90.834;
2.85284143619;90.834;
2.90289128595;93.224;
2.95294113571;93.224;
3.00299098547;93.224;
3.05304083522;95.6137151211;
3.10309068498;95.615;
3.15314053474;95.6147666834;
3.2031903845;95.6141712574;
3.25324023425;98.005;
3.30329008401;98.005;
3.35333993377;98.005;
3.40338978353;98.005;
3.45343963329;100.395139445;
3.50348948304;100.395;
3.5535393328;100.395736271;
3.60358918256;100.395325827;
3.65363903232;102.785387814;
3.70368888207;102.785549968;
3.75373873183;102.786;
3.80378858159;102.786;
3.85383843135;105.176636601;
3.90388828111;105.176;
3.95393813086;105.176239324;
4.00398798062;105.176822982;
4.05403783038;105.176;
4.10408768014;107.566053021;
4.15413752989;107.566990641;
4.20418737965;107.567;
4.25423722941;107.566133338;
4.30428707917;109.957;
4.35433692892;109.957;
4.40438677868;109.957;
4.45443662844;109.957;
4.5044864782;112.347444113;
4.55453632796;112.347493693;
4.60458617771;112.347431731;
4.65463602747;112.347630494;
4.70468587723;112.34730739;
4.75473572699;114.738;
4.80478557674;114.738;
4.8548354265;114.738;
4.90488527626;114.738;
4.95493512602;114.738;
5.00498497578;117.128;
5.05503482553;117.128872404;
5.10508467529;117.128189637;
5.15513452505;117.128;
5.20518437481;119.518686101;
5.25523422456;119.519;
5.30528407432;119.518438006;
5.35533392408;119.518499798;
5.40538377384;119.518562399;
5.4554336236;121.909375456;
5.50548347335;121.909686793;
5.55553332311;121.909;
5.60558317287;121.909;
5.65563302263;121.909;
5.70568287238;124.299935161;
5.75573272214;124.29900285;
5.8057825719;124.29994047;
5.85583242166;124.299121542;
5.90588227142;124.299;
5.95593212117;126.69;
6.00598197093;126.69;
6.05603182069;126.689369911;
6.10608167045;126.689567864;
6.1561315202;126.69;
6.20618136996;129.080443522;
6.25623121972;129.08;
6.30628106948;129.08;
6.35633091924;129.080257219;
6.40638076899;129.080805079;
6.45643061875;131.470867067;
6.50648046851;131.470070916;
6.55653031827;131.471;
6.60658016802;131.471;
6.65663001778;131.470115435;
6.70667986754;133.860822233;
6.7567297173;133.861;
6.80677956706;133.861;
6.85682941681;133.861;
6.90687926657;133.861;
6.95692911633;133.861511589;
7.00697896609;136.251449627;
7.05702881584;136.251612591;
7.1070786656;136.251325285;
7.15712851536;136.252;
7.20717836512;136.251798972;
7.25722821487;138.642;
7.30727806463;138.642;
7.35732791439;138.641985353;
7.40737776415;138.642;
7.45742761391;138.642;
7.50747746366;138.642;
7.55752731342;141.032;
7.60757716318;141.032;
7.65762701294;141.032358115;
7.70767686269;141.032;
7.75772671245;141.032;
7.80777656221;142.120198706;
7.85782641197;143.422393352;
7.90787626173;143.423;
7.95792611148;143.422730877;
8.00797596124;143.422207049;
8.058025811;143.423;
8.10807566076;145.813;
8.15812551051;145.813;
8.20817536027;145.813;
8.25822521003;145.813;
8.30827505979;145.813;
8.35832490955;145.813;
8.4083747593;148.20329002;
8.45842460906;148.203;
8.50847445882;148.203585759;
8.55852430858;148.203476401;
8.60857415833;148.203461418;
8.65862400809;148.203399456;
8.70867385785;150.594;
8.75872370761;150.594;
8.80877355737;150.594;
8.85882340712;143.170844599;
8.90887325688;117.94444619;
8.95892310664;92.718047782;
9.0089729564;76.485;
9.05902280615;76.4854022995;
9.10907265591;76.492;
9.15912250567;78.882;
9.20917235543;78.882;
9.25922220519;78.882;
9.30927205494;81.272;
9.3593219047;81.2720296933;
9.40937175446;81.2729673134;
9.45942160422;81.2720946878;
9.50947145397;83.6621566753;
9.55952130373;83.6627810103;
9.60957115349;83.663;
9.65962100325;86.053;
9.70967085301;86.053;
9.75972070276;86.053;
9.80977055252;88.4429407315;
9.85982040228;88.4434084041;
9.90987025204;88.4436538309;
9.95992010179;88.4432840626;
10.0099699516;90.834;
10.0600198013;90.834;
10.1100696511;90.834;
10.1601195008;90.834;
10.2101693506;93.2240265931;
10.2602192003;93.224;
10.3102690501;93.2248490766;
10.3603188999;95.6147870259;
10.4103687496;95.6142749617;
10.4604185994;95.6146627735;
10.5104684491;95.615;
10.5605182989;98.005;
10.6105681486;98.005;
10.6606179984;98.005;
10.7106678482;98.0053521289;
10.7607176979;100.396;
10.8107675477;100.395772117;
10.8608173974;100.395165826;
10.9108672472;100.395896511;
10.9609170969;102.786;
11.0109669467;102.786;
11.0610167965;102.786;
11.1110666462;102.786;
11.161116496;105.176;
11.2111663457;105.17673084;
11.2612161955;105.17633126;
11.3112660453;105.176;
11.361315895;105.176;
11.4113657448;107.566517642;
11.4614155945;107.567;
11.5114654443;107.566358233;
11.561515294;107.566704023;
11.6115651438;109.957;
11.6616149936;109.957828416;
11.7116648433;109.957;
11.7617146931;109.957;
11.8117645428;112.347985209;
11.8618143926;112.347076785;
11.9118642423;112.347138772;
11.9619140921;112.347798906;
12.0119639419;112.347263166;
12.0620137916;114.737325153;
12.1120636414;114.737612603;
12.1621134911;114.738;
12.2121633409;114.738;
12.2622131907;117.1274263;
12.3122630404;117.128;
12.3623128902;117.128301958;
12.4123627399;117.128760321;
12.4624125897;117.128;
12.5124624394;119.518115655;
12.5625122892;119.519;
12.612562139;119.519;
12.6626119887;119.518070678;
12.7126618385;119.518866972;
12.7627116882;121.909;
12.812761538;121.909;
12.8628113877;121.909;
12.9128612375;121.909;
12.9629110873;121.909;
13.012960937;124.299494366;
13.0630107868;124.299567833;
13.1130606365;124.299370024;
13.1631104863;124.3;
13.213160336;124.299754214;
13.2632101858;126.69;
13.3132600356;126.69;
13.3633098853;126.69;
13.4133597351;126.69;
13.4634095848;126.69;
13.5134594346;129.080126976;
13.5635092844;129.08;
13.6135591341;129.080748735;
13.6636089839;129.080313357;
13.7136588336;129.08;
13.7637086834;131.470562432;
13.8137585331;131.470499738;
13.8638083829;131.471;
13.9138582327;131.470376129;
13.9639080824;131.470686119;
14.0139579322;133.861;
14.0640077819;133.861;
14.1140576317;133.861;
14.1641074814;133.861;
14.2141573312;133.861;
14.264207181;133.861;
14.3142570307;136.251;
14.3643068805;136.251816802;
14.4143567302;136.251245263;
14.46440658;136.251;
14.5144564297;136.251630498;
14.5645062795;138.642;
14.6145561293;138.641493631;
14.664605979;138.641444195;
14.7146558288;138.642;
14.7647056785;138.642;
14.8147555283;138.642;
14.8648053781;141.032;
14.9148552278;141.032133551;
14.9649050776;141.032928799;
15.0149549273;141.032;
15.0650047771;141.032;
15.1150546268;143.146833975;
15.1651044766;143.423;
15.2151543264;143.422239155;
15.2652041761;143.422698565;
15.3152540259;143.423;
15.3653038756;143.422425537;
15.4153537254;145.813;
15.4654035751;145.813;
15.5154534249;145.813;
15.5655032747;145.813674324;
15.6155531244;145.813;
15.6656029742;145.813;
15.7156528239;148.203860705;
15.7657026737;148.203922692;
15.8157525235;148.203015314;
15.8658023732;148.203952934;
15.915852223;148.203109073;
15.9659020727;148.203;
16.0159519225;150.594;
16.0660017722;150.594;
16.116051622;150.593357442;
16.1661014718;145.827738733;
16.2161513215;128.346872736;
16.2662011713;110.866006739;
16.316251021;93.3851407417;
16.3663008708;75.9042747445;
16.4163507205;76.485;
16.4664005703;76.4917075125;
16.5164504201;76.4913545975;
16.5665002698;76.491;
16.6165501196;78.8815212094;
16.6665999693;78.882;
16.7166498191;78.882;
16.7666996688;81.272;
16.8167495186;81.272;
16.8667993684;81.2722105648;
16.9168492181;81.2728517531;
16.9668990679;83.6629137406;
17.0169489176;83.6620242617;
17.0669987674;83.6629618818;
17.1170486172;86.053;
17.1670984669;86.053;
17.2171483167;86.053;
17.2671981664;87.7575449292;
17.3172480162;88.443;
17.3672978659;88.4435892756;
17.4173477157;88.4434728838;
17.4673975655;90.834;
17.5174474152;90.8334029725;
17.567497265;90.834;
17.6175471147;90.834;
17.6675969645;93.2247836584;
17.7176468142;93.224;
17.767696664;93.2240923279;
17.8177465138;95.615;
17.8677963635;95.615;
17.9178462133;95.6140940145;
17.967896063;95.6148436449;
18.0179459128;98.005;
18.0679957626;98.005;
18.1180456123;98.005;
18.1680954621;98.005;
18.2181453118;100.395;
18.2681951616;100.395471039;
18.3182450113;100.39559117;
18.3682948611;100.395346697;
18.4183447109;102.786;
18.4683945606;102.786;
18.5184444104;102.786;
18.5684942601;102.786;
18.6185441099;105.176;
18.6685939596;105.176;
18.7186438094;105.176911711;
18.7686936592;105.176150313;
18.8187435089;105.176;
18.8687933587;107.566725408;
18.9188432084;107.567;
18.9688930582;107.566398682;
19.0189429079;107.566539105;
19.0689927577;109.957;
19.1190426075;109.957414763;
19.1690924572;109.957;
19.219142307;109.957;
19.2691921567;112.34722846;
19.3192420065;112.348;
19.3692918563;112.347895838;
19.419341706;112.347042157;
19.4693915558;112.347979777;
19.5194414055;114.738;
19.5694912553;114.738;
19.619541105;114.738;
19.6695909548;114.738;
19.7196408046;116.337227144;
19.7696906543;117.128;
19.8197405041;117.128454981;
19.8697903538;117.128;
19.9198402036;117.128;
19.9698900533;119.518641362;
20.0199399031;119.518296527;
20.0699897529;119.519;
20.1200396026;119.518827743;
20.1700894524;119.518110223;
20.2201393021;121.909;
20.2701891519;121.909;
20.3202390016;121.909;
20.3702888514;121.909;
20.4203387012;121.909;
20.4703885509;124.299;
20.5204384007;124.299675237;
20.5704882504;124.299386886;
20.6205381002;124.299;
20.67058795;124.299488934;
20.7206377997;126.69;
20.7706876495;126.69;
20.8207374992;126.69;
20.870787349;126.69;
20.9208371987;126.69;
20.9708870485;129.080884042;
21.0209368983;129.08;
21.070986748;129.08;
21.1210365978;129.080929607;
21.1710864475;129.08013241;
21.2211362973;131.470194398;
21.271186147;131.470743304;
21.3212359968;131.471;
21.3712858466;131.470380779;
21.4213356963;131.470557001;
21.4713855461;133.861;
21.5214353958;133.861432659;
21.5714852456;133.861;
21.6215350954;133.861;
21.6715849451;133.861;
21.7216347949;133.861;
21.7716846446;136.251877934;
21.8217344944;136.251060053;
21.8717843441;136.251997673;
21.9218341939;136.251064316;
21.9718840437;136.251126303;
22.0219338934;138.642;
22.0719837432;138.642;
22.1220335929;138.641312684;
22.1720834427;138.641625067;
22.2221332924;138.642;
22.2721831422;138.641499065;
22.322232992;141.032;
22.3722828417;141.032;
22.4223326915;141.032314422;
22.4723825412;141.032747852;
22.522432391;141.032;
22.5724822407;143.421256238;
22.6225320905;143.423;
22.6725819403;143.422996221;
22.72263179;143.422058208;
22.7726816398;143.422879436;
22.8227314895;143.423;
22.8727813393;145.813;
22.9228311891;145.813;
22.9728810388;145.813;
23.0229308886;145.813;
23.0729807383;145.813;
23.1230305881;145.813;
23.1730804378;148.203382488;
23.2231302876;148.203320527;
23.2731801374;148.203741745;
23.3232299871;148.203196185;
23.3732798369;148.203866139;
23.4233296866;148.203928126;
23.4733795364;150.594;
23.5234293861;150.594;
23.5734792359;150.594;
23.6235290857;142.360533688;
23.6735789354;117.13413528;
23.7236287852;91.9077368716;
23.7736786349;76.485;
23.8237284847;76.485;
23.8737783345;76.4919872693;
23.9238281842;78.882;
23.973878034;78.882;
24.0239278837;78.882;
24.0739777335;81.272;
24.1240275832;81.2727020808;
24.174077433;81.2723600314;
24.2241272828;81.272;
24.2741771325;83.6625157777;
24.3242269823;83.663;
24.374276832;83.663;
24.4243266818;86.053;
24.4743765315;86.053;
24.5244263813;86.053;
24.5744762311;88.444;
24.6245260808;88.4439191746;
24.6745759306;88.44301883;
24.7246257803;88.4439564502;
24.7746756301;90.834;
24.8247254798;90.834;
24.8747753296;90.834;
24.9248251794;90.834;
24.9748750291;93.224;
25.0249248789;93.224;
25.0749747286;93.2244783177;
25.1250245784;95.615;
25.1750744282;95.6143975408;
25.2251242779;95.6146646988;
25.2751741277;95.615;
25.3252239774;98.0057890923;
25.3752738272;98.005;
25.4253236769;98.005;
25.4753735267;98.005;
25.5254233765;100.396;
25.5754732262;100.395099448;
25.625523076;100.395838213;
25.6755729257;100.395223842;
25.7256227755;102.78528583;
25.7756726252;102.786;
25.825722475;102.786;
25.8757723248;102.785472211;
25.9258221745;105.176;
25.9758720243;105.176;
26.025921874;105.176341266;
26.0759717238;105.176720998;
26.1260215735;105.176;
26.1760714233;107.566154962;
26.2261212731;107.567;
26.2761711228;107.566969366;
26.3262209726;107.566031354;
26.3762708223;109.957;
26.4263206721;109.957;
26.4763705219;109.957;
26.5264203716;109.957;
26.5764702214;112.347342128;
26.6265200711;112.347;
26.6765699209;112.347533673;
26.7266197706;112.347528509;
26.7766696204;112.347409332;
26.8267194702;114.73734737;
26.8767693199;114.738;
26.9268191697;114.738;
26.9768690194;114.738;
27.0269188692;117.128;
27.0769687189;117.128036726;
27.1270185687;117.128974346;
27.1770684185;117.128087653;
27.2271182682;117.128;
27.277168118;119.518788043;
27.3272179677;119.519;
27.3772678175;119.518336021;
27.4273176673;119.51860174;
27.477367517;119.519;
27.5274173668;121.909;
27.5774672165;121.909;
27.6275170663;121.909;
27.677566916;121.909;
27.7276167658;121.909771189;
27.7776666156;124.299833177;
27.8277164653;124.299104792;
27.8777663151;124.29995757;
27.9278161648;124.3;
27.9778660146;124.299081545;
28.0279158643;126.69;
28.0779657141;126.69;
28.1280155639;126.689267926;
28.1780654136;126.69;
28.2281152634;126.69;
28.2781651131;129.08;
28.3282149629;129.08;
28.3782648126;129.08;
28.4283146624;129.080359161;
28.4783645122;129.08;
28.5284143619;131.470765082;
28.5784642117;131.470172858;
28.6285140614;131.471;
28.6785639112;131.470951463;
28.728613761;131.470013451;
28.7786636107;133.861;
28.8287134605;133.861;
28.8787633102;133.861;
28.92881316;133.861;
28.9788630097;133.861;
29.0289128595;133.861;
29.0789627093;136.251551569;
29.129012559;136.251510606;
29.1790624088;136.251427227;
29.2291122585;136.251365266;
29.2791621083;136.251696987;
29.329211958;138.642;
29.3792618078;138.642;
29.4293116576;138.642;
29.4793615073;138.642;
29.5294113571;138.642;
29.5794612068;138.642;
29.6295110566;141.032;
29.6795609064;141.032805938;
29.7296107561;141.03225613;
29.7796606059;141.032;
29.8297104556;141.032;
29.8797603054;143.422557488;
29.9298101551;143.422504499;
29.9798600049;143.422433332;
30.0299098547;143.422628893;
30.0799597044;143.422308991;
30.1300095542;143.423;
30.1800594039;145.813;
30.2301092537;145.813;
30.2801591034;145.813;
30.3302089532;145.813;
30.380258803;145.813;
30.4303086527;145.813;
30.4803585025;148.203188036;
30.5304083522;148.203;
30.580458202;148.203687701;
30.6305080517;148.203374417;
30.6805579015;148.203;
30.7306077513;148.203501398;
30.780657601;150.594;
30.8307074508;150.594;
30.8807573005;150.593315095;
30.9308071503;145.266226296;
30.9808570001;127.785360299;
31.0309068498;110.304494302;
31.0809566996;92.8236283049;
31.1310065493;75.3427623077;
31.1810563991;76.485;
31.2311062488;76.4916199411;
31.2811560986;76.4913179384;
31.3312059484;76.492;
31.3812557981;78.882;
31.4313056479;78.882;
31.4813554976;78.882;
31.5314053474;81.272;
31.5814551971;81.272;
31.6315050469;81.2728829523;
31.6815548967;81.2721790842;
31.7316047464;83.6622410718;
31.7816545962;83.6626966492;
31.8317044459;83.663;
31.8817542957;86.053;
31.9318041454;86.053;
31.9818539952;86.053;
32.031903845;88.4427720092;
32.0819536947;88.443324043;
32.1320035445;88.4437382274;
32.1820533942;88.4431997015;
32.232103244;90.834;
32.2821530938;90.834;
32.3322029435;90.834;
32.3822527933;90.834;
32.432302643;93.2241109895;
32.4823524928;93.224;
32.5324023425;93.2247647154;
32.5824521923;95.615;
32.6325020421;95.6143593581;
32.6825518918;95.6145784123;
32.7326017416;95.615;
32.7826515913;98.005;
32.8327014411;98.005;
32.8827512908;98.005;
32.9328011406;98.0052677677;
32.9828509904;100.396;
33.0329008401;100.395856514;
33.0829506899;100.395081465;
33.1330005396;100.395980907;
33.1830503894;102.786;
33.2331002392;102.786;
33.2831500889;102.786;
33.3331999387;102.786;
33.3832497884;105.176;
33.4332996382;105.176646479;
33.4833494879;105.176415657;
33.5333993377;105.176;
33.5834491875;105.176;
33.6334990372;107.566602038;
33.683548887;107.567;
33.7335987367;107.567;
33.7836485865;107.566788419;
33.8336984362;109.957;
33.883748286;109.957;
33.9337981358;109.957;
33.9838479855;109.957;
34.0338978353;112.347900848;
34.083947685;112.347161181;
34.1339975348;112.347223169;
34.1840473845;112.347714545;
34.2340972343;112.347347562;
34.2841470841;114.73740955;
34.3341969338;114.737528242;
34.3842467836;114.738;
34.4342966333;114.738;
34.4843464831;117.127341939;
34.5343963329;117.128;
34.5844461826;117.128217597;
34.6344960324;117.128844718;
34.6845458821;117.128;
34.7345957319;119.518031294;
34.7846455816;119.518968914;
34.8346954314;119.519;
34.8847452812;119.518155074;
34.9347951309;119.518782611;
34.9848449807;121.909;
35.0348948304;121.909;
35.0849446802;121.909;
35.1349945299;121.909;
35.1850443797;121.909;
35.2350942295;124.299410005;
35.2851440792;124.29965223;
35.335193929;124.299285663;
35.3852437787;124.3;
35.4352936285;124.299838611;
35.4853434783;126.69;
35.535393328;126.69;
35.5854431778;126.69;
35.6354930275;126.69;
35.6855428773;126.69;
35.735592727;129.080211373;
35.7856425768;129.08;
35.8356924266;129.080664374;
35.8857422763;129.080397754;
35.9357921261;129.08;
35.9858419758;131.470478071;
36.0358918256;131.470584135;
36.0859416753;131.471;
36.1359915251;131.470291768;
36.1860413749;131.470770516;
36.2360912246;133.861;
36.2861410744;133.861;
36.3361909241;133.861;
36.3862407739;133.861;
36.4362906236;133.861;
36.4863404734;133.861;
36.5363903232;136.251;
36.5864401729;136.25173244;
36.6364900227;136.251329659;
36.6865398724;136.251;
36.7365897222;136.251546137;
36.786639572;138.642;
36.8366894217;138.642;
36.8867392715;138.641359834;
36.9367891212;138.642;
36.986838971;138.642;
37.0368888207;138.642;
37.0869386705;141.032;
37.1369885203;141.03204919;
37.18703837;141.03298681;
37.2370882198;141.032075183;
37.2871380695;141.032;
37.3371879193;143.422601013;
37.387237769;143.423;
37.4372876188;143.422323552;
37.4873374686;143.422614203;
37.5373873183;143.423;
37.5874371681;143.422509933;
37.6374870178;145.813;
37.6875368676;145.813;
37.7375867173;145.813;
37.7876365671;145.81375872;
37.8376864169;145.813;
37.8877362666;145.813;
37.9377861164;148.203945101;
37.9878359661;148.203007089;
38.0378858159;148.203069076;
38.0879356657;148.203868573;
38.1379855154;148.20319347;
38.1880353652;148.203;
38.2380852149;150.594;
38.2881350647;150.594;
38.3381849144;150.593441838;
38.3882347642;141.550222778;
38.438284614;116.323824369;
38.4883344637;91.0974259611;
38.5383843135;76.485;
38.5884341632;76.485;
38.638484013;76.4913146004;
38.6885338627;78.882;
38.7385837125;78.882;
38.7886335623;78.8815009815;
38.838683412;81.272;
38.8887332618;81.272625375;
38.9387831115;81.2723125067;
38.9888329613;81.2727497685;
39.0388828111;83.662811756;
39.0889326608;83.6621262036;
39.1389825106;83.663;
39.1890323603;86.053;
39.2390822101;86.053;
39.2891320598;86.053;
39.3391819096;88.4431845182;
39.3892317594;88.4432465057;
39.4392816091;88.4436912175;
39.4893314589;88.4433708992;
39.5393813086;90.8334328868;
39.5894311584;90.8335049144;
39.6394810081;90.834;
39.6895308579;90.834;
39.7395807077;93.224;
39.7896305574;93.224;
39.8396804072;93.2241942698;
39.8897302569;95.615;
39.9397801067;95.6149300424;
39.9898299564;95.6140079667;
40.0398798062;95.6149455869;
40.089929656;98.005;
40.1399795057;98.005;
40.1900293555;98.005;
40.2400792052;98.005;
40.290129055;100.395;
40.3401789048;100.395572981;
40.3902287545;100.395489186;
40.4402786043;100.395;
40.490328454;102.785386678;
40.5403783038;102.786;
40.5904281535;102.786;
40.6404780033;102.786;
40.6905278531;105.176;
40.7405777028;105.176076033;
40.7906275526;105.176986341;
40.8406774023;105.176048329;
40.8907272521;105.176;
40.9407771018;107.56682735;
40.9908269516;107.567;
41.0408768014;107.566296697;
41.0909266511;107.566641047;
41.1409765009;109.957;
41.1910263506;109.957;
41.2410762004;109.957;
41.2911260502;109.957;
41.3411758999;112.347330402;
41.3912257497;112.347268441;
41.4412755994;112.347793853;
41.4913254492;112.347144099;
41.5413752989;112.348;
41.5914251487;114.738;
41.6414749985;114.738;
41.6915248482;114.738;
41.741574698;114.738;
41.7916245477;117.128;
41.8416743975;117.128709113;
41.8917242472;117.128352996;
41.941774097;117.128;
41.9918239468;117.128;
42.0418737965;119.519;
42.0919236463;119.519;
42.141973496;119.518336507;
42.1920233458;119.518725758;
42.2420731955;119.518212165;
42.2921230453;121.909850152;
42.3421728951;121.909;
42.3922227448;121.909;
42.4422725946;121.909;
42.4923224443;121.909;
42.5423722941;124.299160508;
42.5924221439;124.299777179;
42.6424719936;124.299284901;
42.6925218434;124.299;
42.7425716931;124.299590876;
42.7926215429;126.69;
42.8426713926;126.68953327;
42.8927212424;126.689404573;
42.9427710922;126.69;
42.9928209419;126.69;
43.0428707917;129.080782057;
43.0929206414;129.08;
43.1429704912;129.080093929;
43.1930203409;129.080968438;
43.2430701907;129.080030426;
43.2931200405;131.470092413;
43.3431698902;131.470845246;
43.39321974;131.471;
43.4432695897;131.470278794;
43.4933194395;131.470658942;
43.5433692892;133.861;
43.593419139;133.861;
43.6434689888;133.861;
43.6935188385;133.861;
43.7435686883;133.861348298;
43.793618538;133.861;
43.8436683878;136.25177595;
43.8937182376;136.251161995;
43.9437680873;136.251900343;
43.9938179371;136.251962331;
44.0438677868;136.251024318;
44.0939176366;138.642;
44.1439674863;138.642;
44.1940173361;138.6412107;
44.2440671859;138.642;
44.2941170356;138.642;
44.3441668854;138.641397081;
44.3942167351;141.032;
44.4442665849;141.032521474;
44.4943164346;141.032;
44.5443662844;141.032;
44.5944161342;141.032;
44.6444659839;143.422230061;
44.6945158337;143.423;
44.7445656834;143.422894236;
44.7946155332;143.422043758;
44.844665383;143.422981378;
44.8947152327;143.423;
44.9447650825;145.813;
44.9948149322;145.813;
45.044864782;145.813;
45.0949146317;145.813;
45.1449644815;145.813;
45.1950143313;145.813;
45.245064181;148.203;
45.2951140308;148.203422469;
45.3451638805;148.20363976;
45.3952137303;148.203298127;
45.44526358;148.204;
45.4953134298;148.203826142;
45.5453632796;150.594;
45.5954131293;150.594;
45.6454629791;150.594;
45.6955128288;144.70471386;
45.7455626786;127.223847862;
45.7956125283;109.742981865;
45.8456623781;92.2621158681;
45.8957122279;74.7812498709;
45.9457620776;76.485;
45.9958119274;76.4910527057;
46.0458617771;76.4919903259;
46.0959116269;76.492;
46.1459614767;78.882;
46.1960113264;78.882;
46.2460611762;78.882;
46.2961110259;81.272;
46.3461608757;81.2726177197;
46.3962107254;81.2724444278;
46.4462605752;81.272;
46.496310425;83.6624314165;
46.5463602747;83.663;
46.5964101245;83.663;
46.6464599742;86.053;
46.696509824;86.053;
46.7465596737;86.053;
46.7966095235;88.444;
46.8466593733;88.444;
46.896709223;88.4430655586;
46.9467590728;88.443872089;
46.9968089225;90.834;
47.0468587723;90.834;
47.0969086221;90.834;
47.1469584718;90.834;
47.1970083216;93.224;
47.2470581713;93.224;
47.2971080211;93.2245627142;
47.3471578708;95.615;
47.3972077206;95.6143131797;
47.4472575704;95.6147490952;
47.4973074201;95.6141888382;
47.5473572699;98.0058734888;
47.5974071196;98.005;
47.6474569694;98.005;
47.6975068191;98.005;
47.7475566689;100.396;
47.7976065187;100.395183845;
47.8476563684;100.395753852;
47.8977062182;100.395308238;
47.9477560679;102.785370226;
47.9978059177;102.786;
48.0478557674;102.786;
48.0979056172;102.785556607;
48.147955467;105.176;
48.1980053167;105.176;
48.2480551665;105.176256904;
48.2981050162;105.176805394;
48.348154866;105.176;
48.3982047158;107.566070601;
48.4482545655;107.567;
48.4983044153;107.567;
48.548354265;107.56611575;
48.5984041148;109.957;
48.6484539645;109.957;
48.6985038143;109.957;
48.7485536641;109.957;
48.7986035138;112.347426525;
48.8486533636;112.347;
48.8987032133;112.347449312;
48.9487530631;112.347612906;
48.9988029128;112.347324971;
49.0488527626;114.737263009;
49.0989026124;114.738;
49.1489524621;114.738;
49.1990023119;114.738;
49.2490521616;117.128;
49.2991020114;117.128;
49.3491518611;117.128889985;
49.3992017109;117.128172049;
49.4492515607;117.128;
49.4993014104;119.518703681;
49.5493512602;119.519;
49.5994011099;119.518420418;
49.6494509597;119.518517378;
49.6995008095;119.519;
49.7495506592;121.909;
49.799600509;121.909;
49.8496503587;121.909;
49.8997002085;121.909;
49.9497500582;121.909855586;
49.999799908;50.093;
