0;0;1;1;2;2;3;3;4;4;
0.2;54.4652409024;0.2;60.3614534651;0.2;68.6668753624;0.2;80.9938540825;0.2;93.9872741699;
0.4;112.414060495;0.4;111.247184949;0.4;116.526181357;0.4;117.099591664;0.4;114.770943468;
0.6;218.342217532;0.6;213.175567714;0.6;212.282116597;0.6;209.025300466;0.6;210.89770054;
0.8;228.552174568;0.8;229.208896557;0.8;231.672093272;0.8;231.710122182;0.8;226.731562614;
1.0;237.7358675;1.0;231.110614889;1.0;232.412751516;1.0;235.817636762;1.0;237.849410375;
1.2;237.258974711;1.2;223.625351401;1.2;239.274088542;1.2;227.642953396;1.2;219.072273799;
1.4;134.793934069;1.4;118.940603733;1.4;127.658589681;1.4;126.408485266;1.4;136.075401306;
1.6;122.166270795;1.6;124.558938874;1.6;129.508069583;1.6;133.661141762;1.6;126.044448217;
1.8;163.260752505;1.8;157.091538111;1.8;167.426154017;1.8;158.14109949;1.8;159.600121634;
2.0;173.346841335;2.0;172.838621669;2.0;174.29634503;2.0;173.028928893;2.0;183.910980821;
2.2;183.11355114;2.2;181.10481898;2.2;182.649356978;2.2;174.648761749;2.2;176.305876838;
2.4;174.261510372;2.4;181.092638718;2.4;185.966082982;2.4;173.466920853;2.4;179.289862514;
2.6;170.102144542;2.6;164.268984514;2.6;163.726536433;2.6;176.999313491;2.6;172.35912217;
2.8;162.360167503;2.8;169.433103667;2.8;163.89969679;2.8;167.418650218;2.8;159.088757303;
3.0;166.965603828;3.0;164.288332588;3.0;175.536632538;3.0;162.358335086;3.0;171.781399671;
3.2;166.380430523;3.2;167.002467548;3.2;164.848057429;3.2;171.842575073;3.2;161.822823917;
3.4;164.112567902;3.4;173.468321562;3.4;166.277629989;3.4;174.685852868;3.4;166.80757623;
3.6;164.95796442;3.6;157.970309258;3.6;161.694833211;3.6;158.122164862;3.6;167.043182585;
3.8;151.122676002;3.8;157.407045364;3.8;151.494868596;3.8;158.341121674;3.8;151.422699293;
4.0;156.571304097;4.0;150.643878513;4.0;152.059976871;4.0;154.765160878;4.0;159.083993811;
4.2;149.242387878;4.2;148.791677812;4.2;159.81895583;4.2;145.729541779;4.2;149.682972166;
4.4;146.890107323;4.4;158.772110939;4.4;154.726219177;4.4;154.185399413;4.4;152.090863178;
4.6;157.265409827;4.6;147.915802504;4.6;146.822656904;4.6;153.266276632;4.6;152.742195129;
4.8;148.706862801;4.8;152.087762952;4.8;157.048922319;4.8;145.363524556;4.8;145.377967093;
5.0;154.370248318;5.0;156.876115238;5.0;158.446486791;5.0;157.737572988;5.0;158.374750614;
5.2;153.607100248;5.2;149.826204076;5.2;151.106204305;5.2;160.100205739;5.2;150.279067812;
5.4;153.120703167;5.4;163.560167948;5.4;157.587613378;5.4;152.807831764;5.4;160.409036436;
5.6;158.637210727;5.6;157.255060533;5.6;151.789555183;5.6;161.478662491;5.6;152.689150402;
5.8;162.350225449;5.8;154.285654426;5.8;152.875614166;5.8;155.576944351;5.8;158.432006836;
6.0;150.921732187;6.0;161.888733506;6.0;156.289611544;6.0;150.659771527;6.0;151.993572712;
6.2;158.234536648;6.2;152.037185781;6.2;164.59936362;6.2;159.214607875;6.2;153.095438367;
6.4;151.944049199;6.4;155.262554393;6.4;154.066085815;6.4;157.008841634;6.4;156.513788483;
6.6;151.83827281;6.6;152.497932315;6.6;154.249276434;6.6;151.986122131;6.6;155.252611637;
6.8;164.115803582;6.8;152.257414425;6.8;166.561511847;6.8;164.745267232;6.8;157.198791919;
7.0;162.099234263;7.0;161.884382367;7.0;161.22003964;7.0;159.752565272;7.0;156.768719355;
7.2;152.632847428;7.2;160.834423701;7.2;151.891282627;7.2;154.238033295;7.2;158.217440481;
7.4;167.406320572;7.4;155.5946294;7.4;161.903711466;7.4;161.396952236;7.4;158.510533246;
7.6;160.718313853;7.6;164.890686671;7.6;154.54155604;7.6;154.298678041;7.6;160.216526552;
7.8;151.692803701;7.8;156.669308158;7.8;150.929084191;7.8;156.164199114;7.8;151.822453453;
8.0;161.907141025;8.0;153.145202001;8.0;161.486285073;8.0;162.56182334;8.0;152.88361907;
8.2;159.915855953;8.2;159.417724609;8.2;160.473670278;8.2;146.903038025;8.2;149.356251178;
8.4;148.762353261;8.4;152.972355485;8.4;148.530874934;8.4;156.103819609;8.4;153.533968058;
8.6;156.119383298;8.6;151.227012277;8.6;154.903701374;8.6;159.215609233;8.6;151.984572411;
8.8;150.805060069;8.8;159.457095464;8.8;161.655681474;8.8;148.799012689;8.8;153.154466463;
9.0;150.802595275;9.0;150.173807144;9.0;154.474405142;9.0;160.302236676;9.0;153.190094492;
9.2;157.269826302;9.2;155.773337682;9.2;154.778003693;9.2;153.247699142;9.2;156.844367981;
9.4;167.023982321;9.4;165.339867274;9.4;157.416582108;9.4;154.055505991;9.4;156.576571257;
9.6;156.622358731;9.6;155.630207062;9.6;151.132249832;9.6;161.860116323;9.6;153.678455353;
9.8;157.205086488;9.8;158.26850278;9.8;156.816134086;9.8;162.243664265;9.8;160.91469618;
10.0;163.474210103;10.0;158.223549525;10.0;167.215512349;10.0;156.49856627;10.0;155.789126521;
10.2;156.908035278;10.2;156.290993094;10.2;167.565144025;10.2;167.905956507;10.2;161.855144501;
10.4;124.985524586;10.4;128.515978654;10.4;137.156426907;10.4;141.222858429;10.4;142.431564331;
10.6;53.9399147034;10.6;53.1587362289;10.6;52.3101091385;10.6;52.187204361;10.6;51.9792437553;
10.8;75.7816689355;10.8;61.4613805498;10.8;76.5087604523;10.8;70.4800446828;10.8;62.7623844147;
11.0;85.8290562263;11.0;78.1587432413;11.0;86.47108078;11.0;86.4266008139;11.0;81.9360017776;
11.2;95.1815843582;11.2;102.868960454;11.2;96.4580433709;11.2;96.3236987591;11.2;97.8269672394;
11.4;130.574328559;11.4;134.071588516;11.4;130.363007387;11.4;130.447670817;11.4;126.197690964;
11.6;153.407812119;11.6;142.964824041;11.6;154.960200191;11.6;150.273863475;11.6;145.548313856;
11.8;157.508468628;11.8;161.532147725;11.8;156.493679682;11.8;156.532675028;11.8;163.481871287;
12.0;164.499180658;12.0;157.394379377;12.0;163.76558372;12.0;168.599700928;12.0;159.499092536;
12.2;167.791732152;12.2;155.200020472;12.2;168.337328093;12.2;160.323591793;12.2;161.542571109;
12.4;158.671204249;12.4;164.853743144;12.4;158.226426442;12.4;160.283178091;12.4;160.137945955;
12.6;159.437878927;12.6;165.686559677;12.6;158.977460861;12.6;160.198688507;12.6;159.203835896;
12.8;152.616437276;12.8;150.540947914;12.8;158.583436693;12.8;150.297737122;12.8;153.295786484;
13.0;150.554388762;13.0;156.945501055;13.0;149.236281713;13.0;153.393217496;13.0;154.074596322;
13.2;150.637133916;13.2;156.03907903;13.2;147.26061821;13.2;154.976269778;13.2;143.911230564;
13.4;154.849942525;13.4;144.279255587;13.4;143.63137881;13.4;144.811264674;13.4;145.33068917;
13.6;144.008263946;13.6;150.008644376;13.6;143.800719579;13.6;148.602426052;13.6;144.412958622;
13.8;149.625581854;13.8;152.844751582;13.8;147.194368499;13.8;155.111471812;13.8;146.946489811;
14.0;140.749558806;14.0;139.748557409;14.0;152.5668587;14.0;140.551230487;14.0;146.091007051;
14.2;144.155278802;14.2;151.873037219;14.2;146.695390344;14.2;150.781869888;14.2;145.802987249;
14.4;149.20322597;14.4;147.825129827;14.4;143.366081374;14.4;148.670837283;14.4;146.11585935;
14.6;143.864229321;14.6;139.03946035;14.6;151.738251959;14.6;139.356985688;14.6;139.145994186;
14.8;145.582646132;14.8;154.04847463;14.8;146.429014206;14.8;152.250543237;14.8;151.793015003;
15.0;149.121418595;15.0;144.256517291;15.0;140.551260539;15.0;145.147457719;15.0;138.990504401;
15.2;146.379753947;15.2;143.785667419;15.2;146.979913116;15.2;144.549384713;15.2;150.702488422;
15.4;146.603152156;15.4;153.779104352;15.4;142.222356796;15.4;153.485997518;15.4;145.678889751;
15.6;154.086366296;15.6;147.64405787;15.6;144.654461316;15.6;146.598451278;15.6;147.056853771;
15.8;143.777534366;15.8;145.706996322;15.8;156.552536147;15.8;145.089451472;15.8;144.031025115;
16.0;148.874092102;16.0;155.232697725;16.0;148.420826594;16.0;155.826091766;16.0;146.178603172;
16.2;145.462885499;16.2;146.450098823;16.2;144.475408963;16.2;145.930121927;16.2;150.493812561;
16.4;142.01277845;16.4;144.68738238;16.4;152.646797044;16.4;144.133344293;16.4;140.394687653;
16.6;150.456666946;16.6;148.393705487;16.6;149.007290602;16.6;146.070703864;16.6;151.87766552;
16.8;148.905697991;16.8;139.455720782;16.8;140.313880784;16.8;140.106341418;16.8;140.204542562;
17.0;143.034085631;17.0;144.674651763;17.0;148.837995529;17.0;148.016691208;17.0;149.382139507;
17.2;150.910882389;17.2;143.587795893;17.2;143.660195669;17.2;152.225143769;17.2;147.148784838;
17.4;143.169686198;17.4;143.205698799;17.4;143.221473694;17.4;142.345800996;17.4;146.833022436;
17.6;144.663508733;17.6;152.362092336;17.6;154.663532972;17.6;151.372134686;17.6;149.865281582;
17.8;145.687028766;17.8;142.044305801;17.8;139.700874686;17.8;141.906514764;17.8;134.453447242;
18.0;145.713726679;18.0;142.404556274;18.0;144.202232361;18.0;143.163278699;18.0;151.783494388;
18.2;146.793651581;18.2;153.763071696;18.2;154.308885336;18.2;152.309551835;18.2;145.365846157;
18.4;146.716622745;18.4;148.447737098;18.4;146.925061941;18.4;147.031113505;18.4;147.122282731;
18.6;145.022332668;18.6;146.15662396;18.6;149.049663544;18.6;146.920172373;18.6;146.199075799;
18.8;147.775813937;18.8;154.171049595;18.8;154.019251466;18.8;153.8695544;18.8;144.283188714;
19.0;152.175251643;19.0;146.754354239;19.0;143.251194673;19.0;145.255699754;19.0;151.152288914;
19.2;142.885180081;19.2;144.873246551;19.2;149.125417074;19.2;147.254243493;19.2;143.204172452;
19.4;151.551612218;19.4;154.241144657;19.4;152.785946341;19.4;149.197980762;19.4;150.220833327;
19.6;147.611169254;19.6;140.35281539;19.6;138.201370835;19.6;138.502150774;19.6;141.744825575;
19.8;141.830131412;19.8;145.055802663;19.8;150.832939148;19.8;148.041695356;19.8;146.008654645;
20.0;151.991605759;20.0;153.547376394;20.0;151.409864426;20.0;151.76269412;20.0;142.283527475;
20.2;146.351084113;20.2;142.303273082;20.2;142.965972424;20.2;139.963051852;20.2;141.102512678;
20.4;147.5943923;20.4;150.898322463;20.4;150.721549988;20.4;153.353738785;20.4;155.353772013;
20.6;143.271123662;20.6;149.423789978;20.6;136.941418928;20.6;145.894204869;20.6;139.736533165;
20.8;82.2250313229;20.8;111.793481387;20.8;104.011964798;20.8;107.595682144;20.8;120.598475138;
21.0;56.5569184043;21.0;58.4321498871;21.0;63.4888648987;21.0;60.8946283658;21.0;56.4293265343;
21.2;74.8063325882;21.2;78.9734999339;21.2;80.1618761486;21.2;79.9207528432;21.2;68.8917762355;
21.4;92.5112962723;21.4;87.3366726769;21.4;82.708388567;21.4;85.5513572693;21.4;87.2723791334;
21.6;101.287746429;21.6;104.952601825;21.6;108.243152499;21.6;105.318233371;21.6;109.446446101;
21.8;129.528062684;21.8;131.38275988;21.8;127.137475544;21.8;131.877347827;21.8;121.068199476;
22.0;143.460392952;22.0;135.203585029;22.0;136.058358585;22.0;135.12571156;22.0;142.820372301;
22.2;148.062888314;22.2;153.592123705;22.2;152.787748136;22.2;154.250247138;22.2;152.484571233;
22.4;159.856336457;22.4;147.404326333;22.4;148.995320002;22.4;159.580439329;22.4;150.817841291;
22.6;157.501395543;22.6;149.566441774;22.6;155.047721333;22.6;149.650320411;22.6;160.181157729;
22.8;149.789869785;22.8;159.656412461;22.8;156.864060296;22.8;156.216621399;22.8;150.107330746;
23.0;157.611862818;23.0;152.155730459;23.0;150.368120935;23.0;160.223484039;23.0;155.135080218;
23.2;148.995086551;23.2;152.908295393;23.2;159.049482907;23.2;148.520573974;23.2;157.164671842;
23.4;147.466373444;23.4;157.403469086;23.4;149.300148613;23.4;154.453881582;23.4;146.982550621;
23.6;156.372725964;23.6;145.089962903;23.6;147.300293571;23.6;152.91339159;23.6;155.326509476;
23.8;146.621093154;23.8;145.716751323;23.8;141.205338871;23.8;141.143709421;23.8;147.90206797;
24.0;148.907244205;24.0;145.947007572;24.0;146.339150036;24.0;156.474411488;24.0;146.523475647;
24.2;147.60453999;24.2;142.061312993;24.2;152.021225761;24.2;148.016601801;24.2;148.982331157;
24.4;145.932972431;24.4;156.293734908;24.4;147.948715422;24.4;145.475178957;24.4;146.094392328;
24.6;147.670701146;24.6;145.259983399;24.6;147.978950949;24.6;154.501740138;24.6;144.736677408;
24.8;151.682027181;24.8;143.719500966;24.8;148.75166946;24.8;144.864138435;24.8;151.464128494;
25.0;142.733600405;25.0;151.664912701;25.0;142.19640283;25.0;143.709945679;25.0;144.03944857;
25.2;149.544270833;25.2;142.36109397;25.2;146.677825186;25.2;147.93602158;25.2;148.508563638;
25.4;145.67341524;25.4;146.57737227;25.4;144.415100416;25.4;142.690837383;25.4;155.5027167;
25.6;141.945123672;25.6;141.011308221;25.6;145.343247582;25.6;145.984321833;25.6;142.31151693;
25.8;148.770093918;25.8;141.230583191;25.8;150.003128582;25.8;152.258936564;25.8;146.997690201;
26.0;141.620944528;26.0;146.521091461;26.0;135.209507412;26.0;136.177105062;26.0;144.042223692;
26.2;137.641325593;26.2;140.560560756;26.2;145.556822419;26.2;143.136203289;26.2;136.411175132;
26.4;146.333562003;26.4;143.691211939;26.4;146.255665355;26.4;149.340689182;26.4;144.561067224;
26.6;142.084494233;26.6;152.201741934;26.6;142.945542055;26.6;142.355750589;26.6;141.31988585;
26.8;147.89405134;26.8;144.424613317;26.8;154.798844281;26.8;154.946454366;26.8;145.028069615;
27.0;151.811487534;27.0;145.503801458;27.0;143.549905883;27.0;148.650482297;27.0;152.268871665;
27.2;145.112488005;27.2;145.891085267;27.2;151.090888416;27.2;145.816385746;27.2;149.028480053;
27.4;151.288807392;27.4;143.341615796;27.4;150.723483827;27.4;150.537535548;27.4;145.427435637;
27.6;150.004996194;27.6;153.566900889;27.6;144.505542867;27.6;144.145025926;27.6;155.728546778;
27.8;142.343733046;27.8;149.984940886;27.8;152.12765862;27.8;144.504102071;27.8;144.042814479;
28.0;141.634562436;28.0;142.378717661;28.0;145.54588;28.0;153.795614839;28.0;146.485455831;
28.2;141.686095132;28.2;153.59300375;28.2;147.291828604;28.2;146.191552281;28.2;153.894990683;
28.4;147.755667567;28.4;147.115945816;28.4;149.943033854;28.4;144.536867738;28.4;140.161290765;
28.6;149.08987946;28.6;143.633320928;28.6;141.641471121;28.6;154.632266363;28.6;148.047044873;
28.8;138.623812619;28.8;142.383400599;28.8;147.505844341;28.8;139.051984338;28.8;148.062050343;
29.0;150.318454294;29.0;140.091866255;29.0;143.976158566;29.0;144.377644857;29.0;140.094364391;
29.2;145.523610868;29.2;143.818989396;29.2;144.208446145;29.2;151.571484173;29.2;151.225471497;
29.4;144.813477993;29.4;151.269212365;29.4;150.309668647;29.4;140.397414565;29.4;146.863728762;
29.6;151.810116238;29.6;145.171999931;29.6;143.605849322;29.6;150.251060724;29.6;143.055032281;
29.8;139.708196416;29.8;144.987503688;29.8;147.223061985;29.8;141.284093261;29.8;150.91307958;
30.0;150.354595745;30.0;153.07357732;30.0;149.633856381;30.0;142.107635736;30.0;146.032964482;
30.2;145.908944747;30.2;142.123162746;30.2;143.089056015;30.2;152.765288949;30.2;143.669605255;
30.4;144.936919212;30.4;149.495299657;30.4;153.292754117;30.4;149.801179767;30.4;147.264031803;
30.6;151.672517552;30.6;152.592611313;30.6;143.950064977;30.6;142.186388373;30.6;141.435742378;
30.8;144.422213236;30.8;143.194086411;30.8;148.722704719;30.8;155.487744013;30.8;147.971525788;
31.0;147.850561142;31.0;149.589136243;31.0;151.105059518;31.0;146.284187541;31.0;152.955949306;
31.2;67.2627091408;31.2;90.9486413002;31.2;51.2747083391;31.2;61.7420375347;31.2;62.8801286221;
31.4;59.2933963327;31.4;67.3325795394;31.4;59.8773956299;31.4;67.8877319608;31.4;60.7456820352;
31.6;75.2559767829;31.6;79.5276725993;31.6;80.0032335169;31.6;79.0900588036;31.6;80.6556383769;
31.8;93.7705198924;31.8;81.6283673048;31.8;83.1000328064;31.8;81.6587358713;31.8;88.2091075182;
32.0;96.3869227303;32.0;104.749396443;32.0;101.551658967;32.0;104.834094644;32.0;96.3599522909;
32.2;124.6265769;32.2;126.178979874;32.2;126.004179319;32.2;124.319255352;32.2;127.657347255;
32.4;139.452166027;32.4;133.156999946;32.4;134.04112392;32.4;133.084446192;32.4;138.258441289;
32.6;148.750052733;32.6;160.316927092;32.6;158.317632145;32.6;159.355819225;32.6;151.307508349;
32.8;158.290028572;32.8;153.93383801;32.8;149.228623039;32.8;151.633918285;32.8;158.624380827;
33.0;155.918542077;33.0;152.360603213;33.0;157.78129241;33.0;154.530733824;33.0;154.182560304;
33.2;155.468211455;33.2;165.134923799;33.2;152.532063032;33.2;164.047122002;33.2;157.749012113;
33.4;159.844264388;33.4;154.180362821;33.4;149.061520894;33.4;150.067031384;33.4;148.482771481;
33.6;150.723541484;33.6;151.02836291;33.6;160.995399251;33.6;154.470041394;33.6;149.444748374;
33.8;153.701782227;33.8;159.623765945;33.8;149.074265831;33.8;158.969551325;33.8;155.997693539;
34.0;149.820552153;34.0;153.444647789;34.0;155.205130577;34.0;149.257230759;34.0;154.651599772;
34.2;146.443521275;34.2;148.099120458;34.2;149.52025694;34.2;151.13453567;34.2;147.315866807;
34.4;155.751526356;34.4;156.750783324;34.4;146.030103459;34.4;154.923215508;34.4;155.2892152;
34.6;146.71002494;34.6;145.34054083;34.6;152.314298293;34.6;142.184940974;34.6;145.231977105;
34.8;148.655071855;34.8;148.779042562;34.8;147.762828403;34.8;151.184469461;34.8;148.021347382;
35.0;148.170219527;35.0;145.940244198;35.0;149.105906487;35.0;153.426870704;35.0;152.724928326;
35.2;143.083333969;35.2;142.062172294;35.2;150.888999303;35.2;143.46639812;35.2;141.432970762;
35.4;154.385983944;35.4;152.115329107;35.4;147.390802701;35.4;156.84744517;35.4;154.515028;
35.6;146.526223735;35.6;151.066660881;35.6;149.162828922;35.6;148.271576564;35.6;146.504556431;
35.8;145.28568089;35.8;145.076471217;35.8;149.035425747;35.8;146.031096578;35.8;146.978855133;
36.0;151.173697578;36.0;150.627406438;36.0;145.773357815;36.0;155.206267039;36.0;154.164984822;
36.2;143.717485316;36.2;154.091676076;36.2;145.891216066;36.2;148.341372609;36.2;146.713415782;
36.4;151.562452316;36.4;146.060571074;36.4;148.532897234;36.4;146.559417248;36.4;150.140383664;
36.6;150.5707105;36.6;149.737389882;36.6;147.972755962;36.6;142.43221283;36.6;142.441809177;
36.8;147.29078114;36.8;154.434457421;36.8;154.795941185;36.8;146.583870053;36.8;145.99275589;
37.0;154.292553663;37.0;144.717782736;37.0;146.380354376;37.0;148.141205311;37.0;153.996944427;
37.2;149.83891186;37.2;153.890975316;37.2;154.277250171;37.2;156.695063909;37.2;150.842231863;
37.4;145.47551473;37.4;151.210714789;37.4;148.444917467;37.4;146.925628185;37.4;144.623237498;
37.6;156.569547123;37.6;146.974484126;37.6;150.220185518;37.6;150.019615889;37.6;156.733583002;
37.8;144.781084622;37.8;154.881254832;37.8;145.834257728;37.8;155.314270655;37.8;146.446466446;
38.0;146.859049797;38.0;148.432090878;38.0;144.20617328;38.0;144.141510129;38.0;147.270833745;
38.2;148.667547438;38.2;147.199556231;38.2;153.024762869;38.2;149.940893054;38.2;155.047052047;
38.4;141.819768482;38.4;145.044714212;38.4;148.396492004;38.4;154.003075191;38.4;142.173977459;
38.6;153.751000762;38.6;144.824070089;38.6;145.442336798;38.6;145.12627265;38.6;153.464496136;
38.8;149.35614081;38.8;147.025614977;38.8;153.683311799;38.8;149.841483434;38.8;148.439923922;
39.0;146.277427673;39.0;155.912192663;39.0;146.937524571;39.0;154.07782793;39.0;146.030636395;
39.2;153.541817385;39.2;144.208773971;39.2;147.567650851;39.2;143.86433363;39.2;154.325738549;
39.4;145.456870397;39.4;149.379428228;39.4;154.642413644;39.4;151.669756571;39.4;147.143257989;
39.6;152.457520366;39.6;158.627096812;39.6;145.671923955;39.6;155.287265778;39.6;150.804772097;
39.8;152.061171002;39.8;144.683711669;39.8;152.697518468;39.8;144.192069769;39.8;153.888492023;
40.0;147.226333618;40.0;153.301811218;40.0;153.255316946;40.0;157.043091456;40.0;147.795957678;
40.2;152.001801659;40.2;153.710126877;40.2;144.065548392;40.2;151.25657618;40.2;152.522297467;
40.4;145.376165708;40.4;144.707553527;40.4;156.002268195;40.4;144.808039069;40.4;150.553956628;
40.6;147.752016783;40.6;153.466156551;40.6;147.662070062;40.6;155.648485819;40.6;147.143324216;
40.8;151.55102147;40.8;149.972186369;40.8;145.678546694;40.8;148.463869095;40.8;152.123719454;
41.0;146.328813889;41.0;147.213235497;41.0;147.594143363;41.0;147.49379158;41.0;148.679480833;
41.2;152.080133557;41.2;156.036281586;41.2;144.673625628;41.2;157.217264175;41.2;150.119515026;
41.4;138.847574592;41.4;143.785766193;41.4;148.893577712;41.4;136.622871671;41.4;149.277499744;
41.6;51.2888431549;41.6;51.2973240444;41.6;51.6622747694;41.6;52.3726344109;41.6;52.7724160088;
41.8;69.9298083782;41.8;69.4584369659;41.8;66.4873520533;41.8;70.9735666003;41.8;67.582183414;
42.0;89.694486724;42.0;90.4593318701;42.0;85.3636741638;42.0;90.9187048674;42.0;87.9043340683;
42.2;96.2253598606;42.2;97.559928894;42.2;103.760560354;42.2;97.9036603655;42.2;95.8093091061;
42.4;121.876344085;42.4;120.477279027;42.4;114.000699099;42.4;118.930986949;42.4;122.574806213;
42.6;142.850889879;42.6;147.468194366;42.6;143.283949958;42.6;147.560866674;42.6;140.847007434;
42.8;153.343319893;42.8;153.321161866;42.8;153.439799945;42.8;155.220143;42.8;156.003671534;
43.0;165.57328403;43.0;160.834938288;43.0;158.674310235;43.0;158.080434799;43.0;165.632009506;
43.2;155.559105032;43.2;160.896077752;43.2;159.513737026;43.2;162.999170167;43.2;150.844746166;
43.4;157.518967986;43.4;155.717344845;43.4;155.470326543;43.4;156.962633133;43.4;162.891051349;
43.6;160.26629342;43.6;159.412682056;43.6;163.420172299;43.6;158.404270808;43.6;161.101551617;
43.8;154.441416264;43.8;154.623298084;43.8;159.453806124;43.8;162.5037023;43.8;155.655594433;
44.0;156.280502677;44.0;152.104079723;44.0;152.630779478;44.0;151.208247457;44.0;156.316306856;
44.2;152.559350519;44.2;155.391486486;44.2;143.343925476;44.2;145.579735438;44.2;143.710758951;
44.4;143.67426143;44.4;146.050228792;44.4;142.437802421;44.4;154.560855457;44.4;146.7749231;
44.6;145.756118438;44.6;142.410373688;44.6;147.920734742;44.6;143.45758756;44.6;139.385382334;
44.8;142.252339257;44.8;153.154313564;44.8;147.187378671;44.8;142.891713551;44.8;142.26066365;
45.0;144.66714859;45.0;144.986703992;45.0;144.588694853;45.0;155.236180623;45.0;153.28854673;
45.2;148.965609701;45.2;144.156301723;45.2;150.380134583;45.2;145.997388022;45.2;143.688837687;
45.4;143.594682217;45.4;144.331485033;45.4;144.959085866;45.4;142.578633626;45.4;146.527722478;
45.6;150.888569215;45.6;143.340736628;45.6;147.726217906;45.6;152.201345989;45.6;152.166472541;
45.8;151.186297922;45.8;150.678515434;45.8;144.571498036;45.8;143.49099795;45.8;145.02120018;
46.0;143.997641171;46.0;154.101714492;46.0;143.88873842;46.0;144.638697306;46.0;148.296073079;
46.2;154.700896319;46.2;143.723756075;46.2;154.153066523;46.2;156.604988234;46.2;144.235560769;
46.4;144.192545038;46.4;150.603405635;46.4;144.513895637;46.4;150.015464196;46.4;141.793545555;
46.6;147.108599544;46.6;149.065270143;46.6;146.369695663;46.6;142.388507724;46.6;153.666440178;
46.8;146.683242586;46.8;143.45100522;46.8;152.967479494;46.8;153.70288262;46.8;144.246843126;
47.0;142.213198874;47.0;146.407395601;47.0;142.662679448;47.0;152.066040039;47.0;148.457779604;
47.2;152.016609907;47.2;143.890100367;47.2;149.362564087;47.2;142.464764913;47.2;149.061231052;
47.4;149.058328735;47.4;147.739394506;47.4;143.590728442;47.4;152.203389577;47.4;144.330782049;
47.6;146.247386932;47.6;153.963729739;47.6;145.291931489;47.6;143.935412169;47.6;154.150065254;
47.8;144.432544708;47.8;141.574919224;47.8;150.527887874;47.8;139.358503478;47.8;144.402503967;
48.0;144.391960568;48.0;148.154083888;48.0;145.752892775;48.0;151.761277517;48.0;147.328166401;
48.2;149.321034551;48.2;154.755622149;48.2;149.305413751;48.2;152.156956056;48.2;153.093309963;
48.4;149.483018451;48.4;144.620537758;48.4;151.573307374;48.4;143.350839615;48.4;143.704109722;
48.6;145.955100656;48.6;150.518010644;48.6;147.025178461;48.6;155.185858409;48.6;154.484346509;
48.8;155.292440863;48.8;145.169639587;48.8;149.212280909;48.8;154.116421938;48.8;151.936213175;
49.0;151.064592249;49.0;147.650703788;49.0;148.300942253;49.0;148.320496082;49.0;149.0406394;
49.2;151.628536337;49.2;156.057516734;49.2;151.55451438;49.2;157.973623276;49.2;158.335124745;
49.4;152.57803599;49.4;150.712700451;49.4;152.707801146;49.4;149.448245764;49.4;145.447450526;
49.6;147.318769904;49.6;147.162720561;49.6;147.780726938;49.6;146.426722407;49.6;151.810519836;
49.8;152.991210713;49.8;155.762370427;49.8;152.287855744;49.8;156.639369329;49.8;155.356224845;
50.0;148.635892307;50.0;147.489085793;50.0;148.472242885;50.0;147.077967139;50.0;143.341078478;
50.2;150.205850601;50.2;148.971144358;50.2;150.019210928;50.2;149.31101799;50.2;149.918317795;
50.4;154.928445816;50.4;149.311402265;50.4;148.908923654;50.4;156.44672513;50.4;144.874109941;
50.6;150.099966261;50.6;147.985951106;50.6;147.62046602;50.6;151.945765813;50.6;150.037260617;
50.8;151.104554534;50.8;148.577719927;50.8;151.407688856;50.8;149.653151631;50.8;150.620572707;
51.0;152.889900737;51.0;156.383323669;51.0;153.59732684;51.0;156.490548452;51.0;143.959919612;
51.2;147.673817242;51.2;152.096897364;51.2;147.588743883;51.2;149.346744313;51.2;152.908830082;
51.4;152.33425796;51.4;146.856114268;51.4;153.485704871;51.4;147.638686498;51.4;153.505325317;
51.6;149.719588897;51.6;155.552736918;51.6;149.30119234;51.6;155.156731606;51.6;143.497943878;
51.8;113.9490421;51.8;114.762783051;51.8;113.083912776;51.8;109.828407114;51.8;127.675247192;
52.0;57.9227606455;52.0;56.9813684984;52.0;58.6810376909;52.0;56.6620176489;52.0;56.2644600868;
52.2;73.9588877734;52.2;83.9716047049;52.2;75.1278961406;52.2;84.0050876141;52.2;83.1748485565;
52.4;86.67768538;52.4;93.9056031844;52.4;87.0672613382;52.4;92.6582953509;52.4;92.8463935852;
52.6;112.940698862;52.6;108.023278853;52.6;112.258609136;52.6;108.061313629;52.6;104.707151651;
52.8;129.818982548;52.8;133.73041153;52.8;131.598777241;52.8;134.551391006;52.8;134.997934103;
53.0;141.716942191;53.0;143.457902802;53.0;141.095012426;53.0;141.405245837;53.0;144.635873682;
53.2;162.879705429;53.2;155.246034265;53.2;162.555011113;53.2;156.38441198;53.2;155.973628163;
53.4;152.014788459;53.4;157.418601653;53.4;152.945616666;53.4;157.952770591;53.4;158.334096273;
53.6;156.535550952;53.6;154.621779919;53.6;155.916480457;53.6;154.230222106;53.6;154.748186469;
53.8;162.300123888;53.8;157.676056027;53.8;154.801186393;53.8;158.864244819;53.8;158.004745841;
54.0;151.543661952;54.0;158.653413548;54.0;150.769387974;54.0;158.373355865;54.0;158.379204133;
54.2;158.242884804;54.2;152.095177594;54.2;158.237993717;54.2;151.736423373;54.2;151.83391571;
54.4;147.981656922;54.4;157.041743398;54.4;156.18819349;54.4;152.423311682;54.4;157.597525915;
54.6;146.689832211;54.6;150.004120434;54.6;145.795191036;54.6;145.613039241;54.6;153.115300571;
54.8;153.649049647;54.8;145.740941167;54.8;154.187721365;54.8;147.001075745;54.8;145.04610002;
55.0;147.454871072;55.0;154.722606435;55.0;149.165349848;55.0;155.836373568;55.0;155.349445343;
55.2;143.355321884;55.2;142.491208182;55.2;141.113385558;55.2;142.283425612;55.2;145.602969562;
55.4;152.563240793;55.4;151.126665228;55.4;151.479356429;55.4;151.529550552;55.4;148.604059219;
55.6;145.452008528;55.6;145.949588102;55.6;145.693778992;55.6;157.68644015;55.6;157.324298223;
55.8;153.297003578;55.8;147.219124962;55.8;153.943136334;55.8;147.713422775;55.8;151.280790567;
56.0;152.570331798;56.0;154.778228087;56.0;153.728358886;56.0;151.27158165;56.0;147.324278951;
56.2;145.295297398;56.2;149.022354799;56.2;144.570363892;56.2;155.434191227;56.2;156.478103002;
56.4;153.936054971;56.4;150.650865891;56.4;157.285869122;56.4;147.093772888;56.4;148.615136743;
56.6;144.927193137;56.6;154.377222061;56.6;148.301685558;56.6;151.472985744;56.6;148.818999529;
56.8;150.139528162;56.8;147.297704921;56.8;149.329886717;56.8;155.474752188;56.8;158.642880122;
57.0;152.121875021;57.0;152.779534459;57.0;147.75370227;57.0;145.156733195;57.0;146.470233798;
57.2;148.459017277;57.2;155.992564033;57.2;147.060169114;57.2;156.873480479;57.2;153.891399503;
57.4;150.994936625;57.4;143.363489824;57.4;151.318401098;57.4;145.384326577;57.4;153.824448586;
57.6;144.788307302;57.6;155.320718884;57.6;149.672812886;57.6;144.039392471;57.6;143.85548234;
57.8;149.194184472;57.8;150.856839286;57.8;148.952428032;57.8;157.34945933;57.8;155.819909913;
58.0;153.170978322;58.0;144.558414817;58.0;151.296124739;58.0;141.568772933;58.0;149.996477015;
58.2;148.443897565;58.2;157.396919587;58.2;148.509078556;58.2;147.8190581;58.2;146.852111816;
58.4;149.829819798;58.4;144.679003292;58.4;149.717897177;58.4;155.784034729;58.4;148.79283309;
58.6;147.617220879;58.6;149.726601208;58.6;154.026606504;58.6;149.599281947;58.6;144.487535252;
58.8;146.596656126;58.8;146.353855729;58.8;146.712850122;58.8;148.165604647;58.8;146.039883296;
59.0;151.21978872;59.0;142.243034699;59.0;149.598643184;59.0;153.383127848;59.0;152.76350081;
59.2;148.830147351;59.2;153.802857679;59.2;148.738596174;59.2;147.339135408;59.2;147.452503443;
59.4;147.418260574;59.4;147.385723451;59.4;144.771769643;59.4;146.529391408;59.4;146.3842839;
59.6;150.334961274;59.6;149.066620403;59.6;156.409067266;59.6;152.634754777;59.6;158.291165034;
59.8;143.072478911;59.8;151.876267265;59.8;144.842439228;59.8;142.620674769;59.8;146.47063087;
60.0;154.550902984;60.0;148.48131292;60.0;152.340933681;60.0;153.100118041;60.0;152.630933126;
60.2;151.729289223;60.2;147.744431215;60.2;152.623793658;60.2;154.720369975;60.2;145.732613171;
60.4;147.761569304;60.4;146.99829326;60.4;147.164513083;60.4;147.742778063;60.4;148.339152336;
60.6;155.680726556;60.6;150.013432783;60.6;157.395839691;60.6;154.463577271;60.6;152.728050947;
60.8;143.093519741;60.8;153.520331663;60.8;147.506833076;60.8;153.26397121;60.8;154.018131892;
61.0;150.574401021;61.0;149.479415682;61.0;149.399785434;61.0;146.905586123;61.0;147.122859955;
61.2;154.338240623;61.2;149.006977677;61.2;154.245586956;61.2;150.546312332;61.2;150.794833899;
61.4;145.02993752;61.4;152.495945201;61.4;146.844188372;61.4;148.079991341;61.4;154.931128025;
61.6;154.585555196;61.6;146.392050911;61.6;151.917906368;61.6;145.264595747;61.6;146.593824029;
61.8;148.825473256;61.8;152.72322823;61.8;148.070136706;61.8;155.999406179;61.8;151.833597819;
62.0;147.633120418;62.0;146.255507189;62.0;146.601101931;62.0;155.940547585;62.0;147.744968534;
62.2;98.8641579946;62.2;86.8114709854;62.2;102.565103107;62.2;73.8591253757;62.2;74.0440189838;
62.4;56.5195935113;62.4;64.5408431689;62.4;58.7770755474;62.4;59.5784737514;62.4;61.1962171701;
62.6;70.7881848017;62.6;81.2811711255;62.6;81.3584029675;62.6;82.6512724161;62.6;81.8968862295;
62.8;87.4979636248;62.8;77.4323278003;62.8;84.0367148904;62.8;82.3070208232;62.8;80.8549488292;
63.0;102.10648705;63.0;105.645895004;63.0;97.1814841032;63.0;101.046133041;63.0;101.746867685;
63.2;113.757878542;63.2;115.293078952;63.2;121.222173466;63.2;121.756029129;63.2;120.039014255;
63.4;136.169433594;63.4;128.802075106;63.4;129.882826525;63.4;129.856173197;63.4;126.81722641;
63.6;148.276314139;63.6;146.597690052;63.6;147.796183825;63.6;148.215308785;63.6;149.385045556;
63.8;154.106252334;63.8;149.41906929;63.8;160.998389125;63.8;162.811722074;63.8;149.345846737;
64.0;152.911411391;64.0;155.279795329;64.0;149.152222802;64.0;151.071563363;64.0;150.988059885;
64.2;146.21951845;64.2;154.53546577;64.2;150.726954142;64.2;150.256792704;64.2;157.425582409;
64.4;156.378760934;64.4;147.392595516;64.4;147.626049378;64.4;159.287945429;64.4;149.175829358;
64.6;149.332866073;64.6;153.473152834;64.6;142.724439502;64.6;144.873529673;64.6;149.144214742;
64.8;143.667787313;64.8;146.982775794;64.8;154.641691844;64.8;148.655653;64.8;151.454574922;
65.0;146.168063669;65.0;140.744083068;65.0;144.167759839;65.0;143.122450511;65.0;138.712300195;
65.2;142.821788788;65.2;145.211034351;65.2;143.438860774;65.2;143.097130458;65.2;153.483614326;
65.4;146.324316661;65.4;141.539957788;65.4;153.558880091;65.4;148.830458522;65.4;146.352192935;
65.6;149.142545812;65.6;147.797107697;65.6;141.258337918;65.6;148.30605189;65.6;141.150289112;
65.8;141.374051571;65.8;145.951867104;65.8;144.389692942;65.8;141.25661552;65.8;151.531934738;
66.0;147.419273853;66.0;143.562272191;66.0;143.537928076;66.0;149.041239421;66.0;142.286440905;
66.2;146.4766711;66.2;154.499981138;66.2;144.020585453;66.2;153.518199921;66.2;151.657372713;
66.4;142.65591958;66.4;144.10219473;66.4;150.200724602;66.4;142.959705989;66.4;150.935981009;
66.6;154.212125142;66.6;148.855410124;66.6;154.012367129;66.6;153.396517038;66.6;145.128414035;
66.8;149.713025374;66.8;142.181023955;66.8;142.58338511;66.8;142.461717129;66.8;151.932491197;
67.0;145.813047886;67.0;145.085110384;67.0;154.323355357;67.0;144.696563482;67.0;147.690534592;
67.2;150.299727917;67.2;152.707993984;67.2;149.835670696;67.2;153.458803892;67.2;148.515084211;
67.4;139.705700033;67.4;143.619219462;67.4;139.287471771;67.4;144.881804784;67.4;147.529681524;
67.6;146.784687042;67.6;149.550067054;67.6;157.250277201;67.6;146.075427532;67.6;145.500056884;
67.8;150.515332818;67.8;148.622168435;67.8;144.865125418;67.8;150.456815958;67.8;148.52617681;
68.0;145.621031523;68.0;143.614909228;68.0;143.965005875;68.0;147.434264421;68.0;148.534033034;
68.2;146.252587438;68.2;151.32911065;68.2;154.466787974;68.2;145.439639688;68.2;145.336417591;
68.4;152.404084802;68.4;145.932820108;68.4;143.089546877;68.4;147.026658058;68.4;150.893814424;
68.6;146.278030732;68.6;147.184208035;68.6;149.601310492;68.6;145.323246717;68.6;145.783980687;
68.8;147.28628099;68.8;151.416699092;68.8;152.331908544;68.8;145.327493548;68.8;147.50918746;
69.0;151.142072678;69.0;142.22170247;69.0;142.14104414;69.0;150.72686532;69.0;148.084362348;
69.2;140.694688348;69.2;146.786830005;69.2;146.795833812;69.2;139.895391464;69.2;140.574336052;
69.4;150.490000844;69.4;147.497177124;69.4;152.556562424;69.4;148.334249854;69.4;151.912622982;
69.6;139.976486564;69.6;139.011502266;69.6;139.070959652;69.6;148.937066396;69.6;141.137070126;
69.8;143.337294459;69.8;148.103391423;69.8;151.073567073;69.8;143.683120608;69.8;146.977755758;
70.0;153.188064694;70.0;143.146528138;70.0;151.166841388;70.0;150.810226798;70.0;142.902766957;
70.2;145.694285631;70.2;145.101561266;70.2;141.235940597;70.2;141.722336411;70.2;139.905733221;
70.4;145.698964596;70.4;153.099311723;70.4;153.767776489;70.4;143.508210778;70.4;152.981533724;
70.6;149.407848716;70.6;138.142678473;70.6;144.523575902;70.6;150.583569209;70.6;142.09942023;
70.8;145.443871617;70.8;152.522534132;70.8;143.926411867;70.8;147.593820796;70.8;145.748587216;
71.0;146.746784449;71.0;148.291760021;71.0;151.779383421;71.0;142.518742879;71.0;152.482006285;
71.2;156.597534815;71.2;146.103129667;71.2;143.799950095;71.2;155.826076865;71.2;144.369770499;
71.4;144.519918105;71.4;152.171092875;71.4;144.027074178;71.4;145.508632064;71.4;145.888302061;
71.6;148.35870266;71.6;143.336693446;71.6;154.131352901;71.6;144.463364283;71.6;142.005390591;
71.8;154.733451207;71.8;149.432126214;71.8;145.662391887;71.8;150.215723935;71.8;145.664187039;
72.0;142.393757315;72.0;148.950921165;72.0;145.707003276;72.0;141.570154826;72.0;152.665320565;
72.2;152.786413829;72.2;144.501784269;72.2;156.366556883;72.2;148.493602872;72.2;145.75208558;
72.4;142.442639669;72.4;150.520563126;72.4;139.585375786;72.4;147.360212663;72.4;143.180807432;
72.6;51.2631280082;72.6;67.3207044601;72.6;51.2483716011;72.6;52.2455275059;72.6;51.2706339359;
72.8;61.2301826477;72.8;59.6057246713;72.8;69.7755813599;72.8;61.3748686654;72.8;60.8137607574;
73.0;84.5058946049;73.0;81.9081278408;73.0;79.2028903961;73.0;84.6790075302;73.0;77.3776419023;
73.2;93.1802356944;73.2;97.4810520808;73.2;92.5809701284;73.2;96.8243935529;73.2;100.976034999;
73.4;119.880157359;73.4;115.448862314;73.4;125.734504064;73.4;116.229519248;73.4;114.737113317;
73.6;144.188785553;73.6;140.839232339;73.6;136.594176292;73.6;142.20068034;73.6;139.869481325;
73.8;147.711131308;73.8;148.601028654;73.8;149.045433317;73.8;148.436826818;73.8;155.521406847;
74.0;159.971634547;74.0;157.555116547;74.0;163.902966181;74.0;157.089293003;74.0;152.192732867;
74.2;151.43485864;74.2;157.217515839;74.2;151.356071234;74.2;158.68600677;74.2;160.60628891;
74.4;152.52234141;74.4;153.43485159;74.4;155.221780141;74.4;152.583178352;74.4;158.130140866;
74.6;161.234168445;74.6;159.62489446;74.6;162.971639633;74.6;160.90606153;74.6;152.659556445;
74.8;152.43677532;74.8;151.590159065;74.8;152.473345399;74.8;154.602721334;74.8;160.690233111;
75.0;155.907958746;75.0;155.804157257;75.0;155.881516139;75.0;154.265978757;75.0;154.626271304;
75.2;158.362935571;75.2;146.911594603;75.2;159.232735634;75.2;153.453866641;75.2;147.13158327;
75.4;146.561089684;75.4;146.002385351;75.4;149.851392297;75.4;146.111339331;75.4;146.800692876;
75.6;155.337922713;75.6;154.957711697;75.6;151.971006393;75.6;154.372662306;75.6;148.130823584;
75.8;147.863528308;75.8;144.568292718;75.8;157.047843933;75.8;155.234364902;75.8;152.29361852;
76.0;143.087429159;76.0;148.374038584;76.0;145.471632481;76.0;144.703093697;76.0;152.925223112;
76.2;154.363113291;76.2;155.430008383;76.2;148.563608527;76.2;153.996765614;76.2;144.881531596;
76.4;150.306575439;76.4;145.692264332;76.4;145.905845305;76.4;151.295774123;76.4;153.944047292;
76.6;150.026307387;76.6;155.131861567;76.6;146.159537633;76.6;146.382444045;76.6;153.979133157;
76.8;154.593959451;76.8;150.19510852;76.8;150.334015489;76.8;154.556681128;76.8;143.597110113;
77.0;141.024853054;77.0;142.616482342;77.0;151.249980927;77.0;142.710180844;77.0;152.968184153;
77.2;149.47642386;77.2;153.129619711;77.2;142.468765378;77.2;146.441052942;77.2;147.527848973;
77.4;150.967531734;77.4;147.21789625;77.4;152.556498845;77.4;153.835997862;77.4;146.555773417;
77.6;146.428066141;77.6;149.602890015;77.6;153.405115008;77.6;145.155233495;77.6;156.216414769;
77.8;155.656740069;77.8;144.765419119;77.8;144.157260656;77.8;153.443641133;77.8;149.208784103;
78.0;146.408690347;78.0;144.348130507;78.0;144.925085704;78.0;150.072869133;78.0;147.367566824;
78.2;151.967048645;78.2;157.693177462;78.2;146.92504704;78.2;148.788765073;78.2;148.881126853;
78.4;149.617168638;78.4;152.224133996;78.4;146.572694182;78.4;156.78731133;78.4;146.659962336;
78.6;147.000744939;78.6;149.695817162;78.6;158.655707041;78.6;148.231453366;78.6;152.12957561;
78.8;152.927749297;78.8;154.653941884;78.8;149.719983339;78.8;149.229821037;78.8;155.706898371;
79.0;148.434134091;79.0;145.917499767;79.0;144.631102681;79.0;150.388270617;79.0;143.588374643;
79.2;147.136598825;79.2;149.501840274;79.2;157.108831406;79.2;144.855644968;79.2;151.56194369;
79.4;155.525883039;79.4;145.089878755;79.4;146.15881443;79.4;153.444617987;79.4;154.579743743;
79.6;150.323250714;79.6;148.032272563;79.6;150.163918734;79.6;152.641632978;79.6;148.061826825;
79.8;152.801233179;79.8;157.656028867;79.8;149.534747005;79.8;148.82310699;79.8;151.374295354;
80.0;152.158947552;80.0;147.595591015;80.0;143.794491887;80.0;154.522152508;80.0;144.341245294;
80.2;147.990142598;80.2;151.633858681;80.2;152.958488464;80.2;149.607055327;80.2;148.046523333;
80.4;150.734017877;80.4;154.263959211;80.4;155.11931479;80.4;144.903786042;80.4;154.107968012;
80.6;144.932340173;80.6;146.092603081;80.6;146.336913109;80.6;146.494935541;80.6;151.039632161;
80.8;150.300334482;80.8;152.746379375;80.8;153.976122538;80.8;148.903664421;80.8;148.726433516;
81.0;155.706601984;81.0;144.957191804;81.0;155.685827136;81.0;154.506052242;81.0;155.314193052;
81.2;147.34380775;81.2;145.748867708;81.2;146.056577563;81.2;150.853157043;81.2;146.020905177;
81.4;150.403878268;81.4;154.981472913;81.4;151.622740428;81.4;146.796554327;81.4;146.467536688;
81.6;146.988034248;81.6;149.041559961;81.6;155.478286743;81.6;155.789263108;81.6;147.506996989;
81.8;143.046930432;81.8;146.743431687;81.8;143.307611346;81.8;143.607616425;81.8;142.736575183;
82.0;154.309847776;82.0;154.928101434;82.0;152.006816864;82.0;150.37132712;82.0;148.573684692;
82.2;141.878128052;82.2;139.380062328;82.2;149.18038249;82.2;148.183457992;82.2;150.890022516;
82.4;145.325809717;82.4;148.942217231;82.4;140.25862515;82.4;140.614405274;82.4;140.867738163;
82.6;148.849778705;82.6;152.111503813;82.6;155.186319351;82.6;154.605402666;82.6;151.103544235;
82.8;119.126280149;82.8;129.358068109;82.8;131.495257219;82.8;134.984339987;82.8;136.031925678;
83.0;54.6236991882;83.0;52.4664223194;83.0;53.7054803636;83.0;53.7374284532;83.0;52.3287653923;
83.2;76.1481076479;83.2;65.2464137358;83.2;68.5160019818;83.2;71.0980296135;83.2;68.573474884;
83.4;84.549916418;83.4;82.3574346655;83.4;93.5850704418;83.4;92.2968536615;83.4;92.7110513051;
83.6;95.7827727;83.6;100.370799794;83.6;94.4712863249;83.6;93.8654989004;83.6;95.2500315274;
83.8;120.646627326;83.8;120.395049453;83.8;117.627546191;83.8;120.966181159;83.8;115.101528168;
84.0;130.574636989;84.0;132.833048701;84.0;136.775199105;84.0;138.900831342;84.0;143.509107478;
84.2;155.203819275;84.2;149.80467628;84.2;146.182015538;84.2;147.250398;84.2;147.315011305;
84.4;155.263702075;84.4;150.660402635;84.4;159.833809909;84.4;160.615784781;84.4;157.132059336;
84.6;151.236918237;84.6;154.354207656;84.6;155.182936612;84.6;157.709509134;84.6;158.74581039;
84.8;153.707993658;84.8;163.74450922;84.8;155.75188001;84.8;153.50574255;84.8;153.566807508;
85.0;152.407295564;85.0;152.468260597;85.0;163.770801881;85.0;157.408396403;85.0;156.759500504;
85.2;160.983015509;85.2;160.997450352;85.2;154.607604532;85.2;153.195095062;85.2;153.069215662;
85.4;152.686056338;85.4;156.656339765;85.4;152.226299047;85.4;148.898512125;85.4;149.633455276;
85.6;147.864856218;85.6;145.290598273;85.6;145.094543695;85.6;156.337420146;85.6;155.823603272;
85.8;146.532946163;85.8;152.250830332;85.8;141.305658552;85.8;147.777736187;85.8;145.964664571;
86.0;140.594800313;86.0;146.313653273;86.0;148.940976461;86.0;141.793742776;86.0;142.866834998;
86.2;147.859615438;86.2;141.155987978;86.2;142.673857072;86.2;149.781763554;86.2;150.113359094;
86.4;141.457862324;86.4;148.691430688;86.4;137.669984032;86.4;141.230980555;86.4;138.640838511;
86.6;143.690016535;86.6;143.482530818;86.6;145.794947942;86.6;143.107366562;86.6;143.548895331;
86.8;151.763531897;86.8;145.566150546;86.8;140.493953929;86.8;152.560934424;86.8;141.338214278;
87.0;142.635948518;87.0;154.66782252;87.0;144.560828805;87.0;145.157196942;87.0;142.53840727;
87.2;148.780906902;87.2;142.012423939;87.2;152.724700816;87.2;145.426861445;87.2;150.767215093;
87.4;144.134835193;87.4;142.787708956;87.4;139.000251889;87.4;150.660231709;87.4;146.753773093;
87.6;143.006829654;87.6;141.671076417;87.6;146.567881107;87.6;142.318571315;87.6;141.240358353;
87.8;145.744866795;87.8;139.7013524;87.8;150.376193664;87.8;144.485092163;87.8;150.57682991;
88.0;140.953854511;88.0;150.41217804;88.0;140.438482165;88.0;150.963202119;88.0;145.454154295;
88.2;147.758638158;88.2;146.072179079;88.2;148.238241673;88.2;139.225763433;88.2;142.898097634;
88.4;144.900573625;88.4;139.186710119;88.4;146.38723433;88.4;147.265329957;88.4;149.328544736;
88.6;140.392640058;88.6;150.118604302;88.6;139.035098693;88.6;138.208908193;88.6;140.33177495;
88.8;145.329793294;88.8;143.819682738;88.8;151.200008392;88.8;140.699476004;88.8;145.226448774;
89.0;138.74972494;89.0;141.220271587;89.0;144.882174099;89.0;149.244070053;89.0;152.158149083;
89.2;145.081073046;89.2;140.067128574;89.2;139.928966761;89.2;143.856883049;89.2;140.152520604;
89.4;148.23808935;89.4;140.402821934;89.4;152.260446548;89.4;142.485067248;89.4;147.894904017;
89.6;137.428437962;89.6;143.041059375;89.6;141.058431731;89.6;148.660853505;89.6;144.709333777;
89.8;147.401134173;89.8;149.636395772;89.8;145.103827119;89.8;142.172224381;89.8;140.276866801;
90.0;143.31183714;90.0;142.525097903;90.0;154.656678438;90.0;147.121936083;90.0;147.817030549;
90.2;146.069195535;90.2;149.649724364;90.2;141.253169378;90.2;145.89895308;90.2;140.31830956;
90.4;147.176000807;90.4;148.150712252;90.4;145.188598072;90.4;138.496833689;90.4;140.08436203;
90.6;139.250848028;90.6;138.823419809;90.6;148.526579142;90.6;147.065550089;90.6;149.761690813;
90.8;151.226352243;90.8;144.981075736;90.8;141.002514783;90.8;148.984447122;90.8;143.346115947;
91.0;145.605021053;91.0;142.075230094;91.0;151.777331034;91.0;141.356021166;91.0;144.839838147;
91.2;144.113218083;91.2;144.057527184;91.2;148.037850857;91.2;150.622531772;91.2;151.680932325;
91.4;146.154575878;91.4;147.061794996;91.4;137.403179617;91.4;141.798145631;91.4;136.448844274;
91.6;141.690955443;91.6;142.392424976;91.6;145.3704983;91.6;143.306255341;91.6;146.760925651;
91.8;150.066053166;91.8;148.73102506;91.8;143.318526885;91.8;145.446313752;91.8;154.068529606;
92.0;142.791509628;92.0;153.615251184;92.0;145.385742188;92.0;142.530146767;92.0;143.319620806;
92.2;146.910852856;92.2;144.648611546;92.2;156.626924872;92.2;150.367540472;92.2;146.607367198;
92.4;151.372040019;92.4;148.802682757;92.4;143.263101578;92.4;150.387972593;92.4;140.629319584;
92.6;145.697421498;92.6;154.19160525;92.6;148.54798317;92.6;144.409550561;92.6;144.216150045;
92.8;148.007556796;92.8;140.967635547;92.8;151.40080452;92.8;150.879219174;92.8;152.754977345;
93.0;142.959293566;93.0;150.212717056;93.0;140.466570854;93.0;145.088540183;93.0;146.306335926;
93.2;92.4758381314;93.2;127.176544883;93.2;92.5249788496;93.2;106.485366821;93.2;111.546814442;
93.4;60.4132413864;93.4;56.3713113467;93.4;55.2240411441;93.4;55.1866094271;93.4;57.1045225317;
93.6;78.0182547039;93.6;73.9975869656;93.6;69.9481543373;93.6;69.0270397398;93.6;69.0004507701;
93.8;83.6536354489;93.8;94.4790699903;93.8;84.9722385406;93.8;81.6836804152;93.8;82.177311182;
94.0;109.743931714;94.0;102.190732956;94.0;111.979275942;94.0;110.08662336;94.0;110.532569885;
94.2;123.679890352;94.2;124.501768748;94.2;119.700473898;94.2;121.371760088;94.2;125.945197211;
94.4;138.41804862;94.4;144.869777891;94.4;140.483781695;94.4;138.39033246;94.4;135.838063558;
94.6;158.77642351;94.6;149.172544479;94.6;158.241159776;94.6;159.205392003;94.6;158.25997293;
94.8;153.648348416;94.8;160.892279943;94.8;150.995338664;94.8;152.224063873;94.8;155.423725353;
95.0;157.962426543;95.0;158.700816772;95.0;160.527899861;95.0;158.476963639;95.0;155.219821369;
95.2;154.208351584;95.2;152.756101945;95.2;158.47247839;95.2;159.680899452;95.2;153.182464487;
95.4;153.375639635;95.4;165.810346603;95.4;153.16733192;95.4;153.751701117;95.4;153.040998122;
95.6;159.775525331;95.6;154.751194848;95.6;162.724241614;95.6;159.669771791;95.6;157.274439931;
95.8;153.066382689;95.8;150.834957759;95.8;150.573099361;95.8;149.121228386;95.8;155.638274025;
96.0;147.366201176;96.0;159.896723429;96.0;148.694947362;96.0;146.49939537;96.0;147.222254011;
96.2;145.093295309;96.2;144.983558094;96.2;155.225333046;96.2;156.124591827;96.2;153.9940238;
96.4;143.748084704;96.4;150.676743189;96.4;146.522045135;96.4;149.868667126;96.4;149.866454742;
96.6;150.343298912;96.6;155.378207564;96.6;151.295825839;96.6;146.194025874;96.6;147.794274723;
96.8;151.658394757;96.8;142.983704805;96.8;142.682618565;96.8;154.890918732;96.8;145.378364457;
97.0;145.228792639;97.0;152.452262243;97.0;143.878235536;97.0;148.912891746;97.0;144.388490253;
97.2;152.300722459;97.2;153.616920114;97.2;153.329610825;97.2;146.955937147;97.2;151.241143545;
97.4;144.722700119;97.4;143.809234395;97.4;147.820274035;97.4;155.551465352;97.4;152.161640279;
97.6;147.456814261;97.6;151.346524556;97.6;148.968413472;97.6;148.727491498;97.6;146.113819546;
97.8;155.469760299;97.8;143.594130874;97.8;154.397090276;97.8;147.147983313;97.8;154.627159238;
98.0;147.292074404;98.0;144.357442856;98.0;145.366042852;98.0;156.881898642;98.0;149.073993458;
98.2;151.111140847;98.2;157.603979111;98.2;152.137882569;98.2;145.859524608;98.2;148.767092649;
98.4;146.445688448;98.4;150.057598948;98.4;152.459509232;98.4;150.394837062;98.4;145.62514249;
98.6;145.525020712;98.6;145.662689209;98.6;146.846602945;98.6;149.422183633;98.6;144.549313714;
98.8;155.674830079;98.8;157.029047608;98.8;156.587094069;98.8;145.102991777;98.8;150.561318678;
99.0;145.783437623;99.0;144.231403575;99.0;146.538347006;99.0;148.840268453;99.0;149.866048027;
99.2;148.144066334;99.2;148.193105062;99.2;148.813605309;99.2;151.602759957;99.2;144.434578278;
99.4;147.755318218;99.4;155.012175441;99.4;154.557257891;99.4;142.461940646;99.4;154.365469428;
99.6;146.113900577;99.6;146.828383207;99.6;146.366582197;99.6;155.154148738;99.6;148.902098338;
99.8;150.532063316;99.8;148.780420423;99.8;148.331254721;99.8;150.020241737;99.8;147.534415126;
100.0;146.853499942;100.0;151.55351162;100.0;138.98357749;100.0;140.234425664;100.0;149.441573355;
100.2;144.636213779;100.2;144.912660122;100.2;144.521334592;100.2;155.93880415;100.2;144.543674257;
100.4;148.129776904;100.4;149.126395583;100.4;151.774247487;100.4;147.04850316;100.4;150.672644377;
100.6;141.375850229;100.6;149.643108249;100.6;149.940878153;100.6;143.649756908;100.6;147.266772058;
100.8;147.345570957;100.8;141.89896864;100.8;143.321454525;100.8;153.914483388;100.8;143.844112754;
101.0;148.606710964;101.0;150.551199913;101.0;150.171682239;101.0;143.449166242;101.0;150.213003159;
101.2;142.228749063;101.2;147.522758035;101.2;146.189138293;101.2;143.239657084;101.2;142.77752708;
101.4;150.775839301;101.4;143.990580241;101.4;145.371034741;101.4;155.379444361;101.4;147.388974826;
101.6;143.180089838;101.6;153.078511357;101.6;145.905620912;101.6;143.379583955;101.6;141.833133168;
101.8;147.61801327;101.8;148.900941014;101.8;145.29542625;101.8;150.241479278;101.8;144.084439558;
102.0;152.061065038;102.0;144.334569573;102.0;145.908385515;102.0;155.055697759;102.0;152.207178228;
102.2;142.154071066;102.2;153.286710382;102.2;154.034582774;102.2;141.942411661;102.2;146.376093229;
102.4;148.346648497;102.4;149.106550217;102.4;146.92993725;102.4;151.373356581;102.4;148.688832919;
102.6;143.223934703;102.6;146.884343203;102.6;149.021720886;102.6;152.274027467;102.6;153.678655624;
102.8;146.859940361;102.8;144.902810454;102.8;154.891505837;102.8;143.939062953;102.8;145.211127069;
103.0;155.285477638;103.0;144.099445904;103.0;144.899620729;103.0;152.201096217;103.0;148.090797312;
103.2;146.192738884;103.2;151.203206607;103.2;152.070585887;103.2;151.280248866;103.2;144.387589561;
103.4;148.051913579;103.4;152.496997048;103.4;151.683028539;103.4;142.669558525;103.4;143.689117934;
103.6;67.5649940968;103.6;51.2601435184;103.6;51.2526631355;103.6;66.0988986492;103.6;79.0839195251;
103.8;59.5207065344;103.8;61.8855769818;103.8;62.6988070352;103.8;61.9666576385;103.8;60.8493685722;
104.0;75.8937994639;104.0;82.6708972454;104.0;83.2965934978;104.0;72.206958135;104.0;72.4449753761;
104.2;95.6375466453;104.2;90.2876433204;104.2;91.4714972178;104.2;90.7672792673;104.2;95.3039460712;
104.4;104.594272726;104.4;106.585709254;104.4;108.234798207;104.4;114.854017893;104.4;108.850068516;
104.6;129.831194878;104.6;132.383480668;104.6;131.77973032;104.6;124.32997367;104.6;126.715630293;
104.8;139.820441604;104.8;142.144958178;104.8;140.007804422;104.8;146.606292043;104.8;141.128553285;
105.0;150.312213337;105.0;155.300170183;105.0;154.877438265;105.0;161.690743764;105.0;149.150161182;
105.2;158.847555518;105.2;157.525613904;105.2;147.37701416;105.2;148.339692284;105.2;155.983999372;
105.4;152.899053362;105.4;150.487226598;105.4;149.521782994;105.4;156.722835132;105.4;154.637402958;
105.6;153.434768319;105.6;157.644987106;105.6;159.831004984;105.6;152.94778347;105.6;149.860830868;
105.8;152.513209511;105.8;155.579062069;105.8;152.695066789;105.8;148.142233491;105.8;159.781470895;
106.0;149.570729997;106.0;150.267899036;106.0;153.15015614;106.0;156.907447179;106.0;152.110197965;
106.2;154.108092189;106.2;149.094369676;106.2;155.908332931;106.2;154.072612524;106.2;148.928269744;
106.4;152.335180956;106.4;148.110732436;106.4;146.524597617;106.4;146.223545074;106.4;146.773844957;
106.6;147.263372646;106.6;150.41959987;106.6;151.362924015;106.6;157.356415476;106.6;146.332457662;
106.8;150.286408032;106.8;154.862333747;106.8;143.307110843;106.8;151.158690453;106.8;150.287687778;
107.0;146.885448032;107.0;146.889083526;107.0;146.303036634;107.0;147.365227342;107.0;156.696955363;
107.2;149.923995137;107.2;152.312815189;107.2;156.784422257;107.2;155.121469498;107.2;145.133747774;
107.4;154.898587395;107.4;151.143021054;107.4;147.595629973;107.4;145.136019763;107.4;153.948243459;
107.6;144.914178287;107.6;144.98294101;107.6;148.720657124;107.6;144.609371821;107.6;151.610702276;
107.8;152.566334781;107.8;148.840732045;107.8;157.083049417;107.8;157.334295909;107.8;144.768308191;
108.0;143.414805917;108.0;144.109474288;108.0;142.777350214;108.0;147.992700338;108.0;154.463240079;
108.2;147.293497534;108.2;152.423232794;108.2;153.83400023;108.2;147.917938232;108.2;152.005504159;
108.4;153.851062059;108.4;151.556955443;108.4;149.707198143;108.4;155.031993985;108.4;144.009049733;
108.6;145.824776755;108.6;142.675426271;108.6;141.853584963;108.6;145.502297084;108.6;153.918854396;
108.8;149.132938946;108.8;155.587546031;108.8;156.265679528;108.8;148.873955011;108.8;149.513104383;
109.0;150.568842888;109.0;146.724171109;109.0;143.99879119;109.0;148.873090744;109.0;144.096024831;
109.2;144.891500473;109.2;147.988992579;109.2;150.205556084;109.2;145.31058073;109.2;157.645877202;
109.4;150.063556783;109.4;151.779770851;109.4;149.389942487;109.4;143.804073334;109.4;144.580930471;
109.6;146.886441443;109.6;142.029818367;109.6;142.243118847;109.6;153.820530574;109.6;145.557954907;
109.8;144.782739527;109.8;147.267145269;109.8;146.552827623;109.8;143.992312749;109.8;153.800630569;
110.0;148.183570189;110.0;149.942650514;110.0;143.478645219;110.0;146.136011396;110.0;145.743734696;
110.2;143.976529439;110.2;145.123776268;110.2;147.930130363;110.2;157.779153188;110.2;149.472564459;
110.4;147.47492969;110.4;150.351511108;110.4;151.468992233;110.4;144.594224294;110.4;151.349708438;
110.6;150.666568014;110.6;146.041234334;110.6;144.065884983;110.6;146.203722273;110.6;143.839493394;
110.8;143.883138895;110.8;147.894396501;110.8;149.712169872;110.8;150.638246536;110.8;150.14180541;
111.0;148.546858838;111.0;142.378568649;111.0;149.699898327;111.0;142.362460494;111.0;151.361331344;
111.2;144.028649611;111.2;144.103354878;111.2;145.170941072;111.2;146.325093049;111.2;143.94107461;
111.4;147.428088718;111.4;152.180461323;111.4;153.94652591;111.4;155.809052785;111.4;151.789140701;
111.6;145.729976542;111.6;140.886369504;111.6;140.716791153;111.6;143.126130104;111.6;143.084904727;
111.8;144.988801744;111.8;147.604733706;111.8;146.963053279;111.8;143.395440919;111.8;144.16308403;
112.0;148.213807274;112.0;150.894880295;112.0;151.407808065;112.0;153.854465485;112.0;152.659088373;
112.2;141.551494598;112.2;140.708327293;112.2;140.203158061;112.2;147.145884378;112.2;145.871430635;
112.4;148.831788231;112.4;154.580593109;112.4;153.312981129;112.4;144.398495555;112.4;147.150306141;
112.6;149.953338835;112.6;147.116925981;112.6;146.566801601;112.6;153.669238091;112.6;152.943150202;
112.8;144.670809017;112.8;146.390371852;112.8;146.287833943;112.8;152.783547129;112.8;146.793954513;
113.0;148.934258355;113.0;153.67530374;113.0;146.264036496;113.0;142.969242732;113.0;147.309573491;
113.2;144.101487266;113.2;146.120968987;113.2;143.981723224;113.2;154.322477487;113.2;155.506358427;
113.4;146.071868784;113.4;148.379657004;113.4;148.012666141;113.4;154.457143375;113.4;142.887949944;
113.6;148.45958021;113.6;145.796537399;113.6;146.024598016;113.6;138.321987788;113.6;144.486093521;
113.8;128.259567114;113.8;128.814475877;113.8;128.200365947;113.8;142.24666357;113.8;147.472454951;
114.0;54.1031095717;114.0;55.3941991594;114.0;53.9822101593;114.0;54.9270311991;114.0;53.273499012;
114.2;78.1616717577;114.2;68.2620048523;114.2;67.0143155491;114.2;67.9808579958;114.2;67.5163904826;
114.4;87.6376628876;114.4;83.4392622897;114.4;82.2828376994;114.4;82.1223258972;114.4;93.9319431782;
114.6;105.227798223;114.6;109.728838268;114.6;107.935627302;114.6;110.769601969;114.6;109.296687444;
114.8;124.989484486;114.8;118.342208862;114.8;124.19359386;114.8;125.788148244;114.8;115.39213998;
115.0;133.770606097;115.0;139.561259747;115.0;134.200180278;115.0;134.198225462;115.0;143.858861923;
115.2;151.519745588;115.2;148.522489949;115.2;154.116504333;115.2;150.881205286;115.2;150.007724762;
115.4;156.359836459;115.4;151.173579693;115.4;152.003484614;115.4;162.276653143;115.4;149.510785937;
115.6;148.742717855;115.6;149.781727791;115.6;153.042316437;115.6;149.980815252;115.6;161.183611552;
115.8;158.930610208;115.8;148.831743943;115.8;159.853766946;115.8;152.212415423;115.8;153.781604767;
116.0;152.267007267;116.0;157.415314725;116.0;148.443076346;116.0;161.54059997;116.0;150.192841887;
116.2;151.657314862;116.2;149.50517416;116.2;155.762121081;116.2;152.199586233;116.2;160.681374868;
116.4;151.499117122;116.4;148.147972007;116.4;154.355329626;116.4;148.464202881;116.4;150.815472007;
116.6;146.741019355;116.6;146.454974225;116.6;146.60154283;116.6;160.685044069;116.6;149.658966064;
116.8;153.523893917;116.8;148.893732774;116.8;155.851490357;116.8;152.212994439;116.8;157.95601209;
117.0;148.27374851;117.0;148.936046494;117.0;144.859075546;117.0;141.10921224;117.0;144.173636156;
117.2;145.693108439;117.2;145.506482375;117.2;149.936984567;117.2;158.249653303;117.2;150.119662285;
117.4;149.619504025;117.4;152.827395333;117.4;153.711879955;117.4;152.188437326;117.4;154.700323939;
117.6;142.681219999;117.6;145.467532308;117.6;142.303138971;117.6;143.18505923;117.6;142.919376493;
117.8;152.123063803;117.8;151.708991904;117.8;151.686403486;117.8;156.690799273;117.8;154.037491481;
118.0;149.825427267;118.0;147.089017762;118.0;140.77391344;118.0;153.241618474;118.0;150.029242039;
118.2;147.910263803;118.2;148.570749495;118.2;148.47022295;118.2;147.935083934;118.2;147.5443542;
118.4;154.787197709;118.4;155.480451054;118.4;156.370990417;118.4;153.511285782;118.4;150.512576103;
118.6;145.712176959;118.6;147.578691181;118.6;148.876681047;118.6;160.012905414;118.6;145.940199494;
118.8;149.943534066;118.8;153.782420688;118.8;151.005983353;118.8;147.504908698;118.8;146.16407454;
119.0;155.286522473;119.0;150.806559457;119.0;155.743809307;119.0;148.058954875;119.0;155.082623164;
119.2;146.02637291;119.2;146.885406971;119.2;144.409192933;119.2;159.812175311;119.2;152.121156454;
119.4;149.346379673;119.4;153.224356034;119.4;151.310399175;119.4;145.657380422;119.4;143.731757998;
119.6;147.55721887;119.6;146.532618999;119.6;152.93340122;119.6;148.570996064;119.6;156.87918663;
119.8;144.699081779;119.8;150.56611432;119.8;145.590808656;119.8;158.872161593;119.8;148.925676942;
