0;0;1;1;2;2;3;3;4;4;
0;0;0.2;155687;0.2;115474;0.2;87840;0.2;67385;
0.2;164751;0.4;431126;0.4;353955;0.4;317300;0.4;301367;
0.4;480026;0.6;459112;0.6;372247;0.6;349665;0.6;376195;
0.6;528651;0.8;464132;0.8;369071;0.8;342642;0.8;397015;
0.8;530050;1.0;444430;1.0;357449;1.0;345364;1.0;417024;
1.0;459410;1.2;246904;1.2;223405;1.2;234162;1.2;369071;
1.2;268538;1.4;245370;1.4;180574;1.4;159016;1.4;159859;
1.4;260805;1.6;311863;1.6;249780;1.6;202720;1.6;246275;
1.6;371653;1.8;347520;1.8;277276;1.8;254309;1.8;290324;
1.8;392991;2.0;342711;2.0;272358;2.0;254848;2.0;321751;
2.0;383646;2.2;338252;2.2;266432;2.2;254848;2.2;319582;
2.2;392906;2.4;329617;2.4;261911;2.4;244483;2.4;313477;
2.4;344360;2.6;313694;2.6;244918;2.6;245524;2.6;314327;
2.6;339930;2.8;320139;2.8;243546;2.8;248228;2.8;322667;
2.8;344967;3.0;319847;3.0;251076;3.0;245149;3.0;318782;
3.0;340148;3.2;310219;3.2;253794;3.2;243264;3.2;326926;
3.2;347520;3.4;297245;3.4;250268;3.4;249762;3.4;324570;
3.4;336810;3.6;292273;3.6;226756;3.6;250807;3.6;309708;
3.6;300984;3.8;270776;3.8;231680;3.8;248529;3.8;311548;
3.8;297468;4.0;277797;4.0;221315;4.0;239402;4.0;314055;
4.0;291604;4.2;266432;4.2;223059;4.2;259103;4.2;299354;
4.2;278016;4.4;274706;4.4;231680;4.4;255620;4.4;317525;
4.4;266663;4.6;273511;4.6;222073;4.6;248300;4.6;310285;
4.6;271160;4.8;267141;4.8;220675;4.8;260285;4.8;324744;
4.8;276568;5.0;278234;5.0;231680;5.0;251952;5.0;335936;
5.0;271160;5.2;269443;5.2;227542;5.2;261026;5.2;345203;
5.2;278016;5.4;270713;5.4;231390;5.4;268650;5.4;347320;
5.4;273207;5.6;277779;5.6;228572;5.6;255099;5.6;360157;
5.6;266904;5.8;267377;5.8;229047;5.8;266432;5.8;348099;
5.8;258350;6.0;273287;6.0;220096;6.0;262088;6.0;350829;
6.0;248686;6.2;270138;6.2;227625;6.2;264165;6.2;366525;
6.2;252956;6.4;275565;6.4;231680;6.4;269328;6.4;351932;
6.4;254848;6.6;278016;6.6;220378;6.6;260285;6.6;381720;
6.6;245728;6.8;272224;6.8;224150;6.8;271468;6.8;384685;
6.8;245419;7.0;265659;7.0;231680;7.0;273524;7.0;373584;
7.0;254848;7.2;277543;7.2;227542;7.2;270129;7.2;386905;
7.2;247207;7.4;270052;7.4;224551;7.4;277779;7.4;404548;
7.4;239301;7.6;270052;7.6;231410;7.6;275888;7.6;355303;
7.6;231680;7.8;265013;7.8;227336;7.8;266432;7.8;389360;
7.8;225888;8.0;245106;8.0;219806;8.0;266432;8.0;402992;
8.0;220096;8.2;247545;8.2;229363;8.2;268476;8.2;364725;
8.2;230333;8.4;254848;8.4;229702;8.4;266180;8.4;391841;
8.4;226715;8.6;244249;8.6;220096;8.6;259192;8.6;400403;
8.6;226715;8.8;253588;8.8;226594;8.8;270833;8.8;373501;
8.8;231680;9.0;254848;9.0;231962;9.0;270621;9.0;419920;
9.0;230549;9.2;243527;9.2;227542;9.2;269907;9.2;426194;
9.2;220096;9.4;246160;9.4;226715;9.4;268157;9.4;410266;
9.4;224675;9.6;255094;9.6;231410;9.6;257114;9.6;438409;
9.6;231680;9.8;249883;9.8;223860;9.8;278016;9.8;429097;
9.8;223660;10.0;254848;10.0;220096;10.0;266678;10.0;434095;
10.0;231680;10.2;252365;10.2;231680;10.2;272578;10.2;448422;
10.2;208975;10.4;48968;10.4;60236;10.4;84109;10.4;207572;
10.4;25893;10.6;60645;10.6;43140;10.6;53062;10.6;65160;
10.6;58581;10.8;103248;10.8;99780;10.8;121750;10.8;180358;
10.8;101360;11.0;139239;11.0;131464;11.0;140733;11.0;245001;
11.0;124941;11.2;175731;11.2;160631;11.2;189933;11.2;312354;
11.2;164492;11.4;229954;11.4;222202;11.4;247352;11.4;371579;
11.4;224125;11.6;250635;11.6;252629;11.6;271869;11.6;386840;
11.6;253400;11.8;253588;11.8;250315;11.8;268157;11.8;388607;
11.8;249845;12.0;254848;12.0;243264;12.0;271468;12.0;387262;
12.0;243264;12.2;250635;12.2;253501;12.2;277784;12.2;389056;
12.2;253588;12.4;243264;12.4;251425;12.4;267664;12.4;370136;
12.4;250635;12.6;252833;12.6;240631;12.6;265959;12.6;364896;
12.6;248529;12.8;247946;12.8;231680;12.8;245026;12.8;365407;
12.8;247700;13.0;234989;13.0;229837;13.0;243264;13.0;351732;
13.0;248669;13.2;252833;13.2;228909;13.2;249287;13.2;341728;
13.2;243510;13.4;246884;13.4;228177;13.4;246537;13.4;324352;
13.4;253588;13.6;243527;13.6;230169;13.6;243264;13.6;322388;
13.6;249425;13.8;248332;13.8;220096;13.8;247545;13.8;313160;
13.8;250677;14.0;240368;14.0;227100;14.0;250446;14.0;318835;
14.0;255079;14.2;243756;14.2;230907;14.2;243264;14.2;312967;
14.2;246353;14.4;240306;14.4;207722;14.4;245975;14.4;320988;
14.4;247352;14.6;247665;14.6;226292;14.6;249174;14.6;311818;
14.6;254848;14.8;243790;14.8;221712;14.8;244496;14.8;319984;
14.8;241292;15.0;255079;15.0;227204;15.0;250909;15.0;314075;
15.0;249410;15.2;245896;15.2;231428;15.2;246468;15.2;317705;
15.2;249425;15.4;247282;15.4;231680;15.4;246789;15.4;315909;
15.4;243264;15.6;254848;15.6;221173;15.6;254611;15.6;321693;
15.6;249672;15.8;244249;15.8;224675;15.8;245026;15.8;322483;
15.8;250592;16.0;249410;16.0;231680;16.0;248701;16.0;312768;
16.0;249811;16.2;243988;16.2;213597;16.2;252531;16.2;323762;
16.2;247608;16.4;246285;16.4;223059;16.4;248701;16.4;308400;
16.4;249751;16.6;254848;16.6;229047;16.6;249056;16.6;307859;
16.6;243264;16.8;241873;16.8;222110;16.8;251141;16.8;295392;
16.8;255070;17.0;254611;17.0;254848;17.0;243264;17.0;293594;
17.0;247207;17.2;252136;17.2;237348;17.2;253734;17.2;299736;
17.2;254152;17.4;249056;17.4;244317;17.4;248669;17.4;289600;
17.4;255079;17.6;235102;17.6;241538;17.6;238299;17.6;294477;
17.6;236418;17.8;246739;17.8;249519;17.8;253689;17.8;284966;
17.8;248701;18.0;247125;18.0;244249;18.0;246468;18.0;296060;
18.0;253485;18.2;246160;18.2;249410;18.2;246714;18.2;297453;
18.2;248332;18.4;254848;18.4;253862;18.4;247608;18.4;299586;
18.4;254611;18.6;245728;18.6;243264;18.6;245026;18.6;299964;
18.6;245482;18.8;247992;18.8;250829;18.8;248193;18.8;289818;
18.8;243495;19.0;249056;19.0;251141;19.0;252011;19.0;298238;
19.0;254344;19.2;242771;19.2;243264;19.2;245864;19.2;293601;
19.2;249056;19.4;249672;19.4;249056;19.4;244019;19.4;293737;
19.4;243767;19.6;239245;19.6;249410;19.6;252720;19.6;283492;
19.6;254848;19.8;243264;19.8;243264;19.8;243264;19.8;297189;
19.8;246468;20.0;245864;20.0;254166;20.0;252956;20.0;285808;
20.0;247282;20.2;251643;20.2;249780;20.2;249780;20.2;292969;
20.2;254848;20.4;241501;20.4;251952;20.4;243510;20.4;290634;
20.4;241092;20.6;239954;20.6;244155;20.6;248228;20.6;287283;
20.6;226414;20.8;45872;20.8;31592;20.8;35759;20.8;44825;
20.8;23631;21.0;89107;21.0;84652;21.0;88151;21.0;90039;
21.0;88907;21.2;134664;21.2;148187;21.2;126700;21.2;155696;
21.2;129045;21.4;167324;21.4;157586;21.4;158768;21.4;179453;
21.4;160131;21.6;218441;21.6;218165;21.6;192199;21.6;228538;
21.6;189688;21.8;247273;21.8;258849;21.8;227591;21.8;259060;
21.8;217074;22.0;268882;22.0;283070;22.0;251301;22.0;270887;
22.0;254375;22.2;276653;22.2;298445;22.2;243264;22.2;277784;
22.2;247608;22.4;278016;22.4;297392;22.4;252629;22.4;266432;
22.4;245580;22.6;268157;22.6;290037;22.6;250592;22.6;274228;
22.6;254848;22.8;272224;22.8;301390;22.8;243264;22.8;273863;
22.8;247207;23.0;275830;23.0;291129;23.0;253665;23.0;266432;
23.0;254344;23.2;266432;23.2;293387;23.2;249425;23.2;273150;
23.2;250504;23.4;274540;23.4;297182;23.4;243264;23.4;247946;
23.4;245896;23.6;265069;23.6;268959;23.6;255084;23.6;245278;
23.6;245155;23.8;278234;23.8;278234;23.8;247946;23.8;254848;
23.8;254848;24.0;271201;24.0;267358;24.0;245235;24.0;245728;
24.0;246285;24.2;267961;24.2;272224;24.2;254848;24.2;255084;
24.2;255079;24.4;260270;24.4;275830;24.4;246337;24.4;254611;
24.4;253862;24.6;274674;24.6;262343;24.6;247545;24.6;243500;
24.6;237472;24.8;263536;24.8;276962;24.8;243264;24.8;250566;
24.8;251322;25.0;266432;25.0;272564;25.0;246961;25.0;249751;
25.0;250078;25.2;273644;25.2;278016;25.2;248937;25.2;243264;
25.2;250504;25.4;256502;25.4;277334;25.4;253429;25.4;250566;
25.4;254611;25.6;254848;25.6;265339;25.6;243012;25.6;250446;
25.6;243515;25.8;237595;25.8;274081;25.8;246884;25.8;243264;
25.8;244446;26.0;248701;26.0;258563;26.0;251141;26.0;252629;
26.0;240427;26.2;253318;26.2;269157;26.2;243264;26.2;246884;
26.2;261662;26.4;243264;26.4;271580;26.4;254375;26.4;246739;
26.4;271883;26.6;251890;26.6;267358;26.6;248360;26.6;254848;
26.6;268476;26.8;250315;26.8;272892;26.8;245278;26.8;245728;
26.8;266209;27.0;253734;27.0;274518;27.0;254848;27.0;247992;
27.0;271110;27.2;251574;27.2;266432;27.2;246468;27.2;253400;
27.2;272329;27.4;249174;27.4;277594;27.4;255084;27.4;243510;
27.4;269032;27.6;243000;27.6;269443;27.6;254611;27.6;247739;
27.6;278016;27.8;250909;27.8;271555;27.8;244271;27.8;249501;
27.8;268053;28.0;247207;28.0;276486;28.0;245975;28.0;243264;
28.0;271276;28.2;245975;28.2;263706;28.2;249883;28.2;251150;
28.2;273927;28.4;255079;28.4;276331;28.4;243012;28.4;252011;
28.4;260299;28.6;236418;28.6;263024;28.6;247608;28.6;243264;
28.6;278016;28.8;248701;28.8;269006;28.8;251836;28.8;248701;
28.8;257628;29.0;254848;29.0;277793;29.0;243264;29.0;249056;
29.0;271555;29.2;242771;29.2;258157;29.2;252762;29.2;243790;
29.2;269006;29.4;250119;29.4;274435;29.4;249883;29.4;254848;
29.4;263883;29.6;240552;29.6;266663;29.6;250829;29.6;247496;
29.6;273927;29.8;243264;29.8;268116;29.8;254848;29.8;246789;
29.8;262570;30.0;249982;30.0;273524;30.0;239074;30.0;254848;
30.0;270219;30.2;247046;30.2;269328;30.2;246573;30.2;249442;
30.2;272564;30.4;243264;30.4;272224;30.4;254848;30.4;251774;
30.4;267306;30.6;242256;30.6;274518;30.6;244989;30.6;254138;
30.6;273560;30.8;249751;30.8;266432;30.8;246789;30.8;243264;
30.8;273863;31.0;211987;31.0;183237;31.0;195059;31.0;185344;
31.0;167968;31.2;24221;31.2;25686;31.2;23168;31.2;23168;
31.2;31442;31.4;99188;31.4;104965;31.4;103073;31.4;99527;
31.4;111627;31.6;136227;31.6;149948;31.6;135934;31.6;137353;
31.6;141193;31.8;145140;31.8;178472;31.8;152340;31.8;143690;
31.8;171532;32.0;194842;32.0;214608;32.0;196218;32.0;194923;
32.0;200586;32.2;230521;32.2;265253;32.2;221254;32.2;243482;
32.2;240859;32.4;245628;32.4;283492;32.4;261404;32.4;259018;
32.4;278016;32.6;246227;32.6;296971;32.6;262570;32.6;266432;
32.6;268748;32.8;254848;32.8;296633;32.8;271883;32.8;271869;
32.8;271869;33.0;245728;33.0;299401;33.0;266432;33.0;275004;
33.0;277089;33.2;247035;33.2;301184;33.2;271869;33.2;262649;
33.2;266432;33.4;254596;33.4;290474;33.4;257937;33.4;278016;
33.4;275415;33.6;245026;33.6;297396;33.6;243264;33.6;271528;
33.6;270833;33.8;247545;33.8;296633;33.8;251890;33.8;269032;
33.8;274228;34.0;254848;34.0;284135;34.0;251826;34.0;263595;
34.0;274942;34.2;244317;34.2;278016;34.2;243264;34.2;266654;
34.2;269996;34.4;248701;34.4;261798;34.4;253665;34.4;272455;
34.4;268323;34.6;254124;34.6;272224;34.6;243527;34.6;263831;
34.6;277334;34.8;250063;34.8;275830;34.8;243264;34.8;266432;
34.8;270520;35.0;238920;35.0;266432;35.0;248932;35.0;265750;
35.0;273783;35.2;252720;35.2;276331;35.2;248464;35.2;269157;
35.2;273337;35.4;240174;35.4;271240;35.4;242436;35.4;264984;
35.4;267614;35.6;252247;35.6;269741;35.6;244446;35.6;266869;
35.6;277805;35.8;249056;35.8;271201;35.8;247207;35.8;268796;
35.8;268517;36.0;243510;36.0;272224;36.0;246034;36.0;265486;
36.0;278016;36.2;254058;36.2;267100;36.2;254848;36.2;276486;
36.2;275699;36.4;244209;36.4;274469;36.4;240242;36.4;259249;
36.4;266432;36.6;243767;36.6;264872;36.6;255079;36.6;276857;
36.6;276962;36.8;253400;36.8;275788;36.8;254848;36.8;272551;
36.8;264460;37.0;247946;37.0;269907;37.0;243510;37.0;265505;
37.0;269032;37.2;243012;37.2;271201;37.2;249811;37.2;278016;
37.2;271896;37.4;254611;37.4;277141;37.4;252383;37.4;268659;
37.4;265708;37.6;246423;37.6;266904;37.6;243264;37.6;272892;
37.6;272770;37.8;246884;37.8;277805;37.8;241421;37.8;266663;
37.8;265986;38.0;254848;38.0;267127;38.0;248464;38.0;266432;
38.0;272578;38.2;241816;38.2;267113;38.2;242210;38.2;272455;
38.2;274154;38.4;254848;38.4;272919;38.4;240306;38.4;265318;
38.4;270520;38.6;254124;38.6;263706;38.6;251141;38.6;269032;
38.6;267850;38.8;243495;38.8;272224;38.8;243264;38.8;272867;
38.8;278234;39.0;249319;39.0;263883;39.0;253369;39.0;267358;
39.0;266663;39.2;251301;39.2;266432;39.2;249883;39.2;264777;
39.2;273560;39.4;243264;39.4;276233;39.4;243767;39.4;275174;
39.4;273863;39.6;251322;39.6;271896;39.6;253085;39.6;266432;
39.6;265486;39.8;251141;39.8;268323;39.8;239954;39.8;277570;
39.8;278016;40.0;243264;40.0;278016;40.0;245278;40.0;270776;
40.0;266663;40.2;253665;40.2;267358;40.2;248552;40.2;268436;
40.2;278238;40.4;246160;40.4;272578;40.4;247046;40.4;278247;
40.4;273246;40.6;244036;40.6;275174;40.6;234162;40.6;266650;
40.6;261103;40.8;254611;40.8;273803;40.8;252956;40.8;273997;
40.8;275393;41.0;247046;41.0;278016;41.0;245896;41.0;264578;
41.0;265986;41.2;246034;41.2;268476;41.2;246714;41.2;266432;
41.2;275415;41.4;107415;41.4;100730;41.4;91224;41.4;84397;
41.4;135889;41.6;43140;41.6;47623;41.6;46336;41.6;65532;
41.6;43140;41.8;114832;41.8;129998;41.8;119537;41.8;139617;
41.8;124016;42.0;161494;42.0;159280;42.0;147141;42.0;179257;
42.0;169968;42.2;173287;42.2;220685;42.2;161672;42.2;209510;
42.2;194353;42.4;226228;42.4;232101;42.4;220096;42.4;265212;
42.4;250425;42.6;275971;42.6;300149;42.6;239990;42.6;296306;
42.6;273927;42.8;273333;42.8;298998;42.8;253005;42.8;289600;
42.8;268896;43.0;264984;43.0;289600;43.0;243264;43.0;298561;
43.0;271160;43.2;277543;43.2;299942;43.2;251076;43.2;295497;
43.2;277784;43.4;273246;43.4;294091;43.4;253122;43.4;292718;
43.4;269741;43.6;278016;43.6;293387;43.6;244580;43.6;301184;
43.6;277793;43.8;269268;43.8;300540;43.8;234989;43.8;287472;
43.8;273051;44.0;244989;44.0;279490;44.0;228370;44.0;274154;
44.0;266432;44.2;248300;44.2;275290;44.2;220359;44.2;274518;
44.2;267590;44.4;250356;44.4;272551;44.4;215575;44.4;272455;
44.4;255311;44.6;236716;44.6;264872;44.6;230135;44.6;273258;
44.6;276728;44.8;250119;44.8;278016;44.8;221981;44.8;269443;
44.8;275174;45.0;247207;45.0;267358;45.0;222202;45.0;270887;
45.0;266432;45.2;251729;45.2;263358;45.2;231943;45.2;276486;
45.2;267719;45.4;254848;45.4;274706;45.4;222728;45.4;260640;
45.4;271201;45.6;250165;45.6;276048;45.6;231949;45.6;275699;
45.6;266895;45.8;243012;45.8;278247;45.8;228590;45.8;273115;
45.8;278234;46.0;254848;46.0;269929;46.0;221938;46.0;278247;
46.0;268748;46.2;247946;46.2;271555;46.2;220096;46.2;274014;
46.2;267545;46.4;245278;46.4;276085;46.4;218210;46.4;265318;
46.4;275441;46.6;254848;46.6;265273;46.6;225518;46.6;274228;
46.6;271883;46.8;239486;46.8;276331;46.8;220096;46.8;268617;
46.8;278016;47.0;255079;47.0;269157;47.0;231176;47.0;267545;
47.0;270520;47.2;254611;47.2;278016;47.2;226677;47.2;275290;
47.2;269157;47.4;243515;47.4;278016;47.4;227908;47.4;269443;
47.4;277797;47.6;249672;47.6;266663;47.6;231680;47.6;258554;
47.6;260521;47.8;241785;47.8;274081;47.8;233026;47.8;274674;
47.8;278016;48.0;243510;48.0;269907;48.0;243264;48.0;266432;
48.0;267794;48.2;250829;48.2;267719;48.2;244712;48.2;275565;
48.2;268476;48.4;251643;48.4;278016;48.4;244036;48.4;272551;
48.4;273783;48.6;253457;48.6;272564;48.6;243264;48.6;268323;
48.6;268796;48.8;255094;48.8;276456;48.8;255084;48.8;278016;
48.8;272224;49.0;249425;49.0;276679;49.0;247946;49.0;268157;
49.0;276394;49.2;243767;49.2;266195;49.2;244580;49.2;272224;
49.2;266432;49.4;254848;49.4;275120;49.4;255079;49.4;265273;
49.4;275393;49.6;245728;49.6;272669;49.6;246468;49.6;266432;
49.6;272001;49.8;246034;49.8;267614;49.8;246789;49.8;273150;
49.8;268285;50.0;253085;50.0;278016;50.0;254848;50.0;274300;
50.0;278234;50.2;247700;50.2;269157;50.2;244317;50.2;270687;
50.2;267156;50.4;254611;50.4;278016;50.4;248701;50.4;278234;
50.4;273246;50.6;253615;50.6;275290;50.6;253303;50.6;272815;
50.6;275290;50.8;244249;50.8;263883;50.8;243510;50.8;278234;
50.8;261103;51.0;249056;51.0;276902;51.0;249811;51.0;275174;
51.0;276962;51.2;254601;51.2;270138;51.2;253226;51.2;265069;
51.2;267880;51.4;241501;51.4;269550;51.4;243264;51.4;277570;
51.4;269839;51.6;239788;51.6;265623;51.6;241481;51.6;261628;
51.6;267240;51.8;40544;51.8;46336;51.8;35759;51.8;35910;
51.8;46336;52.0;87169;52.0;78192;52.0;92672;52.0;78663;
52.0;78192;52.2;150146;52.2;144472;52.2;149433;52.2;148547;
52.2;143160;52.4;184700;52.4;166431;52.4;174403;52.4;184290;
52.4;169671;52.6;212521;52.6;216688;52.6;220739;52.6;208512;
52.6;227257;52.8;250169;52.8;249582;52.8;258255;52.8;255285;
52.8;252273;53.0;275830;53.0;263706;53.0;274006;53.0;276394;
53.0;268796;53.2;266432;53.2;269957;53.2;266432;53.2;266432;
53.2;271160;53.4;276233;53.4;278016;53.4;277543;53.4;275699;
53.4;277089;53.6;272593;53.6;271883;53.6;271854;53.6;272593;
53.6;266432;53.8;267614;53.8;278016;53.8;268323;53.8;267614;
53.8;274897;54.0;277779;54.0;274396;54.0;278016;54.0;272105;
54.0;274072;54.2;269996;54.2;265273;54.2;267187;54.2;247476;
54.2;273560;54.4;270621;54.4;277570;54.4;254848;54.4;245278;
54.4;273783;54.6;264387;54.6;268053;54.6;250446;54.6;254848;
54.6;267377;54.8;266668;54.8;270219;54.8;243264;54.8;245728;
54.8;270887;55.0;273560;55.0;269268;55.0;250119;55.0;243767;
55.0;265968;55.2;273863;55.2;270602;55.2;252531;55.2;254848;
55.2;265486;55.4;272455;55.4;278016;55.4;243264;55.4;243527;
55.4;277793;55.6;276923;55.6;274085;55.6;252077;55.6;249056;
55.6;274006;55.8;269328;55.8;266432;55.8;251643;55.8;254601;
55.8;266877;56.0;271580;56.0;277570;56.0;243264;56.0;241816;
56.0;278016;56.2;277089;56.2;269929;56.2;253665;56.2;250566;
56.2;269839;56.4;266432;56.4;270450;56.4;249845;56.4;247207;
56.4;277793;56.6;275565;56.6;277784;56.6;243264;56.6;243264;
56.6;276679;56.8;268748;56.8;272892;56.8;251890;56.8;252077;
56.8;268214;57.0;267614;57.0;278016;57.0;248804;57.0;251643;
57.0;277793;57.2;274942;57.2;272564;57.2;250566;57.2;243012;
57.2;272342;57.4;265986;57.4;267113;57.4;244712;57.4;253193;
57.4;274737;57.6;271160;57.6;278016;57.6;247207;57.6;249918;
57.6;278234;57.8;274608;57.8;263883;57.8;252833;57.8;243527;
57.8;267358;58.0;266663;58.0;272892;58.0;254611;58.0;254402;
58.0;273560;58.2;274897;58.2;274942;58.2;240894;58.2;247897;
58.2;273246;58.4;273246;58.4;260640;58.4;247608;58.4;253400;
58.4;273246;58.6;273614;58.6;276625;58.6;254848;58.6;251774;
58.6;277793;58.8;269550;58.8;260176;58.8;244190;58.8;246537;
58.8;260640;59.0;269443;59.0;269157;59.0;249056;59.0;247282;
59.0;270887;59.2;270887;59.2;265763;59.2;253122;59.2;254848;
59.2;273614;59.4;277089;59.4;268086;59.4;245235;59.4;244249;
59.4;270219;59.6;265144;59.6;271760;59.6;246160;59.6;249056;
59.6;267850;59.8;276233;59.8;274300;59.8;250315;59.8;253921;
59.8;269996;60.0;272224;60.0;266432;60.0;243012;60.0;250566;
60.0;266195;60.2;275441;60.2;276085;60.2;251952;60.2;254848;
60.2;278016;60.4;278016;60.4;271528;60.4;251643;60.4;251643;
60.4;269443;60.6;266663;60.6;268323;60.6;241719;60.6;243012;
60.6;278238;60.8;272892;60.8;278016;60.8;252956;60.8;248552;
60.8;276486;61.0;269157;61.0;267358;61.0;249425;61.0;249559;
61.0;266432;61.2;267794;61.2;273560;61.2;249811;61.2;243264;
61.2;275393;61.4;270687;61.4;274518;61.4;254848;61.4;254375;
61.4;271297;61.6;273644;61.6;275565;61.6;248686;61.6;249780;
61.6;270520;61.8;278016;61.8;278016;61.8;244523;61.8;245580;
61.8;278016;62.0;245370;62.0;237472;62.0;210994;62.0;213476;
62.0;233277;62.2;24950;62.2;25182;62.2;23168;62.2;23168;
62.2;24616;62.4;105028;62.4;108285;62.4;99912;62.4;95568;
62.4;102865;62.6;143908;62.6;144800;62.6;126438;62.6;133570;
62.6;138376;62.8;152421;62.8;152522;62.8;140733;62.8;154526;
62.8;172075;63.0;207637;63.0;190113;63.0;181000;63.0;200145;
63.0;196928;63.2;240689;63.2;226119;63.2;204168;63.2;235541;
63.2;221844;63.4;266853;63.4;260433;63.4;235300;63.4;259656;
63.4;264501;63.6;278016;63.6;266432;63.6;243264;63.6;278234;
63.6;276290;63.8;273246;63.8;269143;63.8;251076;63.8;278016;
63.8;271555;64.0;267156;64.0;249751;64.0;250165;64.0;266663;
64.0;278016;64.2;278016;64.2;255099;64.2;243264;64.2;273997;
64.2;271201;64.4;269443;64.4;254848;64.4;237472;64.4;271883;
64.4;269268;64.6;271555;64.6;247207;64.6;252720;64.6;266650;
64.6;254848;64.8;275971;64.8;246034;64.8;239402;64.8;272455;
64.8;239644;65.0;270293;65.0;254848;65.0;236362;65.0;263809;
65.0;254848;65.2;276456;65.2;244989;65.2;251826;65.2;270687;
65.2;254124;65.4;261842;65.4;248701;65.4;237472;65.4;269996;
65.4;243510;65.6;269839;65.6;251836;65.6;243767;65.6;266432;
65.6;250677;65.8;268436;65.8;249811;65.8;239813;65.8;274737;
65.8;246337;66.0;267377;66.0;254848;66.0;243264;66.0;272669;
66.0;250119;66.2;273426;66.2;251141;66.2;252762;66.2;264777;
66.2;254848;66.4;274674;66.4;243264;66.4;247293;66.4;278016;
66.4;249056;66.6;270293;66.6;254108;66.6;251538;66.6;268157;
66.6;244523;66.8;266200;66.8;249174;66.8;254848;66.8;272539;
66.8;254848;67.0;269996;67.0;243790;67.0;246468;67.0;275174;
67.0;246468;67.2;262649;67.2;252122;67.2;240059;67.2;262343;
67.2;255084;67.4;277141;67.4;247046;67.4;255094;67.4;276704;
67.4;254611;67.6;266209;67.6;246789;67.6;243510;67.6;263651;
67.6;244271;67.8;275277;67.8;254848;67.8;248193;67.8;269157;
67.8;249410;68.0;271992;68.0;244885;68.0;254848;68.0;277793;
68.0;249425;68.2;267075;68.2;249056;68.2;246044;68.2;258635;
68.2;243264;68.4;278016;68.4;253226;68.4;254848;68.4;274897;
68.4;251538;68.6;260763;68.6;243264;68.6;252383;68.6;265069;
68.6;251141;68.8;273803;68.8;251322;68.8;243264;68.8;267794;
68.8;235457;69.0;271201;69.0;247946;69.0;249056;69.0;265763;
69.0;252676;69.2;267719;69.2;243264;69.2;243988;69.2;266668;
69.2;249056;69.4;271528;69.4;247545;69.4;243012;69.4;271459;
69.4;251890;69.6;265540;69.6;249751;69.6;240368;69.6;273593;
69.6;255079;69.8;278016;69.8;243264;69.8;248686;69.8;275393;
69.8;246468;70.0;264683;70.0;255084;70.0;237841;70.0;268476;
70.0;247282;70.2;266432;70.2;247608;70.2;255079;70.2;271332;
70.2;254848;70.4;272114;70.4;245530;70.4;238630;70.4;260862;
70.4;242771;70.6;270433;70.6;255079;70.6;246884;70.6;277797;
70.6;249410;70.8;269032;70.8;245728;70.8;253193;70.8;266432;
70.8;247946;71.0;278016;71.0;254375;71.0;244271;71.0;275067;
71.0;243264;71.2;266432;71.2;246100;71.2;248701;71.2;272919;
71.2;250566;71.4;267075;71.4;242760;71.4;239486;71.4;276331;
71.4;251836;71.6;273863;71.6;250119;71.6;245482;71.6;278016;
71.6;243012;71.8;267545;71.8;248360;71.8;251774;71.8;263188;
71.8;253400;72.0;278016;72.0;243264;72.0;248804;72.0;273560;
72.0;249780;72.2;262812;72.2;252247;72.2;243012;72.2;274518;
72.2;243510;72.4;175987;72.4;139008;72.4;166605;72.4;186397;
72.4;130542;72.6;31442;72.6;39609;72.6;23168;72.6;25395;
72.6;37326;72.8;120344;72.8;112944;72.8;109456;72.8;116521;
72.8;106341;73.0;157298;73.0;139689;73.0;154526;73.0;150592;
73.0;148364;73.2;208512;73.2;167244;73.2;194189;73.2;202193;
73.2;186012;73.4;235832;73.4;222876;73.4;233209;73.4;236707;
73.4;231242;73.6;296306;73.6;241816;73.6;270219;73.6;257907;
73.6;270887;73.8;294408;73.8;244341;73.8;273614;73.8;278016;
73.8;270520;74.0;291284;74.0;251322;74.0;266904;74.0;269443;
74.0;275844;74.2;297322;74.2;254848;74.2;278016;74.2;270713;
74.2;278016;74.4;291221;74.4;243527;74.4;270138;74.4;278016;
74.4;268274;74.6;296339;74.6;249056;74.6;270450;74.6;266663;
74.6;271555;74.8;294654;74.8;254601;74.8;278016;74.8;273997;
74.8;277089;75.0;278016;75.0;238630;75.0;268476;75.0;272815;
75.0;266432;75.2;278016;75.2;249460;75.2;267358;75.2;254848;
75.2;274228;75.4;272224;75.4;253921;75.4;273246;75.4;254848;
75.4;269443;75.6;276568;75.6;243264;75.6;266432;75.6;249751;
75.6;272892;75.8;276568;75.8;250566;75.8;270370;75.8;240174;
75.8;265750;76.0;266432;76.0;242771;76.0;272001;76.0;254375;
76.0;269443;76.2;276233;76.2;251538;76.2;269032;76.2;247946;
76.2;270887;76.4;270776;76.4;249425;76.4;278016;76.4;245278;
76.4;277089;76.6;265750;76.6;250504;76.6;261103;76.6;254848;
76.6;266195;76.8;278016;76.8;241501;76.8;268285;76.8;234839;
76.8;265750;77.0;255543;77.0;238731;77.0;265986;77.0;246789;
77.0;272844;77.2;272892;77.2;249883;77.2;263706;77.2;251774;
77.2;268323;77.4;273927;77.4;243264;77.4;276902;77.4;244271;
77.4;278016;77.6;272446;77.6;255084;77.6;271528;77.6;248300;
77.6;262493;77.8;276653;77.8;244774;77.8;269491;77.8;249056;
77.8;272578;78.0;271332;78.0;249179;78.0;275290;78.0;249780;
78.0;275830;78.2;269741;78.2;254848;78.2;267377;78.2;253193;
78.2;272224;78.4;273927;78.4;245728;78.4;273560;78.4;253337;
78.4;277793;78.6;267358;78.6;246789;78.6;274518;78.6;243012;
78.6;271632;78.8;272892;78.8;254848;78.8;264984;78.8;251228;
78.8;269550;79.0;275004;79.0;244989;79.0;264204;79.0;251141;
79.0;269839;79.2;272770;79.2;250566;79.2;270584;79.2;243264;
79.2;267417;79.4;275611;79.4;254848;79.4;270450;79.4;253665;
79.4;273171;79.6;270138;79.6;249307;79.6;278016;79.6;249780;
79.6;275004;79.8;270450;79.8;244712;79.8;262493;79.8;254596;
79.8;266432;80.0;277797;80.0;253429;80.0;273845;80.0;254848;
80.0;276902;80.2;259192;80.2;243264;80.2;275971;80.2;247755;
80.2;270833;80.4;274228;80.4;251538;80.4;270366;80.4;246034;
80.4;274228;80.6;270441;80.6;251643;80.6;278016;80.6;254848;
80.6;278016;80.8;274956;80.8;243264;80.8;270138;80.8;246468;
80.8;266663;81.0;278016;81.0;252629;81.0;270887;81.0;250677;
81.0;274228;81.2;268053;81.2;243264;81.2;269268;81.2;253615;
81.2;273927;81.4;271555;81.4;243515;81.4;266668;81.4;250504;
81.4;265788;81.6;267113;81.6;242256;81.6;269675;81.6;254848;
81.6;277793;81.8;266663;81.8;249425;81.8;269328;81.8;253226;
81.8;258866;82.0;273246;82.0;238630;82.0;264777;82.0;238630;
82.0;271555;82.2;268362;82.2;248193;82.2;263090;82.2;251538;
82.2;260980;82.4;267614;82.4;248464;82.4;270923;82.4;251228;
82.4;271201;82.6;278016;82.6;240590;82.6;266200;82.6;243510;
82.6;270964;82.8;106483;82.8;44825;82.8;75822;82.8;117038;
82.8;48968;83.0;54444;83.0;71489;83.0;55813;83.0;48818;
83.0;63242;83.2;127213;83.2;131928;83.2;133762;83.2;122745;
83.2;140756;83.4;154824;83.4;167076;83.4;157000;83.4;157832;
83.4;168283;83.6;193066;83.6;194353;83.6;180098;83.6;182618;
83.6;192423;83.8;233907;83.8;225442;83.8;232838;83.8;216389;
83.8;267590;84.0;263536;84.0;265144;84.0;241136;84.0;271110;
84.0;270223;84.2;272564;84.2;269636;84.2;248048;84.2;271297;
84.2;294055;84.4;275699;84.4;270887;84.4;244610;84.4;265273;
84.4;296375;84.6;266432;84.6;277784;84.6;254848;84.6;278252;
84.6;300762;84.8;276833;84.8;266432;84.8;250063;84.8;272948;
84.8;300973;85.0;272224;85.0;273150;85.0;255094;85.0;278016;
85.0;294500;85.2;267850;85.2;275342;85.2;254848;85.2;260758;
85.2;293387;85.4;254848;85.4;255833;85.4;244249;85.4;245106;
85.4;300356;85.6;247207;85.6;254848;85.6;246789;85.6;247992;
85.6;288152;85.8;246034;85.8;249383;85.8;240997;85.8;254616;
85.8;272867;86.0;254611;86.0;248300;86.0;245628;86.0;243264;
86.0;271240;86.2;245628;86.2;254848;86.2;232452;86.2;245864;
86.2;269550;86.4;248701;86.4;242031;86.4;249672;86.4;251836;
86.4;277797;86.6;253921;86.6;251538;86.6;244271;86.6;253457;
86.6;266209;86.8;243264;86.8;254848;86.8;249410;86.8;255079;
86.8;274646;87.0;250566;87.0;243510;87.0;253226;87.0;248332;
87.0;272669;87.2;251350;87.2;250392;87.2;238630;87.2;245436;
87.2;268882;87.4;248332;87.4;249425;87.4;251538;87.4;254848;
87.4;278016;87.6;252762;87.6;243264;87.6;249056;87.6;239813;
87.6;269839;87.8;246739;87.8;252762;87.8;243510;87.8;247282;
87.8;278016;88.0;246160;88.0;249883;88.0;253665;88.0;254611;
88.0;271580;88.2;254848;88.2;243017;88.2;241410;88.2;244209;
88.2;265144;88.4;236116;88.4;245349;88.4;251538;88.4;245235;
88.4;278016;88.6;247992;88.6;246970;88.6;254848;88.6;249174;
88.6;260299;88.8;253193;88.8;244580;88.8;245728;88.8;243264;
88.8;278016;89.0;247434;89.0;254848;89.0;240059;89.0;251322;
89.0;261753;89.2;254611;89.2;243264;89.2;252299;89.2;250695;
89.2;265776;89.4;246044;89.4;249056;89.4;243510;89.4;243012;
89.4;271110;89.6;243495;89.6;253318;89.6;242318;89.6;254848;
89.6;263153;89.8;254344;89.8;243264;89.8;252531;89.8;250078;
89.8;278016;90.0;249056;90.0;251890;90.0;243756;90.0;254848;
90.0;275699;90.2;239320;90.2;242004;90.2;255079;90.2;254848;
90.2;266432;90.4;255079;90.4;243264;90.4;249751;90.4;227730;
90.4;276048;90.6;250504;90.6;254375;90.6;243756;90.6;249056;
90.6;270433;90.8;254848;90.8;248360;90.8;255079;90.8;252383;
90.8;270370;91.0;254616;91.0;242210;91.0;247207;91.0;243264;
91.0;276752;91.2;241816;91.2;253689;91.2;246573;91.2;247608;
91.2;266195;91.4;250829;91.4;250078;91.4;244682;91.4;248332;
91.4;268870;91.6;249056;91.6;251952;91.6;272892;91.6;243264;
91.6;271528;91.8;243510;91.8;254616;91.8;269773;91.8;252956;
91.8;274897;92.0;252956;92.0;240174;92.0;267991;92.0;253485;
92.0;278016;92.2;245728;92.2;250119;92.2;263358;92.2;254848;
92.2;266432;92.4;243736;92.4;252531;92.4;265750;92.4;254848;
92.4;274798;92.6;253303;92.6;243264;92.6;270584;92.6;246468;
92.6;271883;92.8;248360;92.8;252067;92.8;264067;92.8;247282;
92.8;267113;93.0;238254;93.0;223162;93.0;263825;93.0;250214;
93.0;253956;93.2;39490;93.2;25182;93.2;31592;93.2;40544;
93.2;25182;93.4;86880;93.4;78605;93.4;88459;93.4;72177;
93.4;94643;93.6;130497;93.6;129468;93.6;133009;93.6;124698;
93.6;147094;93.8;176862;93.8;161953;93.8;174181;93.8;143444;
93.8;170390;94.0;198582;94.0;211460;94.0;202488;94.0;204423;
94.0;218027;94.2;243945;94.2;229594;94.2;229275;94.2;250039;
94.2;253163;94.4;276048;94.4;266663;94.4;265750;94.4;257628;
94.4;268086;94.6;269996;94.6;276233;94.6;273997;94.6;270450;
94.6;272892;94.8;270713;94.8;272224;94.8;275004;94.8;278016;
94.8;275699;95.0;278016;95.0;266924;95.0;266432;95.0;273246;
95.0;271869;95.2;266663;95.2;278247;95.2;276233;95.2;273927;
95.2;278016;95.4;273734;95.4;269443;95.4;271854;95.4;274309;
95.4;272224;95.6;266432;95.6;269032;95.6;260270;95.6;266432;
95.6;267614;95.8;243264;95.8;272105;95.8;254848;95.8;276902;
95.8;278016;96.0;252077;96.0;257448;96.0;246468;96.0;270520;
96.0;270520;96.2;251141;96.2;273845;96.2;246789;96.2;269157;
96.2;278016;96.4;243264;96.4;274772;96.4;250504;96.4;278016;
96.4;272564;96.6;253369;96.6;267113;96.6;244989;96.6;263706;
96.6;266663;96.8;241372;96.8;278016;96.8;244523;96.8;278016;
96.8;268882;97.0;243767;97.0;269443;97.0;254848;97.0;265722;
97.0;271528;97.2;254848;97.2;270887;97.2;243510;97.2;263651;
97.2;273150;97.4;250759;97.4;268617;97.4;249811;97.4;278016;
97.4;274300;97.6;244880;97.6;266432;97.6;253862;97.6;265339;
97.6;267358;97.8;255079;97.8;273927;97.8;243264;97.8;271160;
97.8;265486;98.0;244317;98.0;267794;98.0;251538;98.0;272224;
98.0;274706;98.2;247282;98.2;266895;98.2;243510;98.2;273560;
98.2;272578;98.4;254848;98.4;268476;98.4;248300;98.4;257921;
98.4;277805;98.6;244317;98.6;269996;98.6;254848;98.6;274006;
98.6;268517;98.8;248701;98.8;258791;98.8;249751;98.8;259103;
98.8;271201;99.0;254124;99.0;276857;99.0;242210;99.0;276085;
99.0;273246;99.2;243510;99.2;266432;99.2;250504;99.2;269443;
99.2;263706;99.4;250411;99.4;272564;99.4;248464;99.4;271555;
99.4;278016;99.6;252720;99.6;259192;99.6;244580;99.6;276486;
99.6;270138;99.8;243012;99.8;245975;99.8;255079;99.8;259192;
99.8;268214;100.0;249647;100.0;255079;100.0;246468;100.0;275699;
100.0;272446;100.2;250592;100.2;249056;100.2;246714;100.2;267794;
100.2;269907;100.4;243264;100.4;244523;100.4;254848;100.4;269157;
100.4;275277;100.6;255084;100.6;251574;100.6;244209;100.6;272446;
100.6;264649;100.8;237472;100.8;244918;100.8;249056;100.8;265249;
100.8;266432;101.0;244036;101.0;246573;101.0;242800;101.0;273171;
101.0;273426;101.2;254611;101.2;254848;101.2;243264;101.2;266663;
101.2;270433;101.4;246537;101.4;249780;101.4;248932;101.4;276331;
101.4;272455;101.6;247282;101.6;248937;101.6;251301;101.6;275120;
101.6;277347;101.8;251952;101.8;251301;101.8;243012;101.8;269996;
101.8;266432;102.0;244249;102.0;243012;102.0;249780;102.0;271555;
102.0;275699;102.2;248701;102.2;251228;102.2;250904;102.2;276486;
102.2;274451;102.4;254584;102.4;251836;102.4;243264;102.4;265505;
102.4;278234;102.6;250677;102.6;243264;102.6;254375;102.6;269054;
102.6;278016;102.8;249519;102.8;252956;102.8;248686;102.8;274154;
102.8;261103;103.0;251228;103.0;249751;103.0;244523;103.0;276653;
103.0;273997;103.2;237208;103.2;243264;103.2;254848;103.2;278016;
103.2;269006;103.4;172312;103.4;157275;103.4;175001;103.4;220096;
103.4;170641;103.6;26064;103.6;28068;103.6;26064;103.6;23168;
103.6;33924;103.8;109121;103.8;112766;103.8;102711;103.8;107979;
103.8;121632;104.0;137589;104.0;141093;104.0;135600;104.0;143816;
104.0;150170;104.2;168514;104.2;162857;104.2;160521;104.2;192050;
104.2;192660;104.4;194032;104.4;223612;104.4;203444;104.4;225993;
104.4;215591;104.6;255940;104.6;241609;104.6;238363;104.6;259875;
104.6;264115;104.8;274608;104.8;273337;104.8;243527;104.8;271580;
104.8;273560;105.0;263883;105.0;274540;105.0;252833;105.0;271528;
105.0;268053;105.2;277543;105.2;278234;105.2;250446;105.2;270450;
105.2;271869;105.4;271528;105.4;268896;105.4;249460;105.4;278016;
105.4;275830;105.6;269032;105.6;271555;105.6;254848;105.6;267358;
105.6;271869;105.8;274942;105.8;277089;105.8;249425;105.8;272840;
105.8;278016;106.0;273382;106.0;266432;106.0;243767;106.0;253400;
106.0;271896;106.2;271528;106.2;274435;106.2;254848;106.2;252122;
106.2;267614;106.4;270520;106.4;269443;106.4;244019;106.4;254848;
106.4;276653;106.6;266432;106.6;277570;106.6;243264;106.6;250904;
106.6;258255;106.8;272455;106.8;273927;106.8;254848;106.8;243264;
106.8;278016;107.0;272669;107.0;265273;107.0;246468;107.0;254344;
107.0;268476;107.2;267614;107.2;271760;107.2;249056;107.2;249056;
107.2;266663;107.4;278016;107.4;269996;107.4;246100;107.4;244523;
107.4;272455;107.6;273246;107.6;266432;107.6;242004;107.6;254848;
107.6;262261;107.8;278016;107.8;264067;107.8;244580;107.8;246884;
107.8;274451;108.0;274608;108.0;272551;108.0;244712;108.0;246353;
108.0;269839;108.2;266663;108.2;266195;108.2;244271;108.2;254848;
108.2;267991;108.4;277594;108.4;277793;108.4;245975;108.4;231680;
108.4;272578;108.6;265750;108.6;268659;108.6;254848;108.6;247545;
108.6;275174;108.8;270776;108.8;272455;108.8;238581;108.8;251774;
108.8;266432;109.0;277797;109.0;276011;109.0;248669;109.0;244271;
109.0;276331;109.2;266432;109.2;266432;109.2;230694;109.2;248529;
109.2;265708;109.4;274737;109.4;276962;109.4;220096;109.4;249174;
109.4;270936;109.6;261308;109.6;272564;109.6;226151;109.6;243264;
109.6;277334;109.8;268214;109.8;278016;109.8;231680;109.8;250566;
109.8;260640;110.0;273927;110.0;275830;110.0;220096;110.0;252531;
110.0;278016;110.2;268748;110.2;266432;110.2;225361;110.2;243264;
110.2;266432;110.4;271908;110.4;274081;110.4;231926;110.4;252956;
110.4;268476;110.6;275174;110.6;272001;110.6;222578;110.6;250165;
110.6;271110;110.8;274540;110.8;268214;110.8;231680;110.8;243264;
110.8;269907;111.0;270366;111.0;273927;111.0;231428;111.0;253369;
111.0;277805;111.2;270584;111.2;268748;111.2;221254;111.2;247046;
111.2;275342;111.4;270219;111.4;261335;111.4;216786;111.4;245278;
111.4;266432;111.6;276568;111.6;269996;111.6;222110;111.6;247519;
111.6;276233;111.8;266432;111.8;266209;111.8;222921;111.8;246537;
111.8;270293;112.0;275819;112.0;271883;112.0;222202;112.0;246573;
112.0;268476;112.2;268476;112.2;271896;112.2;231943;112.2;254848;
112.2;276486;112.4;269328;112.4;269032;112.4;224039;112.4;244190;
112.4;266432;112.6;278016;112.6;278016;112.6;221508;112.6;249811;
112.6;275699;112.8;267306;112.8;267141;112.8;231680;112.8;253400;
112.8;271528;113.0;274228;113.0;278016;113.0;222614;113.0;243510;
113.0;276331;113.2;264578;113.2;274006;113.2;220096;113.2;251729;
113.2;277797;113.4;266853;113.4;266877;113.4;214977;113.4;247125;
113.4;262343;113.6;270687;113.6;277089;113.6;227467;113.6;243510;
113.6;273927;113.8;75822;113.8;67849;113.8;67674;113.8;75875;
113.8;67849;114.0;75452;114.0;67674;114.0;50820;114.0;49811;
114.0;53214;114.2;151750;114.2;132669;114.2;108835;114.2;110048;
114.2;142799;114.4;187586;114.4;166037;114.4;132829;114.4;166520;
114.4;184056;114.6;252792;114.6;220716;114.6;178609;114.6;186965;
114.6;198020;114.8;279670;114.8;238018;114.8;195085;114.8;207279;
114.8;258902;115.0;308841;115.0;266654;115.0;210994;115.0;246034;
115.0;261308;115.2;322614;115.2;272224;115.2;220096;115.2;254848;
115.2;268323;115.4;319984;115.4;276394;115.4;228494;115.4;244989;
115.4;275120;115.6;320876;115.6;263536;115.6;230626;115.6;248300;
115.6;269443;115.8;314216;115.8;275565;115.8;220096;115.8;254848;
115.8;271555;116.0;319758;116.0;272551;116.0;225888;116.0;244249;
116.0;277089;116.2;313367;116.2;267664;116.2;231410;116.2;249056;
116.2;270887;116.4;298745;116.4;275888;116.4;221675;116.4;254601;
116.4;276653;116.6;299736;116.6;263024;116.6;223405;116.6;243264;
116.6;272551;116.8;289389;116.8;271555;116.8;220964;116.8;246034;
116.8;264810;117.0;299964;117.0;261798;117.0;224125;117.0;253226;
117.0;278234;117.2;292909;117.2;266432;117.2;220705;117.2;243264;
117.2;268604;117.4;286861;117.4;262725;117.4;228784;117.4;252247;
117.4;277805;117.6;297874;117.6;270923;117.6;225888;117.6;249442;
117.6;275342;117.8;286910;117.8;271883;117.8;220096;117.8;242031;
117.8;266432;118.0;301390;118.0;268180;118.0;230420;118.0;253665;
118.0;276962;118.2;291129;118.2;269505;118.2;228007;118.2;250504;
118.2;270584;118.4;296339;118.4;270219;118.4;219826;118.4;254848;
118.4;277543;118.6;296633;118.6;277089;118.6;225308;118.6;250504;
118.6;277797;118.8;291916;118.8;266432;118.8;230871;118.8;247207;
118.8;266432;119.0;301184;119.0;275565;119.0;219826;119.0;246034;
119.0;274897;119.2;288990;119.2;272564;119.2;218358;119.2;254848;
119.2;270138;119.4;298609;119.4;268476;119.4;231926;119.4;245728;
119.4;274228;119.6;290209;119.6;278016;119.6;218571;119.6;247992;
119.6;277793;119.8;298745;119.8;268617;119.8;223867;119.8;254848;
119.8;269505;;;;;;;;;
