0;0;0;1;1;1;2;2;2;3;3;3;4;4;4;5;5;5;
0;0;1;0.2;1;50;0.2;1;40;0.2;1;32;0.2;1;26;0;0;1;
0.2;1;55;0.4;0;53;0.4;0;46;0.4;0;41;0.4;0;41;0.2;5;203;
0.4;0;59;0.6;0;38;0.6;0;26;0.6;0;28;0.6;0;32;0.4;0;240;
0.6;0;44;0.8;0;36;0.8;0;27;0.8;0;25;0.8;0;36;0.6;0;168;
0.8;0;40;1.0;0;24;1.0;0;27;1.0;0;29;1.0;0;30;0.8;0;164;
1.0;0;24;1.2;0;18;1.2;0;13;1.2;0;12;1.2;0;22;1.0;0;134;
1.2;0;18;1.4;0;46;1.4;0;36;1.4;0;31;1.4;0;30;1.2;0;83;
1.4;0;51;1.6;0;46;1.6;0;34;1.6;0;29;1.6;0;35;1.4;0;194;
1.6;0;49;1.8;0;36;1.8;0;31;1.8;0;30;1.8;0;34;1.6;0;193;
1.8;0;45;2.0;0;35;2.0;0;29;2.0;0;28;2.0;0;33;1.8;0;176;
2.0;0;39;2.2;0;37;2.2;0;28;2.2;0;26;2.2;0;33;2.0;0;164;
2.2;0;41;2.4;0;36;2.4;0;27;2.4;0;25;2.4;0;33;2.2;0;165;
2.4;0;35;2.6;0;33;2.6;0;27;2.6;0;27;2.6;0;34;2.4;0;156;
2.6;0;39;2.8;0;37;2.8;0;28;2.8;0;28;2.8;0;37;2.6;0;160;
2.8;0;39;3.0;0;35;3.0;0;29;3.0;0;29;3.0;0;35;2.8;0;169;
3.0;0;37;3.2;0;33;3.2;0;29;3.2;0;28;3.2;0;37;3.0;0;165;
3.2;0;38;3.4;0;34;3.4;0;29;3.4;0;27;3.4;0;34;3.2;0;165;
3.4;0;34;3.6;0;34;3.6;0;26;3.6;0;29;3.6;0;35;3.4;0;158;
3.6;0;38;3.8;0;32;3.8;0;30;3.8;0;29;3.8;0;39;3.6;0;162;
3.8;0;35;4.0;0;35;4.0;0;25;4.0;0;30;4.0;0;35;3.8;0;165;
4.0;0;35;4.2;0;34;4.2;0;29;4.2;0;33;4.2;0;39;4.0;0;160;
4.2;0;36;4.4;0;33;4.4;0;30;4.4;0;29;4.4;0;37;4.2;0;171;
4.4;0;33;4.6;0;35;4.6;0;27;4.6;0;32;4.6;0;36;4.4;0;162;
4.6;0;33;4.8;0;33;4.8;0;27;4.8;0;33;4.8;0;41;4.6;0;163;
4.8;0;37;5.0;0;36;5.0;0;30;5.0;0;29;5.0;0;43;4.8;0;171;
5.0;0;33;5.2;0;33;5.2;0;28;5.2;0;30;5.2;0;39;5.0;0;171;
5.2;0;32;5.4;0;31;5.4;0;26;5.4;0;31;5.4;0;39;5.2;0;162;
5.4;0;35;5.6;0;32;5.6;0;28;5.6;0;31;5.6;0;45;5.4;0;162;
5.6;0;33;5.8;0;33;5.8;0;29;5.8;0;32;5.8;0;39;5.6;0;169;
5.8;0;28;6.0;0;33;6.0;0;28;6.0;0;31;6.0;0;43;5.8;0;161;
6.0;0;31;6.2;0;33;6.2;0;27;6.2;0;31;6.2;0;43;6.0;0;166;
6.2;0;33;6.4;0;35;6.4;0;28;6.4;0;32;6.4;0;41;6.2;0;167;
6.4;0;30;6.6;0;32;6.6;0;27;6.6;0;33;6.6;0;43;6.4;0;166;
6.6;0;31;6.8;0;33;6.8;0;27;6.8;0;31;6.8;0;49;6.6;0;166;
6.8;0;29;7.0;0;29;7.0;0;28;7.0;0;32;7.0;0;39;6.8;0;169;
7.0;0;30;7.2;0;34;7.2;0;28;7.2;0;32;7.2;0;47;7.0;0;158;
7.2;0;31;7.4;0;31;7.4;0;26;7.4;0;32;7.4;0;43;7.2;0;172;
7.4;0;25;7.6;0;33;7.6;0;28;7.6;0;33;7.6;0;42;7.4;0;157;
7.6;0;30;7.8;0;32;7.8;0;27;7.8;0;32;7.8;0;46;7.6;0;166;
7.8;0;29;8.0;0;29;8.0;0;26;8.0;0;31;8.0;0;47;7.8;0;166;
8.0;0;26;8.2;0;31;8.2;0;31;8.2;0;35;8.2;0;45;8.0;0;159;
8.2;0;29;8.4;0;32;8.4;0;27;8.4;0;30;8.4;0;47;8.2;0;171;
8.4;0;27;8.6;0;31;8.6;0;28;8.6;0;33;8.6;0;45;8.4;0;163;
8.6;0;29;8.8;0;31;8.8;0;27;8.8;0;33;8.8;0;47;8.6;0;166;
8.8;0;30;9.0;0;30;9.0;0;28;9.0;0;31;9.0;0;49;8.8;0;168;
9.0;0;27;9.2;0;29;9.2;0;28;9.2;0;34;9.2;0;47;9.0;0;165;
9.2;0;26;9.4;0;29;9.4;0;28;9.4;0;31;9.4;0;49;9.2;0;164;
9.4;0;29;9.6;0;32;9.6;0;28;9.6;0;31;9.6;0;53;9.4;0;166;
9.6;0;28;9.8;0;28;9.8;0;27;9.8;0;32;9.8;0;45;9.6;0;172;
9.8;0;26;10.0;0;30;10.0;0;26;10.0;0;31;10.0;0;53;9.8;0;158;
10.0;0;30;10.2;0;26;10.2;0;25;10.2;0;33;10.2;0;51;10.0;0;170;
10.2;0;12;10.4;0;10;10.4;0;8;10.4;0;8;10.4;0;12;10.2;0;147;
10.4;0;10;10.6;0;24;10.6;0;21;10.6;0;23;10.6;0;24;10.4;0;48;
10.6;0;25;10.8;0;32;10.8;0;30;10.8;0;34;10.8;0;54;10.6;0;117;
10.8;0;30;11.0;0;33;11.0;0;29;11.0;0;31;11.0;0;56;10.8;0;180;
11.0;0;29;11.2;0;34;11.2;0;31;11.2;0;37;11.2;0;59;11.0;0;178;
11.2;0;31;11.4;0;33;11.4;0;32;11.4;0;35;11.4;0;53;11.2;0;192;
11.4;0;32;11.6;0;29;11.6;0;31;11.6;0;34;11.6;0;47;11.4;0;185;
11.6;0;33;11.8;0;31;11.8;0;31;11.8;0;31;11.8;0;43;11.6;0;174;
11.8;0;29;12.0;0;32;12.0;0;28;12.0;0;31;12.0;0;43;11.8;0;165;
12.0;0;28;12.2;0;29;12.2;0;29;12.2;0;33;12.2;0;47;12.0;0;162;
12.2;0;31;12.4;0;28;12.4;0;29;12.4;0;31;12.4;0;41;12.2;0;169;
12.4;0;29;12.6;0;31;12.6;0;29;12.6;0;32;12.6;0;43;12.4;0;158;
12.6;0;29;12.8;0;31;12.8;0;28;12.8;0;31;12.8;0;45;12.6;0;164;
12.8;0;32;13.0;0;28;13.0;0;29;13.0;0;28;13.0;0;43;12.8;0;167;
13.0;0;29;13.2;0;31;13.2;0;31;13.2;0;33;13.2;0;40;13.0;0;157;
13.2;0;32;13.4;0;31;13.4;0;28;13.4;0;31;13.4;0;44;13.2;0;167;
13.4;0;31;13.6;0;30;13.6;0;31;13.6;0;32;13.6;0;39;13.4;0;165;
13.6;0;31;13.8;0;31;13.8;0;28;13.8;0;31;13.8;0;39;13.6;0;163;
13.8;0;33;14.0;0;33;14.0;0;29;14.0;0;33;14.0;0;42;13.8;0;162;
14.0;0;34;14.2;0;31;14.2;0;29;14.2;0;30;14.2;0;39;14.0;0;171;
14.2;0;29;14.4;0;32;14.4;0;30;14.4;0;31;14.4;0;41;14.2;0;158;
14.4;0;35;14.6;0;33;14.6;0;29;14.6;0;33;14.6;0;41;14.4;0;169;
14.6;0;32;14.8;0;29;14.8;0;28;14.8;0;31;14.8;0;41;14.6;0;168;
14.8;0;31;15.0;0;34;15.0;0;30;15.0;0;34;15.0;0;41;14.8;0;160;
15.0;0;33;15.2;0;29;15.2;0;30;15.2;0;31;15.2;0;41;15.0;0;172;
15.2;0;31;15.4;0;33;15.4;0;30;15.4;0;31;15.4;0;39;15.2;0;162;
15.4;0;32;15.6;0;32;15.6;0;29;15.6;0;32;15.6;0;41;15.4;0;165;
15.6;0;31;15.8;0;31;15.8;0;29;15.8;0;31;15.8;0;41;15.6;0;165;
15.8;0;33;16.0;0;33;16.0;0;30;16.0;0;33;16.0;0;40;15.8;0;165;
16.0;0;31;16.2;0;31;16.2;0;27;16.2;0;33;16.2;0;39;16.0;0;167;
16.2;0;32;16.4;0;31;16.4;0;29;16.4;0;33;16.4;0;41;16.2;0;162;
16.4;0;33;16.6;0;32;16.6;0;28;16.6;0;32;16.6;0;39;16.4;0;167;
16.6;0;30;16.8;0;34;16.8;0;32;16.8;0;33;16.8;0;37;16.6;0;161;
16.8;0;35;17.0;0;32;17.0;0;30;17.0;0;30;17.0;0;39;16.8;0;171;
17.0;0;31;17.2;0;32;17.2;0;32;17.2;0;35;17.2;0;37;17.0;0;162;
17.2;0;33;17.4;0;33;17.4;0;29;17.4;0;29;17.4;0;36;17.2;0;169;
17.4;0;34;17.6;0;29;17.6;0;31;17.6;0;33;17.6;0;37;17.4;0;161;
17.6;0;29;17.8;0;34;17.8;0;34;17.8;0;34;17.8;0;41;17.6;0;159;
17.8;0;33;18.0;0;29;18.0;0;31;18.0;0;31;18.0;0;35;17.8;0;176;
18.0;0;33;18.2;0;33;18.2;0;33;18.2;0;31;18.2;0;39;18.0;0;159;
18.2;0;33;18.4;0;32;18.4;0;31;18.4;0;32;18.4;0;39;18.2;0;169;
18.4;0;32;18.6;0;31;18.6;0;30;18.6;0;31;18.6;0;38;18.4;0;166;
18.6;0;31;18.8;0;33;18.8;0;33;18.8;0;31;18.8;0;35;18.6;0;161;
18.8;0;34;19.0;0;32;19.0;0;33;19.0;0;33;19.0;0;39;18.8;0;166;
19.0;0;31;19.2;0;31;19.2;0;30;19.2;0;33;19.2;0;37;19.0;0;168;
19.2;0;33;19.4;0;31;19.4;0;31;19.4;0;30;19.4;0;37;19.2;0;164;
19.4;0;31;19.6;0;33;19.6;0;33;19.6;0;33;19.6;0;37;19.4;0;160;
19.6;0;34;19.8;0;30;19.8;0;30;19.8;0;32;19.8;0;39;19.6;0;170;
19.8;0;31;20.0;0;33;20.0;0;35;20.0;0;33;20.0;0;36;19.8;0;162;
20.0;0;33;20.2;0;31;20.2;0;32;20.2;0;31;20.2;0;37;20.0;0;170;
20.2;0;32;20.4;0;30;20.4;0;32;20.4;0;32;20.4;0;37;20.2;0;163;
20.4;0;32;20.6;0;27;20.6;0;22;20.6;0;25;20.6;0;27;20.4;0;163;
20.6;0;16;20.8;0;12;20.8;0;12;20.8;0;12;20.8;0;11;20.6;0;117;
20.8;0;16;21.0;0;29;21.0;0;29;21.0;0;29;21.0;0;32;20.8;0;63;
21.0;0;29;21.2;0;33;21.2;0;35;21.2;0;33;21.2;0;40;21.0;0;148;
21.2;0;34;21.4;0;36;21.4;0;37;21.4;0;36;21.4;0;41;21.2;0;175;
21.4;0;35;21.6;0;39;21.6;0;38;21.6;0;33;21.6;0;41;21.4;0;185;
21.6;0;33;21.8;0;35;21.8;0;37;21.8;0;35;21.8;0;37;21.6;0;184;
21.8;0;32;22.0;0;36;22.0;0;38;22.0;0;33;22.0;0;35;21.8;0;176;
22.0;0;33;22.2;0;34;22.2;0;36;22.2;0;28;22.2;0;33;22.0;0;175;
22.2;0;31;22.4;0;36;22.4;0;37;22.4;0;31;22.4;0;32;22.2;0;162;
22.4;0;31;22.6;0;31;22.6;0;35;22.6;0;33;22.6;0;35;22.4;0;167;
22.6;0;30;22.8;0;35;22.8;0;38;22.8;0;28;22.8;0;35;22.6;0;164;
22.8;0;31;23.0;0;35;23.0;0;35;23.0;0;33;23.0;0;32;22.8;0;167;
23.0;0;31;23.2;0;32;23.2;0;35;23.2;0;31;23.2;0;33;23.0;0;166;
23.2;0;32;23.4;0;33;23.4;0;36;23.4;0;30;23.4;0;31;23.2;0;163;
23.4;0;29;23.6;0;34;23.6;0;36;23.6;0;33;23.6;0;31;23.4;0;159;
23.6;0;33;23.8;0;36;23.8;0;36;23.8;0;31;23.8;0;34;23.6;0;167;
23.8;0;32;24.0;0;34;24.0;0;33;24.0;0;31;24.0;0;31;23.8;0;169;
24.0;0;30;24.2;0;35;24.2;0;35;24.2;0;32;24.2;0;33;24.0;0;159;
24.2;0;34;24.4;0;31;24.4;0;35;24.4;0;33;24.4;0;32;24.2;0;169;
24.4;0;31;24.6;0;35;24.6;0;34;24.6;0;31;24.6;0;33;24.4;0;162;
24.6;0;32;24.8;0;34;24.8;0;37;24.8;0;32;24.8;0;31;24.6;0;165;
24.8;0;31;25.0;0;33;25.0;0;34;25.0;0;32;25.0;0;33;24.8;0;165;
25.0;0;33;25.2;0;36;25.2;0;36;25.2;0;32;25.2;0;32;25.0;0;165;
25.2;0;33;25.4;0;32;25.4;0;33;25.4;0;33;25.4;0;31;25.2;0;169;
25.4;0;32;25.6;0;34;25.6;0;36;25.6;0;30;25.6;0;33;25.4;0;161;
25.6;0;31;25.8;0;31;25.8;0;35;25.8;0;33;25.8;0;32;25.6;0;164;
25.8;0;33;26.0;0;33;26.0;0;35;26.0;0;33;26.0;0;31;25.8;0;164;
26.0;0;32;26.2;0;35;26.2;0;35;26.2;0;32;26.2;0;32;26.0;0;164;
26.2;0;35;26.4;0;32;26.4;0;36;26.4;0;33;26.4;0;34;26.2;0;169;
26.4;0;33;26.6;0;31;26.6;0;33;26.6;0;33;26.6;0;32;26.4;0;168;
26.6;0;35;26.8;0;31;26.8;0;35;26.8;0;31;26.8;0;31;26.6;0;164;
26.8;0;34;27.0;0;35;27.0;0;35;27.0;0;32;27.0;0;33;26.8;0;162;
27.0;0;35;27.2;0;30;27.2;0;34;27.2;0;31;27.2;0;32;27.0;0;170;
27.2;0;37;27.4;0;33;27.4;0;37;27.4;0;33;27.4;0;31;27.2;0;164;
27.4;0;33;27.6;0;29;27.6;0;33;27.6;0;32;27.6;0;29;27.4;0;167;
27.6;0;36;27.8;0;34;27.8;0;35;27.8;0;31;27.8;0;35;27.6;0;159;
27.8;0;32;28.0;0;31;28.0;0;35;28.0;0;31;28.0;0;30;27.8;0;167;
28.0;0;38;28.2;0;31;28.2;0;34;28.2;0;33;28.2;0;31;28.0;0;165;
28.2;0;33;28.4;0;34;28.4;0;37;28.4;0;30;28.4;0;33;28.2;0;162;
28.4;0;35;28.6;0;28;28.6;0;33;28.6;0;33;28.6;0;32;28.4;0;169;
28.6;0;36;28.8;0;34;28.8;0;37;28.8;0;33;28.8;0;33;28.6;0;162;
28.8;0;33;29.0;0;32;29.0;0;34;29.0;0;30;29.0;0;33;28.8;0;170;
29.0;0;35;29.2;0;31;29.2;0;33;29.2;0;33;29.2;0;29;29.0;0;164;
29.2;0;35;29.4;0;33;29.4;0;37;29.4;0;33;29.4;0;32;29.2;0;161;
29.4;0;34;29.6;0;31;29.6;0;33;29.6;0;33;29.6;0;35;29.4;0;169;
29.6;0;33;29.8;0;30;29.8;0;37;29.8;0;32;29.8;0;31;29.6;0;165;
29.8;0;37;30.0;0;33;30.0;0;32;30.0;0;31;30.0;0;34;29.8;0;167;
30.0;0;35;30.2;0;33;30.2;0;35;30.2;0;33;30.2;0;30;30.0;0;165;
30.2;0;34;30.4;0;30;30.4;0;35;30.4;0;32;30.4;0;32;30.2;0;165;
30.4;0;35;30.6;0;31;30.6;0;35;30.6;0;31;30.6;0;33;30.4;0;164;
30.6;0;35;30.8;0;33;30.8;0;34;30.8;0;31;30.8;0;32;30.6;0;165;
30.8;0;35;31.0;0;14;31.0;0;15;31.0;0;14;31.0;0;13;30.8;0;165;
31.0;0;9;31.2;0;14;31.2;0;16;31.2;0;16;31.2;0;16;31.0;0;65;
31.2;0;20;31.4;0;35;31.4;0;35;31.4;0;35;31.4;0;35;31.2;0;82;
31.4;0;38;31.6;0;33;31.6;0;37;31.6;0;33;31.6;0;34;31.4;0;178;
31.6;0;35;31.8;0;35;31.8;0;39;31.8;0;37;31.8;0;31;31.6;0;172;
31.8;0;37;32.0;0;34;32.0;0;40;32.0;0;33;32.0;0;37;31.8;0;179;
32.0;0;39;32.2;0;35;32.2;0;41;32.2;0;34;32.2;0;35;32.0;0;183;
32.2;0;37;32.4;0;33;32.4;0;37;32.4;0;37;32.4;0;35;32.2;0;182;
32.4;0;36;32.6;0;29;32.6;0;37;32.6;0;29;32.6;0;32;32.4;0;178;
32.6;0;33;32.8;0;32;32.8;0;37;32.8;0;35;32.8;0;33;32.6;0;160;
32.8;0;33;33.0;0;31;33.0;0;35;33.0;0;32;33.0;0;33;32.8;0;170;
33.0;0;33;33.2;0;29;33.2;0;38;33.2;0;33;33.2;0;33;33.0;0;164;
33.2;0;34;33.4;0;30;33.4;0;35;33.4;0;29;33.4;0;34;33.2;0;167;
33.4;0;33;33.6;0;31;33.6;0;35;33.6;0;32;33.6;0;33;33.4;0;161;
33.6;0;33;33.8;0;31;33.8;0;37;33.8;0;31;33.8;0;33;33.6;0;164;
33.8;0;35;34.0;0;32;34.0;0;35;34.0;0;31;34.0;0;32;33.8;0;167;
34.0;0;32;34.2;0;29;34.2;0;34;34.2;0;32;34.2;0;35;34.0;0;162;
34.2;0;35;34.4;0;33;34.4;0;33;34.4;0;33;34.4;0;33;34.2;0;165;
34.4;0;33;34.6;0;31;34.6;0;35;34.6;0;29;34.6;0;33;34.4;0;165;
34.6;0;33;34.8;0;31;34.8;0;35;34.8;0;32;34.8;0;34;34.6;0;161;
34.8;0;35;35.0;0;32;35.0;0;32;35.0;0;31;35.0;0;33;34.8;0;167;
35.0;0;34;35.2;0;33;35.2;0;37;35.2;0;33;35.2;0;35;35.0;0;162;
35.2;0;35;35.4;0;30;35.4;0;35;35.4;0;27;35.4;0;31;35.2;0;173;
35.4;0;33;35.6;0;33;35.6;0;33;35.6;0;34;35.6;0;36;35.4;0;156;
35.6;0;36;35.8;0;31;35.8;0;34;35.8;0;31;35.8;0;33;35.6;0;172;
35.8;0;34;36.0;0;32;36.0;0;36;36.0;0;31;36.0;0;33;35.8;0;163;
36.0;0;36;36.2;0;29;36.2;0;34;36.2;0;32;36.2;0;35;36.0;0;168;
36.2;0;33;36.4;0;33;36.4;0;33;36.4;0;30;36.4;0;33;36.2;0;163;
36.4;0;34;36.6;0;31;36.6;0;34;36.6;0;34;36.6;0;34;36.4;0;163;
36.6;0;37;36.8;0;32;36.8;0;35;36.8;0;32;36.8;0;35;36.6;0;170;
36.8;0;31;37.0;0;31;37.0;0;33;37.0;0;31;37.0;0;33;36.8;0;165;
37.0;0;33;37.2;0;31;37.2;0;35;37.2;0;31;37.2;0;34;37.0;0;161;
37.2;0;34;37.4;0;32;37.4;0;35;37.4;0;31;37.4;0;35;37.2;0;165;
37.4;0;33;37.6;0;29;37.6;0;33;37.6;0;32;37.6;0;35;37.4;0;166;
37.6;0;35;37.8;0;33;37.8;0;36;37.8;0;29;37.8;0;33;37.6;0;164;
37.8;0;35;38.0;0;32;38.0;0;33;38.0;0;33;38.0;0;34;37.8;0;166;
38.0;0;33;38.2;0;32;38.2;0;35;38.2;0;28;38.2;0;33;38.0;0;165;
38.2;0;36;38.4;0;32;38.4;0;32;38.4;0;33;38.4;0;35;38.2;0;164;
38.4;0;33;38.6;0;31;38.6;0;35;38.6;0;33;38.6;0;33;38.4;0;165;
38.6;0;33;38.8;0;34;38.8;0;35;38.8;0;30;38.8;0;36;38.6;0;165;
38.8;0;36;39.0;0;29;39.0;0;33;39.0;0;31;39.0;0;33;38.8;0;171;
39.0;0;33;39.2;0;33;39.2;0;34;39.2;0;33;39.2;0;33;39.0;0;159;
39.2;0;35;39.4;0;30;39.4;0;35;39.4;0;31;39.4;0;35;39.2;0;168;
39.4;0;35;39.6;0;31;39.6;0;35;39.6;0;30;39.6;0;34;39.4;0;166;
39.6;0;33;39.8;0;33;39.8;0;33;39.8;0;33;39.8;0;35;39.6;0;163;
39.8;0;36;40.0;0;30;40.0;0;36;40.0;0;31;40.0;0;31;39.8;0;170;
40.0;0;33;40.2;0;33;40.2;0;33;40.2;0;30;40.2;0;35;40.0;0;161;
40.2;0;35;40.4;0;31;40.4;0;33;40.4;0;33;40.4;0;34;40.2;0;166;
40.4;0;33;40.6;0;31;40.6;0;35;40.6;0;27;40.6;0;35;40.4;0;164;
40.6;0;34;40.8;0;32;40.8;0;37;40.8;0;34;40.8;0;33;40.6;0;162;
40.8;0;35;41.0;0;33;41.0;0;34;41.0;0;29;41.0;0;33;40.8;0;171;
41.0;0;35;41.2;0;31;41.2;0;33;41.2;0;31;41.2;0;34;41.0;0;164;
41.2;0;33;41.4;0;8;41.4;0;9;41.4;0;10;41.4;0;7;41.2;0;162;
41.4;0;10;41.6;0;22;41.6;0;20;41.6;0;20;41.6;0;26;41.4;0;44;
41.6;0;22;41.8;0;31;41.8;0;36;41.8;0;33;41.8;0;39;41.6;0;110;
41.8;0;35;42.0;0;35;42.0;0;37;42.0;0;31;42.0;0;41;41.8;0;174;
42.0;0;37;42.2;0;33;42.2;0;41;42.2;0;32;42.2;0;39;42.0;0;181;
42.2;0;37;42.4;0;36;42.4;0;38;42.4;0;35;42.4;0;39;42.2;0;182;
42.4;0;39;42.6;0;35;42.6;0;38;42.6;0;31;42.6;0;39;42.4;0;187;
42.6;0;34;42.8;0;31;42.8;0;35;42.8;0;29;42.8;0;34;42.6;0;177;
42.8;0;31;43.0;0;32;43.0;0;34;43.0;0;30;43.0;0;35;42.8;0;160;
43.0;0;33;43.2;0;33;43.2;0;37;43.2;0;29;43.2;0;37;43.0;0;164;
43.2;0;33;43.4;0;34;43.4;0;33;43.4;0;31;43.4;0;35;43.2;0;169;
43.4;0;33;43.6;0;32;43.6;0;35;43.6;0;29;43.6;0;34;43.4;0;166;
43.6;0;34;43.8;0;32;43.8;0;35;43.8;0;28;43.8;0;32;43.6;0;164;
43.8;0;33;44.0;0;31;44.0;0;37;44.0;0;28;44.0;0;36;43.8;0;160;
44.0;0;32;44.2;0;31;44.2;0;34;44.2;0;29;44.2;0;35;44.0;0;164;
44.2;0;33;44.4;0;32;44.4;0;35;44.4;0;27;44.4;0;33;44.2;0;162;
44.4;0;33;44.6;0;31;44.6;0;35;44.6;0;30;44.6;0;38;44.4;0;160;
44.6;0;37;44.8;0;33;44.8;0;36;44.8;0;29;44.8;0;33;44.6;0;171;
44.8;0;35;45.0;0;31;45.0;0;33;45.0;0;29;45.0;0;35;44.8;0;166;
45.0;0;34;45.2;0;35;45.2;0;33;45.2;0;30;45.2;0;35;45.0;0;162;
45.2;0;35;45.4;0;32;45.4;0;37;45.4;0;29;45.4;0;32;45.2;0;168;
45.4;0;35;45.6;0;31;45.6;0;35;45.6;0;29;45.6;0;37;45.4;0;165;
45.6;0;33;45.8;0;30;45.8;0;34;45.8;0;30;45.8;0;34;45.6;0;165;
45.8;0;36;46.0;0;35;46.0;0;35;46.0;0;29;46.0;0;34;45.8;0;164;
46.0;0;33;46.2;0;31;46.2;0;35;46.2;0;25;46.2;0;36;46.0;0;166;
46.2;0;35;46.4;0;31;46.4;0;35;46.4;0;30;46.4;0;35;46.2;0;162;
46.4;0;35;46.6;0;34;46.6;0;34;46.6;0;31;46.6;0;35;46.4;0;166;
46.6;0;35;46.8;0;30;46.8;0;37;46.8;0;26;46.8;0;35;46.6;0;169;
46.8;0;36;47.0;0;34;47.0;0;34;47.0;0;31;47.0;0;35;46.8;0;164;
47.0;0;33;47.2;0;32;47.2;0;34;47.2;0;29;47.2;0;34;47.0;0;167;
47.2;0;35;47.4;0;31;47.4;0;36;47.4;0;29;47.4;0;33;47.2;0;164;
47.4;0;35;47.6;0;31;47.6;0;33;47.6;0;32;47.6;0;33;47.4;0;164;
47.6;0;33;47.8;0;31;47.8;0;35;47.8;0;29;47.8;0;35;47.6;0;162;
47.8;0;38;48.0;0;32;48.0;0;33;48.0;0;30;48.0;0;34;47.8;0;168;
48.0;0;33;48.2;0;33;48.2;0;37;48.2;0;31;48.2;0;35;48.0;0;162;
48.2;0;35;48.4;0;31;48.4;0;34;48.4;0;31;48.4;0;35;48.2;0;171;
48.4;0;34;48.6;0;33;48.6;0;34;48.6;0;30;48.6;0;33;48.4;0;165;
48.6;0;33;48.8;0;32;48.8;0;34;48.8;0;33;48.8;0;36;48.6;0;163;
48.8;0;35;49.0;0;31;49.0;0;35;49.0;0;31;49.0;0;31;48.8;0;170;
49.0;0;33;49.2;0;31;49.2;0;32;49.2;0;29;49.2;0;35;49.0;0;161;
49.2;0;34;49.4;0;34;49.4;0;35;49.4;0;34;49.4;0;33;49.2;0;161;
49.4;0;35;49.6;0;31;49.6;0;35;49.6;0;31;49.6;0;34;49.4;0;171;
49.6;0;35;49.8;0;31;49.8;0;33;49.8;0;31;49.8;0;33;49.6;0;166;
49.8;0;33;50.0;0;30;50.0;0;36;50.0;0;34;50.0;0;36;49.8;0;161;
50.0;0;36;50.2;0;32;50.2;0;34;50.2;0;29;50.2;0;32;50.0;0;172;
50.2;0;31;50.4;0;32;50.4;0;34;50.4;0;33;50.4;0;36;50.2;0;158;
50.4;0;35;50.6;0;32;50.6;0;33;50.6;0;30;50.6;0;32;50.4;0;170;
50.6;0;33;50.8;0;31;50.8;0;34;50.8;0;31;50.8;0;36;50.6;0;160;
50.8;0;34;51.0;0;31;51.0;0;35;51.0;0;31;51.0;0;35;50.8;0;166;
51.0;0;37;51.2;0;31;51.2;0;33;51.2;0;33;51.2;0;34;51.0;0;169;
51.2;0;31;51.4;0;30;51.4;0;35;51.4;0;30;51.4;0;35;51.2;0;162;
51.4;0;35;51.6;0;25;51.6;0;26;51.6;0;23;51.6;0;23;51.4;0;165;
51.6;0;26;51.8;0;12;51.8;0;11;51.8;0;12;51.8;0;10;51.6;0;123;
51.8;0;11;52.0;0;29;52.0;0;27;52.0;0;31;52.0;0;31;51.8;0;56;
52.0;0;27;52.2;0;36;52.2;0;36;52.2;0;34;52.2;0;36;52.0;0;145;
52.2;0;36;52.4;0;37;52.4;0;33;52.4;0;37;52.4;0;37;52.2;0;178;
52.4;0;35;52.6;0;35;52.6;0;36;52.6;0;37;52.6;0;35;52.4;0;179;
52.6;0;39;52.8;0;37;52.8;0;37;52.8;0;35;52.8;0;37;52.6;0;182;
52.8;0;36;53.0;0;35;53.0;0;35;53.0;0;35;53.0;0;33;52.8;0;182;
53.0;0;33;53.2;0;32;53.2;0;31;53.2;0;34;53.2;0;32;53.0;0;171;
53.2;0;33;53.4;0;35;53.4;0;34;53.4;0;33;53.4;0;37;53.2;0;162;
53.4;0;33;53.6;0;31;53.6;0;34;53.6;0;31;53.6;0;31;53.4;0;172;
53.6;0;32;53.8;0;33;53.8;0;34;53.8;0;33;53.8;0;33;53.6;0;159;
53.8;0;35;54.0;0;32;54.0;0;31;54.0;0;34;54.0;0;32;53.8;0;168;
54.0;0;31;54.2;0;35;54.2;0;34;54.2;0;30;54.2;0;29;54.0;0;160;
54.2;0;35;54.4;0;31;54.4;0;35;54.4;0;34;54.4;0;31;54.2;0;163;
54.4;0;34;54.6;0;34;54.6;0;33;54.6;0;33;54.6;0;34;54.4;0;165;
54.6;0;33;54.8;0;33;54.8;0;35;54.8;0;30;54.8;0;31;54.6;0;167;
54.8;0;35;55.0;0;35;55.0;0;32;55.0;0;33;55.0;0;31;54.8;0;164;
55.0;0;32;55.2;0;35;55.2;0;34;55.2;0;33;55.2;0;34;55.0;0;163;
55.2;0;34;55.4;0;33;55.4;0;34;55.4;0;30;55.4;0;29;55.2;0;170;
55.4;0;34;55.6;0;36;55.6;0;37;55.6;0;31;55.6;0;31;55.4;0;160;
55.6;0;35;55.8;0;31;55.8;0;32;55.8;0;31;55.8;0;31;55.6;0;170;
55.8;0;35;56.0;0;37;56.0;0;35;56.0;0;32;56.0;0;32;55.8;0;160;
56.0;0;34;56.2;0;33;56.2;0;35;56.2;0;33;56.2;0;31;56.0;0;170;
56.2;0;34;56.4;0;34;56.4;0;33;56.4;0;29;56.4;0;31;56.2;0;166;
56.4;0;34;56.6;0;35;56.6;0;33;56.6;0;32;56.6;0;32;56.4;0;161;
56.6;0;35;56.8;0;33;56.8;0;35;56.8;0;31;56.8;0;31;56.6;0;167;
56.8;0;35;57.0;0;33;57.0;0;36;57.0;0;31;57.0;0;31;56.8;0;165;
57.0;0;34;57.2;0;32;57.2;0;33;57.2;0;31;57.2;0;30;57.0;0;165;
57.2;0;33;57.4;0;35;57.4;0;35;57.4;0;32;57.4;0;33;57.2;0;159;
57.4;0;35;57.6;0;33;57.6;0;36;57.6;0;31;57.6;0;31;57.4;0;170;
57.6;0;36;57.8;0;33;57.8;0;33;57.8;0;31;57.8;0;30;57.6;0;167;
57.8;0;33;58.0;0;34;58.0;0;35;58.0;0;32;58.0;0;35;57.8;0;160;
58.0;0;35;58.2;0;35;58.2;0;31;58.2;0;29;58.2;0;30;58.0;0;171;
58.2;0;33;58.4;0;33;58.4;0;36;58.4;0;33;58.4;0;32;58.2;0;158;
58.4;0;35;58.6;0;33;58.6;0;33;58.6;0;30;58.6;0;32;58.4;0;169;
58.6;0;34;58.8;0;36;58.8;0;33;58.8;0;33;58.8;0;31;58.6;0;162;
58.8;0;35;59.0;0;33;59.0;0;35;59.0;0;31;59.0;0;33;58.8;0;168;
59.0;0;35;59.2;0;35;59.2;0;34;59.2;0;31;59.2;0;32;59.0;0;167;
59.2;0;33;59.4;0;33;59.4;0;33;59.4;0;31;59.4;0;31;59.2;0;165;
59.4;0;35;59.6;0;36;59.6;0;33;59.6;0;32;59.6;0;31;59.4;0;163;
59.6;0;32;59.8;0;35;59.8;0;35;59.8;0;31;59.8;0;33;59.6;0;164;
59.8;0;35;60.0;0;31;60.0;0;32;60.0;0;30;60.0;0;31;59.8;0;169;
60.0;0;32;60.2;0;37;60.2;0;37;60.2;0;33;60.2;0;34;60.0;0;156;
60.2;0;37;60.4;0;34;60.4;0;33;60.4;0;31;60.4;0;31;60.2;0;178;
60.4;0;33;60.6;0;33;60.6;0;33;60.6;0;30;60.6;0;30;60.4;0;162;
60.6;0;35;60.8;0;35;60.8;0;36;60.8;0;33;60.8;0;31;60.6;0;161;
60.8;0;35;61.0;0;33;61.0;0;33;61.0;0;31;61.0;0;31;60.8;0;170;
61.0;0;32;61.2;0;35;61.2;0;35;61.2;0;31;61.2;0;32;61.0;0;160;
61.2;0;35;61.4;0;32;61.4;0;35;61.4;0;32;61.4;0;33;61.2;0;168;
61.4;0;33;61.6;0;36;61.6;0;35;61.6;0;31;61.6;0;32;61.4;0;165;
61.6;0;35;61.8;0;34;61.8;0;36;61.8;0;31;61.8;0;30;61.6;0;169;
61.8;0;36;62.0;0;16;62.0;0;15;62.0;0;12;62.0;0;12;61.8;0;167;
62.0;0;13;62.2;0;16;62.2;0;14;62.2;0;16;62.2;0;16;62.0;0;68;
62.2;0;15;62.4;0;33;62.4;0;33;62.4;0;35;62.4;0;35;62.2;0;77;
62.4;0;36;62.6;0;35;62.6;0;36;62.6;0;31;62.6;0;33;62.4;0;172;
62.6;0;37;62.8;0;39;62.8;0;37;62.8;0;32;62.8;0;36;62.6;0;172;
62.8;0;38;63.0;0;37;63.0;0;35;63.0;0;33;63.0;0;37;62.8;0;182;
63.0;0;35;63.2;0;36;63.2;0;33;63.2;0;33;63.2;0;37;63.0;0;177;
63.2;0;37;63.4;0;38;63.4;0;39;63.4;0;33;63.4;0;36;63.2;0;176;
63.4;0;37;63.6;0;36;63.6;0;32;63.6;0;32;63.6;0;36;63.4;0;183;
63.6;0;31;63.8;0;33;63.8;0;31;63.8;0;29;63.8;0;34;63.6;0;167;
63.8;0;35;64.0;0;33;64.0;0;33;64.0;0;31;64.0;0;33;63.8;0;162;
64.0;0;36;64.2;0;36;64.2;0;31;64.2;0;30;64.2;0;33;64.0;0;166;
64.2;0;33;64.4;0;33;64.4;0;34;64.4;0;29;64.4;0;33;64.2;0;163;
64.4;0;33;64.6;0;35;64.6;0;31;64.6;0;33;64.6;0;36;64.4;0;162;
64.6;0;32;64.8;0;33;64.8;0;31;64.8;0;29;64.8;0;33;64.6;0;167;
64.8;0;32;65.0;0;37;65.0;0;34;65.0;0;32;65.0;0;35;64.8;0;158;
65.0;0;34;65.2;0;34;65.2;0;31;65.2;0;31;65.2;0;33;65.0;0;172;
65.2;0;31;65.4;0;35;65.4;0;33;65.4;0;32;65.4;0;35;65.2;0;160;
65.4;0;32;65.6;0;35;65.6;0;33;65.6;0;31;65.6;0;36;65.4;0;167;
65.6;0;33;65.8;0;34;65.8;0;31;65.8;0;31;65.8;0;35;65.6;0;168;
65.8;0;33;66.0;0;33;66.0;0;34;66.0;0;30;66.0;0;35;65.8;0;164;
66.0;0;33;66.2;0;35;66.2;0;33;66.2;0;33;66.2;0;33;66.0;0;165;
66.2;0;32;66.4;0;35;66.4;0;32;66.4;0;31;66.4;0;36;66.2;0;166;
66.4;0;33;66.6;0;35;66.6;0;31;66.6;0;33;66.6;0;31;66.4;0;167;
66.6;0;31;66.8;0;34;66.8;0;33;66.8;0;32;66.8;0;37;66.6;0;161;
66.8;0;34;67.0;0;35;67.0;0;29;67.0;0;31;67.0;0;35;66.8;0;170;
67.0;0;31;67.2;0;33;67.2;0;34;67.2;0;31;67.2;0;34;67.0;0;161;
67.2;0;33;67.4;0;35;67.4;0;33;67.4;0;32;67.4;0;35;67.2;0;165;
67.4;0;32;67.6;0;34;67.6;0;31;67.6;0;31;67.6;0;33;67.4;0;167;
67.6;0;31;67.8;0;37;67.8;0;32;67.8;0;31;67.8;0;35;67.6;0;160;
67.8;0;33;68.0;0;33;68.0;0;33;68.0;0;32;68.0;0;34;67.8;0;168;
68.0;0;31;68.2;0;37;68.2;0;31;68.2;0;34;68.2;0;35;68.0;0;163;
68.2;0;32;68.4;0;36;68.4;0;33;68.4;0;32;68.4;0;35;68.2;0;169;
68.4;0;33;68.6;0;31;68.6;0;32;68.6;0;31;68.6;0;33;68.4;0;169;
68.6;0;33;68.8;0;37;68.8;0;31;68.8;0;32;68.8;0;35;68.6;0;160;
68.8;0;30;69.0;0;33;69.0;0;31;69.0;0;31;69.0;0;34;68.8;0;165;
69.0;0;33;69.2;0;37;69.2;0;34;69.2;0;33;69.2;0;33;69.0;0;162;
69.2;0;33;69.4;0;32;69.4;0;31;69.4;0;30;69.4;0;35;69.2;0;170;
69.4;0;31;69.6;0;36;69.6;0;33;69.6;0;33;69.6;0;37;69.4;0;159;
69.6;0;34;69.8;0;34;69.8;0;30;69.8;0;31;69.8;0;35;69.6;0;173;
69.8;0;31;70.0;0;35;70.0;0;33;70.0;0;31;70.0;0;34;69.8;0;161;
70.0;0;33;70.2;0;34;70.2;0;31;70.2;0;34;70.2;0;35;70.0;0;166;
70.2;0;32;70.4;0;35;70.4;0;31;70.4;0;29;70.4;0;35;70.2;0;166;
70.4;0;31;70.6;0;37;70.6;0;34;70.6;0;33;70.6;0;35;70.4;0;161;
70.6;0;33;70.8;0;33;70.8;0;31;70.8;0;32;70.8;0;34;70.6;0;172;
70.8;0;31;71.0;0;36;71.0;0;33;71.0;0;31;71.0;0;37;70.8;0;161;
71.0;0;32;71.2;0;31;71.2;0;32;71.2;0;33;71.2;0;33;71.0;0;169;
71.2;0;31;71.4;0;37;71.4;0;31;71.4;0;30;71.4;0;37;71.2;0;160;
71.4;0;33;71.6;0;35;71.6;0;33;71.6;0;32;71.6;0;36;71.4;0;168;
71.6;0;30;71.8;0;35;71.8;0;33;71.8;0;32;71.8;0;33;71.6;0;166;
71.8;0;33;72.0;0;36;72.0;0;30;72.0;0;31;72.0;0;35;71.8;0;166;
72.0;0;31;72.2;0;31;72.2;0;33;72.2;0;30;72.2;0;35;72.0;0;163;
72.2;0;32;72.4;0;11;72.4;0;8;72.4;0;17;72.4;0;15;72.2;0;161;
72.4;0;11;72.6;0;20;72.6;0;23;72.6;0;16;72.6;0;18;72.4;0;62;
72.6;0;20;72.8;0;37;72.8;0;32;72.8;0;35;72.8;0;36;72.6;0;97;
72.8;0;35;73.0;0;40;73.0;0;35;73.0;0;37;73.0;0;37;72.8;0;175;
73.0;0;35;73.2;0;39;73.2;0;33;73.2;0;38;73.2;0;39;73.0;0;184;
73.2;0;35;73.4;0;37;73.4;0;35;73.4;0;37;73.4;0;35;73.2;0;184;
73.4;0;36;73.6;0;39;73.6;0;32;73.6;0;35;73.6;0;37;73.4;0;180;
73.6;0;37;73.8;0;35;73.8;0;29;73.8;0;33;73.8;0;34;73.6;0;180;
73.8;0;33;74.0;0;37;74.0;0;31;74.0;0;33;74.0;0;33;73.8;0;164;
74.0;0;33;74.2;0;36;74.2;0;32;74.2;0;34;74.2;0;31;74.0;0;167;
74.2;0;36;74.4;0;33;74.4;0;29;74.4;0;33;74.4;0;34;74.2;0;169;
74.4;0;29;74.6;0;37;74.6;0;31;74.6;0;33;74.6;0;33;74.4;0;158;
74.6;0;35;74.8;0;36;74.8;0;31;74.8;0;32;74.8;0;33;74.6;0;169;
74.8;0;33;75.0;0;32;75.0;0;30;75.0;0;34;75.0;0;32;74.8;0;165;
75.0;0;32;75.2;0;36;75.2;0;29;75.2;0;32;75.2;0;34;75.0;0;160;
75.2;0;35;75.4;0;36;75.4;0;33;75.4;0;35;75.4;0;30;75.2;0;166;
75.4;0;33;75.6;0;32;75.6;0;30;75.6;0;32;75.6;0;33;75.4;0;167;
75.6;0;35;75.8;0;37;75.8;0;31;75.8;0;33;75.8;0;30;75.6;0;162;
75.8;0;34;76.0;0;34;76.0;0;31;76.0;0;35;76.0;0;33;75.8;0;165;
76.0;0;33;76.2;0;35;76.2;0;33;76.2;0;33;76.2;0;31;76.0;0;166;
76.2;0;35;76.4;0;31;76.4;0;30;76.4;0;34;76.4;0;31;76.2;0;167;
76.4;0;33;76.6;0;35;76.6;0;33;76.6;0;33;76.6;0;34;76.4;0;159;
76.6;0;32;76.8;0;36;76.8;0;30;76.8;0;33;76.8;0;29;76.6;0;167;
76.8;0;35;77.0;0;33;77.0;0;31;77.0;0;35;77.0;0;31;76.8;0;163;
77.0;0;37;77.2;0;35;77.2;0;33;77.2;0;34;77.2;0;32;77.0;0;167;
77.2;0;33;77.4;0;33;77.4;0;30;77.4;0;35;77.4;0;31;77.2;0;167;
77.4;0;36;77.6;0;35;77.6;0;33;77.6;0;33;77.6;0;31;77.4;0;165;
77.6;0;33;77.8;0;34;77.8;0;30;77.8;0;35;77.8;0;32;77.6;0;165;
77.8;0;33;78.0;0;35;78.0;0;32;78.0;0;34;78.0;0;32;77.8;0;164;
78.0;0;35;78.2;0;33;78.2;0;32;78.2;0;33;78.2;0;32;78.0;0;168;
78.2;0;35;78.4;0;34;78.4;0;31;78.4;0;35;78.4;0;31;78.2;0;165;
78.4;0;34;78.6;0;33;78.6;0;31;78.6;0;35;78.6;0;30;78.4;0;165;
78.6;0;33;78.8;0;35;78.8;0;32;78.8;0;31;78.8;0;33;78.6;0;162;
78.8;0;35;79.0;0;33;79.0;0;31;79.0;0;36;79.0;0;33;78.8;0;166;
79.0;0;34;79.2;0;35;79.2;0;31;79.2;0;35;79.2;0;30;79.0;0;167;
79.2;0;31;79.4;0;36;79.4;0;32;79.4;0;33;79.4;0;33;79.2;0;162;
79.4;0;37;79.6;0;33;79.6;0;30;79.6;0;34;79.6;0;32;79.4;0;171;
79.6;0;33;79.8;0;33;79.8;0;32;79.8;0;33;79.8;0;30;79.6;0;162;
79.8;0;34;80.0;0;35;80.0;0;33;80.0;0;33;80.0;0;32;79.8;0;162;
80.0;0;35;80.2;0;32;80.2;0;30;80.2;0;34;80.2;0;33;80.0;0;168;
80.2;0;33;80.4;0;35;80.4;0;33;80.4;0;36;80.4;0;31;80.2;0;162;
80.4;0;35;80.6;0;33;80.6;0;31;80.6;0;34;80.6;0;30;80.4;0;170;
80.6;0;34;80.8;0;37;80.8;0;30;80.8;0;33;80.8;0;31;80.6;0;162;
80.8;0;33;81.0;0;34;81.0;0;31;81.0;0;35;81.0;0;33;80.8;0;164;
81.0;0;35;81.2;0;33;81.2;0;32;81.2;0;32;81.2;0;32;81.0;0;168;
81.2;0;33;81.4;0;35;81.4;0;31;81.4;0;33;81.4;0;32;81.2;0;162;
81.4;0;37;81.6;0;33;81.6;0;31;81.6;0;33;81.6;0;32;81.4;0;168;
81.6;0;34;81.8;0;34;81.8;0;31;81.8;0;35;81.8;0;33;81.6;0;163;
81.8;0;33;82.0;0;33;82.0;0;30;82.0;0;32;82.0;0;30;81.8;0;166;
82.0;0;35;82.2;0;37;82.2;0;31;82.2;0;35;82.2;0;33;82.0;0;160;
82.2;0;33;82.4;0;33;82.4;0;33;82.4;0;33;82.4;0;31;82.2;0;169;
82.4;0;35;82.6;0;36;82.6;0;24;82.6;0;33;82.6;0;32;82.4;0;165;
82.6;0;28;82.8;0;10;82.8;0;11;82.8;0;8;82.8;0;13;82.6;0;153;
82.8;0;10;83.0;0;22;83.0;0;26;83.0;0;24;83.0;0;20;82.8;0;52;
83.0;0;27;83.2;0;38;83.2;0;37;83.2;0;37;83.2;0;37;83.0;0;119;
83.2;0;37;83.4;0;35;83.4;0;35;83.4;0;31;83.4;0;33;83.2;0;186;
83.4;0;36;83.6;0;37;83.6;0;37;83.6;0;37;83.6;0;34;83.4;0;170;
83.6;0;39;83.8;0;36;83.8;0;36;83.8;0;34;83.8;0;35;83.6;0;184;
83.8;0;41;84.0;0;36;84.0;0;37;84.0;0;33;84.0;0;35;83.8;0;182;
84.0;0;37;84.2;0;34;84.2;0;31;84.2;0;31;84.2;0;33;84.0;0;178;
84.2;0;35;84.4;0;33;84.4;0;35;84.4;0;29;84.4;0;34;84.2;0;164;
84.4;0;35;84.6;0;34;84.6;0;33;84.6;0;32;84.6;0;33;84.4;0;166;
84.6;0;37;84.8;0;33;84.8;0;30;84.8;0;30;84.8;0;32;84.6;0;169;
84.8;0;36;85.0;0;31;85.0;0;33;85.0;0;32;85.0;0;34;84.8;0;161;
85.0;0;35;85.2;0;33;85.2;0;35;85.2;0;30;85.2;0;32;85.0;0;165;
85.2;0;35;85.4;0;32;85.4;0;31;85.4;0;31;85.4;0;29;85.2;0;165;
85.4;0;37;85.6;0;31;85.6;0;32;85.6;0;31;85.6;0;33;85.4;0;160;
85.6;0;37;85.8;0;31;85.8;0;35;85.8;0;30;85.8;0;33;85.6;0;164;
85.8;0;36;86.0;0;32;86.0;0;31;86.0;0;33;86.0;0;32;85.8;0;165;
86.0;0;35;86.2;0;33;86.2;0;34;86.2;0;29;86.2;0;33;86.0;0;163;
86.2;0;35;86.4;0;33;86.4;0;30;86.4;0;32;86.4;0;33;86.2;0;164;
86.4;0;35;86.6;0;33;86.6;0;34;86.6;0;31;86.6;0;33;86.4;0;163;
86.6;0;34;86.8;0;32;86.8;0;34;86.8;0;33;86.8;0;34;86.6;0;165;
86.8;0;37;87.0;0;31;87.0;0;31;87.0;0;33;87.0;0;31;86.8;0;170;
87.0;0;35;87.2;0;35;87.2;0;35;87.2;0;30;87.2;0;33;87.0;0;161;
87.2;0;35;87.4;0;31;87.4;0;31;87.4;0;33;87.4;0;32;87.2;0;168;
87.4;0;38;87.6;0;34;87.6;0;32;87.6;0;31;87.6;0;31;87.4;0;165;
87.6;0;34;87.8;0;33;87.8;0;33;87.8;0;32;87.8;0;33;87.6;0;162;
87.8;0;36;88.0;0;33;88.0;0;33;88.0;0;33;88.0;0;32;87.8;0;167;
88.0;0;35;88.2;0;32;88.2;0;31;88.2;0;33;88.2;0;33;88.0;0;166;
88.2;0;37;88.4;0;31;88.4;0;34;88.4;0;33;88.4;0;31;88.2;0;166;
88.4;0;36;88.6;0;33;88.6;0;33;88.6;0;34;88.6;0;33;88.4;0;165;
88.6;0;34;88.8;0;32;88.8;0;29;88.8;0;31;88.8;0;32;88.6;0;167;
88.8;0;36;89.0;0;34;89.0;0;34;89.0;0;31;89.0;0;31;88.8;0;160;
89.0;0;33;89.2;0;32;89.2;0;31;89.2;0;34;89.2;0;35;89.0;0;163;
89.2;0;37;89.4;0;33;89.4;0;33;89.4;0;31;89.4;0;30;89.2;0;169;
89.4;0;34;89.6;0;34;89.6;0;35;89.6;0;33;89.6;0;35;89.4;0;161;
89.6;0;36;89.8;0;31;89.8;0;32;89.8;0;33;89.8;0;34;89.6;0;173;
89.8;0;36;90.0;0;33;90.0;0;31;90.0;0;31;90.0;0;32;89.8;0;166;
90.0;0;33;90.2;0;31;90.2;0;31;90.2;0;34;90.2;0;34;90.0;0;160;
90.2;0;36;90.4;0;34;90.4;0;34;90.4;0;33;90.4;0;29;90.2;0;166;
90.4;0;35;90.6;0;32;90.6;0;33;90.6;0;31;90.6;0;35;90.4;0;165;
90.6;0;37;90.8;0;34;90.8;0;33;90.8;0;34;90.8;0;31;90.6;0;168;
90.8;0;33;91.0;0;33;91.0;0;29;91.0;0;31;91.0;0;32;90.8;0;165;
91.0;0;37;91.2;0;32;91.2;0;34;91.2;0;33;91.2;0;31;91.0;0;162;
91.2;0;32;91.4;0;33;91.4;0;34;91.4;0;32;91.4;0;33;91.2;0;162;
91.4;0;39;91.6;0;31;91.6;0;32;91.6;0;36;91.6;0;32;91.4;0;171;
91.6;0;33;91.8;0;32;91.8;0;33;91.8;0;34;91.8;0;33;91.6;0;164;
91.8;0;35;92.0;0;33;92.0;0;30;92.0;0;35;92.0;0;34;91.8;0;167;
92.0;0;36;92.2;0;31;92.2;0;33;92.2;0;32;92.2;0;30;92.0;0;168;
92.2;0;33;92.4;0;33;92.4;0;33;92.4;0;35;92.4;0;34;92.2;0;159;
92.4;0;37;92.6;0;30;92.6;0;30;92.6;0;35;92.6;0;31;92.4;0;172;
92.6;0;33;92.8;0;33;92.8;0;33;92.8;0;33;92.8;0;33;92.6;0;159;
92.8;0;35;93.0;0;22;93.0;0;18;93.0;0;22;93.0;0;24;92.8;0;167;
93.0;0;20;93.2;0;11;93.2;0;14;93.2;0;12;93.2;0;12;93.0;0;106;
93.2;0;14;93.4;0;32;93.4;0;30;93.4;0;32;93.4;0;28;93.2;0;63;
93.4;0;35;93.6;0;33;93.6;0;34;93.6;0;38;93.6;0;36;93.4;0;157;
93.6;0;35;93.8;0;39;93.8;0;37;93.8;0;39;93.8;0;31;93.6;0;176;
93.8;0;37;94.0;0;33;94.0;0;39;94.0;0;33;94.0;0;36;93.8;0;183;
94.0;0;39;94.2;0;36;94.2;0;33;94.2;0;36;94.2;0;35;94.0;0;180;
94.2;0;38;94.4;0;35;94.4;0;34;94.4;0;35;94.4;0;35;94.2;0;178;
94.4;0;33;94.6;0;35;94.6;0;35;94.6;0;33;94.6;0;33;94.4;0;172;
94.6;0;35;94.8;0;31;94.8;0;33;94.8;0;33;94.8;0;34;94.6;0;171;
94.8;0;33;95.0;0;34;95.0;0;31;95.0;0;32;95.0;0;34;94.8;0;164;
95.0;0;33;95.2;0;33;95.2;0;34;95.2;0;35;95.2;0;34;95.0;0;164;
95.2;0;34;95.4;0;31;95.4;0;33;95.4;0;31;95.4;0;33;95.2;0;170;
95.4;0;33;95.6;0;33;95.6;0;33;95.6;0;31;95.6;0;32;95.4;0;161;
95.6;0;33;95.8;0;30;95.8;0;32;95.8;0;34;95.8;0;35;95.6;0;162;
95.8;0;34;96.0;0;31;96.0;0;33;96.0;0;31;96.0;0;33;95.8;0;165;
96.0;0;34;96.2;0;33;96.2;0;33;96.2;0;31;96.2;0;35;96.0;0;162;
96.2;0;36;96.4;0;30;96.4;0;33;96.4;0;32;96.4;0;34;96.2;0;168;
96.4;0;33;96.6;0;31;96.6;0;35;96.6;0;31;96.6;0;34;96.4;0;162;
96.6;0;34;96.8;0;33;96.8;0;36;96.8;0;31;96.8;0;36;96.6;0;165;
96.8;0;35;97.0;0;31;97.0;0;33;97.0;0;32;97.0;0;31;96.8;0;171;
97.0;0;33;97.2;0;32;97.2;0;35;97.2;0;31;97.2;0;35;97.0;0;160;
97.2;0;33;97.4;0;34;97.4;0;35;97.4;0;31;97.4;0;34;97.2;0;166;
97.4;0;36;97.6;0;28;97.6;0;32;97.6;0;31;97.6;0;35;97.4;0;170;
97.6;0;33;97.8;0;34;97.8;0;33;97.8;0;32;97.8;0;33;97.6;0;159;
97.8;0;33;98.0;0;29;98.0;0;35;98.0;0;33;98.0;0;33;97.8;0;165;
98.0;0;37;98.2;0;33;98.2;0;33;98.2;0;31;98.2;0;35;98.0;0;167;
98.2;0;33;98.4;0;32;98.4;0;34;98.4;0;31;98.4;0;32;98.2;0;165;
98.4;0;36;98.6;0;29;98.6;0;35;98.6;0;32;98.6;0;35;98.4;0;165;
98.6;0;33;98.8;0;33;98.8;0;31;98.8;0;33;98.8;0;32;98.6;0;164;
98.8;0;35;99.0;0;31;99.0;0;34;99.0;0;29;99.0;0;37;98.8;0;164;
99.0;0;33;99.2;0;32;99.2;0;33;99.2;0;32;99.2;0;33;99.0;0;164;
99.2;0;35;99.4;0;31;99.4;0;35;99.4;0;33;99.4;0;35;99.2;0;165;
99.4;0;36;99.6;0;33;99.6;0;31;99.6;0;29;99.6;0;35;99.4;0;170;
99.6;0;33;99.8;0;30;99.8;0;31;99.8;0;34;99.8;0;32;99.6;0;161;
99.8;0;35;100.0;0;33;100.0;0;34;100.0;0;31;100.0;0;37;99.8;0;162;
100.0;0;34;100.2;0;33;100.2;0;33;100.2;0;31;100.2;0;33;100.0;0;169;
100.2;0;34;100.4;0;32;100.4;0;31;100.4;0;32;100.4;0;35;100.2;0;164;
100.4;0;36;100.6;0;33;100.6;0;30;100.6;0;33;100.6;0;34;100.4;0;166;
100.6;0;35;100.8;0;31;100.8;0;33;100.8;0;31;100.8;0;33;100.6;0;165;
100.8;0;34;101.0;0;31;101.0;0;33;101.0;0;33;101.0;0;37;100.8;0;162;
101.0;0;35;101.2;0;32;101.2;0;32;101.2;0;30;101.2;0;33;101.0;0;169;
101.2;0;37;101.4;0;31;101.4;0;32;101.4;0;31;101.4;0;37;101.2;0;164;
101.4;0;33;101.6;0;33;101.6;0;32;101.6;0;33;101.6;0;34;101.4;0;164;
101.6;0;35;101.8;0;32;101.8;0;33;101.8;0;30;101.8;0;35;101.6;0;167;
101.8;0;34;102.0;0;31;102.0;0;30;102.0;0;33;102.0;0;35;101.8;0;164;
102.0;0;37;102.2;0;33;102.2;0;33;102.2;0;31;102.2;0;35;102.0;0;166;
102.2;0;34;102.4;0;29;102.4;0;33;102.4;0;32;102.4;0;32;102.2;0;166;
102.4;0;36;102.6;0;33;102.6;0;30;102.6;0;33;102.6;0;37;102.4;0;162;
102.6;0;36;102.8;0;34;102.8;0;33;102.8;0;31;102.8;0;36;102.6;0;169;
102.8;0;33;103.0;0;31;103.0;0;33;103.0;0;31;103.0;0;34;102.8;0;167;
103.0;0;33;103.2;0;30;103.2;0;30;103.2;0;34;103.2;0;36;103.0;0;162;
103.2;0;35;103.4;0;15;103.4;0;11;103.4;0;12;103.4;0;16;103.2;0;165;
103.4;0;11;103.6;0;16;103.6;0;18;103.6;0;16;103.6;0;14;103.4;0;65;
103.6;0;20;103.8;0;37;103.8;0;35;103.8;0;32;103.8;0;40;103.6;0;84;
103.8;0;38;104.0;0;33;104.0;0;33;104.0;0;36;104.0;0;37;103.8;0;182;
104.0;0;37;104.2;0;36;104.2;0;36;104.2;0;33;104.2;0;39;104.0;0;176;
104.2;0;39;104.4;0;33;104.4;0;39;104.4;0;33;104.4;0;37;104.2;0;183;
104.4;0;37;104.6;0;37;104.6;0;33;104.6;0;35;104.6;0;37;104.4;0;179;
104.6;0;37;104.8;0;33;104.8;0;35;104.8;0;30;104.8;0;36;104.6;0;179;
104.8;0;36;105.0;0;34;105.0;0;33;105.0;0;31;105.0;0;33;104.8;0;170;
105.0;0;33;105.2;0;33;105.2;0;36;105.2;0;33;105.2;0;33;105.0;0;164;
105.2;0;33;105.4;0;33;105.4;0;31;105.4;0;29;105.4;0;36;105.2;0;168;
105.4;0;35;105.6;0;33;105.6;0;35;105.6;0;32;105.6;0;33;105.4;0;164;
105.6;0;33;105.8;0;32;105.8;0;33;105.8;0;31;105.8;0;31;105.6;0;166;
105.8;0;34;106.0;0;34;106.0;0;32;106.0;0;31;106.0;0;31;105.8;0;161;
106.0;0;35;106.2;0;32;106.2;0;37;106.2;0;32;106.2;0;35;106.0;0;163;
106.2;0;33;106.4;0;35;106.4;0;33;106.4;0;29;106.4;0;32;106.2;0;169;
106.4;0;34;106.6;0;34;106.6;0;35;106.6;0;33;106.6;0;31;106.4;0;163;
106.6;0;34;106.8;0;33;106.8;0;34;106.8;0;32;106.8;0;32;106.6;0;167;
106.8;0;34;107.0;0;35;107.0;0;33;107.0;0;31;107.0;0;31;106.8;0;165;
107.0;0;33;107.2;0;33;107.2;0;33;107.2;0;31;107.2;0;33;107.0;0;163;
107.2;0;34;107.4;0;36;107.4;0;35;107.4;0;32;107.4;0;31;107.2;0;164;
107.4;0;33;107.6;0;34;107.6;0;34;107.6;0;31;107.6;0;32;107.4;0;167;
107.6;0;33;107.8;0;36;107.8;0;33;107.8;0;29;107.8;0;31;107.6;0;164;
107.8;0;35;108.0;0;33;108.0;0;35;108.0;0;32;108.0;0;31;107.8;0;164;
108.0;0;34;108.2;0;34;108.2;0;33;108.2;0;31;108.2;0;34;108.0;0;165;
108.2;0;35;108.4;0;37;108.4;0;34;108.4;0;31;108.4;0;29;108.2;0;167;
108.4;0;33;108.6;0;33;108.6;0;35;108.6;0;31;108.6;0;31;108.4;0;164;
108.6;0;35;108.8;0;33;108.8;0;33;108.8;0;31;108.8;0;32;108.6;0;165;
108.8;0;34;109.0;0;35;109.0;0;35;109.0;0;30;109.0;0;31;108.8;0;163;
109.0;0;37;109.2;0;34;109.2;0;34;109.2;0;31;109.2;0;29;109.0;0;168;
109.2;0;31;109.4;0;35;109.4;0;37;109.4;0;28;109.4;0;33;109.2;0;159;
109.4;0;37;109.6;0;35;109.6;0;34;109.6;0;29;109.6;0;32;109.4;0;170;
109.6;0;33;109.8;0;35;109.8;0;36;109.8;0;31;109.8;0;31;109.6;0;163;
109.8;0;37;110.0;0;34;110.0;0;35;110.0;0;28;110.0;0;33;109.8;0;170;
110.0;0;34;110.2;0;33;110.2;0;32;110.2;0;29;110.2;0;32;110.0;0;164;
110.2;0;33;110.4;0;37;110.4;0;35;110.4;0;32;110.4;0;33;110.2;0;159;
110.4;0;35;110.6;0;35;110.6;0;35;110.6;0;28;110.6;0;31;110.4;0;172;
110.6;0;34;110.8;0;33;110.8;0;35;110.8;0;30;110.8;0;32;110.6;0;163;
110.8;0;34;111.0;0;36;111.0;0;34;111.0;0;30;111.0;0;31;110.8;0;164;
111.0;0;36;111.2;0;35;111.2;0;33;111.2;0;27;111.2;0;33;111.0;0;167;
111.2;0;35;111.4;0;35;111.4;0;33;111.4;0;27;111.4;0;31;111.2;0;163;
111.4;0;36;111.6;0;37;111.6;0;35;111.6;0;32;111.6;0;32;111.4;0;162;
111.6;0;35;111.8;0;32;111.8;0;34;111.8;0;27;111.8;0;31;111.6;0;171;
111.8;0;36;112.0;0;39;112.0;0;35;112.0;0;29;112.0;0;33;111.8;0;160;
112.0;0;34;112.2;0;33;112.2;0;35;112.2;0;30;112.2;0;32;112.0;0;170;
112.2;0;35;112.4;0;33;112.4;0;33;112.4;0;31;112.4;0;33;112.2;0;165;
112.4;0;34;112.6;0;36;112.6;0;36;112.6;0;27;112.6;0;31;112.4;0;164;
112.6;0;37;112.8;0;35;112.8;0;32;112.8;0;28;112.8;0;31;112.6;0;167;
112.8;0;33;113.0;0;35;113.0;0;36;113.0;0;31;113.0;0;32;112.8;0;159;
113.0;0;37;113.2;0;33;113.2;0;35;113.2;0;26;113.2;0;35;113.0;0;171;
113.2;0;35;113.4;0;37;113.4;0;35;113.4;0;29;113.4;0;29;113.2;0;164;
113.4;0;34;113.6;0;32;113.6;0;32;113.6;0;29;113.6;0;32;113.4;0;164;
113.6;0;33;113.8;0;8;113.8;0;8;113.8;0;7;113.8;0;7;113.6;0;158;
113.8;0;8;114.0;0;28;114.0;0;28;114.0;0;22;114.0;0;22;113.8;0;38;
114.0;0;23;114.2;0;40;114.2;0;36;114.2;0;30;114.2;0;33;114.0;0;123;
114.2;0;39;114.4;0;43;114.4;0;37;114.4;0;31;114.4;0;32;114.2;0;178;
114.4;0;36;114.6;0;43;114.6;0;38;114.6;0;30;114.6;0;35;114.4;0;179;
114.6;0;37;114.8;0;43;114.8;0;37;114.8;0;29;114.8;0;33;114.6;0;183;
114.8;0;41;115.0;0;39;115.0;0;35;115.0;0;29;115.0;0;31;114.8;0;183;
115.0;0;35;115.2;0;41;115.2;0;35;115.2;0;28;115.2;0;32;115.0;0;169;
115.2;0;33;115.4;0;41;115.4;0;33;115.4;0;27;115.4;0;31;115.2;0;169;
115.4;0;32;115.6;0;40;115.6;0;32;115.6;0;29;115.6;0;31;115.4;0;164;
115.6;0;33;115.8;0;37;115.8;0;35;115.8;0;28;115.8;0;30;115.6;0;165;
115.8;0;35;116.0;0;39;116.0;0;35;116.0;0;27;116.0;0;31;115.8;0;165;
116.0;0;33;116.2;0;38;116.2;0;31;116.2;0;28;116.2;0;31;116.0;0;165;
116.2;0;35;116.4;0;38;116.4;0;32;116.4;0;29;116.4;0;31;116.2;0;163;
116.4;0;34;116.6;0;37;116.6;0;35;116.6;0;29;116.6;0;30;116.4;0;164;
116.6;0;35;116.8;0;36;116.8;0;35;116.8;0;26;116.8;0;31;116.6;0;166;
116.8;0;33;117.0;0;39;117.0;0;33;117.0;0;31;117.0;0;33;116.8;0;161;
117.0;0;36;117.2;0;37;117.2;0;34;117.2;0;25;117.2;0;32;117.0;0;172;
117.2;0;32;117.4;0;37;117.4;0;33;117.4;0;30;117.4;0;33;117.2;0;160;
117.4;0;36;117.6;0;37;117.6;0;33;117.6;0;29;117.6;0;29;117.4;0;169;
117.6;0;35;117.8;0;37;117.8;0;33;117.8;0;26;117.8;0;32;117.6;0;163;
117.8;0;32;118.0;0;38;118.0;0;36;118.0;0;31;118.0;0;33;117.8;0;160;
118.0;0;37;118.2;0;35;118.2;0;33;118.2;0;27;118.2;0;32;118.0;0;175;
118.2;0;35;118.4;0;37;118.4;0;35;118.4;0;28;118.4;0;32;118.2;0;162;
118.4;0;33;118.6;0;37;118.6;0;33;118.6;0;27;118.6;0;32;118.4;0;165;
118.6;0;35;118.8;0;37;118.8;0;34;118.8;0;29;118.8;0;31;118.6;0;164;
118.8;0;34;119.0;0;36;119.0;0;35;119.0;0;28;119.0;0;31;118.8;0;165;
119.0;0;35;119.2;0;37;119.2;0;33;119.2;0;27;119.2;0;32;119.0;0;165;
119.2;0;33;119.4;0;37;119.4;0;35;119.4;0;32;119.4;0;31;119.2;0;162;
119.4;0;35;119.6;0;37;119.6;0;34;119.6;0;25;119.6;0;33;119.4;0;170;
119.6;0;34;119.8;0;39;119.8;0;35;119.8;0;29;119.8;0;32;119.6;0;163;
119.8;0;33;;;;;;;;;;;;;119.8;0;168;
;;;;;;;;;;;;;;;120.0;0;0;
