buffersize;rate_t<tsync;rate_t>=tsync
0.1;0.16182041502911013;0.15615759686706765
0.2;0.16455050326432338;0.15122708024881604
0.3;0.16001903029909084;0.14749209498620391
0.4;0.1560952992553361;0.14437708750460979
0.5;0.17525750334410395;0.1365150983419147
0.6;0.1487076292645466;0.13600271390166732
0.7;0.15692430304332652;0.13020179357302317
0.8;0.1471311144738689;0.12701199279157366
0.9;0.13783764428843268;0.1290049014890104
1.0;0.13141972029892673;0.12455994629853846
1.1;0.1316036108472168;0.1213984738280188
1.2;0.12374806991720058;0.1193640017400032
1.3;0.12574744772965882;0.11688108190100004
1.4;0.11474947951965764;0.10712789247244696
1.5;0.1123089111689571;0.0986773752848311
1.6;0.08496705112261438;0.07818016099348091
1.7;0.0802075521557602;0.05109715830700521
1.8;0.056145019925178355;0.024170540792258083
1.9;0.0449899568955477;0.010620488960798678
2.0;0.030373569612511357;0.0016441617357584072
2.1;0.010204210428989873;0.00013681570402301115
2.2;0.0211094258460836;0.0
2.3;0.014364156075899368;0.0
2.4;0.008040440158714506;0.0
2.5;0.007355932593388684;0.0
2.6;0.008783786966147861;0.0
2.7;0.004760454692736211;0.0
2.8;0.007929418210018696;0.0
2.9;0.0038248272681588175;0.0
3.0;0.002181947297410469;0.0
3.1;0.005025334151676936;0.0
3.2;0.0016914437085795704;0.0
3.3;0.0015830682735907219;0.0
3.4;0.000856239320281642;0.0
3.5;0.0016191354789053488;0.0
3.6;0.000718351240108008;0.0
3.7;0.0006298183202328606;0.0
3.8;0.001158430922753781;0.0
3.9;0.0008846778517982111;0.0
4.0;0.0006494660360210463;0.0
4.1;0.0003249999325780957;0.0
4.2;0.0003447067993476964;0.0
4.3;0.00035429296694194424;0.0
4.4;0.0003742488907184572;0.0
4.5;0.0004626803512992373;0.0
4.6;0.0003741703481354845;0.0
4.7;0.0003644170693290547;0.0
4.8;0.0003644087969445977;0.0
4.9;0.00034458994999905286;0.0
5.0;0.0004038268749283399;0.0
