key;first;second;fairness;std_first;std_second
0.1;0.06788490441262375;0.9425532003330559;0.5716506905048815;0.002647837092095843;0.0031812328287267183
0.2;0.08699515377272223;0.9222733925536281;0.593494983728313;0.004433052325151021;0.004562577359182945
0.3;0.09788055763339829;0.9112471264377646;0.6061886684198167;0.0030803651287365967;0.0031115323981672346
0.4;0.09767143797809606;0.911458361974908;0.6059429570066698;0.0030328892455961914;0.0030635761519597292
0.5;0.09603185337186707;0.9131145359700701;0.6040190425480088;0.004010730230091457;0.004051310974409488
0.6;0.09818456066493102;0.9109400474902299;0.6065459974971735;0.002836454219421112;0.002865153587577153
0.7;0.0963240067639604;0.9128194265571462;0.6043615261613284;0.0039055173245202894;0.003945033520046613
0.8;0.09937742633723054;0.9097351123507569;0.607949609878215;0.0025626221170019425;0.002588550839939589
0.9;0.09623120722718859;0.9129131650436998;0.60425272402745;0.0036770762322585883;0.003714281050797449
1.0;0.09720829162539404;0.9119261944627134;0.6053990323226173;0.0024901400010969026;0.0025153353468078234
1.1;0.11054065943360895;0.8984589291724593;0.6211990031178765;0.001184673564960298;0.0011966601440324316
1.2;0.13872332265246737;0.8699911125314875;0.6555000587016485;0.0019601604521397725;0.001979993441537484
1.3;0.22375086982417733;0.7841032529094736;0.7638719187657262;0.005673811608081468;0.0057312194826995315
1.4;0.33259076297424345;0.6741621129484455;0.8967716501763325;0.004109453808104718;0.004151033441913509
1.5;0.4534453094760703;0.5520847548462628;0.9904687056585172;0.008121705129375451;0.008203880897969472
1.6;0.48215224016025787;0.5230873661787615;0.9983444835399468;0.009269376855669864;0.00936316481710995
1.7;0.4533044817573993;0.5522251727176322;0.9904147899721204;0.024789367854306448;0.025040789954007183
1.8;0.45147753980573196;0.5540724344964023;0.9896974053457711;0.024532039977367255;0.024780256233462
1.9;0.4360092361890608;0.5695111303134285;0.9826777526426497;0.013593733618259296;0.01396383046606659
10.0;0.6884417051435039;0.3155804005048051;0.8788011015458522;0.021069038278669218;0.021428587491053995
15.0;0.7197089705316816;0.284808638925658;0.8421471730872512;0.021907954065919118;0.02199171756801656
2.0;0.46320663956637065;0.5422246591901247;0.993861344235809;0.008399521810230463;0.008484508540182224
2.1;0.4828831113144288;0.5223473592153971;0.998461110182305;0.015155271313179092;0.015309316884292407
2.2;0.5049940144791929;0.5002090223262037;0.9999773407758804;0.039056719505295705;0.03982422550381945
2.3;0.5379213490457817;0.46675080255019574;0.9950068119008029;0.039001685748438555;0.0393954787506892
2.4;0.546858362369851;0.45772345475681303;0.9921887719186626;0.018304057669025733;0.018488993504622974
2.5;0.5245534857103127;0.48043159715303324;0.9980762321202756;0.030862520719901827;0.031373783245490984
2.6;0.5645100699253763;0.43973657687361295;0.984797644387297;0.04441192179908685;0.04475636708639008
2.7;0.5584612662296549;0.44633948997392087;0.9877016790065275;0.043723097023356056;0.04452847646024629
2.8;0.5657515310210057;0.4386422140276857;0.9842367291059916;0.041422878721153356;0.041841997224234186
2.9;0.5768788876802751;0.42740952271268584;0.9783293196546861;0.015889706210991363;0.016237755830730474
20.0;0.7881731551206312;0.2142405392368456;0.7531173876859425;0.06846457908686238;0.06900930229542267
25.0;0.8315255289669778;0.17017852263577096;0.6964307090245172;0.01776224186437459;0.017941898385667527
3.0;0.5794650123019688;0.4247914464839587;0.9768281298540651;0.018309300512415604;0.01849525476054311
3.5;0.6015319201827524;0.4023636399125478;0.9621298547498354;0.024492458741397955;0.02473138267866048
30.0;0.8525248005094046;0.1495933521488931;0.6702295888184344;0.006099820457064102;0.005583157738421261
35.0;0.8514382535882492;0.15124379243045458;0.6721997849963075;0.06388911446031335;0.06422477255990022
4.0;0.5876256926775902;0.41696241006176027;0.9719490466060791;0.022359377174198534;0.022482625177936044
4.5;0.6260885783086041;0.3776934295753341;0.9422973980233676;0.007247916763521251;0.007322740734424747
40.0;0.8697467951675819;0.13165641798310418;0.6479824221560934;0.05685847221822583;0.057602356199781365
45.0;0.8451096525929505;0.15661562437599957;0.6791666820836809;0.06290803335382178;0.06373712776525077
5.0;0.6055721062508159;0.3987128099278573;0.9593003378907987;0.03232005509503742;0.03293406250036008
5.5;0.6199987551884274;0.38479173168487685;0.9480505405397116;0.022868656397831862;0.0244132578319715
50.0;0.9026310439524897;0.0983551031683364;0.6076863047433056;0.007287724866765141;0.007361080933026296
6.0;0.652421513205168;0.3512244356859723;0.9173792124699679;0.015751466946945812;0.016098576678734145
6.5;0.6282552829671009;0.3756505959081522;0.9404563494555187;0.01635683859062648;0.01679127061497283
7.0;0.6334669682037026;0.3707167517467561;0.9359233090262681;0.018489094665904895;0.019478658085924538
7.5;0.6446328617951989;0.35939593030545647;0.9253189152560005;0.008407987801491703;0.008404447544295427
8.0;0.649260784400034;0.3557962167222826;0.9214407424111319;0.02115170901460101;0.022108670499659113
8.5;0.6467594204525551;0.3587158255346802;0.9241563652724999;0.012848187292634258;0.012026239431801063
9.0;0.6648545804549053;0.3399946023760845;0.9053723842925855;0.012821453513190103;0.012307284103027701
9.5;0.6642088864061584;0.34076491638657525;0.9061393364522821;0.00810427575002322;0.007698202058461435
