0;0;0;0;0;0;
0.0;0.0;0.0;0.0;0.0;0.0;
0.0500495494575;0.0;0.0;0.0;0.0;0.0;
0.100099098915;-541222.526635;19.5508072445;0.0;0.0;-7577.97092794;
0.150148648372;75876.9125969;41.3162581309;0.0;0.0;9675.82482333;
0.20019819783;412110.594503;50.125;0.0;0.0;20657.0435495;
0.250247747287;1205841.39703;50.125;0.0;0.0;60442.8000262;
0.300297296745;1987240.0;50.125;0.0;0.0;99610.405;
0.350346846202;3972130.07136;50.125;0.0;0.0;199103.019827;
0.40039639566;6663811.72413;50.125;0.0;0.0;334023.562672;
0.450445945117;7006649.88349;50.125;0.0;0.0;351208.32541;
0.500495494575;8146865.10024;50.125;0.0;0.0;408361.61315;
0.550545044032;9803760.0;50.125;0.0;0.0;491413.47;
0.600594593489;9877160.0;50.125;0.0;0.0;495092.645;
0.650644142947;9877160.0;50.125;0.0;0.0;495092.645;
0.700693692404;9877160.0;50.125;0.0;0.0;495092.645;
0.750743241862;9877160.0;50.125;0.346021;0.0;495092.645;
0.800792791319;9877160.0;50.125;0.346021;0.0;495092.645;
0.850842340777;9877160.0;50.125;0.346021;0.0;495092.645;
0.900891890234;9923570.0;50.125;0.346021;0.0;497418.94625;
0.950941439692;9923570.0;50.125;0.681234331594;0.512575069833;497418.94625;
1.00099098915;9923570.0;50.125;1.0;2.0;497418.94625;
1.05104053861;9923570.0;50.125;1.0;2.0;497418.94625;
1.10109008806;9923570.0;50.125;1.25;2.0;497418.94625;
1.15113963752;9923570.0;50.125;0.75;2.0;497418.94625;
1.20118918698;10043119.9688;50.125;1.0;2.0;503411.388434;
1.25123873644;10053300.0;50.125;1.0;2.0;503921.6625;
1.30128828589;10053300.0;50.125;1.0;2.0;503921.6625;
1.35133783535;10053300.0;50.125;1.0;2.0;503921.6625;
1.40138738481;10068701.369;50.125;1.0;2.0;504693.656119;
1.45143693427;10095600.0;50.125;1.0;2.0;506041.95;
1.50148648372;10095600.0;50.125;1.25;2.0;506041.95;
1.55153603318;10095600.0;50.125;0.75;2.0;506041.95;
1.60158558264;10095600.0;50.125;1.0;2.0;506041.95;
1.6516351321;10095600.0;50.125;1.0;2.0;506041.95;
1.70168468155;10095600.0;50.125;1.0;2.0;506041.95;
1.75173423101;10095600.0;50.125;1.0;2.0;506041.95;
1.80178378047;10095600.0;50.125;1.0;2.0;506041.95;
1.85183332993;10095600.0;50.125;1.0;2.0;506041.95;
1.90188287938;10095600.0;50.125;1.25;2.0;506041.95;
1.95193242884;10095600.0;50.125;0.75;2.0;506041.95;
2.0019819783;10095600.0;50.125;1.0;2.0;506041.95;
2.05203152776;10095600.0;50.125;1.0;2.0;506041.95;
2.10208107721;10031600.0;50.125;1.0;2.0;502833.95;
2.15213062667;10039200.0;50.125;1.0;2.0;503214.9;
2.20218017613;10039200.0;50.125;1.0;2.0;503214.9;
2.25222972559;10039200.0;50.125;1.0;2.0;503214.9;
2.30227927504;10039200.0;50.125;1.25;2.0;503214.9;
2.3523288245;10039200.0;50.125;0.75;2.0;503214.9;
2.40237837396;10039200.0;50.125;1.0;2.0;503214.9;
2.45242792342;10039200.0;50.125;1.0;2.0;503214.9;
2.50247747287;10039200.0;50.125;1.0;2.0;503214.9;
2.55252702233;10039200.0;50.125;1.0;2.0;503214.9;
2.60257657179;10039200.0;50.125;1.0;2.0;503214.9;
2.65262612125;10039700.0;50.125;1.0;2.0;503239.9625;
2.7026756707;10039700.0;50.125;1.25;2.0;503239.9625;
2.75272522016;10039700.0;50.125;0.75;2.0;503239.9625;
2.80277476962;10039700.0;50.125;1.0;2.0;503239.9625;
2.85282431908;10039700.0;50.125;1.0;2.0;503239.9625;
2.90287386853;10039700.0;50.125;1.0;2.0;503239.9625;
2.95292341799;10039700.0;50.125;1.0;2.0;503239.9625;
3.00297296745;10039700.0;50.125;1.0;2.0;503239.9625;
3.0530225169;10039700.0;50.125;1.0;2.0;503239.9625;
3.10307206636;10039700.0;50.125;1.25;2.0;503239.9625;
3.15312161582;10039700.0;50.125;0.75;2.0;503239.9625;
3.20317116528;10039700.0;50.125;1.0;2.0;503239.9625;
3.25322071473;10039700.0;50.125;1.0;2.0;503239.9625;
3.30327026419;10039700.0;50.125;1.0;2.0;503239.9625;
3.35331981365;10036800.0;50.125;1.0;2.0;503094.6;
3.40336936311;10036800.0;50.125;1.0;2.0;503094.6;
3.45341891256;10036800.0;50.125;1.0;2.0;503094.6;
3.50346846202;10036800.0;50.125;1.25;2.0;503094.6;
3.55351801148;10036800.0;50.125;0.75;2.0;503094.6;
3.60356756094;10036800.0;50.125;1.0;2.0;503094.6;
3.65361711039;10036800.0;50.125;1.0;2.0;503094.6;
3.70366665985;10036800.0;50.125;1.0;2.0;503094.6;
3.75371620931;10036800.0;50.125;1.0;2.0;503094.6;
3.80376575877;10036800.0;50.125;1.0;2.0;503094.6;
3.85381530822;10023000.0;50.125;1.0;2.0;502402.875;
3.90386485768;10023000.0;50.125;1.25;2.0;502402.875;
3.95391440714;10023000.0;50.125;0.75;2.0;502402.875;
4.0039639566;10023000.0;50.125;1.0;2.0;502402.875;
4.05401350605;10023000.0;50.125;1.0;2.0;502402.875;
4.10406305551;10023000.0;50.125;1.0;2.0;502402.875;
4.15411260497;10019800.0;50.125;1.0;2.0;502242.475;
4.20416215443;10019800.0;50.125;1.0;2.0;502242.475;
4.25421170388;10019800.0;50.125;1.0;2.0;502242.475;
4.30426125334;10021600.0;50.125;1.25;2.0;502332.7;
4.3543108028;10021600.0;50.125;0.75;2.0;502332.7;
4.40436035226;10021600.0;50.125;1.0;2.0;502332.7;
4.45440990171;10021600.0;50.125;1.0;2.0;502332.7;
4.50445945117;10021600.0;50.125;1.0;2.0;502332.7;
4.55450900063;10021600.0;50.125;1.0;2.0;502332.7;
4.60455855009;10021600.0;50.125;1.0;2.0;502332.7;
4.65460809954;10021600.0;50.125;1.0;2.0;502332.7;
4.704657649;10021600.0;50.125;1.25;2.0;502332.7;
4.75470719846;10021600.0;50.125;0.75;2.0;502332.7;
4.80475674792;10021600.0;50.125;1.0;2.0;502332.7;
4.85480629737;10021600.0;50.125;1.0;2.0;502332.7;
4.90485584683;10021600.0;50.125;1.0;2.0;502332.7;
4.95490539629;10021600.0;50.125;1.0;2.0;502332.7;
5.00495494575;10020100.0;50.125;1.0;2.0;502257.5125;
5.0550044952;10020100.0;50.125;1.0;2.0;502257.5125;
5.10505404466;10020100.0;50.125;1.25;2.0;502257.5125;
5.15510359412;10020100.0;50.125;0.75;2.0;502257.5125;
5.20515314358;10020100.0;50.125;1.0;2.0;502257.5125;
5.25520269303;10020100.0;50.125;1.0;2.0;502257.5125;
5.30525224249;10020100.0;50.125;1.0;2.0;502257.5125;
5.35530179195;10020100.0;50.125;1.0;2.0;502257.5125;
5.40535134141;10020100.0;50.125;1.0;2.0;502257.5125;
5.45540089086;10009100.0;50.125;1.0;2.0;501706.1375;
5.50545044032;10009100.0;50.125;1.25;2.0;501706.1375;
5.55549998978;10009100.0;50.125;0.75;2.0;501706.1375;
5.60554953924;10009100.0;50.125;1.0;2.0;501706.1375;
5.65559908869;10009100.0;50.125;1.0;2.0;501706.1375;
5.70564863815;10009100.0;50.125;1.0;2.0;501706.1375;
5.75569818761;10009100.0;50.125;1.0;2.0;501706.1375;
5.80574773707;10009100.0;50.125;1.0;2.0;501706.1375;
5.85579728652;10009100.0;50.125;1.0;2.0;501706.1375;
5.90584683598;10019400.0;50.125;1.25;2.0;502222.425;
5.95589638544;10019400.0;50.125;0.75;2.0;502222.425;
6.00594593489;10019400.0;50.125;1.0;2.0;502222.425;
6.05599548435;10019400.0;50.125;1.0;2.0;502222.425;
6.10604503381;10019400.0;50.125;1.0;2.0;502222.425;
6.15609458327;10019400.0;50.125;1.0;2.0;502222.425;
6.20614413272;10019400.0;50.125;1.0;2.0;502222.425;
6.25619368218;10019400.0;50.125;1.0;2.0;502222.425;
6.30624323164;10019400.0;50.125;1.25;2.0;502222.425;
6.3562927811;10022200.0;50.125;0.75;2.0;502362.775;
6.40634233055;10022200.0;50.125;1.0;2.0;502362.775;
6.45639188001;10022200.0;50.125;1.0;2.0;502362.775;
6.50644142947;10022200.0;50.125;1.0;2.0;502362.775;
6.55649097893;10022200.0;50.125;1.0;2.0;502362.775;
6.60654052838;10022200.0;50.125;1.0;2.0;502362.775;
6.65659007784;10022200.0;50.125;1.0;2.0;502362.775;
6.7066396273;10022200.0;50.125;1.25;2.0;502362.775;
6.75668917676;10022200.0;50.125;0.75;2.0;502362.775;
6.80673872621;10022200.0;50.125;1.0;2.0;502362.775;
6.85678827567;10022200.0;50.125;1.0;2.0;502362.775;
6.90683782513;10022200.0;50.125;1.0;2.0;502362.775;
6.95688737459;10022200.0;50.125;1.0;2.0;502362.775;
7.00693692404;10022200.0;50.125;1.0;2.0;502362.775;
7.0569864735;10022200.0;50.125;1.0;2.0;502362.775;
7.10703602296;10008000.0;50.125;1.25;2.0;501651.0;
7.15708557242;10008000.0;50.125;0.75;2.0;501651.0;
7.20713512187;10008000.0;50.125;1.0;2.0;501651.0;
7.25718467133;10008000.0;50.125;1.0;2.0;501651.0;
7.30723422079;10004700.0;50.125;1.0;2.0;501485.5875;
7.35728377025;10008500.0;50.125;1.0;2.0;501676.0625;
7.4073333197;10008500.0;50.125;1.0;2.0;501676.0625;
7.45738286916;10008500.0;50.125;1.0;2.0;501676.0625;
7.50743241862;10008500.0;50.125;1.25;2.0;501676.0625;
7.55748196808;10022500.0;50.125;0.75;2.0;502377.8125;
7.60753151753;10022500.0;50.125;1.0;2.0;502377.8125;
7.65758106699;10022500.0;50.125;1.0;2.0;502377.8125;
7.70763061645;10022500.0;50.125;1.0;2.0;502377.8125;
7.75768016591;10022500.0;50.125;1.0;2.0;502377.8125;
7.80772971536;10022500.0;50.125;1.0;2.0;502377.8125;
7.85777926482;10022500.0;50.125;1.0;2.0;502377.8125;
7.90782881428;10022500.0;50.125;1.25;2.0;502377.8125;
7.95787836374;10022500.0;50.125;0.75;2.0;502377.8125;
8.00792791319;10022500.0;50.125;1.0;2.0;502377.8125;
8.05797746265;10022500.0;50.125;1.0;2.0;502377.8125;
8.10802701211;10022500.0;50.125;1.0;2.0;502377.8125;
8.15807656157;10022500.0;50.125;1.0;2.0;502377.8125;
8.20812611102;10022500.0;50.125;1.0;2.0;502377.8125;
8.25817566048;10008000.0;50.125;1.0;2.0;501651.0;
8.30822520994;10008000.0;50.125;1.25;2.0;501651.0;
8.3582747594;10008000.0;50.125;0.75;2.0;501651.0;
8.40832430885;10008000.0;50.125;1.0;2.0;501651.0;
8.45837385831;10008000.0;50.125;1.0;2.0;501651.0;
8.50842340777;10007400.0;50.125;1.0;2.0;501620.925;
8.55847295723;10007400.0;50.125;1.0;2.0;501620.925;
8.60852250668;10007400.0;50.125;1.0;2.0;501620.925;
8.65857205614;10007400.0;50.125;1.0;2.0;501620.925;
8.7086216056;10010281.1665;50.125;1.25;2.0;501765.343472;
8.75867115506;10022900.0;50.125;0.75;2.0;502397.8625;
8.80872070451;10022900.0;50.125;1.0;2.0;502397.8625;
8.85877025397;10022900.0;50.125;1.0;2.0;502397.8625;
8.90881980343;10022900.0;50.125;1.0;2.0;502397.8625;
8.95886935288;10022900.0;50.125;1.0;2.0;502397.8625;
9.00891890234;10022900.0;50.125;1.0;2.0;502397.8625;
9.0589684518;10022900.0;50.125;1.0;2.0;502397.8625;
9.10901800126;10022900.0;50.125;1.25;2.0;502397.8625;
9.15906755071;10022900.0;50.125;0.75;2.0;502397.8625;
9.20911710017;10022900.0;50.125;1.0;2.0;502397.8625;
9.25916664963;10022900.0;50.125;1.0;2.0;502397.8625;
9.30921619909;10022900.0;50.125;1.0;2.0;502397.8625;
9.35926574854;10022900.0;50.125;1.0;2.0;502397.8625;
9.409315298;10022900.0;50.125;1.0;2.0;502397.8625;
9.45936484746;10010600.0;50.125;1.0;2.0;501781.325;
9.50941439692;10010600.0;50.125;1.25;2.0;501781.325;
9.55946394637;10010600.0;50.125;0.75;2.0;501781.325;
9.60951349583;10010600.0;50.125;1.0;2.0;501781.325;
9.65956304529;10010600.0;50.125;1.0;2.0;501781.325;
9.70961259475;10010600.0;50.125;1.0;2.0;501781.325;
9.7596621442;10010600.0;50.125;1.0;2.0;501781.325;
9.80971169366;10010600.0;50.125;1.0;2.0;501781.325;
9.85976124312;10005000.0;50.125;1.0;2.0;501500.625;
9.90981079258;10006612.0317;50.125;1.25;2.0;501581.428087;
9.95986034203;10021400.0;50.125;0.75;2.0;502322.675;
10.0099098915;10021400.0;50.125;1.0;2.0;502322.675;
10.0599594409;10021400.0;50.125;1.0;1.0;502322.675;
10.1100089904;10022980.1791;50.125;1.0;1.0;502401.88148;
10.1600585399;10023200.0;52.3903;1.0;1.0;525118.45496;
10.2101080893;10023200.0;52.3903;1.0;1.0;525118.45496;
10.2601576388;10023200.0;52.3903;1.0;2.0;525118.45496;
10.3102071882;10023200.0;52.3903;1.0;2.0;525118.45496;
10.3602567377;10023200.0;52.3903;1.0;2.0;525118.45496;
10.4103062872;10023200.0;52.3903;1.25;2.0;525118.45496;
10.4603558366;10023200.0;52.3903;0.75;2.0;525118.45496;
10.5104053861;10023200.0;52.3903;1.0;2.0;525118.45496;
10.5604549355;10025200.0;52.3903;1.0;2.0;525223.23556;
10.610504485;10025200.0;52.3903;1.0;2.0;525223.23556;
10.6605540344;10074400.0;52.3903;1.0;2.0;527800.83832;
10.7106035839;10074400.0;52.3903;1.0;2.0;527800.83832;
10.7606531334;10074400.0;52.3903;1.0;2.0;527800.83832;
10.8107026828;10074400.0;52.3903;1.25;2.0;527800.83832;
10.8607522323;10074400.0;52.3903;0.75;2.0;527800.83832;
10.9108017817;10074400.0;52.3903;0.802180923215;2.0;527800.83832;
10.9608513312;10074400.0;52.3903;1.0;2.0;527800.83832;
11.0109008806;10074400.0;52.3903;1.0;2.0;527800.83832;
11.0609504301;10074400.0;52.3903;1.0;2.0;527800.83832;
11.1109999796;10074400.0;52.3903;1.0;2.0;527800.83832;
11.161049529;10074400.0;52.3903;1.0;2.0;527800.83832;
11.2110990785;10074400.0;52.3903;1.0;2.0;527800.83832;
11.2611486279;10074400.0;52.3903;1.25;2.0;527800.83832;
11.3111981774;10055600.0;52.3903;0.75;2.0;526815.90068;
11.3612477268;10055600.0;52.3903;1.0;2.0;526815.90068;
11.4112972763;10055600.0;52.3903;1.0;2.0;526815.90068;
11.4613468258;10055600.0;52.3903;1.0;2.0;526815.90068;
11.5113963752;10055600.0;52.3932;1.0;2.0;526845.06192;
11.5614459247;10055600.0;52.3932;1.0;2.0;526845.06192;
11.6114954741;10045700.0;52.3932;1.0;2.0;526326.36924;
11.6615450236;10052175.522;52.3932;1.25;2.0;526665.642559;
11.711594573;10056600.0;52.3932;0.75;2.0;526897.45512;
11.7616441225;10056600.0;52.3932;1.0;2.0;526897.45512;
11.811693672;10056600.0;52.3932;1.0;2.0;526897.45512;
11.8617432214;10056600.0;52.3932;1.0;2.0;526897.45512;
11.9117927709;10056600.0;52.3932;1.0;2.0;526897.45512;
11.9618423203;10056600.0;52.3932;1.0;2.0;526897.45512;
12.0118918698;10056600.0;52.3932;1.0;2.0;526897.45512;
12.0619414192;10056600.0;52.3932;1.0;2.0;526897.45512;
12.1119909687;10056600.0;52.3932;1.25;2.0;526897.45512;
12.1620405182;10056600.0;52.3932;0.75;2.0;526897.45512;
12.2120900676;10056600.0;52.3932;1.0;2.0;526897.45512;
12.2621396171;10056600.0;52.3932;1.0;2.0;526897.45512;
12.3121891665;10056600.0;52.3932;1.0;2.0;526897.45512;
12.362238716;10038100.0;52.3932;1.0;2.0;525928.18092;
12.4122882654;10038100.0;52.3932;1.0;2.0;525928.18092;
12.4623378149;10036700.0;52.3932;1.0;2.0;525854.83044;
12.5123873644;10036700.0;52.3932;1.25;2.0;525854.83044;
12.5624369138;10036700.0;52.3932;0.75;2.0;525854.83044;
12.6124864633;10036700.0;52.3932;1.0;2.0;525854.83044;
12.6625360127;10021100.0;52.3932;1.0;2.0;525037.49652;
12.7125855622;10021100.0;52.3932;1.0;2.0;525037.49652;
12.7626351117;10021100.0;52.3932;1.0;2.0;525037.49652;
12.8126846611;10021100.0;52.3932;1.0;2.0;525037.49652;
12.8627342106;10023000.0;52.3932;1.0;2.0;525137.0436;
12.91278376;10023000.0;52.3932;1.25;2.0;525137.0436;
12.9628333095;10023000.0;52.3932;0.75;2.0;525137.0436;
13.0128828589;10023000.0;52.3932;1.0;2.0;525137.0436;
13.0629324084;10023000.0;52.3932;1.0;2.0;525137.0436;
13.1129819579;10023000.0;52.3932;1.0;2.0;525137.0436;
13.1630315073;10023000.0;52.3932;1.0;2.0;525137.0436;
13.2130810568;10023000.0;52.3932;1.0;2.0;525137.0436;
13.2631306062;10023000.0;52.3932;1.0;2.0;525137.0436;
13.3131801557;10023000.0;52.3932;1.0;2.0;525137.0436;
13.3632297051;10023000.0;52.3932;1.25;2.0;525137.0436;
13.4132792546;10023000.0;52.3932;0.75;2.0;525137.0436;
13.4633288041;10023000.0;52.3932;1.0;2.0;525137.0436;
13.5133783535;10023000.0;52.3932;1.0;2.0;525137.0436;
13.563427903;10022800.0;52.3932;1.0;2.0;525126.56496;
13.6134774524;10022800.0;52.3932;1.0;2.0;525126.56496;
13.6635270019;10022800.0;52.3932;1.0;2.0;525126.56496;
13.7135765513;10022800.0;52.3932;1.0;2.0;525126.56496;
13.7636261008;10022800.0;52.3932;1.25;2.0;525126.56496;
13.8136756503;10022800.0;52.3932;0.75;2.0;525126.56496;
13.8637251997;10022800.0;52.3932;1.0;2.0;525126.56496;
13.9137747492;10022800.0;52.3932;1.0;2.0;525126.56496;
13.9638242986;10022800.0;52.3932;1.0;2.0;525126.56496;
14.0138738481;10021000.0;52.3932;1.0;2.0;525032.2572;
14.0639233975;10021000.0;52.3932;1.0;2.0;525032.2572;
14.113972947;10021000.0;52.3932;1.0;2.0;525032.2572;
14.1640224965;10021000.0;52.3932;1.25;2.0;525032.2572;
14.2140720459;10023900.0;52.3932;0.75;2.0;525184.19748;
14.2641215954;10023900.0;52.3932;0.831800970444;2.0;525184.19748;
14.3141711448;10023900.0;52.3932;1.0;2.0;525184.19748;
14.3642206943;10023900.0;52.3932;1.0;2.0;525184.19748;
14.4142702437;10023900.0;52.3932;1.0;2.0;525184.19748;
14.4643197932;10023900.0;52.3932;1.0;2.0;525184.19748;
14.5143693427;10023900.0;52.3932;1.0;2.0;525184.19748;
14.5644188921;10023900.0;52.3932;1.0;2.0;525184.19748;
14.6144684416;10023900.0;52.3932;1.25;2.0;525184.19748;
14.664517991;10023900.0;52.3932;0.75;2.0;525184.19748;
14.7145675405;10023900.0;52.3932;1.0;2.0;525184.19748;
14.7646170899;10023900.0;52.3932;1.0;2.0;525184.19748;
14.8146666394;10023900.0;52.3932;1.0;2.0;525184.19748;
14.8647161889;10023900.0;52.3932;1.0;2.0;525184.19748;
14.9147657383;10022900.0;52.3932;1.0;2.0;525131.80428;
14.9648152878;10022900.0;52.3932;1.0;2.0;525131.80428;
15.0148648372;10022900.0;52.3932;1.25;2.0;525131.80428;
15.0649143867;10022900.0;52.3932;0.75;2.0;525131.80428;
15.1149639362;10022900.0;52.3932;1.0;2.0;525131.80428;
15.1650134856;10022900.0;52.3932;1.0;2.0;525131.80428;
15.2150630351;10022900.0;52.3932;1.0;2.0;525131.80428;
15.2651125845;10022900.0;52.3932;1.0;2.0;525131.80428;
15.315162134;10020200.0;52.3932;1.0;2.0;524990.34264;
15.3652116834;10020200.0;52.3932;1.0;2.0;524990.34264;
15.4152612329;10020200.0;52.3932;1.0;2.0;524990.34264;
15.4653107824;10022500.0;52.3932;1.25;2.0;525110.847;
15.5153603318;10022500.0;52.3932;0.75;2.0;525110.847;
15.5654098813;10022500.0;52.3932;1.0;2.0;525110.847;
15.6154594307;10022500.0;52.3932;1.0;2.0;525110.847;
15.6655089802;10022500.0;52.3932;1.0;2.0;525110.847;
15.7155585296;10022500.0;52.3932;1.0;2.0;525110.847;
15.7656080791;10022500.0;52.3932;1.0;2.0;525110.847;
15.8156576286;10022500.0;52.3932;1.0;2.0;525110.847;
15.865707178;10022500.0;52.3932;1.25;2.0;525110.847;
15.9157567275;10022500.0;52.3932;0.75;2.0;525110.847;
15.9658062769;10022500.0;52.3932;1.0;2.0;525110.847;
16.0158558264;10022500.0;52.3932;1.0;2.0;525110.847;
16.0659053758;10022500.0;52.3932;1.0;2.0;525110.847;
16.1159549253;10022500.0;52.3932;1.0;2.0;525110.847;
16.1660044748;10020800.0;52.3932;1.0;2.0;525021.77856;
16.2160540242;10020800.0;52.3932;1.0;2.0;525021.77856;
16.2661035737;10020800.0;52.3932;1.25;2.0;525021.77856;
16.3161531231;10020800.0;52.3932;0.75;2.0;525021.77856;
16.3662026726;10020800.0;52.3932;1.0;2.0;525021.77856;
16.416252222;10020800.0;52.3932;1.0;2.0;525021.77856;
16.4663017715;10020800.0;52.3932;1.0;2.0;525021.77856;
16.516351321;10020800.0;52.3932;1.0;2.0;525021.77856;
16.5664008704;10020800.0;52.3932;1.0;2.0;525021.77856;
16.6164504199;10020800.0;52.3932;1.0;2.0;525021.77856;
16.6664999693;10009000.0;52.3932;1.0;2.0;524403.5388;
16.7165495188;10009000.0;52.3932;1.25;2.0;524403.5388;
16.7665990682;10009000.0;52.3932;0.75;2.0;524403.5388;
16.8166486177;10009000.0;52.3932;1.0;2.0;524403.5388;
16.8666981672;10009000.0;52.3932;1.0;2.0;524403.5388;
16.9167477166;10006900.0;52.3932;1.0;2.0;524293.51308;
16.9667972661;10006900.0;52.3932;1.0;2.0;524293.51308;
17.0168468155;10008900.0;52.3932;1.0;2.0;524398.29948;
17.066896365;10008900.0;52.3932;1.0;2.0;524398.29948;
17.1169459145;10008900.0;52.3932;1.25;2.0;524398.29948;
17.1669954639;10009000.0;52.3932;0.75;2.0;524403.5388;
17.2170450134;10009000.0;52.3932;1.0;2.0;524403.5388;
17.2670945628;10009000.0;52.3932;1.0;2.0;524403.5388;
17.3171441123;10009000.0;52.3932;1.0;2.0;524403.5388;
17.3671936617;10009000.0;52.3932;1.0;2.0;524403.5388;
17.4172432112;10009000.0;52.3932;1.0;2.0;524403.5388;
17.4672927607;10009000.0;52.3932;1.0;2.0;524403.5388;
17.5173423101;10009000.0;52.3932;1.25;2.0;524403.5388;
17.5673918596;10019000.0;52.3932;0.75;2.0;524927.4708;
17.617441409;10019000.0;52.3932;0.796442504812;2.0;524927.4708;
17.6674909585;10019000.0;52.3932;1.0;2.0;524927.4708;
17.7175405079;10019000.0;52.3932;1.0;2.0;524927.4708;
17.7675900574;10019000.0;52.3932;1.0;2.0;524927.4708;
17.8176396069;10019000.0;52.3932;1.0;2.0;524927.4708;
17.8676891563;10019000.0;52.3932;1.0;2.0;524927.4708;
17.9177387058;10019000.0;52.3932;1.0;2.0;524927.4708;
17.9677882552;10021600.0;52.3932;1.25;2.0;525063.69312;
18.0178378047;10021600.0;52.3932;0.75;2.0;525063.69312;
18.0678873541;10021600.0;52.3932;1.0;2.0;525063.69312;
18.1179369036;10021600.0;52.3932;1.0;2.0;525063.69312;
18.1679864531;10021600.0;52.3932;1.0;2.0;525063.69312;
18.2180360025;10021600.0;52.3932;1.0;2.0;525063.69312;
18.268085552;10021600.0;52.3932;1.0;2.0;525063.69312;
18.3181351014;10021600.0;52.3932;1.0;2.0;525063.69312;
18.3681846509;10021600.0;52.3932;1.25;2.0;525063.69312;
18.4182342003;10021600.0;52.3932;0.75;2.0;525063.69312;
18.4682837498;10021600.0;52.3932;1.0;2.0;525063.69312;
18.5183332993;10021600.0;52.3932;1.0;2.0;525063.69312;
18.5683828487;10021600.0;52.3932;1.0;2.0;525063.69312;
18.6184323982;10021600.0;52.3932;1.0;2.0;525063.69312;
18.6684819476;10020600.0;52.3932;1.0;2.0;525011.29992;
18.7185314971;10020600.0;52.3932;1.0;2.0;525011.29992;
18.7685810465;10020600.0;52.3932;1.0;2.0;525011.29992;
18.818630596;10020600.0;52.3932;1.25;2.0;525011.29992;
18.8686801455;10022200.0;52.3932;0.75;2.0;525095.12904;
18.9187296949;10022200.0;52.3932;1.0;2.0;525095.12904;
18.9687792444;10022200.0;52.3932;1.0;2.0;525095.12904;
19.0188287938;10022200.0;52.3932;1.0;2.0;525095.12904;
19.0688783433;10022200.0;52.3932;1.0;2.0;525095.12904;
19.1189278927;10022200.0;52.3932;1.0;2.0;525095.12904;
19.1689774422;10022200.0;52.3932;1.0;2.0;525095.12904;
19.2190269917;10022200.0;52.3932;1.25;2.0;525095.12904;
19.2690765411;10022200.0;52.3932;0.75;2.0;525095.12904;
19.3191260906;10022200.0;52.3932;1.0;2.0;525095.12904;
19.36917564;10022200.0;52.3932;1.0;2.0;525095.12904;
19.4192251895;10022200.0;52.3932;1.0;2.0;525095.12904;
19.469274739;10022200.0;52.3932;1.0;2.0;525095.12904;
19.5193242884;10020700.0;52.3932;1.0;2.0;525016.53924;
19.5693738379;10020700.0;52.3932;1.0;2.0;525016.53924;
19.6194233873;10020700.0;52.3932;1.25;2.0;525016.53924;
19.6694729368;10020700.0;52.3932;0.75;2.0;525016.53924;
19.7195224862;10020700.0;52.3932;1.0;2.0;525016.53924;
19.7695720357;10020700.0;52.3932;1.0;2.0;525016.53924;
19.8196215852;10020700.0;52.3932;1.0;2.0;525016.53924;
19.8696711346;10020700.0;52.3932;1.0;2.0;525016.53924;
19.9197206841;10020700.0;52.3932;1.0;2.0;525016.53924;
19.9697702335;10012300.0;52.3932;1.0;2.0;524576.43636;
20.019819783;10008500.0;52.3932;1.0;2.0;524377.3422;
20.0698693324;10008500.0;52.3932;1.0;1.0;524377.3422;
20.1199188819;10008500.0;52.3932;1.0;1.0;524377.3422;
20.1699684314;10008500.0;52.3932;1.0;1.0;524377.3422;
20.2200179808;10008500.0;52.3932;1.0;1.0;524377.3422;
20.2700675303;10008500.0;52.3932;1.0;2.0;524377.3422;
20.3201170797;10008500.0;52.3932;1.0;2.0;524377.3422;
20.3701666292;10008500.0;52.3932;1.0;2.0;524377.3422;
20.4202161786;10008500.0;52.3932;1.0;2.0;524377.3422;
20.4702657281;9941340.0;52.3773;1.0;2.0;520700.547582;
20.5203152776;9941340.0;52.3716;1.0;2.0;520643.881944;
20.570364827;9941340.0;52.3716;1.25;2.0;520643.881944;
20.6204143765;9825064.77071;52.3716;0.75;2.0;514554.362146;
20.6704639259;9972060.0;52.3716;1.0;2.0;522252.737496;
20.7205134754;10015573.826;52.3716;1.0;2.0;524531.626185;
20.7705630248;10070700.0;52.3716;1.0;2.0;527418.67212;
20.8206125743;10070700.0;52.3716;1.0;2.0;527418.67212;
20.8706621238;10070700.0;52.3716;1.0;2.0;527418.67212;
20.9207116732;10070700.0;52.3716;1.0;2.0;527418.67212;
20.9707612227;10070700.0;52.3716;1.10794512974;2.0;527418.67212;
21.0208107721;10096200.0;52.3716;1.25;2.0;528754.14792;
21.0708603216;10096200.0;52.3716;0.75;2.0;528754.14792;
21.120909871;10096200.0;52.3716;1.0;2.0;528754.14792;
21.1709594205;10096200.0;52.3716;1.0;2.0;528754.14792;
21.22100897;10096200.0;52.3716;1.0;2.0;528754.14792;
21.2710585194;10096200.0;52.3716;1.0;2.0;528754.14792;
21.3211080689;10096200.0;52.3716;1.0;2.0;528754.14792;
21.3711576183;10096200.0;52.3716;1.0;2.0;528754.14792;
21.4212071678;10096200.0;52.3716;1.25;2.0;528754.14792;
21.4712567172;10096200.0;52.3716;0.75;2.0;528754.14792;
21.5213062667;10096200.0;52.3716;1.0;2.0;528754.14792;
21.5713558162;10096200.0;52.3716;1.0;2.0;528754.14792;
21.6214053656;10096200.0;52.3716;1.0;2.0;528754.14792;
21.6714549151;10057200.0;52.3716;1.0;2.0;526711.65552;
21.7215044645;10057200.0;52.3716;1.0;2.0;526711.65552;
21.771554014;10040000.0;52.3716;1.0;2.0;525810.864;
21.8216035635;10040000.0;52.3716;1.25;2.0;525810.864;
21.8716531129;10040000.0;52.3716;0.75;2.0;525810.864;
21.9217026624;10040000.0;52.3716;1.0;2.0;525810.864;
21.9717522118;10040000.0;52.3716;1.0;2.0;525810.864;
22.0218017613;10040000.0;52.3716;1.0;2.0;525810.864;
22.0718513107;10040000.0;52.3716;1.0;2.0;525810.864;
22.1219008602;10040000.0;52.3716;1.0;2.0;525810.864;
22.1719504097;10040000.0;52.3716;1.0;2.0;525810.864;
22.2219999591;10040000.0;52.3716;1.0;2.0;525810.864;
22.2720495086;10040000.0;52.3716;1.25;2.0;525810.864;
22.322099058;10040000.0;52.3716;0.75;2.0;525810.864;
22.3721486075;10040000.0;52.3716;1.0;2.0;525810.864;
22.4221981569;10037400.0;52.3716;1.0;2.0;525674.69784;
22.4722477064;10037400.0;52.3716;1.0;2.0;525674.69784;
22.5222972559;10037400.0;52.3716;1.0;2.0;525674.69784;
22.5723468053;10037400.0;52.3716;1.0;2.0;525674.69784;
22.6223963548;10037400.0;52.3716;1.0;2.0;525674.69784;
22.6724459042;10038100.0;52.3716;1.25;2.0;525711.35796;
22.7224954537;10038100.0;52.3716;0.75;2.0;525711.35796;
22.7725450031;10038100.0;52.3716;1.0;2.0;525711.35796;
22.8225945526;10038100.0;52.3716;1.0;2.0;525711.35796;
22.8726441021;10038100.0;52.3716;1.0;2.0;525711.35796;
22.9226936515;10038100.0;52.3716;1.0;2.0;525711.35796;
22.972743201;10038100.0;52.3716;1.0;2.0;525711.35796;
23.0227927504;10038100.0;52.3716;1.0;2.0;525711.35796;
23.0728422999;10038100.0;52.3716;1.25;2.0;525711.35796;
23.1228918493;10038100.0;52.3716;0.75;2.0;525711.35796;
23.1729413988;10038100.0;52.3716;1.0;2.0;525711.35796;
23.2229909483;10038100.0;52.3716;1.0;2.0;525711.35796;
23.2730404977;10038100.0;52.3716;1.0;2.0;525711.35796;
23.3230900472;10038100.0;52.3716;1.0;2.0;525711.35796;
23.3731395966;10031500.0;52.3716;1.0;2.0;525365.7054;
23.4231891461;10031500.0;52.3716;1.0;2.0;525365.7054;
23.4732386955;10031500.0;52.3716;1.0;2.0;525365.7054;
23.523288245;10031500.0;52.3716;1.25;2.0;525365.7054;
23.5733377945;10031500.0;52.3716;0.75;2.0;525365.7054;
23.6233873439;10031500.0;52.3716;1.0;2.0;525365.7054;
23.6734368934;10031500.0;52.3716;1.0;2.0;525365.7054;
23.7234864428;10031500.0;52.3716;1.0;2.0;525365.7054;
23.7735359923;10031500.0;52.3716;1.0;2.0;525365.7054;
23.8235855417;10023600.0;52.3716;1.0;2.0;524951.96976;
23.8736350912;10023600.0;52.3716;1.0;2.0;524951.96976;
23.9236846407;10023600.0;52.3716;1.25;2.0;524951.96976;
23.9737341901;10023600.0;52.3716;0.75;2.0;524951.96976;
24.0237837396;10023600.0;52.3716;1.0;2.0;524951.96976;
24.073833289;10023600.0;52.3716;1.0;2.0;524951.96976;
24.1238828385;10023600.0;52.3716;1.0;2.0;524951.96976;
24.173932388;10022200.0;52.3716;1.0;2.0;524878.64952;
24.2239819374;10022200.0;52.3716;1.0;2.0;524878.64952;
24.2740314869;10022200.0;52.3716;1.0;2.0;524878.64952;
24.3240810363;10022200.0;52.3716;1.25;2.0;524878.64952;
24.3741305858;10022200.0;52.3716;1.24041319319;2.0;524878.64952;
24.4241801352;10022200.0;52.3716;0.75;2.0;524878.64952;
24.4742296847;10022200.0;52.3716;1.0;2.0;524878.64952;
24.5242792342;10022200.0;52.3716;1.0;2.0;524878.64952;
24.5743287836;10022200.0;52.3716;1.0;2.0;524878.64952;
24.6243783331;10022200.0;52.3716;1.0;2.0;524878.64952;
24.6744278825;10006000.0;52.3716;1.0;2.0;524030.2296;
24.724477432;10006000.0;52.3716;1.0;2.0;524030.2296;
24.7745269814;10006000.0;52.3716;1.25;2.0;524030.2296;
24.8245765309;10006000.0;52.3716;0.75;2.0;524030.2296;
24.8746260804;10006000.0;52.3716;1.0;2.0;524030.2296;
24.9246756298;10004800.0;52.3716;1.0;2.0;523967.38368;
24.9747251793;10004800.0;52.3716;1.0;2.0;523967.38368;
25.0247747287;10004800.0;52.3716;1.0;2.0;523967.38368;
25.0748242782;10007000.0;52.3716;1.0;2.0;524082.6012;
25.1248738276;10007000.0;52.3716;1.0;2.0;524082.6012;
25.1749233771;10007000.0;52.3716;1.25;2.0;524082.6012;
25.2249729266;10007000.0;52.3716;0.75;2.0;524082.6012;
25.275022476;10007000.0;52.3716;1.0;2.0;524082.6012;
25.3250720255;10007000.0;52.3716;1.0;2.0;524082.6012;
25.3751215749;10007000.0;52.3716;1.0;2.0;524082.6012;
25.4251711244;10007000.0;52.3716;1.0;2.0;524082.6012;
25.4752206738;10007000.0;52.3716;1.0;2.0;524082.6012;
25.5252702233;10007000.0;52.3716;1.0;2.0;524082.6012;
25.5753197728;10007000.0;52.3716;1.0;2.0;524082.6012;
25.6253693222;10007000.0;52.3716;1.25;2.0;524082.6012;
25.6754188717;10009600.0;52.3716;0.75;2.0;524218.76736;
25.7254684211;10009600.0;52.3716;1.0;2.0;524218.76736;
25.7755179706;10009600.0;52.3716;1.0;2.0;524218.76736;
25.82556752;10009600.0;52.3716;1.0;2.0;524218.76736;
25.8756170695;10009600.0;52.3716;1.0;2.0;524218.76736;
25.925666619;10009600.0;52.3716;1.0;2.0;524218.76736;
25.9757161684;10009600.0;52.3716;1.0;2.0;524218.76736;
26.0257657179;10023500.0;52.3716;1.25;2.0;524946.7326;
26.0758152673;10023500.0;52.3716;0.75;2.0;524946.7326;
26.1258648168;10023500.0;52.3716;1.0;2.0;524946.7326;
26.1759143663;10023500.0;52.3716;1.0;2.0;524946.7326;
26.2259639157;10023500.0;52.3716;1.0;2.0;524946.7326;
26.2760134652;10023500.0;52.3716;1.0;2.0;524946.7326;
26.3260630146;10023500.0;52.3716;1.0;2.0;524946.7326;
26.3761125641;10023500.0;52.3716;1.0;2.0;524946.7326;
26.4261621135;10023500.0;52.3716;1.25;2.0;524946.7326;
26.476211663;10023500.0;52.3716;0.75;2.0;524946.7326;
26.5262612125;10023500.0;52.3716;1.0;2.0;524946.7326;
26.5763107619;10023500.0;52.3716;1.0;2.0;524946.7326;
26.6263603114;10023500.0;52.3716;1.0;2.0;524946.7326;
26.6764098608;10023500.0;52.3716;1.0;2.0;524946.7326;
26.7264594103;10023500.0;52.3716;1.0;2.0;524946.7326;
26.7765089597;10021700.0;52.3716;1.0;2.0;524852.46372;
26.8265585092;10021700.0;52.3716;1.0;2.0;524852.46372;
26.8766080587;10021700.0;52.3716;1.25;2.0;524852.46372;
26.9266576081;10021700.0;52.3716;0.75;2.0;524852.46372;
26.9767071576;10021700.0;52.3716;1.0;2.0;524852.46372;
27.026756707;10021700.0;52.3716;1.0;2.0;524852.46372;
27.0768062565;10021700.0;52.3716;1.0;2.0;524852.46372;
27.1268558059;10021700.0;52.3716;1.0;2.0;524852.46372;
27.1769053554;10020800.0;52.3716;1.0;2.0;524805.32928;
27.2269549049;10020800.0;52.3716;1.0;2.0;524805.32928;
27.2770044543;10020800.0;52.3716;1.25;2.0;524805.32928;
27.3270540038;10020800.0;52.3716;0.75;2.0;524805.32928;
27.3771035532;10020800.0;52.3716;1.0;2.0;524805.32928;
27.4271531027;10020800.0;52.3716;1.0;2.0;524805.32928;
27.4772026521;10020800.0;52.3716;1.0;2.0;524805.32928;
27.5272522016;10020800.0;52.3716;1.0;2.0;524805.32928;
27.5773017511;10019600.0;52.3716;1.0;2.0;524742.48336;
27.6273513005;10019600.0;52.3716;1.0;2.0;524742.48336;
27.67740085;10019600.0;52.3716;1.25;2.0;524742.48336;
27.7274503994;10019600.0;52.3716;0.75;2.0;524742.48336;
27.7774999489;10019600.0;52.3716;0.75;2.0;524742.48336;
27.8275494983;10019600.0;52.3716;1.0;2.0;524742.48336;
27.8775990478;10019600.0;52.3716;1.0;2.0;524742.48336;
27.9276485973;10019600.0;52.3716;1.0;2.0;524742.48336;
27.9776981467;10019600.0;52.3716;1.0;2.0;524742.48336;
28.0277476962;10019400.0;52.3716;1.0;2.0;524732.00904;
28.0777972456;10019400.0;52.3716;1.0;2.0;524732.00904;
28.1278467951;10019400.0;52.3716;1.25;2.0;524732.00904;
28.1778963445;10021500.0;52.3716;0.75;2.0;524841.9894;
28.227945894;10021500.0;52.3716;1.0;2.0;524841.9894;
28.2779954435;10021500.0;52.3716;1.0;2.0;524841.9894;
28.3280449929;10021500.0;52.3716;1.0;2.0;524841.9894;
28.3780945424;10021500.0;52.3716;1.0;2.0;524841.9894;
28.4281440918;10021500.0;52.3716;1.0;2.0;524841.9894;
28.4781936413;10021500.0;52.3716;1.0;2.0;524841.9894;
28.5282431908;10021500.0;52.3716;1.25;2.0;524841.9894;
28.5782927402;10021900.0;52.3716;0.75;2.0;524862.93804;
28.6283422897;10021900.0;52.3716;1.0;2.0;524862.93804;
28.6783918391;10021900.0;52.3716;1.0;2.0;524862.93804;
28.7284413886;10021900.0;52.3716;1.0;2.0;524862.93804;
28.778490938;10021900.0;52.3716;1.0;2.0;524862.93804;
28.8285404875;10021900.0;52.3716;1.0;2.0;524862.93804;
28.878590037;10021900.0;52.3716;1.0;2.0;524862.93804;
28.9286395864;10021900.0;52.3716;1.0;2.0;524862.93804;
28.9786891359;10022015.2837;52.3716;1.25;2.0;524868.975633;
29.0287386853;10022800.0;52.3716;0.75;2.0;524910.07248;
29.0787882348;10022800.0;52.3716;1.0;2.0;524910.07248;
29.1288377842;10022800.0;52.3716;1.0;2.0;524910.07248;
29.1788873337;10022800.0;52.3716;1.0;2.0;524910.07248;
29.2289368832;10022800.0;52.3716;1.0;2.0;524910.07248;
29.2789864326;10022800.0;52.3716;1.0;2.0;524910.07248;
29.3290359821;10022800.0;52.3716;1.0;2.0;524910.07248;
29.3790855315;10022800.0;52.3716;1.25;2.0;524910.07248;
29.429135081;10022800.0;52.3716;0.75;2.0;524910.07248;
29.4791846304;10022800.0;52.3716;1.0;2.0;524910.07248;
29.5292341799;10022800.0;52.3716;1.0;2.0;524910.07248;
29.5792837294;10022800.0;52.3716;1.0;2.0;524910.07248;
29.6293332788;10022800.0;52.3716;1.0;2.0;524910.07248;
29.6793828283;10008600.0;52.3716;1.0;2.0;524166.39576;
29.7294323777;10008600.0;52.3716;1.0;2.0;524166.39576;
29.7794819272;10008600.0;52.3716;1.25;2.0;524166.39576;
29.8295314766;10020300.0;52.3716;0.75;2.0;524779.14348;
29.8795810261;10020300.0;52.3716;1.0;2.0;524779.14348;
29.9296305756;10020300.0;52.3716;1.0;2.0;524779.14348;
29.979680125;10020300.0;52.3716;1.0;2.0;524779.14348;
30.0297296745;10020300.0;52.3716;1.0;2.0;524779.14348;
30.0797792239;10020300.0;52.3716;1.0;2.0;524779.14348;
30.1298287734;10020300.0;52.3716;1.0;2.0;524779.14348;
30.1798783228;10020300.0;52.3716;1.0;2.0;524779.14348;
30.2299278723;10023700.0;52.3716;1.25;2.0;524957.20692;
30.2799774218;10023700.0;52.3716;0.75;2.0;524957.20692;
30.3300269712;10023700.0;52.3716;1.0;2.0;524957.20692;
30.3800765207;10023700.0;52.3716;1.0;2.0;524957.20692;
30.4301260701;10023700.0;52.3716;1.0;2.0;524957.20692;
30.4801756196;10023700.0;52.3716;1.0;2.0;524957.20692;
30.530225169;10023700.0;52.3792;1.0;1.0;525033.38704;
30.5802747185;10116297.0462;52.3792;1.0;1.0;529883.546243;
30.630324268;10149900.0;52.46;1.0;1.0;532463.754;
30.6803738174;10149900.0;52.6378;1.0;1.0;534268.40622;
30.7304233669;10149900.0;52.6378;1.0;2.0;534268.40622;
30.7804729163;10149900.0;52.6378;1.0;2.0;534268.40622;
30.8305224658;10149900.0;52.6378;1.25;2.0;534268.40622;
30.8805720153;10149900.0;52.6378;0.75;2.0;534268.40622;
30.9306215647;10149900.0;52.6378;1.0;2.0;534268.40622;
30.9806711142;10149900.0;52.6378;1.0;2.0;534268.40622;
31.0307206636;10149900.0;52.7573;1.0;2.0;535481.31927;
31.0807702131;10149900.0;52.7573;1.0;2.0;535481.31927;
31.1308197625;10010800.0;52.7694;1.0;2.0;528263.90952;
31.180869312;10031906.6722;52.7694;1.0;2.0;529377.69595;
31.2309188615;10053800.0;52.7694;1.0;2.0;530532.99372;
31.2809684109;10053800.0;52.7694;1.25;2.0;530532.99372;
31.3310179604;10053800.0;52.7694;0.75;2.0;530532.99372;
31.3810675098;10053800.0;52.7694;1.0;2.0;530532.99372;
31.4311170593;10053800.0;52.7694;1.0;2.0;530532.99372;
31.4811666087;10053800.0;52.7694;1.0;2.0;530532.99372;
31.5312161582;10053800.0;52.7694;1.0;2.0;530532.99372;
31.5812657077;10053800.0;52.7694;1.0;2.0;530532.99372;
31.6313152571;10053800.0;52.7694;1.0;2.0;530532.99372;
31.6813648066;10053800.0;52.7694;1.25;2.0;530532.99372;
31.731414356;10053800.0;52.7694;0.75;2.0;530532.99372;
31.7814639055;10053800.0;52.7694;1.0;2.0;530532.99372;
31.8315134549;10053800.0;52.7694;1.0;2.0;530532.99372;
31.8815630044;10037900.0;52.7694;1.0;2.0;529693.96026;
31.9316125539;10037900.0;52.7694;1.0;2.0;529693.96026;
31.9816621033;10037900.0;52.7694;1.0;2.0;529693.96026;
32.0317116528;10037900.0;52.7694;1.0;2.0;529693.96026;
32.0817612022;10037900.0;52.7694;1.0;2.0;529693.96026;
32.1318107517;10037900.0;52.7694;1.25;2.0;529693.96026;
32.1818603011;10037900.0;52.7694;0.75;2.0;529693.96026;
32.2319098506;10037400.0;52.7694;1.0;2.0;529667.57556;
32.2819594001;10037400.0;52.7694;1.0;2.0;529667.57556;
32.3320089495;10037400.0;52.7694;1.0;2.0;529667.57556;
32.382058499;10037400.0;52.7694;1.0;2.0;529667.57556;
32.4321080484;10037400.0;52.7694;1.0;2.0;529667.57556;
32.4821575979;10037400.0;52.7694;1.0;2.0;529667.57556;
32.5322071473;10037400.0;52.7694;1.25;2.0;529667.57556;
32.5822566968;10037400.0;52.7694;0.75;2.0;529667.57556;
32.6323062463;10037400.0;52.7694;1.0;2.0;529667.57556;
32.6823557957;10037400.0;52.7694;1.0;2.0;529667.57556;
32.7324053452;10023200.0;52.7694;1.0;2.0;528918.25008;
32.7824548946;10023200.0;52.7694;1.0;2.0;528918.25008;
32.8325044441;10023200.0;52.7694;1.0;2.0;528918.25008;
32.8825539935;10023200.0;52.7694;1.0;2.0;528918.25008;
32.932603543;10023200.0;52.7694;1.25;2.0;528918.25008;
32.9826530925;10023200.0;52.7694;0.75;2.0;528918.25008;
33.0327026419;10023200.0;52.7694;0.75;2.0;528918.25008;
33.0827521914;10022800.0;52.7694;1.0;2.0;528897.14232;
33.1328017408;10022800.0;52.7694;1.0;2.0;528897.14232;
33.1828512903;10022800.0;52.7694;1.0;2.0;528897.14232;
33.2329008398;10022800.0;52.7694;1.0;2.0;528897.14232;
33.2829503892;10022800.0;52.7694;1.0;2.0;528897.14232;
33.3329999387;10022800.0;52.7694;1.0;2.0;528897.14232;
33.3830494881;10022800.0;52.7694;1.25;2.0;528897.14232;
33.4330990376;10022800.0;52.7694;0.75;2.0;528897.14232;
33.483148587;10022800.0;52.7694;1.0;2.0;528897.14232;
33.5331981365;10022800.0;52.7694;1.0;2.0;528897.14232;
33.583247686;10020300.0;52.7694;1.0;2.0;528765.21882;
33.6332972354;10020300.0;52.7694;1.0;2.0;528765.21882;
33.6833467849;10020300.0;52.7694;1.0;2.0;528765.21882;
33.7333963343;10022100.0;52.7694;1.0;2.0;528860.20374;
33.7834458838;10022100.0;52.7694;1.25;2.0;528860.20374;
33.8334954332;10022100.0;52.7694;0.75;2.0;528860.20374;
33.8835449827;10022100.0;52.7694;1.0;2.0;528860.20374;
33.9335945322;10022100.0;52.7694;1.0;2.0;528860.20374;
33.9836440816;10022100.0;52.7694;1.0;2.0;528860.20374;
34.0336936311;10022100.0;52.7694;1.0;2.0;528860.20374;
34.0837431805;10022100.0;52.7694;1.0;2.0;528860.20374;
34.13379273;10023000.0;52.7694;1.0;2.0;528907.6962;
34.1838422794;10023000.0;52.7694;1.0;2.0;528907.6962;
34.2338918289;10023000.0;52.7694;1.25;2.0;528907.6962;
34.2839413784;10023000.0;52.7694;0.75;2.0;528907.6962;
34.3339909278;10023000.0;52.7694;1.0;2.0;528907.6962;
34.3840404773;10023000.0;52.7694;1.0;2.0;528907.6962;
34.4340900267;10023000.0;52.7694;1.0;2.0;528907.6962;
34.4841395762;10023000.0;52.7694;1.0;2.0;528907.6962;
34.5341891256;10023000.0;52.7694;1.0;2.0;528907.6962;
34.5842386751;10023000.0;52.7694;1.0;2.0;528907.6962;
34.6342882246;10023000.0;52.7694;1.25;2.0;528907.6962;
34.684337774;10023000.0;52.7694;0.75;2.0;528907.6962;
34.7343873235;10023000.0;52.7694;1.0;2.0;528907.6962;
34.7844368729;10023000.0;52.7694;1.0;2.0;528907.6962;
34.8344864224;10021300.0;52.7694;1.0;2.0;528817.98822;
34.8845359718;10021300.0;52.7694;1.0;2.0;528817.98822;
34.9345855213;10021300.0;52.7694;1.0;2.0;528817.98822;
34.9846350708;10021300.0;52.7694;1.0;2.0;528817.98822;
35.0346846202;10021300.0;52.7694;1.0;2.0;528817.98822;
35.0847341697;10021300.0;52.7694;1.25;2.0;528817.98822;
35.1347837191;10021300.0;52.7694;0.75;2.0;528817.98822;
35.1848332686;10021300.0;52.7694;1.0;2.0;528817.98822;
35.2348828181;10021300.0;52.7694;1.0;2.0;528817.98822;
35.2849323675;10021100.0;52.7694;1.0;2.0;528807.43434;
35.334981917;10021100.0;52.7694;1.0;2.0;528807.43434;
35.3850314664;10021100.0;52.7694;1.0;2.0;528807.43434;
35.4350810159;10021100.0;52.7694;1.0;2.0;528807.43434;
35.4851305653;10021100.0;52.7694;1.25;2.0;528807.43434;
35.5351801148;10021100.0;52.7694;0.75;2.0;528807.43434;
35.5852296643;10021100.0;52.7694;1.0;2.0;528807.43434;
35.6352792137;10021100.0;52.7694;1.0;2.0;528807.43434;
35.6853287632;10020300.0;52.7694;1.0;2.0;528765.21882;
35.7353783126;10020300.0;52.7694;1.0;2.0;528765.21882;
35.7854278621;10020300.0;52.7694;1.0;2.0;528765.21882;
35.8354774115;10022300.0;52.7694;1.0;2.0;528870.75762;
35.885526961;10022300.0;52.7694;1.25;2.0;528870.75762;
35.9355765105;10022300.0;52.7694;1.25;2.0;528870.75762;
35.9856260599;10022300.0;52.7694;0.75;2.0;528870.75762;
36.0356756094;10022300.0;52.7694;1.0;2.0;528870.75762;
36.0857251588;10022300.0;52.7694;1.0;2.0;528870.75762;
36.1357747083;10022300.0;52.7694;1.0;2.0;528870.75762;
36.1858242577;10022300.0;52.7694;1.0;2.0;528870.75762;
36.2358738072;10022300.0;52.7694;1.0;2.0;528870.75762;
36.2859233567;10022300.0;52.7694;1.0;2.0;528870.75762;
36.3359729061;10022300.0;52.7694;1.25;2.0;528870.75762;
36.3860224556;10022300.0;52.7694;0.75;2.0;528870.75762;
36.436072005;10022300.0;52.7694;1.0;2.0;528870.75762;
36.4861215545;10022300.0;52.7694;1.0;2.0;528870.75762;
36.5361711039;10022200.0;52.7694;1.0;2.0;528865.48068;
36.5862206534;10022200.0;52.7694;1.0;2.0;528865.48068;
36.6362702029;10022200.0;52.7694;1.0;2.0;528865.48068;
36.6863197523;10022200.0;52.7694;1.0;2.0;528865.48068;
36.7363693018;10022200.0;52.7694;1.25;2.0;528865.48068;
36.7864188512;10022200.0;52.7694;0.75;2.0;528865.48068;
36.8364684007;10022200.0;52.7694;1.0;2.0;528865.48068;
36.8865179501;10020200.0;52.7694;1.0;2.0;528759.94188;
36.9365674996;10020200.0;52.7694;1.0;2.0;528759.94188;
36.9866170491;10020200.0;52.7694;1.0;2.0;528759.94188;
37.0366665985;10020200.0;52.7694;1.0;2.0;528759.94188;
37.086716148;10022900.0;52.7694;1.0;2.0;528902.41926;
37.1367656974;10022900.0;52.7694;1.0;2.0;528902.41926;
37.1868152469;10022900.0;52.7694;1.25;2.0;528902.41926;
37.2368647963;10022900.0;52.7694;0.75;2.0;528902.41926;
37.2869143458;10022900.0;52.7694;1.0;2.0;528902.41926;
37.3369638953;10022900.0;52.7694;1.0;2.0;528902.41926;
37.3870134447;10022900.0;52.7694;1.0;2.0;528902.41926;
37.4370629942;10022900.0;52.7694;1.0;2.0;528902.41926;
37.4871125436;10022900.0;52.7694;1.0;2.0;528902.41926;
37.5371620931;10022900.0;52.7694;1.0;2.0;528902.41926;
37.5872116426;10022900.0;52.7694;1.25;2.0;528902.41926;
37.637261192;10022900.0;52.7694;0.75;2.0;528902.41926;
37.6873107415;10022900.0;52.7694;1.0;2.0;528902.41926;
37.7373602909;10022900.0;52.7694;1.0;2.0;528902.41926;
37.7874098404;10020500.0;52.7694;1.0;2.0;528775.7727;
37.8374593898;10020500.0;52.7694;1.0;2.0;528775.7727;
37.8875089393;10020500.0;52.7694;1.0;2.0;528775.7727;
37.9375584888;10020500.0;52.7694;1.0;2.0;528775.7727;
37.9876080382;10020500.0;52.7694;1.0;2.0;528775.7727;
38.0376575877;10021000.0;52.7694;1.25;2.0;528802.1574;
38.0877071371;10021000.0;52.7694;0.75;2.0;528802.1574;
38.1377566866;10021000.0;52.7694;1.0;2.0;528802.1574;
38.187806236;10021000.0;52.7694;1.0;2.0;528802.1574;
38.2378557855;10021000.0;52.7694;1.0;2.0;528802.1574;
38.287905335;10021000.0;52.7694;1.0;2.0;528802.1574;
38.3379548844;10021000.0;52.7694;1.0;2.0;528802.1574;
38.3880044339;10021000.0;52.7694;1.0;2.0;528802.1574;
38.4380539833;10021000.0;52.7694;1.25;2.0;528802.1574;
38.4881035328;10023400.0;52.7694;0.75;2.0;528928.80396;
38.5381530822;10023400.0;52.7694;1.0;2.0;528928.80396;
38.5882026317;10023400.0;52.7694;1.0;2.0;528928.80396;
38.6382521812;10023400.0;52.7694;1.0;2.0;528928.80396;
38.6883017306;10023400.0;52.7694;1.0;2.0;528928.80396;
38.7383512801;10023400.0;52.7694;1.0;2.0;528928.80396;
38.7884008295;10023400.0;52.7694;1.0;2.0;528928.80396;
38.838450379;10023400.0;52.7694;1.18068638527;2.0;528928.80396;
38.8884999284;10023400.0;52.7694;1.25;2.0;528928.80396;
38.9385494779;10023400.0;52.7694;0.75;2.0;528928.80396;
38.9885990274;10023400.0;52.7694;1.0;2.0;528928.80396;
39.0386485768;10023400.0;52.7694;1.0;2.0;528928.80396;
39.0886981263;10023400.0;52.7694;1.0;2.0;528928.80396;
39.1387476757;10020800.0;52.7694;1.0;2.0;528791.60352;
39.1887972252;10020800.0;52.7694;1.0;2.0;528791.60352;
39.2388467746;10020800.0;52.7694;1.0;2.0;528791.60352;
39.2888963241;10020800.0;52.7694;1.25;2.0;528791.60352;
39.3389458736;10021700.0;52.7694;0.75;2.0;528839.09598;
39.388995423;10021700.0;52.7694;1.0;2.0;528839.09598;
39.4390449725;10021700.0;52.7694;1.0;2.0;528839.09598;
39.4890945219;10021700.0;52.7694;1.0;2.0;528839.09598;
39.5391440714;10021700.0;52.7694;1.0;2.0;528839.09598;
39.5891936208;10021700.0;52.7694;1.0;2.0;528839.09598;
39.6392431703;10021700.0;52.7694;1.0;2.0;528839.09598;
39.6892927198;10021700.0;52.7694;1.25;2.0;528839.09598;
39.7393422692;10021700.0;52.7694;0.75;2.0;528839.09598;
39.7893918187;10021700.0;52.7694;1.0;2.0;528839.09598;
39.8394413681;10021700.0;52.7694;1.0;2.0;528839.09598;
39.8894909176;10021700.0;52.7694;1.0;2.0;528839.09598;
39.9395404671;10021700.0;52.7694;1.0;2.0;528839.09598;
39.9895900165;10021700.0;52.7694;1.0;2.0;528839.09598;
40.039639566;10021700.0;52.7694;1.0;2.0;528839.09598;
40.0896891154;10008400.0;52.7694;1.0;2.0;528137.26296;
40.1397386649;10008400.0;52.7694;1.25;2.0;528137.26296;
40.1897882143;10008400.0;52.7694;0.75;2.0;528137.26296;
40.2398377638;10008400.0;52.7694;1.0;2.0;528137.26296;
40.2898873133;10008400.0;52.7694;1.0;2.0;528137.26296;
40.3399368627;10008400.0;52.7694;1.0;2.0;528137.26296;
40.3899864122;10008400.0;52.7694;1.0;2.0;528137.26296;
40.4400359616;10008400.0;52.7694;1.0;2.0;528137.26296;
40.4900855111;10008400.0;52.7694;1.0;2.0;528137.26296;
40.5401350605;10008400.0;52.7694;1.0;1.0;528137.26296;
40.59018461;10008400.0;52.7694;1.0;1.0;528137.26296;
40.6402341595;10008400.0;52.7694;1.0;1.0;528137.26296;
40.6902837089;10008400.0;52.7694;1.0;1.0;528137.26296;
40.7403332584;10008400.0;52.7694;1.0;2.0;528137.26296;
40.7903828078;10008400.0;52.7694;1.0;2.0;528137.26296;
40.8404323573;10008400.0;52.7694;1.0;2.0;528137.26296;
40.8904819067;10008400.0;52.7694;1.0;2.0;528137.26296;
40.9405314562;10008400.0;52.4593301597;1.0;2.0;525033.95997;
40.9905810057;9958520.0;52.3869;1.0;2.0;521695.991388;
41.0406305551;9958520.0;52.3869;1.0;2.0;521695.991388;
41.0906801046;9958520.0;52.3869;1.0;2.0;521695.991388;
41.140729654;9672070.0;52.3854019649;1.25;2.0;506675.274783;
41.1907792035;9916190.0;52.3763;0.75;2.0;519373.342297;
41.2408287529;10001700.0;52.3763;1.0;2.0;523852.03971;
41.2908783024;10022900.0;52.3763;1.0;2.0;524962.41727;
41.3409278519;10057718.1132;52.3763;1.0;2.0;526786.06121;
41.3909774013;10093900.0;52.3763;1.0;2.0;528681.13457;
41.4410269508;10093900.0;52.364;1.0;2.0;528556.9796;
41.4910765002;10093900.0;52.364;1.0;2.0;528556.9796;
41.5411260497;10093900.0;52.3528142717;1.25;2.0;528444.071977;
41.5911755991;10093900.0;52.3474;0.75;2.0;528389.42086;
41.6412251486;10093900.0;52.3474;1.0;2.0;528389.42086;
41.6912746981;10093900.0;52.3474;1.0;2.0;528389.42086;
41.7413242475;10093900.0;52.3474;1.0;2.0;528389.42086;
41.791373797;10093900.0;52.3474;1.0;2.0;528389.42086;
41.8414233464;10093900.0;52.3474;1.0;2.0;528389.42086;
41.8914728959;10093900.0;52.3474;1.0;2.0;528389.42086;
41.9415224453;10093900.0;52.3474;1.0;2.0;528389.42086;
41.9915719948;10074400.0;52.3474;1.25;2.0;527368.64656;
42.0416215443;10074400.0;52.3474;0.75;2.0;527368.64656;
42.0916710937;10074400.0;52.3474;1.0;2.0;527368.64656;
42.1417206432;10074400.0;52.3474;1.0;2.0;527368.64656;
42.1917701926;10074400.0;52.3474;1.0;2.0;527368.64656;
42.2418197421;10074400.0;52.3474;1.0;2.0;527368.64656;
42.2918692916;10074400.0;52.3474;1.0;2.0;527368.64656;
42.341918841;10074400.0;52.3474;1.0;2.0;527368.64656;
42.3919683905;10074400.0;52.3474;1.25;2.0;527368.64656;
42.4420179399;10074400.0;52.3474;0.75;2.0;527368.64656;
42.4920674894;10074400.0;52.3474;1.0;2.0;527368.64656;
42.5421170388;10074400.0;52.3474;1.0;2.0;527368.64656;
42.5921665883;10074400.0;52.3474;1.0;2.0;527368.64656;
42.6422161378;10056100.0;52.3474;1.0;2.0;526410.68914;
42.6922656872;10056100.0;52.3474;1.0;2.0;526410.68914;
42.7423152367;10056100.0;52.3474;1.0;2.0;526410.68914;
42.7923647861;10056100.0;52.3474;1.25;2.0;526410.68914;
42.8424143356;10056100.0;52.3474;0.75;2.0;526410.68914;
42.892463885;10056100.0;52.3474;1.0;2.0;526410.68914;
42.9425134345;10056100.0;52.3474;1.0;2.0;526410.68914;
42.992562984;10056100.0;52.3474;1.0;2.0;526410.68914;
43.0426125334;10056100.0;52.3474;1.0;2.0;526410.68914;
43.0926620829;10056100.0;52.3474;1.0;2.0;526410.68914;
43.1427116323;10039100.0;52.3474;1.0;2.0;525520.78334;
43.1927611818;10039100.0;52.3474;1.0;2.0;525520.78334;
43.2428107312;10039100.0;52.3474;1.25;2.0;525520.78334;
43.2928602807;10039100.0;52.3474;0.75;2.0;525520.78334;
43.3429098302;10039100.0;52.3474;1.0;2.0;525520.78334;
43.3929593796;10039100.0;52.3474;1.0;2.0;525520.78334;
43.4430089291;10039100.0;52.3474;1.0;2.0;525520.78334;
43.4930584785;10021000.0;52.3474;1.0;2.0;524573.2954;
43.543108028;10021000.0;52.3474;1.0;2.0;524573.2954;
43.5931575774;10021000.0;52.3474;1.0;2.0;524573.2954;
43.6432071269;10024000.0;52.3474;1.25;2.0;524730.3376;
43.6932566764;10024000.0;52.3474;0.75;2.0;524730.3376;
43.7433062258;10024000.0;52.3474;1.0;2.0;524730.3376;
43.7933557753;10024000.0;52.3474;1.0;2.0;524730.3376;
43.8434053247;10024000.0;52.3474;1.0;2.0;524730.3376;
43.8934548742;10024000.0;52.3474;1.0;2.0;524730.3376;
43.9435044236;10024000.0;52.3474;1.0;2.0;524730.3376;
43.9935539731;10024000.0;52.3474;1.0;2.0;524730.3376;
44.0436035226;10024000.0;52.3474;1.25;2.0;524730.3376;
44.093653072;10024000.0;52.3474;0.75;2.0;524730.3376;
44.1437026215;10024000.0;52.3474;0.916807993619;2.0;524730.3376;
44.1937521709;10024000.0;52.3474;1.0;2.0;524730.3376;
44.2438017204;10024000.0;52.3474;1.0;2.0;524730.3376;
44.2938512698;10024000.0;52.3474;1.0;2.0;524730.3376;
44.3439008193;10022000.0;52.3474;1.0;2.0;524625.6428;
44.3939503688;10022900.0;52.3474;1.0;2.0;524672.75546;
44.4439999182;10022900.0;52.3474;1.0;2.0;524672.75546;
44.4940494677;10022900.0;52.3474;1.25;2.0;524672.75546;
44.5440990171;10022900.0;52.3474;0.75;2.0;524672.75546;
44.5941485666;10022900.0;52.3474;1.0;2.0;524672.75546;
44.6441981161;10022900.0;52.3474;1.0;2.0;524672.75546;
44.6942476655;10022900.0;52.3474;1.0;2.0;524672.75546;
44.744297215;10022900.0;52.3474;1.0;2.0;524672.75546;
44.7943467644;10022900.0;52.3474;1.0;2.0;524672.75546;
44.8443963139;10022900.0;52.3474;1.0;2.0;524672.75546;
44.8944458633;10022900.0;52.3474;1.25;2.0;524672.75546;
44.9444954128;10022900.0;52.3474;0.75;2.0;524672.75546;
44.9945449623;10022900.0;52.3474;1.0;2.0;524672.75546;
45.0445945117;10022100.0;52.3474;1.0;2.0;524630.87754;
45.0946440612;10022100.0;52.3474;1.0;2.0;524630.87754;
45.1446936106;10022100.0;52.3474;1.0;2.0;524630.87754;
45.1947431601;10022100.0;52.3474;1.0;2.0;524630.87754;
45.2447927095;10022100.0;52.3474;1.0;2.0;524630.87754;
45.294842259;10022500.0;52.3474;1.25;2.0;524651.8165;
45.3448918085;10022500.0;52.3474;1.25;2.0;524651.8165;
45.3949413579;10022500.0;52.3474;0.75;2.0;524651.8165;
45.4449909074;10022500.0;52.3474;1.0;2.0;524651.8165;
45.4950404568;10022500.0;52.3474;1.0;2.0;524651.8165;
45.5450900063;10022500.0;52.3474;1.0;2.0;524651.8165;
45.5951395557;10022500.0;52.3474;1.0;2.0;524651.8165;
45.6451891052;10022500.0;52.3474;1.0;2.0;524651.8165;
45.6952386547;10022500.0;52.3474;1.0;2.0;524651.8165;
45.7452882041;10022500.0;52.3474;1.25;2.0;524651.8165;
45.7953377536;10022500.0;52.3474;0.75;2.0;524651.8165;
45.845387303;10022500.0;52.3474;1.0;2.0;524651.8165;
45.8954368525;10022500.0;52.3474;1.0;2.0;524651.8165;
45.9454864019;10020100.0;52.3474;1.0;2.0;524526.18274;
45.9955359514;10020100.0;52.3474;1.0;2.0;524526.18274;
46.0455855009;10020100.0;52.3474;1.0;2.0;524526.18274;
46.0956350503;10023300.0;52.3474;1.0;2.0;524693.69442;
46.1456845998;10023300.0;52.3474;1.25;2.0;524693.69442;
46.1957341492;10023300.0;52.3474;0.75;2.0;524693.69442;
46.2457836987;10023300.0;52.3474;1.0;2.0;524693.69442;
46.2958332481;10023300.0;52.3474;1.0;2.0;524693.69442;
46.3458827976;10023300.0;52.3474;1.0;2.0;524693.69442;
46.3959323471;10023300.0;52.3474;1.0;2.0;524693.69442;
46.4459818965;10023300.0;52.3474;1.0;2.0;524693.69442;
46.496031446;10023300.0;52.3474;1.0;2.0;524693.69442;
46.5460809954;10023300.0;52.3474;1.0;2.0;524693.69442;
46.5961305449;10023300.0;52.3474;1.25;2.0;524693.69442;
46.6461800944;10023300.0;52.3474;0.75;2.0;524693.69442;
46.6962296438;10023300.0;52.3474;1.0;2.0;524693.69442;
46.7462791933;10023300.0;52.3474;1.0;2.0;524693.69442;
46.7963287427;10021700.0;52.3474;1.0;2.0;524609.93858;
46.8463782922;10021700.0;52.3474;1.0;2.0;524609.93858;
46.8964278416;10021700.0;52.3474;1.0;2.0;524609.93858;
46.9464773911;10021700.0;52.3474;1.0;2.0;524609.93858;
46.9965269406;10021700.0;52.3474;1.25;2.0;524609.93858;
47.04657649;10021700.0;52.3474;0.75;2.0;524609.93858;
47.0966260395;10021700.0;52.3474;1.0;2.0;524609.93858;
47.1466755889;10021700.0;52.3474;1.0;2.0;524609.93858;
47.1967251384;10021700.0;52.3474;1.0;2.0;524609.93858;
47.2467746878;10021700.0;52.3474;1.0;2.0;524609.93858;
47.2968242373;10021700.0;52.3474;1.0;2.0;524609.93858;
47.3468737868;10021700.0;52.3474;1.0;2.0;524609.93858;
47.3969233362;10021700.0;52.3474;1.25;2.0;524609.93858;
47.4469728857;10023400.0;52.3474;0.75;2.0;524698.92916;
47.4970224351;10023400.0;52.3474;1.0;2.0;524698.92916;
47.5470719846;10023400.0;52.3474;1.0;2.0;524698.92916;
47.597121534;10023400.0;52.3474;1.0;2.0;524698.92916;
47.6471710835;10023400.0;52.3474;1.0;2.0;524698.92916;
47.697220633;10023400.0;52.3474;1.0;2.0;524698.92916;
47.7472701824;10023400.0;52.3474;1.0;2.0;524698.92916;
47.7973197319;10023400.0;52.3474;1.0;2.0;524698.92916;
47.8473692813;10023400.0;52.3474;1.25;2.0;524698.92916;
47.8974188308;10023400.0;52.3474;0.75;2.0;524698.92916;
47.9474683802;10023400.0;52.3474;1.0;2.0;524698.92916;
47.9975179297;10023400.0;52.3474;1.0;2.0;524698.92916;
48.0475674792;10023400.0;52.3474;1.0;2.0;524698.92916;
48.0976170286;10023400.0;52.3474;1.0;2.0;524698.92916;
48.1476665781;10019600.0;52.3474;1.0;2.0;524500.00904;
48.1977161275;10019600.0;52.3474;1.0;2.0;524500.00904;
48.247765677;10019600.0;52.3474;1.25;2.0;524500.00904;
48.2978152264;10019600.0;52.3474;0.75;2.0;524500.00904;
48.3478647759;10019600.0;52.3474;1.0;2.0;524500.00904;
48.3979143254;10019600.0;52.3474;1.0;2.0;524500.00904;
48.4479638748;10019600.0;52.3474;1.0;2.0;524500.00904;
48.4980134243;10019600.0;52.3474;1.0;2.0;524500.00904;
48.5480629737;10019600.0;52.3474;1.0;2.0;524500.00904;
48.5981125232;10019600.0;52.3474;1.0;2.0;524500.00904;
48.6481620726;10019600.0;52.3474;1.25;2.0;524500.00904;
48.6982116221;10019600.0;52.3474;0.75;2.0;524500.00904;
48.7482611716;10019600.0;52.3474;0.75;2.0;524500.00904;
48.798310721;10019600.0;52.3474;1.0;2.0;524500.00904;
48.8483602705;10019600.0;52.3474;1.0;2.0;524500.00904;
48.8984098199;10019600.0;52.3474;1.0;2.0;524500.00904;
48.9484593694;10019600.0;52.3474;1.0;2.0;524500.00904;
48.9985089189;10006300.0;52.3474;1.0;2.0;523803.78862;
49.0485584683;10006300.0;52.3474;1.0;2.0;523803.78862;
49.0986080178;10006300.0;52.3474;1.25;2.0;523803.78862;
49.1486575672;10006300.0;52.3474;0.75;2.0;523803.78862;
49.1987071167;10006300.0;52.3474;1.0;2.0;523803.78862;
49.2487566661;10006300.0;52.3474;1.0;2.0;523803.78862;
49.2988062156;10004800.0;52.3474;1.0;2.0;523725.26752;
49.3488557651;10004800.0;52.3474;1.0;2.0;523725.26752;
49.3989053145;10006300.0;52.3474;1.0;2.0;523803.78862;
49.448954864;10006300.0;52.3474;1.0;2.0;523803.78862;
49.4990044134;10006300.0;52.3474;1.25;2.0;523803.78862;
49.5490539629;10006300.0;52.3474;0.75;2.0;523803.78862;
49.5991035123;10006300.0;52.3474;1.0;2.0;523803.78862;
49.6491530618;10006300.0;52.3474;1.0;2.0;523803.78862;
49.6992026113;10006300.0;52.3474;1.0;2.0;523803.78862;
49.7492521607;10006300.0;52.3474;1.0;2.0;523803.78862;
49.7993017102;10006300.0;52.3474;1.0;2.0;523803.78862;
49.8493512596;10006300.0;52.3474;1.0;2.0;523803.78862;
49.8994008091;10006300.0;52.3474;1.05444577012;2.0;523803.78862;
49.9494503585;10006300.0;52.3474;1.25;2.0;523803.78862;
49.999499908;0.0;0.0;0.0;0.0;0.0;
