0;0;
0.0;232.0;
0.0500499498579;216.013784936;
0.100099899716;5826.95357079;
0.150149849574;5548.45296522;
0.200199799431;5253.21188471;
0.250249749289;5089.70939869;
0.300299699147;4736.96474313;
0.350349649005;4300.63224755;
0.400399598863;3903.37211173;
0.450449548721;3192.3869146;
0.500499498579;1354.38336379;
0.550549448436;145498.942848;
0.600599398294;169376.868401;
0.650649348152;385990.188537;
0.70069929801;638468.744649;
0.750749247868;890945.688619;
0.800799197726;976090.437823;
0.850849147584;977573.271319;
0.900899097441;979061.937905;
0.950949047299;693694.687109;
1.00099899716;243985.802273;
1.05104894702;492439.973077;
1.10109889687;896270.14388;
1.15114884673;986253.543122;
1.20119879659;877150.320391;
1.25124874645;624450.321059;
1.3012986963;214052.468489;
1.35134864616;5976.0;
1.40139859602;192015.732679;
1.45144854588;179996.739566;
1.50149849574;6916.64718393;
1.55154844559;5873.4024188;
1.60159839545;5168.07465548;
1.65164834531;2526.76002245;
1.70169829517;7748.83435178;
1.75174824503;11952.0;
1.80179819488;1350.63035058;
1.85184814474;11952.0;
1.9018980946;1284.34385073;
1.95194804446;11952.0;
2.00199799431;1274.30687295;
2.05204794417;6693.36018322;
2.10209789403;3334.64787318;
2.15214784389;4841.70610753;
2.20219779375;18300.7643419;
2.2522477436;19742.3573881;
2.30229769346;33188.8568038;
2.35234764332;34683.3562196;
2.40239759318;49095.4225413;
2.45244754304;53231.3913411;
2.50249749289;45826.5525383;
2.55254744275;60177.1952033;
2.60259739261;57590.5615992;
2.65264734247;66955.927995;
2.70269729232;64496.1392062;
2.75274724218;73886.1402078;
2.80279719204;71940.1522298;
2.8528471419;73432.7503769;
2.90289709176;86879.2497927;
2.95294704161;88373.7492084;
3.00299699147;101771.948192;
3.05304694133;103279.006427;
3.10309689119;104786.064661;
3.15314684105;118156.146871;
3.2031967909;120042.585148;
3.25324674076;131169.35607;
3.30329669062;134661.179797;
3.35334664048;132099.180798;
3.40339659033;138214.333904;
3.45344654019;138998.867252;
3.50349649005;136412.233647;
3.55354643991;145777.600043;
3.60359638977;143459.33608;
3.65364633962;144966.394315;
3.70369628948;158425.452549;
3.75374623934;159894.53986;
3.8037961892;173341.039276;
3.85384613906;174835.538692;
3.90389608891;176305.248512;
3.95394603877;189764.306746;
4.00399598863;191544.295511;
4.05404593849;196967.745418;
4.10409588834;206677.322705;
4.1541458382;204090.689101;
4.20419578806;201576.969254;
4.25424573792;210966.970256;
4.30429568778;206698.115269;
4.35434563763;205868.5393;
4.40439558749;215233.905696;
4.45444553735;216573.93168;
4.50449548721;217992.6364;
4.55454543707;231451.694634;
4.60459538692;232958.752868;
4.65464533678;234404.329343;
4.70469528664;247850.828759;
4.7547452365;249345.328175;
4.80479518635;250838.548831;
4.85484513621;268313.308025;
4.90489508607;261509.507974;
4.95494503593;264181.628358;
5.00499498579;261594.994753;
5.05504493564;270960.361149;
5.1050948855;268492.758711;
5.15514483536;265930.759713;
5.20519478522;275181.896635;
5.25524473508;276142.722332;
5.30529468493;277637.221748;
5.35534463479;291083.721164;
5.40539458465;292525.936719;
5.45544453451;294032.994953;
5.50549448436;307492.053187;
5.55554443422;308914.118827;
5.60559438408;310408.618242;
5.65564433394;315356.470633;
5.7056942838;326705.799302;
5.75574423365;324143.800304;
5.80579418351;318041.28934;
5.85584413337;331051.300406;
5.90589408323;328464.666802;
5.95594403309;325878.033198;
6.00599398294;323456.548169;
6.0560439328;335720.382841;
6.10609388266;337227.441075;
6.15614383252;338700.511816;
6.20619378237;352147.011231;
6.25624373223;353641.510647;
6.30629368209;355107.237038;
6.35634363195;356614.295272;
6.40639358181;370073.353507;
6.45644353166;374351.63324;
6.50649348152;374825.755859;
6.55654343138;372239.122255;
6.60659338124;381669.588759;
6.6566433311;379107.589761;
6.70669328095;374573.070705;
6.75674323081;385968.972454;
6.80679318067;383382.33885;
6.85684313053;383427.903636;
6.90689308038;384842.624926;
6.95694303024;398301.68316;
7.0069929801;399808.741395;
7.05704292996;401258.301299;
7.10709287982;402752.800714;
7.15714282967;416199.30013;
7.20719277953;417688.537357;
7.25724272939;421793.195847;
7.30729267925;417432.463411;
7.35734262911;432330.061512;
7.40739257896;429743.427908;
7.45744252882;427156.794304;
7.50749247868;424681.378217;
7.55754242854;434071.379218;
7.60759237839;431104.852071;
7.65764232825;431044.694288;
7.70769227811;432539.193703;
7.75774222797;445985.693119;
7.80779217783;447423.925245;
7.85784212768;448930.98348;
7.90789207754;450438.041714;
7.9579420274;463816.090782;
8.00799197726;465310.590198;
8.05804192712;468836.358454;
8.10809187697;470942.418807;
8.15814182683;480332.419809;
8.20819177669;473964.244776;
8.25824172655;475295.73356;
8.3082916764;472709.099956;
8.35834162626;482074.466352;
8.40839157612;479645.167674;
8.45844152598;478666.371367;
8.50849147584;480173.429602;
8.55854142569;493602.483771;
8.60859137555;495096.983187;
8.65864132541;496591.482602;
8.70869127527;498053.225564;
8.75874122513;511512.283799;
8.80879117498;513019.342033;
8.85884112484;515879.521061;
8.9088910747;519070.189014;
8.95894102456;521316.740546;
9.00899097441;525906.208264;
9.05904092427;523344.209266;
9.10909087413;518544.026142;
9.15914082399;518261.405608;
9.20919077385;527626.772004;
9.2592407237;526377.875591;
9.30929067356;527788.613452;
9.35934062342;529295.671687;
9.40939057328;542754.729921;
9.45944052314;544208.273254;
9.50949047299;545702.77267;
9.55954042285;547197.272086;
9.60959037271;560634.525884;
9.65964032257;563321.083668;
9.70969027242;561403.418847;
9.75974022228;564622.494666;
9.80979017214;562035.861062;
9.859840122;571401.227458;
9.90989007186;568917.997722;
9.95994002171;566355.998723;
10.0099899716;563358.659711;
10.0600399214;562341.466243;
10.1100898713;575787.965659;
10.1601398211;577282.465074;
10.210189771;578776.96449;
10.2602397209;580271.463906;
10.3102896707;593717.963322;
10.3603396206;595212.462737;
10.4103895704;596706.962153;
10.4604395203;599404.384706;
10.5104894702;603388.870228;
10.56053942;612650.77128;
10.6105893699;609960.672331;
10.6606393197;607270.573383;
10.7106892696;604580.474435;
10.7607392194;613842.375486;
10.8107891693;611152.276538;
10.8608391192;610157.456895;
10.910889069;611651.95631;
10.9609390189;612386.678974;
11.0109889687;625969.041973;
11.0610389186;627599.404972;
11.1110888684;628585.953973;
11.1611388183;630080.453389;
11.2111887682;631574.952805;
11.261238718;645021.452221;
11.3112886679;651200.806413;
11.3613386177;648755.261915;
11.4113885676;646309.717416;
11.4614385174;643864.172918;
11.5114884673;653370.628419;
11.5615384172;650925.083921;
11.611588367;648479.539423;
11.6616383169;646033.994924;
11.7116882667;646519.946962;
11.7617382166;659966.446378;
11.8117881665;661460.945794;
11.8618381163;662955.445209;
11.9118880662;664449.944625;
11.961938016;665944.444041;
12.0119879659;679390.943457;
12.0620379157;680885.442872;
12.1120878656;687043.730801;
12.1621378155;684598.186303;
12.2121877653;694104.641804;
12.2622377152;691659.097306;
12.312287665;689213.552807;
12.3623376149;686768.008309;
12.4123875647;684322.463811;
12.4624375146;693828.919312;
12.5124874645;694335.937614;
12.5625374143;695830.43703;
12.6125873642;697324.936445;
12.662637314;698819.435861;
12.7126872639;712265.935277;
12.7627372138;713760.434693;
12.8127871636;715254.934108;
12.8628371135;716749.433524;
12.9128870633;722886.655189;
12.9629370132;720441.110691;
13.012986963;729947.566192;
13.0630369129;727502.021694;
13.1130868628;725056.477195;
13.1631368126;721146.683978;
13.2131867625;720469.927018;
13.2632367123;729731.82807;
13.3132866622;730199.928266;
13.363336612;731694.427681;
13.4133865619;733188.927097;
13.4634365118;734683.426513;
13.5134864616;748129.925929;
13.5635364115;749624.425344;
13.6135863613;751118.92476;
13.6636363112;752613.424176;
13.7136862611;756371.770775;
13.7637362109;763405.384782;
13.8137861608;767071.939639;
13.8638361106;764381.84069;
13.9138860605;761691.741742;
13.9639360103;759001.642794;
14.0139859602;756311.543845;
14.0640359101;765573.444897;
14.1140858599;766063.918917;
14.1641358098;767558.418333;
14.2141857596;769052.917749;
14.2642357095;770547.417165;
14.3142856593;783993.91658;
14.3643356092;785488.415996;
14.4143855591;786982.915412;
14.4644355089;788477.414828;
14.5144854588;792251.74273;
14.5645354086;805603.655414;
14.6145853585;802913.556465;
14.6646353084;800223.457517;
14.7146852582;797533.358569;
14.7647352081;794843.25962;
14.8147851579;792153.160672;
14.8648351078;801415.061724;
14.9148850576;801927.909569;
14.9649350075;803422.408985;
15.0149849574;804916.908401;
15.0650349072;806411.407816;
15.1150848571;819857.907232;
15.1651348069;821352.406648;
15.2151847568;822846.906064;
15.2652347066;824341.405479;
15.3152846565;828131.714685;
15.3653346064;829493.27224;
15.4153845562;838755.173292;
15.4654345061;836065.074344;
15.5154844559;833374.975395;
15.5655344058;830684.876447;
15.6155843557;827994.777499;
15.6656343055;825304.678551;
15.7156842554;837791.900221;
15.7657342052;838440.435967;
15.8157841551;840070.798966;
15.8658341049;841701.161965;
15.9158840548;842773.897884;
15.9659340047;844268.3973;
16.0159839545;857714.896715;
16.0660339044;859209.396131;
16.1160838542;861503.373281;
16.1661338041;865442.626425;
16.2161837539;862997.081926;
16.2662337038;872503.537428;
16.3162836537;870057.992929;
16.3663336035;867612.448431;
16.4163835534;865166.903932;
16.4664335032;862721.359434;
16.5164834531;860707.890873;
16.566533403;874154.390289;
16.6165833528;875648.889704;
16.6666333027;877143.38912;
16.7166832525;878637.888536;
16.7667332024;880132.387951;
16.8167831522;881626.887367;
16.8668331021;895073.386783;
16.916883052;897407.317192;
16.9669330018;901285.550813;
17.0169829517;898840.006314;
17.0670329015;896394.461816;
17.1170828514;893948.917317;
17.1671328012;903455.372819;
17.2171827511;901009.82832;
17.267232701;898564.283822;
17.3172826508;896571.881525;
17.3673326007;898066.38094;
17.4173825505;911512.880356;
17.4674325004;913007.379772;
17.5174824503;914501.879188;
17.5675324001;915996.378603;
17.61758235;917490.878019;
17.6676322998;918985.377435;
17.7176822497;921359.261103;
17.7677321995;937128.475201;
17.8177821494;934682.930702;
17.8678320993;932237.386204;
17.9178820491;929791.841705;
17.967931999;925468.351285;
18.0179819488;925360.427979;
18.0680318987;934622.329031;
18.1180818485;932435.872176;
18.1681317984;933930.371592;
18.2181817483;935424.871008;
18.2682316981;936919.370424;
18.318281648;938413.869839;
18.3683315978;951860.369255;
18.4183815477;953354.868671;
18.4684314975;954849.368086;
18.5184814474;956711.602507;
18.5685313973;961195.100754;
18.6185813471;960010.440599;
18.668631297;969272.341651;
18.7186812468;966582.242703;
18.7687311967;963892.143754;
18.8187811466;961202.044806;
18.8688310964;958511.945858;
18.9188810463;956347.862828;
18.9689309961;957842.362244;
19.018980946;971288.86166;
19.0690308958;972783.361075;
19.1190808457;974277.860491;
19.1691307956;975772.359907;
19.2191807454;977266.859323;
19.2692306953;978761.358738;
19.3192806451;980639.574462;
19.369330595;985123.072709;
19.4193805448;983900.057426;
19.4694304947;697891.356401;
19.5194804446;234026.57302;
19.5695303944;232233.173721;
19.6195803443;224294.854648;
19.6696302941;225789.354064;
19.719680244;227675.56044;
19.7697301939;244111.058687;
19.8197801437;242868.86584;
19.8698300936;240178.766891;
19.9198800434;249440.667943;
19.9699299933;246750.568995;
20.0199799431;244060.470046;
20.070029893;253322.371098;
20.1200798429;251191.848806;
20.1701297927;252686.348221;
20.2201797426;266132.847637;
20.2702296924;267627.347053;
20.3202796423;269121.846469;
20.3703295921;270616.345884;
20.420379542;283809.649418;
20.4704294919;285440.012417;
20.5204794417;287459.532395;
20.5705293916;303014.061284;
20.6205793414;302614.482666;
20.6706292913;299924.383718;
20.7206792412;309871.895245;
20.770729191;307426.350747;
20.8207791409;304980.806248;
20.8708290907;302535.26175;
20.9208790406;312041.717251;
20.9709289904;311458.338873;
21.0209789403;312952.838289;
21.0710288902;326399.337705;
21.12107884;327893.83712;
21.1711287899;329388.336536;
21.2211787397;330882.835952;
21.2712286896;344329.335368;
21.3212786394;345823.834783;
21.3713285893;350870.005195;
21.4213785392;362557.90863;
21.471428489;360112.364132;
21.5214784389;357666.819633;
21.5715283887;355221.275135;
21.6215783386;364727.730636;
21.6716282885;362282.186138;
21.7216782383;359836.641639;
21.7717281882;359274.329525;
21.821778138;372720.828941;
21.8718280879;374215.328357;
21.9218780377;375709.827772;
21.9719279876;389156.327188;
22.0219779375;390650.826604;
22.0720278873;392145.326019;
22.1220778372;393639.825435;
22.172127787;410677.949106;
22.2221777369;410352.833018;
22.2722276867;407907.28852;
22.3222776366;405461.744021;
22.3723275865;414968.199523;
22.4223775363;412522.655024;
22.4724274862;410077.110526;
22.522477436;407631.566027;
22.5725273859;419042.320177;
22.6225773358;420536.819593;
22.6726272856;422031.319008;
22.7226772355;435477.818424;
22.7727271853;436972.31784;
22.8227771352;438466.817255;
22.872827085;439961.316671;
22.9228770349;453407.816087;
22.9729269848;456354.946508;
23.0229769346;459740.133147;
23.0730268845;457050.034199;
23.1230768343;454359.93525;
23.1731267842;463621.836302;
23.223176734;460931.737354;
23.2732266839;458241.638405;
23.3232766338;455551.539457;
23.3733265836;466858.310829;
23.4233765335;468352.810244;
23.4734264833;469847.30966;
23.5234764332;471341.809076;
23.5735263831;484788.308492;
23.6235763329;486282.807907;
23.6736262828;487777.307323;
23.7236762326;489271.806739;
23.7737261825;504186.918463;
23.8237761323;507533.749974;
23.8738260822;504843.651025;
23.9238760321;502153.552077;
23.9739259819;511415.453129;
24.0239759318;508725.35418;
24.0740258816;506035.255232;
24.1240758315;503345.156284;
24.1741257813;514674.30148;
24.2241757312;516168.800896;
24.2742256811;517663.300312;
24.3242756309;519157.799728;
24.3743255808;520652.299143;
24.4243755306;534098.798559;
24.4744254805;535593.297975;
24.5244754304;537087.797391;
24.5745253802;540066.890419;
24.6245753301;555327.3668;
24.6746252799;552637.267852;
24.7246752298;549947.168904;
24.7747251796;547257.069955;
24.8247751295;556518.971007;
24.8748250794;553828.872059;
24.9248750292;551138.77311;
24.9749249791;550538.292132;
25.0249749289;552032.791548;
25.0750248788;565479.290964;
25.1250748286;566973.790379;
25.1751247785;568468.289795;
25.2251747284;569623.406412;
25.2752246782;583205.769411;
25.3252746281;584836.13241;
25.3753245779;585402.287458;
25.4253745278;591168.983627;
25.4754244776;588478.884679;
25.5254744275;598271.259755;
25.5755243774;595825.715257;
25.6255743272;593380.170758;
25.6756242771;590934.62626;
25.7256742269;588489.081761;
25.7757241768;597995.537263;
25.8257741267;598852.7822;
25.8758240765;600347.281615;
25.9258740264;601841.781031;
25.9759239762;615288.280447;
26.0259739261;616782.779863;
26.0760238759;618277.279278;
26.1260738258;619771.778694;
26.1761237757;621266.27811;
26.2261737255;639005.27314;
26.2762236754;636559.728642;
26.3262736252;634114.184143;
26.3763235751;631668.639645;
26.4263735249;629223.095146;
26.4764234748;638729.550648;
26.5264734247;636284.006149;
26.5765233745;633838.461651;
26.6265733244;634716.772851;
26.6766232742;636211.272267;
26.7266732241;649657.771683;
26.776723174;651152.271099;
26.8267731238;652646.770514;
26.8768230737;654141.26993;
26.9268730235;667587.769346;
26.9769229734;669082.268762;
27.0269729232;674848.197528;
27.0770228731;672402.65303;
27.127072823;669957.108531;
27.1771227728;679463.564033;
27.2271727227;677018.019534;
27.2772226725;674572.475036;
27.3272726224;672126.930537;
27.3773225722;669681.386039;
27.4273725221;682532.763503;
27.477422472;684027.262919;
27.5274724218;685521.762335;
27.5775223717;687016.26175;
27.6275723215;688510.761166;
27.6776222714;701957.260582;
27.7276722213;703451.759998;
27.7777221711;704946.259413;
27.827772121;708986.276487;
27.8778220708;709748.535159;
27.9278720207;719010.436211;
27.9779219705;716320.337263;
28.0279719204;713630.238314;
28.0780218703;710940.139366;
28.1280718201;708250.040418;
28.17812177;717511.941469;
28.2281717198;718396.754155;
28.2782216697;719891.253571;
28.3282716195;721385.752986;
28.3783215694;722880.252402;
28.4283715193;724374.751818;
28.4784214691;737821.251234;
28.528471419;739315.750649;
28.5785213688;740810.250065;
28.6285713187;744866.248443;
28.6786212686;745590.151986;
28.7286712184;754852.053038;
28.7787211683;752161.95409;
28.8287711181;749471.855141;
28.878821068;746781.756193;
28.9288710178;744091.657245;
28.9789209677;753353.558296;
29.0289709176;754260.744807;
29.0790208674;755755.244222;
29.1290708173;757249.743638;
29.1791207671;758744.243054;
29.229170717;760238.74247;
29.2792206668;773685.241885;
29.3292706167;775179.741301;
29.3793205666;776674.240717;
29.4293705164;780746.220398;
29.4794204663;781431.768813;
29.5294704161;790693.669865;
29.579520366;788003.570916;
29.6295703159;785313.471968;
29.6796202657;782623.37302;
29.7296702156;779933.274071;
29.7797201654;789195.175123;
29.8297701153;790124.735458;
29.8798200651;791619.234874;
29.929870015;793113.73429;
29.9799199649;794608.233706;
30.0299699147;795677.163405;
30.0800198646;809259.526404;
30.1300698144;810889.889403;
30.1801197643;811542.231369;
30.2301697141;814540.384706;
30.280219664;817273.38564;
30.3302696139;826910.624265;
30.3803195637;824465.079766;
30.4303695136;822019.535268;
30.4804194634;819573.99077;
30.5304694133;817128.446271;
30.5805193632;814682.901773;
30.630569313;824992.72611;
30.6806192629;826487.225526;
30.7306692127;827981.724942;
30.7807191626;829476.224357;
30.8307691124;830970.723773;
30.8808190623;832465.223189;
30.9308690122;845911.722605;
30.980918962;847406.22202;
31.0309689119;850444.328617;
31.0810188617;853247.093151;
31.1310688116;850801.548653;
31.1811187614;848356.004155;
31.2311687113;857862.459656;
31.2812186612;855416.915158;
31.331268611;852971.370659;
31.3813185609;850525.826161;
31.4313685107;848904.716762;
31.4814184606;862351.216178;
31.5314684105;863845.715594;
31.5815183603;865340.215009;
31.6315683102;866834.714425;
31.68161826;868329.213841;
31.7316682099;869823.713256;
31.7817181597;883270.212672;
31.8317681096;886348.272528;
31.8818180595;889090.017539;
31.9318680093;886644.473041;
31.9819179592;884198.928543;
32.031967909;881753.384044;
32.0820178589;891259.839546;
32.1320678087;888814.295047;
32.1821177586;886368.750549;
32.2321677085;884768.707414;
32.2822176583;886263.20683;
32.3322676082;899709.706245;
32.382317558;901204.205661;
32.4323675079;902698.705077;
32.4824174577;904193.204492;
32.5324674076;905687.703908;
32.5825173575;907182.203324;
32.6325673073;921278.108219;
32.6826172572;925761.606466;
32.732667207;923900.937172;
32.7827171569;921210.838224;
32.8327671068;918520.739275;
32.8828170566;915830.640327;
32.9328670065;925092.541379;
32.9829169563;922402.44243;
33.0329669062;920632.698066;
33.083016856;922127.197481;
33.1330668059;923621.696897;
33.1831167558;925116.196313;
33.2331667056;926610.695728;
33.2832166555;940057.195144;
33.3332666053;941551.69456;
33.3833165552;943046.193976;
33.433366505;945206.080174;
33.4834164549;949689.578422;
33.5334664048;947790.553999;
33.5835163546;957052.45505;
33.6335663045;954362.356102;
33.6836162543;951672.257154;
33.7336662042;948982.158205;
33.7837161541;946292.059257;
33.8337661039;944544.688717;
33.8838160538;957991.188133;
33.9338660036;959485.687549;
33.9839159535;960980.186965;
34.0339659033;962474.68638;
34.0840158532;963969.185796;
34.1340658031;965463.685212;
34.1841157529;978910.184627;
34.2341657028;981086.05213;
34.2842156526;985569.550377;
34.3342656025;983632.170825;
34.3843155523;980942.071877;
34.4343655022;978251.972929;
34.4844154521;975561.873981;
34.5344654019;972871.775032;
34.5845153518;970181.676084;
34.6345653016;968456.679369;
34.6846152515;611391.178785;
34.7346652014;237429.986159;
34.7847151512;235636.58686;
34.8347651011;225268.781342;
34.8848150509;222578.682394;
34.9348650008;219888.583446;
34.9849149506;230592.804088;
35.0349649005;228147.25959;
35.0850148504;228012.189939;
35.1350648002;241381.673527;
35.1851147501;242876.172942;
35.2351646999;244370.672358;
35.2852146498;257817.171774;
35.3352645996;259311.671189;
35.3853145495;260806.170605;
35.4353644994;274252.670021;
35.4854144492;280003.01662;
35.5354643991;278663.450969;
35.5855143489;276217.90647;
35.6355642988;285724.361972;
35.6856142487;283278.817473;
35.7356641985;280833.272975;
35.7857141484;290339.728477;
35.8357640982;287894.183978;
35.8858140481;287703.164762;
35.9358639979;301149.664178;
35.9859139478;302644.163594;
36.0359638977;304138.66301;
36.0860138475;305633.162425;
36.1360637974;319079.661841;
36.1861137472;320574.161257;
36.2361636971;322068.660673;
36.2862136469;339810.96053;
36.3362635968;338410.375357;
36.3863135467;335964.830858;
36.4363634965;345471.28636;
36.4864134464;343025.741861;
36.5364633962;340580.197363;
36.5865133461;338134.652864;
36.636563296;347641.108366;
36.6866132458;347471.155414;
36.7366631957;348965.65483;
36.7867131455;350460.154246;
36.8367630954;363906.653662;
36.8868130452;365401.153077;
36.9368629951;366895.652493;
36.986912945;380342.151909;
37.0369628948;381836.651324;
37.0870128447;387666.904441;
37.1370627945;386205.299745;
37.1871127444;392179.020514;
37.2371626942;394346.431823;
37.2872126441;391656.332874;
37.337262594;388966.233926;
37.3873125438;398228.134978;
37.4373624937;395538.036029;
37.4874124435;395287.146066;
37.5374623934;396781.645482;
37.5875123433;410228.144898;
37.6375622931;411722.644313;
37.687612243;413217.143729;
37.7376621928;426663.643145;
37.7877121427;428158.142561;
37.8377620925;429652.641976;
37.8878120424;432897.424176;
37.9378619923;447520.246546;
37.9879119421;444830.147598;
38.037961892;442140.04865;
38.0880118418;439449.949701;
38.1380617917;448711.850753;
38.1881117415;446021.751805;
38.2381616914;443331.652856;
38.2882116413;443103.136718;
38.3382615911;456549.636134;
38.388311541;458044.135549;
38.4383614908;459538.634965;
38.4884114407;461033.134381;
38.5384613906;474479.633796;
38.5885113404;475974.133212;
38.6385612903;477468.632628;
38.6886112401;480729.396131;
38.73866119;495313.863373;
38.7887111398;492623.764425;
38.8387610897;489933.665476;
38.8888110396;487243.566528;
38.9388609894;484553.46758;
38.9889109393;493815.368631;
39.0389608891;491125.269683;
39.089010839;490919.12737;
39.1390607888;492413.626785;
39.1891107387;505860.126201;
39.2391606886;507354.625617;
39.2892106384;508849.125033;
39.3392605883;510343.624448;
39.3893105381;523790.123864;
39.439360488;525284.62328;
39.4894104378;528561.368087;
39.5394603877;531155.4802;
39.5895103376;540417.381251;
39.6395602874;537727.282303;
39.6896102373;535037.183355;
39.7396601871;532347.084406;
39.789710137;530944.168598;
39.8397600869;540450.6241;
39.8898100367;538005.079601;
39.9398599866;539233.617437;
39.9899099364;540728.116853;
40.0399598863;554174.616269;
40.0900098361;555669.115684;
40.140059786;557163.6151;
40.1901097359;558658.114516;
40.2401596857;560152.613932;
40.2902096356;573599.113347;
40.3402595854;579014.815479;
40.3903095353;576569.27098;
40.4403594851;574123.726482;
40.490409435;583630.181983;
40.5404593849;581184.637485;
40.5905093347;578739.092986;
40.6405592846;576293.548488;
40.6906092344;573848.003989;
40.7406591843;587049.608089;
40.7907091342;588544.107505;
40.840759084;590038.60692;
40.8908090339;591533.106336;
40.9408589837;604979.605752;
40.9909089336;606474.105168;
41.0409588834;607968.604583;
41.0910088333;609463.103999;
41.1410587832;614857.739867;
41.191108733;624364.195368;
41.2411586829;621918.65087;
41.2912086327;619473.106371;
41.3412585826;617027.561873;
41.3913085324;614582.017374;
41.4413584823;624088.472876;
41.4914084322;621642.928377;
41.541458382;622913.598741;
41.5915083319;624408.098156;
41.6415582817;637854.597572;
41.6916082316;639349.096988;
41.7416581815;640843.596404;
41.7917081313;642338.095819;
41.8417580812;643832.595235;
41.891808031;657279.094651;
41.9418579809;662652.664255;
41.9919079307;656260.687821;
42.0419578806;658996.932784;
42.0920078305;656306.833835;
42.1420577803;665568.734887;
42.1921077302;662878.635939;
42.24215768;660188.53699;
42.2922076299;657498.438042;
42.3422575797;658777.589392;
42.3923075296;672224.088808;
42.4423574795;673718.588224;
42.4924074293;675213.08764;
42.5424573792;676707.587055;
42.592507329;678202.086471;
42.6425572789;691648.585887;
42.6926072288;693143.085303;
42.7426571786;697480.754155;
42.7927071285;697528.648559;
42.8427570783;694838.54961;
42.8928070282;704100.450662;
42.942856978;701410.351714;
42.9929069279;698720.252765;
43.0429568778;696030.153817;
43.0930068276;693340.054869;
43.1430567775;706593.580044;
43.1931067273;708088.07946;
43.2431566772;709582.578876;
43.293206627;711077.078291;
43.3432565769;712571.577707;
43.3933065268;726018.077123;
43.4433564766;727512.576539;
43.4934064265;729007.075954;
43.5434563763;733360.72611;
43.5935063262;733370.265386;
43.6435562761;730680.166437;
43.6936062259;739942.067489;
43.7436561758;737251.968541;
43.7937061256;734561.869592;
43.8437560755;731871.770644;
43.8938060253;729181.671696;
43.9438559752;742457.570696;
43.9939059251;743952.070112;
44.0439558749;745446.569527;
44.0940058248;746941.068943;
44.1440557746;748435.568359;
44.1941057245;761882.067775;
44.2441556743;763376.56719;
44.2942056242;764865.890843;
44.3442555741;769240.698066;
44.3943055239;769211.882212;
44.4443554738;778473.783264;
44.4944054236;775783.684316;
44.5444553735;773093.585367;
44.5945053234;771535.533108;
44.6445552732;769089.98861;
44.6946052231;766644.444111;
44.7446551729;777325.561348;
44.7947051228;778820.060763;
44.8447550726;780314.560179;
44.8948050225;781809.059595;
44.9448549724;783303.559011;
44.9949049222;796750.058426;
45.0449548721;798244.557842;
45.0950048219;799739.057258;
45.1450547718;803481.340042;
45.1951047216;805208.63549;
45.2451546715;814715.090992;
45.2952046214;812269.546493;
45.3452545712;809824.001995;
45.3953045211;807378.457496;
45.4453544709;804932.912998;
45.4954044208;802487.368499;
45.5454543707;813189.551999;
45.5955043205;814684.051415;
45.6455542704;816178.550831;
45.6956042202;817673.050247;
45.7456541701;819167.549662;
45.7957041199;820662.049078;
45.8457540698;834108.548494;
45.8958040197;835603.04791;
45.9458539695;839385.283952;
45.9959039194;841051.559878;
46.0459538692;838606.01538;
46.0960038191;836160.470881;
46.1460537689;845666.926383;
46.1961037188;843221.381884;
46.2461536687;840775.837386;
46.2962036185;838330.292887;
46.3462535684;837101.542651;
46.3963035182;850548.042067;
46.4463534681;852042.541483;
46.4964034179;853537.040898;
46.5464533678;855031.540314;
46.5965033177;856526.03973;
46.6465532675;858020.539146;
46.6966032174;871467.038561;
46.7466531672;875289.227863;
46.7967031171;872879.551285;
46.846753067;875839.433744;
46.8968030168;873149.334796;
46.9468529667;870459.235848;
46.9969029165;879721.136899;
47.0469528664;877031.037951;
47.0970028162;874340.939003;
47.1470527661;872965.533303;
47.197102716;874460.032719;
47.2471526658;875954.532135;
47.2972026157;889401.03155;
47.3472525655;890895.530966;
47.3973025154;892390.030382;
47.4473524652;893884.529798;
47.4974024151;895379.029213;
47.547452365;909772.585887;
47.5975023148;914256.084134;
47.6475522647;911681.050571;
47.6976022145;908990.951623;
47.7476521644;906300.852675;
47.7977021143;903610.753726;
47.8477520641;912872.654778;
47.897802014;910182.55583;
47.9478519638;908829.523955;
47.9979019137;910324.023371;
48.0479518635;911818.522786;
48.0980018134;913313.022202;
48.1480517633;926759.521618;
48.1981017131;928254.021033;
48.248151663;929748.520449;
48.2982016128;931243.019865;
48.3482515627;933700.557842;
48.3983015125;938184.056089;
48.4483514624;940659.556531;
48.4984014123;944832.56845;
48.5484513621;942142.469501;
48.598501312;939452.370553;
48.6485512618;936762.271605;
48.6986012117;934072.172656;
48.7486511616;932741.514607;
48.7987011114;946188.014022;
48.8487510613;947682.513438;
48.8988010111;949177.012854;
48.948850961;950671.51227;
48.9989009108;952166.011685;
49.0489508607;953660.511101;
49.0990008106;967015.647836;
49.1490507604;969580.529797;
49.1991007103;974064.028045;
49.2491506601;971412.284225;
49.29920061;968722.185277;
49.3492505598;966032.086328;
49.3993005097;976270.897618;
49.4493504596;973825.35312;
49.4994004094;971379.808621;
49.5494503593;968934.264123;
49.5995003091;969104.004674;
49.649550259;970598.50409;
49.6996002089;972093.003506;
49.7496501587;973587.502921;
49.7997001086;975082.002337;
49.8497500584;976576.501753;
49.8998000083;523895.001169;
49.9498499581;227631.817544;
49.999899908;239040.0;
