0;0;0;
0.0;1.0;1491308.0;
0.0500499498579;1.0;1491308.0;
0.100099899716;1.97511825025;2945509.64754;
0.150149849574;2.9301436309;2982616.0;
0.200199799431;3.88460451259;2982616.0;
0.250249749289;4.85864800924;2982616.0;
0.300299699147;6.80757670084;2982616.0;
0.350349649005;9.74783324251;2982616.0;
0.400399598863;13.7002493899;2982616.0;
0.450449548721;19.63343448;2982616.0;
0.500499498579;28.5144802322;2982616.0;
0.550549448436;42.1582501843;2982616.0;
0.600599398294;56.415512461;2982616.0;
0.650649348152;76.416746195;2982616.0;
0.70069929801;97.3545564895;2982616.0;
0.750749247868;118.292610823;2982616.0;
0.800799197726;139.230568685;2982616.0;
0.850849147584;160.168301081;2982616.0;
0.900899097441;181.106355415;2982616.0;
0.950949047299;135.00039896;88.6294297058;
1.00099899716;124.566099226;81.0282842044;
1.05104894702;114.131799492;73.4271387031;
1.10109889687;103.697499759;65.8259932017;
1.15114884673;93.2632000249;58.2248477003;
1.20119879659;82.8289002912;50.6237021989;
1.25124874645;72.3946005575;43.0225566975;
1.3012986963;63.5470598113;38.0;
1.35134864616;57.7901967911;38.0;
1.40139859602;52.0333337709;38.0;
1.45144854588;46.2764707506;38.0;
1.50149849574;40.5196077304;38.0;
1.55154844559;39.339650909;38.0;
1.60159839545;39.801110893;38.0;
1.65164834531;40.2569096735;38.0;
1.70169829517;40.7084202721;38.0;
1.75174824503;41.1634550712;38.0;
1.80179819488;41.6249150552;38.0;
1.85184814474;42.0863750391;38.0;
1.9018980946;42.547835023;38.0;
1.95194804446;43.009295007;38.0;
2.00199799431;43.4707549909;38.0;
2.05204794417;43.9322149748;38.0;
2.10209789403;44.3930950656;38.0;
2.15214784389;44.8538753074;38.0;
2.20219779375;45.3108493474;38.0;
2.2522477436;45.7660558036;38.0;
2.30229769346;46.2120253221;38.0;
2.35234764332;46.6482284759;38.0;
2.40239759318;47.0844316296;38.0;
2.45244754304;47.5206347833;38.0;
2.50249749289;47.956837937;38.0;
2.55254744275;48.3850212136;38.0;
2.60259739261;48.8123237822;38.0;
2.65264734247;49.2302307806;38.0;
2.70269729232;49.6407791348;38.0;
2.75274724218;50.051327489;38.0;
2.80279719204;50.4618758432;38.0;
2.8528471419;50.8724241973;38.0;
2.90289709176;51.2722960278;38.0;
2.95294704161;51.6673544369;38.0;
3.00299699147;52.0624128461;38.0;
3.05304694133;52.4574712553;38.0;
3.10309689119;52.8525296644;38.0;
3.15314684105;53.2385680943;38.0;
3.2031967909;53.619233974;38.0;
3.25324674076;53.9998998537;38.0;
3.30329669062;54.3805946803;38.0;
3.35334664048;54.7612895145;38.0;
3.40339659033;55.1370031731;38.0;
3.45344654019;55.5043422546;38.0;
3.50349649005;55.8716813361;38.0;
3.55354643991;56.2390204177;38.0;
3.60359638977;56.6063594992;38.0;
3.65364633962;56.9736985807;38.0;
3.70369628948;57.3294553423;38.0;
3.75374623934;57.6843188552;38.0;
3.8037961892;58.0385321517;38.0;
3.85384613906;58.3875068404;38.0;
3.90389608891;58.7364815292;38.0;
3.95394603877;59.0854502599;38.0;
4.00399598863;59.4344006179;38.0;
4.05404593849;59.783350976;38.0;
4.10409588834;60.1280430523;38.0;
4.1541458382;60.4657620122;38.0;
4.20419578806;60.8034809721;38.0;
4.25424573792;61.1389589609;38.0;
4.30429568778;61.4713180143;38.0;
4.35434563763;61.8036770678;38.0;
4.40439558749;62.1339020818;38.0;
4.45444553735;62.4610473191;38.0;
4.50449548721;62.7881925564;38.0;
4.55454543707;63.1135637087;38.0;
4.60459538692;63.4356769142;38.0;
4.65464533678;63.7577901196;38.0;
4.70469528664;64.0786978869;38.0;
4.7547452365;64.3959516259;38.0;
4.80479518635;64.7132053648;38.0;
4.85484513621;65.0300026737;38.0;
4.90489508607;65.3425023606;38.0;
4.95494503593;65.6550020475;38.0;
5.00499498579;65.9675017344;38.0;
5.05504493564;66.2758845133;38.0;
5.1050948855;66.5837894648;38.0;
5.15514483536;66.8916944162;38.0;
5.20519478522;67.1967190761;38.0;
5.25524473508;67.5001808469;38.0;
5.30529468493;67.8036426177;38.0;
5.35534463479;68.1055681993;38.0;
5.40539458465;68.4046774437;38.0;
5.45544453451;68.703786688;38.0;
5.50549448436;69.0028155038;38.0;
5.55554443422;69.2936176063;38.0;
5.60559438408;69.5844197088;38.0;
5.65564433394;69.8752218113;38.0;
5.7056942838;70.1660239138;38.0;
5.75574423365;70.4568260162;38.0;
5.80579418351;70.7476281187;38.0;
5.85584413337;71.0384302212;38.0;
5.90589408323;71.3292323237;38.0;
5.95594403309;71.6200344262;38.0;
6.00599398294;71.9108365286;38.0;
6.0560439328;72.1910278241;38.0;
6.10609388266;72.4665270802;38.0;
6.15614383252;72.7420263363;38.0;
6.20619378237;73.0175255924;38.0;
6.25624373223;73.2930248485;38.0;
6.30629368209;73.5685241046;38.0;
6.35634363195;73.8440233608;38.0;
6.40639358181;74.1211159851;38.0;
6.45644353166;74.4002879499;38.0;
6.50649348152;74.6794599148;38.0;
6.55654343138;74.9586318796;38.0;
6.60659338124;75.231628128;38.0;
6.6566433311;75.5035500548;38.0;
6.70669328095;75.7754719817;38.0;
6.75674323081;76.0456169158;38.0;
6.80679318067;76.3073433701;38.0;
6.85684313053;76.5690698244;38.0;
6.90689308038;76.8307962787;38.0;
6.95694303024;77.0925227331;38.0;
7.0069929801;77.3542491874;38.0;
7.05704292996;77.6159756417;38.0;
7.10709287982;77.877702096;38.0;
7.15714282967;78.1394285503;38.0;
7.20719277953;78.4011550046;38.0;
7.25724272939;78.6628814589;38.0;
7.30729267925;78.9246079132;38.0;
7.35734262911;79.1863246241;38.0;
7.40739257896;79.4480373926;38.0;
7.45744252882;79.7097501612;38.0;
7.50749247868;79.9714629297;38.0;
7.55754242854;80.2194729823;38.0;
7.60759237839;80.465806036;38.0;
7.65764232825;80.7121390897;38.0;
7.70769227811;80.9584721435;38.0;
7.75774222797;81.20724299;38.0;
7.80779217783;81.456508142;38.0;
7.85784212768;81.7057732939;38.0;
7.90789207754;81.9550384458;38.0;
7.9579420274;82.2018904444;38.0;
8.00799197726;82.4482113749;38.0;
8.05804192712;82.6945323053;38.0;
8.10809187697;82.9408532358;38.0;
8.15814182683;83.1871833784;38.0;
8.20819177669;83.4335164322;38.0;
8.25824172655;83.6798494859;38.0;
8.3082916764;83.9261825396;38.0;
8.35834162626;84.1705015968;38.0;
8.40839157612;84.4139588876;38.0;
8.45844152598;84.6574161785;38.0;
8.50849147584;84.9008734694;38.0;
8.55854142569;85.1379236633;38.0;
8.60859137555;85.3705734558;38.0;
8.65864132541;85.6032232483;38.0;
8.70869127527;85.8358730408;38.0;
8.75874122513;86.0685196483;38.0;
8.80879117498;86.3011586269;38.0;
8.85884112484;86.5337976055;38.0;
8.9088910747;86.7664365841;38.0;
8.95894102456;86.9990755627;38.0;
9.00899097441;87.2317253122;38.0;
9.05904092427;87.4643751047;38.0;
9.10909087413;87.6970248972;38.0;
9.15914082399;87.9296746897;38.0;
9.20919077385;88.1623169371;38.0;
9.2592407237;88.3949559157;38.0;
9.30929067356;88.6275948943;38.0;
9.35934062342;88.8602338729;38.0;
9.40939057328;89.0928771686;38.0;
9.45944052314;89.3255269611;38.0;
9.50949047299;89.5581767536;38.0;
9.55954042285;89.790826546;38.0;
9.60959037271;90.0220083001;38.0;
9.65964032257;90.240109877;38.0;
9.70969027242;90.4582114538;38.0;
9.75974022228;90.6763130307;38.0;
9.80979017214;90.8944146075;38.0;
9.859840122;91.1125161844;38.0;
9.90989007186;91.3306177613;38.0;
9.95994002171;91.5487193381;38.0;
10.0099899716;91.766820915;38.0;
10.0600399214;91.9849224918;38.0;
10.1100898713;92.203006376;38.0;
10.1601398211;92.4210889462;38.0;
10.210189771;92.6391715164;38.0;
10.2602397209;92.8572540865;38.0;
10.3102896707;93.0753366567;38.0;
10.3603396206;93.2934192269;38.0;
10.4103895704;93.5115017971;38.0;
10.4604395203;93.7295843673;38.0;
10.5104894702;93.9476669375;38.0;
10.56053942;94.1658217612;38.0;
10.6105893699;94.3839993978;38.0;
10.6606393197;94.6021770345;38.0;
10.7106892696;94.8203546712;38.0;
10.7607392194;95.0385155183;38.0;
10.8107891693;95.2565980884;38.0;
10.8608391192;95.4746806586;38.0;
10.910889069;95.6927632288;38.0;
10.9609390189;95.910845799;38.0;
11.0109889687;96.1201830249;38.0;
11.0610389186;96.3234728294;38.0;
11.1110888684;96.5267626338;38.0;
11.1611388183;96.7300524383;38.0;
11.2111887682;96.9333422427;38.0;
11.261238718;97.1366320472;38.0;
11.3112886679;97.3399218516;38.0;
11.3613386177;97.5432116561;38.0;
11.4113885676;97.7465014606;38.0;
11.4614385174;97.949791265;38.0;
11.5114884673;98.1545246384;38.0;
11.5615384172;98.3597314849;38.0;
11.611588367;98.5649383314;38.0;
11.6616383169;98.7701451779;38.0;
11.7116882667;98.9753520243;38.0;
11.7617382166;99.1788720902;38.0;
11.8117881665;99.3821618946;38.0;
11.8618381163;99.5854516991;38.0;
11.9118880662;99.7887415035;38.0;
11.961938016;99.992031308;38.0;
12.0119879659;100.195321112;38.0;
12.0620379157;100.398610917;38.0;
12.1120878656;100.601900721;38.0;
12.1621378155;100.805190526;38.0;
12.2121877653;101.00848033;38.0;
12.2622377152;101.211770135;38.0;
12.312287665;101.415059939;38.0;
12.3623376149;101.618349744;38.0;
12.4123875647;101.821639548;38.0;
12.4624375146;102.024688683;38.0;
12.5124874645;102.226015915;38.0;
12.5625374143;102.427343147;38.0;
12.6125873642;102.628670379;38.0;
12.662637314;102.829997611;38.0;
12.7126872639;103.029353019;38.0;
12.7627372138;103.218007183;38.0;
12.8127871636;103.406661348;38.0;
12.8628371135;103.595315513;38.0;
12.9128870633;103.783969677;38.0;
12.9629370132;103.972623842;38.0;
13.012986963;104.161217238;38.0;
13.0630369129;104.34980032;38.0;
13.1130868628;104.538383402;38.0;
13.1631368126;104.726966483;38.0;
13.2131867625;104.915549565;38.0;
13.2632367123;105.105122877;38.0;
13.3132866622;105.295499255;38.0;
13.363336612;105.485875634;38.0;
13.4133865619;105.676252012;38.0;
13.4634365118;105.86662839;38.0;
13.5134864616;106.056489083;38.0;
13.5635364115;106.245143247;38.0;
13.6135863613;106.433797412;38.0;
13.6636363112;106.622451576;38.0;
13.7136862611;106.811105741;38.0;
13.7637362109;106.999759905;38.0;
13.8137861608;107.188343078;38.0;
13.8638361106;107.376926159;38.0;
13.9138860605;107.565509241;38.0;
13.9639360103;107.754092322;38.0;
14.0139859602;107.942675404;38.0;
14.0640359101;108.131307961;38.0;
14.1140858599;108.319962126;38.0;
14.1641358098;108.50861629;38.0;
14.2141857596;108.697270455;38.0;
14.2642357095;108.885924619;38.0;
14.3142856593;109.07525961;38.0;
14.3643356092;109.265635988;38.0;
14.4143855591;109.456012366;38.0;
14.4644355089;109.646388744;38.0;
14.5144854588;109.836765123;38.0;
14.5645354086;110.026408218;38.0;
14.6145853585;110.211641194;38.0;
14.6646353084;110.396874169;38.0;
14.7146852582;110.582107144;38.0;
14.7647352081;110.767340119;38.0;
14.8147851579;110.952573094;38.0;
14.8648351078;111.129829846;38.0;
14.9148850576;111.304341526;38.0;
14.9649350075;111.478853206;38.0;
15.0149849574;111.653364886;38.0;
15.0650349072;111.827876566;38.0;
15.1150848571;112.002387414;38.0;
15.1651348069;112.176838267;38.0;
15.2151847568;112.351289121;38.0;
15.2652347066;112.525739974;38.0;
15.3152846565;112.700190828;38.0;
15.3653346064;112.874641681;38.0;
15.4153845562;113.049109652;38.0;
15.4654345061;113.223621332;38.0;
15.5154844559;113.398133012;38.0;
15.5655344058;113.572644692;38.0;
15.6155843557;113.747156373;38.0;
15.6656343055;113.921668053;38.0;
15.7156842554;114.096146209;38.0;
15.7657342052;114.270597062;38.0;
15.8157841551;114.445047916;38.0;
15.8658341049;114.619498769;38.0;
15.9158840548;114.793949623;38.0;
15.9659340047;114.968400476;38.0;
16.0159839545;115.142901138;38.0;
16.0660339044;115.317412819;38.0;
16.1160838542;115.491924499;38.0;
16.1661338041;115.666436179;38.0;
16.2161837539;115.840947859;38.0;
16.2662337038;116.015454151;38.0;
16.3162836537;116.189905004;38.0;
16.3663336035;116.364355858;38.0;
16.4163835534;116.538806711;38.0;
16.4664335032;116.713257564;38.0;
16.5164834531;116.887708418;38.0;
16.566533403;117.062180945;38.0;
16.6165833528;117.236692625;38.0;
16.6666333027;117.411204305;38.0;
16.7166832525;117.585715985;38.0;
16.7667332024;117.760227665;38.0;
16.8167831522;117.934739345;38.0;
16.8668331021;118.109251025;38.0;
16.916883052;118.283762706;38.0;
16.9669330018;118.458274386;38.0;
17.0169829517;118.632786066;38.0;
17.0670329015;118.807297746;38.0;
17.1170828514;118.981809426;38.0;
17.1671328012;119.15626662;38.0;
17.2171827511;119.330717473;38.0;
17.267232701;119.505168327;38.0;
17.3172826508;119.67961918;38.0;
17.3673326007;119.854070034;38.0;
17.4173825505;120.026134278;38.0;
17.4674325004;120.1859872;38.0;
17.5174824503;120.345840122;38.0;
17.5675324001;120.505693044;38.0;
17.61758235;120.665545966;38.0;
17.6676322998;120.825398888;38.0;
17.7176822497;120.98525181;38.0;
17.7677321995;121.145058402;38.0;
17.8177821494;121.304860285;38.0;
17.8678320993;121.464662169;38.0;
17.9178820491;121.624464052;38.0;
17.967931999;121.784265935;38.0;
18.0179819488;121.944067819;38.0;
18.0680318987;122.103902877;38.0;
18.1180818485;122.263755799;38.0;
18.1681317984;122.423608721;38.0;
18.2181817483;122.583461642;38.0;
18.2682316981;122.743314564;38.0;
18.318281648;122.903167486;38.0;
18.3683315978;123.063000287;38.0;
18.4183815477;123.22280217;38.0;
18.4684314975;123.382604053;38.0;
18.5184814474;123.542405937;38.0;
18.5685313973;123.70220782;38.0;
18.6185813471;123.862009703;38.0;
18.668631297;124.021818553;38.0;
18.7186812468;124.181671475;38.0;
18.7687311967;124.341524397;38.0;
18.8187811466;124.501377319;38.0;
18.8688310964;124.661230241;38.0;
18.9188810463;124.821083163;38.0;
18.9689309961;124.980936085;38.0;
19.018980946;125.140789007;38.0;
19.0690308958;125.300641929;38.0;
19.1190808457;125.460494851;38.0;
19.1691307956;125.620347772;38.0;
19.2191807454;125.780200694;38.0;
19.2692306953;125.940053616;38.0;
19.3192806451;119.457623606;42.9067822954;
19.369330595;108.989660237;50.7577548221;
19.4193805448;98.5216968682;58.6087273488;
19.4694304947;91.0854887966;62.0;
19.5194804446;85.9547068998;62.0;
19.5695303944;80.823925003;62.0;
19.6195803443;75.6931431062;62.0;
19.6696302941;70.5623612094;62.0;
19.719680244;65.4315793126;62.0;
19.7697301939;63.1668585922;62.0;
19.8197801437;63.484031912;62.0;
19.8698300936;63.8012052317;62.0;
19.9198800434;64.1202067917;62.0;
19.9699299933;64.4422785411;62.0;
20.0199799431;64.7643502905;62.0;
20.070029893;65.0838849781;62.0;
20.1200798429;65.3965017793;62.0;
20.1701297927;65.7091185804;62.0;
20.2201797426;66.0210899065;62.0;
20.2702296924;66.324422936;62.0;
20.3202796423;66.6277559654;62.0;
20.3703295921;66.9310889948;62.0;
20.420379542;67.238028517;62.0;
20.4704294919;67.5460282084;62.0;
20.5204794417;67.8540278998;62.0;
20.5705293916;68.1573788618;62.0;
20.6205793414;68.456541742;62.0;
20.6706292913;68.7557046222;62.0;
20.7206792412;69.053337206;62.0;
20.770729191;69.3441562058;62.0;
20.8207791409;69.6349752055;62.0;
20.8708290907;69.9257942053;62.0;
20.9208790406;70.216613205;62.0;
20.9709289904;70.5074322048;62.0;
21.0209789403;70.7982512045;62.0;
21.0710288902;71.0890184794;62.0;
21.12107884;71.3796685948;62.0;
21.1711287899;71.6703187101;62.0;
21.2211787397;71.9609688254;62.0;
21.2712286896;72.2385946123;62.0;
21.3212786394;72.514200063;62.0;
21.3713285893;72.7898055138;62.0;
21.4213785392;73.0653749651;62.0;
21.471428489;73.3408287343;62.0;
21.5214784389;73.6162825035;62.0;
21.5715283887;73.8917362726;62.0;
21.6215783386;74.1671900418;62.0;
21.6716282885;74.442643811;62.0;
21.7216782383;74.7180975801;62.0;
21.7717281882;74.9935513493;62.0;
21.821778138;75.269153249;62.0;
21.8718280879;75.5447586998;62.0;
21.9218780377;75.8203641506;62.0;
21.9719279876;76.0911033957;62.0;
22.0219779375;76.3527340798;62.0;
22.0720278873;76.6143647638;62.0;
22.1220778372;76.8759954478;62.0;
22.172127787;77.1376981121;62.0;
22.2221777369;77.3994656323;62.0;
22.2722276867;77.6612331524;62.0;
22.3222776366;77.9230006726;62.0;
22.3723275865;78.1847681928;62.0;
22.4223775363;78.446535713;62.0;
22.4724274862;78.7083032331;62.0;
22.522477436;78.9700707533;62.0;
22.5725273859;79.2317170826;62.0;
22.6225773358;79.4933477666;62.0;
22.6726272856;79.7549784507;62.0;
22.7226772355;80.015644153;62.0;
22.7727271853;80.262074236;62.0;
22.8227771352;80.508504319;62.0;
22.872827085;80.754934402;62.0;
22.9228770349;81.0013638135;62.0;
22.9729269848;81.2476726218;62.0;
23.0229769346;81.4939814302;62.0;
23.0730268845;81.7402902385;62.0;
23.1230768343;81.9865990469;62.0;
23.1731267842;82.2356916145;62.0;
23.223176734;82.4849443528;62.0;
23.2732266839;82.7341970912;62.0;
23.3232766338;82.9834498295;62.0;
23.3733265836;83.2299541123;62.0;
23.4233765335;83.4762629207;62.0;
23.4734264833;83.722571729;62.0;
23.5234764332;83.9688805374;62.0;
23.5735263831;84.2126774078;62.0;
23.6235763329;84.4561110161;62.0;
23.6736262828;84.6995446244;62.0;
23.7236762326;84.9429782326;62.0;
23.7737261825;85.1781788679;62.0;
23.8237761323;85.410861108;62.0;
23.8738260822;85.6435433482;62.0;
23.9238760321;85.8762255884;62.0;
23.9739259819;86.1088572208;62.0;
24.0239759318;86.3414313372;62.0;
24.0740258816;86.5740054537;62.0;
24.1240758315;86.8065795701;62.0;
24.1741257813;87.0391718891;62.0;
24.2241757312;87.2718541293;62.0;
24.2742256811;87.5045363694;62.0;
24.3242756309;87.7372186096;62.0;
24.3743255808;87.9699008497;62.0;
24.4243755306;88.2025830899;62.0;
24.4744254805;88.43526533;62.0;
24.5244754304;88.6679475702;62.0;
24.5745253802;88.9006298104;62.0;
24.6245753301;89.1332501025;62.0;
24.6746252799;89.365824219;62.0;
24.7246752298;89.5983983354;62.0;
24.7747251796;89.8309724519;62.0;
24.8247751295;90.0596129969;62.0;
24.8748250794;90.2777906336;62.0;
24.9248750292;90.4959682703;62.0;
24.9749249791;90.714145907;62.0;
25.0249749289;90.9323235437;62.0;
25.0750248788;91.1504356026;62.0;
25.1250748286;91.3685181727;62.0;
25.1751247785;91.5866007429;62.0;
25.2251747284;91.8046833131;62.0;
25.2752246782;92.0227658833;62.0;
25.3252746281;92.2408484535;62.0;
25.3753245779;92.4589310237;62.0;
25.4253745278;92.6770135939;62.0;
25.4754244776;92.8950961641;62.0;
25.5254744275;93.1131787342;62.0;
25.5755243774;93.3312613044;62.0;
25.6255743272;93.5493438746;62.0;
25.6756242771;93.7674264448;62.0;
25.7256742269;93.985509015;62.0;
25.7757241768;94.2035915852;62.0;
25.8257741267;94.4216741554;62.0;
25.8758240765;94.6397567255;62.0;
25.9258740264;94.8578392957;62.0;
25.9759239762;95.0759549618;62.0;
26.0259739261;95.2941325985;62.0;
26.0760238759;95.5123102352;62.0;
26.1260738258;95.7304878718;62.0;
26.1761237757;95.9486655085;62.0;
26.2261737255;96.1554582352;62.0;
26.2762236754;96.3587480397;62.0;
26.3262736252;96.5620378442;62.0;
26.3763235751;96.7653276486;62.0;
26.4263735249;96.9686174531;62.0;
26.4764234748;97.1718374617;62.0;
26.5264734247;97.3750447286;62.0;
26.5765233745;97.5782519956;62.0;
26.6265733244;97.7814592626;62.0;
26.6766232742;97.9846665296;62.0;
26.7266732241;98.187950106;62.0;
26.776723174;98.3912399105;62.0;
26.8267731238;98.5945297149;62.0;
26.8768230737;98.7978195194;62.0;
26.9268730235;99.0011093238;62.0;
26.9769229734;99.2043991283;62.0;
27.0269729232;99.4076889328;62.0;
27.0770228731;99.6109787372;62.0;
27.127072823;99.8142685417;62.0;
27.1771227728;100.017558346;62.0;
27.2271727227;100.220848151;62.0;
27.2772226725;100.424137955;62.0;
27.3272726224;100.62742776;62.0;
27.3773225722;100.830717564;62.0;
27.4273725221;101.034342142;62.0;
27.477422472;101.239633158;62.0;
27.5274724218;101.444924175;62.0;
27.5775223717;101.650215191;62.0;
27.6275723215;101.855506208;62.0;
27.6776222714;102.059623344;62.0;
27.7276722213;102.260950576;62.0;
27.7777221711;102.462277808;62.0;
27.827772121;102.66360504;62.0;
27.8778220708;102.864932272;62.0;
27.9278720207;103.062088627;62.0;
27.9779219705;103.250742791;62.0;
28.0279719204;103.439396956;62.0;
28.0780218703;103.62805112;62.0;
28.1280718201;103.816705285;62.0;
28.17812177;104.00535743;62.0;
28.2281717198;104.193940512;62.0;
28.2782216697;104.382523593;62.0;
28.3282716195;104.571106675;62.0;
28.3783215694;104.759689757;62.0;
28.4283715193;104.948272838;62.0;
28.4784214691;105.136907505;62.0;
28.528471419;105.32556167;62.0;
28.5785213688;105.514215834;62.0;
28.6285713187;105.702869999;62.0;
28.6786212686;105.891524163;62.0;
28.7286712184;106.080879507;62.0;
28.7787211683;106.271183499;62.0;
28.8287711181;106.461487491;62.0;
28.878821068;106.651791483;62.0;
28.9288710178;106.842095475;62.0;
28.9789209677;107.032118582;62.0;
29.0289709176;107.220772746;62.0;
29.0790208674;107.409426911;62.0;
29.1290708173;107.598081075;62.0;
29.1791207671;107.78673524;62.0;
29.229170717;107.975389404;62.0;
29.2792206668;108.164043569;62.0;
29.3292706167;108.352697734;62.0;
29.3793205666;108.541351898;62.0;
29.4293705164;108.730006063;62.0;
29.4794204663;108.918660227;62.0;
29.5294704161;109.107273957;62.0;
29.579520366;109.295857038;62.0;
29.6295703159;109.48444012;62.0;
29.6796202657;109.673023202;62.0;
29.7296702156;109.861606283;62.0;
29.7797201654;110.049316022;62.0;
29.8297701153;110.234617576;62.0;
29.8798200651;110.41991913;62.0;
29.929870015;110.605220685;62.0;
29.9799199649;110.790522239;62.0;
30.0299699147;110.975823794;62.0;
30.0800198646;111.151743224;62.0;
30.1300698144;111.326254904;62.0;
30.1801197643;111.500766584;62.0;
30.2301697141;111.675278264;62.0;
30.280219664;111.849789944;62.0;
30.3302696139;112.024293154;62.0;
30.3803195637;112.198744007;62.0;
30.4303695136;112.373194861;62.0;
30.4804194634;112.547645714;62.0;
30.5304694133;112.722096568;62.0;
30.5805193632;112.896547421;62.0;
30.630569313;113.07102303;62.0;
30.6806192629;113.24553471;62.0;
30.7306692127;113.42004639;62.0;
30.7807191626;113.59455807;62.0;
30.8307691124;113.76906975;62.0;
30.8808190623;113.943581431;62.0;
30.9308690122;114.118051949;62.0;
30.980918962;114.292502802;62.0;
31.0309689119;114.466953656;62.0;
31.0810188617;114.641404509;62.0;
31.1310688116;114.815855363;62.0;
31.1811187614;114.990306216;62.0;
31.2311687113;115.164814516;62.0;
31.2812186612;115.339326197;62.0;
31.331268611;115.513837877;62.0;
31.3813185609;115.688349557;62.0;
31.4313685107;115.862861237;62.0;
31.4814184606;116.037359891;62.0;
31.5314684105;116.211810744;62.0;
31.5815183603;116.386261597;62.0;
31.6315683102;116.560712451;62.0;
31.68161826;116.735163304;62.0;
31.7316682099;116.909614158;62.0;
31.7817181597;117.084094323;62.0;
31.8317681096;117.258606003;62.0;
31.8818180595;117.433117683;62.0;
31.9318680093;117.607629363;62.0;
31.9819179592;117.782141043;62.0;
32.031967909;117.956652723;62.0;
32.0820178589;118.131118686;62.0;
32.1320678087;118.305569539;62.0;
32.1821177586;118.480020392;62.0;
32.2321677085;118.654471246;62.0;
32.2822176583;118.828922099;62.0;
32.3322676082;119.003374129;62.0;
32.382317558;119.177885809;62.0;
32.4323675079;119.352397489;62.0;
32.4824174577;119.526909169;62.0;
32.5324674076;119.701420849;62.0;
32.5825173575;119.87593253;62.0;
32.6325673073;120.046548904;62.0;
32.6826172572;120.207584779;62.0;
32.732667207;120.368620653;62.0;
32.7827171569;120.529656528;62.0;
32.8327671068;120.690692403;62.0;
32.8828170566;120.851728277;62.0;
32.9328670065;121.012670388;62.0;
32.9829169563;121.17252331;62.0;
33.0329669062;121.332376232;62.0;
33.083016856;121.492229154;62.0;
33.1330668059;121.652082076;62.0;
33.1831167558;121.811934998;62.0;
33.2331667056;121.97178792;62.0;
33.2832166555;122.131640842;62.0;
33.3332666053;122.291493763;62.0;
33.3833165552;122.451346685;62.0;
33.433366505;122.611199607;62.0;
33.4834164549;122.771052529;62.0;
33.5334664048;122.930905451;62.0;
33.5835163546;123.090729395;62.0;
33.6335663045;123.250531279;62.0;
33.6836162543;123.410333162;62.0;
33.7336662042;123.570135045;62.0;
33.7837161541;123.729936929;62.0;
33.8337661039;123.889738812;62.0;
33.8838160538;124.049556518;62.0;
33.9338660036;124.20940944;62.0;
33.9839159535;124.369262362;62.0;
34.0339659033;124.529115284;62.0;
34.0840158532;124.688968206;62.0;
34.1340658031;124.848821128;62.0;
34.1841157529;125.00867128;62.0;
34.2341657028;125.168473163;62.0;
34.2842156526;125.328275047;62.0;
34.3342656025;125.48807693;62.0;
34.3843155523;125.647878813;62.0;
34.4343655022;125.807680697;62.0;
34.4844154521;125.96748258;62.0;
34.5344654019;109.324237837;62.0;
34.5845153518;88.3883110987;62.0;
34.6345653016;67.4523843607;62.0;
34.6846152515;62.1224457277;62.0;
34.7346652014;62.2880095711;62.0;
34.7847151512;62.4535734145;62.0;
34.8347651011;62.6191372579;62.0;
34.8848150509;62.7847011013;62.0;
34.9348650008;62.9502649447;62.0;
34.9849149506;63.2218950738;62.0;
35.0349649005;63.5390683935;62.0;
35.0850148504;63.8562417133;62.0;
35.1350648002;64.1760932575;62.0;
35.1851147501;64.4981650069;62.0;
35.2351646999;64.8202367563;62.0;
35.2852146498;65.1381308044;62.0;
35.3352645996;65.4507476055;62.0;
35.3853145495;65.7633644067;62.0;
35.4353644994;66.0737247961;62.0;
35.4854144492;66.3770578256;62.0;
35.5354643991;66.680390855;62.0;
35.5855143489;66.9837238845;62.0;
35.6355642988;67.2914731741;62.0;
35.6856142487;67.5994728656;62.0;
35.7356641985;67.907472557;62.0;
35.7857141484;68.2092901397;62.0;
35.8357640982;68.5084530199;62.0;
35.8858140481;68.8076159001;62.0;
35.9358639979;69.1037403597;62.0;
35.9859139478;69.394390475;62.0;
36.0359638977;69.6850405903;62.0;
36.0860138475;69.9756907057;62.0;
36.1360637974;70.2664955803;62.0;
36.1861137472;70.5573145801;62.0;
36.2361636971;70.8481335798;62.0;
36.2862136469;71.1389525796;62.0;
36.3362635968;71.4297715793;62.0;
36.3863135467;71.7205905791;62.0;
36.4363634965;72.0108127121;62.0;
36.4864134464;72.2864181629;62.0;
36.5364633962;72.5620236136;62.0;
36.5865133461;72.8376290644;62.0;
36.636563296;73.1131721957;62.0;
36.6866132458;73.3886259648;62.0;
36.7366631957;73.664079734;62.0;
36.7867131455;73.9395335032;62.0;
36.8367630954;74.2149872723;62.0;
36.8868130452;74.4904410415;62.0;
36.9368629951;74.7658948107;62.0;
36.986912945;75.0413485798;62.0;
37.0369628948;75.316802349;62.0;
37.0870128447;75.5922561182;62.0;
37.1370627945;75.8677098873;62.0;
37.1871127444;76.1360503995;62.0;
37.2371626942;76.3978179197;62.0;
37.2872126441;76.6595854399;62.0;
37.337262594;76.9213529601;62.0;
37.3873125438;77.1831204802;62.0;
37.4373624937;77.4448880004;62.0;
37.4874124435;77.7066555206;62.0;
37.5374623934;77.9684230408;62.0;
37.5875123433;78.2301905609;62.0;
37.6375622931;78.4919580811;62.0;
37.687612243;78.7537256013;62.0;
37.7376621928;79.0154850226;62.0;
37.7877121427;79.2771157067;62.0;
37.8377620925;79.5387463907;62.0;
37.8878120424;79.8003770747;62.0;
37.9378619923;80.0583763989;62.0;
37.9879119421;80.3046852073;62.0;
38.037961892;80.5509940156;62.0;
38.0880118418;80.797302824;62.0;
38.1380617917;81.0436331053;62.0;
38.1881117415;81.2900631883;62.0;
38.2381616914;81.5364932713;62.0;
38.2882116413;81.7829233543;62.0;
38.3382615911;82.029689657;62.0;
38.388311541;82.2789423953;62.0;
38.4383614908;82.5281951336;62.0;
38.4884114407;82.777447872;62.0;
38.5384613906;83.0263852488;62.0;
38.5885113404;83.2726940571;62.0;
38.6385612903;83.5190028655;62.0;
38.6886112401;83.7653116738;62.0;
38.73866119;84.0114848345;62.0;
38.7887111398;84.2549184428;62.0;
38.8387610897;84.4983520511;62.0;
38.8888110396;84.7417856593;62.0;
38.9388609894;84.9852192676;62.0;
38.9889109393;85.2185543062;62.0;
39.0389608891;85.4512365464;62.0;
39.089010839;85.6839187866;62.0;
39.1390607888;85.9166010267;62.0;
39.1891107387;86.1492138973;62.0;
39.2391606886;86.3817880138;62.0;
39.2892106384;86.6143621302;62.0;
39.3392605883;86.8469362466;62.0;
39.3893105381;87.0795473274;62.0;
39.439360488;87.3122295676;62.0;
39.4894104378;87.5449118078;62.0;
39.5394603877;87.7775940479;62.0;
39.5895103376;88.0102762881;62.0;
39.6395602874;88.2429585282;62.0;
39.6896102373;88.4756407684;62.0;
39.7396601871;88.7083230086;62.0;
39.789710137;88.9410052487;62.0;
39.8397600869;89.1736067791;62.0;
39.8898100367;89.4061808955;62.0;
39.9398599866;89.6387550119;62.0;
39.9899099364;89.8713291284;62.0;
40.0399598863;90.0974290993;62.0;
40.0900098361;90.3155116695;62.0;
40.140059786;90.5335942397;62.0;
40.1901097359;90.7516768098;62.0;
40.2401596857;90.96975938;62.0;
40.2902096356;91.1879238342;62.0;
40.3402595854;91.4061014709;62.0;
40.3903095353;91.6242791076;62.0;
40.4403594851;91.8424567443;62.0;
40.490409435;92.0606079608;62.0;
40.5404593849;92.278690531;62.0;
40.5905093347;92.4967731012;62.0;
40.6405592846;92.7148556714;62.0;
40.6906092344;92.9329382416;62.0;
40.7406591843;93.1510208117;62.0;
40.7907091342;93.3691033819;62.0;
40.840759084;93.5871859521;62.0;
40.8908090339;93.8052685223;62.0;
40.9408589837;94.0233510925;62.0;
40.9909089336;94.2414336627;62.0;
41.0409588834;94.4595162329;62.0;
41.0910088333;94.6775988031;62.0;
41.1410587832;94.8956813732;62.0;
41.191108733;95.1138135354;62.0;
41.2411586829;95.3319911721;62.0;
41.2912086327;95.5501688088;62.0;
41.3412585826;95.7683464455;62.0;
41.3913085324;95.9865240822;62.0;
41.4413584823;96.1906560061;62.0;
41.4914084322;96.3938632731;62.0;
41.541458382;96.5970705401;62.0;
41.5915083319;96.8002778071;62.0;
41.6415582817;97.0034864896;62.0;
41.6916082316;97.2067762941;62.0;
41.7416581815;97.4100660985;62.0;
41.7917081313;97.613355903;62.0;
41.8417580812;97.8166457074;62.0;
41.891808031;98.0199355119;62.0;
41.9418579809;98.2232253163;62.0;
41.9919079307;98.4265151208;62.0;
42.0419578806;98.6298049253;62.0;
42.0920078305;98.8330947297;62.0;
42.1420577803;99.0363845342;62.0;
42.1921077302;99.2396743386;62.0;
42.24215768;99.4429641431;62.0;
42.2922076299;99.6462539476;62.0;
42.3422575797;99.849543752;62.0;
42.3923075296;100.052833556;62.0;
42.4423574795;100.256123361;62.0;
42.4924074293;100.459413165;62.0;
42.5424573792;100.66270297;62.0;
42.592507329;100.865992774;62.0;
42.6425572789;101.069964606;62.0;
42.6926072288;101.275255622;62.0;
42.7426571786;101.480546639;62.0;
42.7927071285;101.685837656;62.0;
42.8427570783;101.891128672;62.0;
42.8928070282;102.094558006;62.0;
42.942856978;102.295885237;62.0;
42.9929069279;102.497212469;62.0;
43.0429568778;102.698539701;62.0;
43.0930068276;102.899866933;62.0;
43.1430567775;103.094788506;62.0;
43.1931067273;103.283371588;62.0;
43.2431566772;103.471954669;62.0;
43.293206627;103.660537751;62.0;
43.3432565769;103.849120832;62.0;
43.3933065268;104.037718126;62.0;
43.4433564766;104.22637229;62.0;
43.4934064265;104.415026455;62.0;
43.5434563763;104.603680619;62.0;
43.5935063262;104.792334784;62.0;
43.6435562761;104.980988949;62.0;
43.6936062259;105.169643113;62.0;
43.7436561758;105.358297278;62.0;
43.7937061256;105.546951442;62.0;
43.8437560755;105.735605607;62.0;
43.8938060253;105.924259771;62.0;
43.9438559752;106.113901396;62.0;
43.9939059251;106.304205388;62.0;
44.0439558749;106.49450938;62.0;
44.0940058248;106.684813372;62.0;
44.1440557746;106.875117364;62.0;
44.1941057245;107.06485419;62.0;
44.2441556743;107.253508354;62.0;
44.2942056242;107.442162519;62.0;
44.3442555741;107.630816683;62.0;
44.3943055239;107.819470848;62.0;
44.4443554738;108.008125012;62.0;
44.4944054236;108.196779177;62.0;
44.5444553735;108.385433341;62.0;
44.5945053234;108.574087506;62.0;
44.6445552732;108.762741671;62.0;
44.6946052231;108.951395835;62.0;
44.7446551729;109.13999723;62.0;
44.7947051228;109.328580312;62.0;
44.8447550726;109.517163394;62.0;
44.8948050225;109.705746475;62.0;
44.9448549724;109.894329557;62.0;
44.9949049222;110.081469879;62.0;
45.0449548721;110.266771433;62.0;
45.0950048219;110.452072988;62.0;
45.1450547718;110.637374542;62.0;
45.1951047216;110.822676096;62.0;
45.2451546715;111.007513122;62.0;
45.2952046214;111.182024803;62.0;
45.3452545712;111.356536483;62.0;
45.3953045211;111.531048163;62.0;
45.4453544709;111.705559843;62.0;
45.4954044208;111.880071523;62.0;
45.5454543707;112.054564178;62.0;
45.5955043205;112.229015031;62.0;
45.6455542704;112.403465885;62.0;
45.6956042202;112.577916738;62.0;
45.7456541701;112.752367592;62.0;
45.7957041199;112.926818445;62.0;
45.8457540698;113.101304609;62.0;
45.8958040197;113.275816289;62.0;
45.9458539695;113.450327969;62.0;
45.9959039194;113.624839649;62.0;
46.0459538692;113.799351329;62.0;
46.0960038191;113.973863009;62.0;
46.1460537689;114.148322973;62.0;
46.1961037188;114.322773826;62.0;
46.2461536687;114.49722468;62.0;
46.2962036185;114.671675533;62.0;
46.3462535684;114.846126387;62.0;
46.3963035182;115.020584415;62.0;
46.4463534681;115.195096095;62.0;
46.4964034179;115.369607775;62.0;
46.5464533678;115.544119455;62.0;
46.5965033177;115.718631136;62.0;
46.6465532675;115.893142816;62.0;
46.6966032174;116.067630915;62.0;
46.7466531672;116.242081768;62.0;
46.7967031171;116.416532621;62.0;
46.846753067;116.590983475;62.0;
46.8968030168;116.765434328;62.0;
46.9468529667;116.939885182;62.0;
46.9969029165;117.114375901;62.0;
47.0469528664;117.288887582;62.0;
47.0970028162;117.463399262;62.0;
47.1470527661;117.637910942;62.0;
47.197102716;117.812422622;62.0;
47.2471526658;117.986934302;62.0;
47.2972026157;118.16138971;62.0;
47.3472525655;118.335840563;62.0;
47.3973025154;118.510291416;62.0;
47.4473524652;118.68474227;62.0;
47.4974024151;118.859193123;62.0;
47.547452365;119.033655708;62.0;
47.5975023148;119.208167388;62.0;
47.6475522647;119.382679068;62.0;
47.6976022145;119.557190748;62.0;
47.7476521644;119.731702428;62.0;
47.7977021143;119.906214108;62.0;
47.8477520641;120.074492137;62.0;
47.897802014;120.235528011;62.0;
47.9478519638;120.396563886;62.0;
47.9979019137;120.557599761;62.0;
48.0479518635;120.718635636;62.0;
48.0980018134;120.87967151;62.0;
48.1480517633;121.040408353;62.0;
48.1981017131;121.200261275;62.0;
48.248151663;121.360114197;62.0;
48.2982016128;121.519967119;62.0;
48.3482515627;121.679820041;62.0;
48.3983015125;121.839672962;62.0;
48.4483514624;121.999525884;62.0;
48.4984014123;122.159327919;62.0;
48.5484513621;122.319129802;62.0;
48.598501312;122.478931686;62.0;
48.6485512618;122.638733569;62.0;
48.6986012117;122.798535452;62.0;
48.7486511616;122.958337336;62.0;
48.7987011114;123.118176951;62.0;
48.8487510613;123.278029873;62.0;
48.8988010111;123.437882795;62.0;
48.948850961;123.597735717;62.0;
48.9989009108;123.757588639;62.0;
49.0489508607;123.917441561;62.0;
49.0990008106;124.077294483;62.0;
49.1490507604;124.237147405;62.0;
49.1991007103;124.397000327;62.0;
49.2491506601;124.556853249;62.0;
49.29920061;124.716706171;62.0;
49.3492505598;124.876559092;62.0;
49.3993005097;125.036400389;62.0;
49.4493504596;125.196202272;62.0;
49.4994004094;125.356004155;62.0;
49.5494503593;125.515806039;62.0;
49.5995003091;125.675607922;62.0;
49.649550259;125.835409805;62.0;
49.6996002089;125.995211689;62.0;
49.7496501587;105.691398396;62.0;
49.7997001086;84.7554716576;62.0;
49.8497500584;63.8195449197;62.0;
49.8998000083;1.0;1491308.0;
49.9498499581;1.0;1491308.0;
49.999899908;1.0;1491308.0;
