0;0;
0.0;56.783;
0.0500498497578;56.783;
0.100099699516;56.783;
0.150149549273;56.783;
0.200199399031;56.7807724689;
0.250249248789;56.2219122715;
0.300299098547;55.6630520741;
0.350348948304;55.1041918768;
0.400398798062;54.5945029609;
0.45044864782;60.2053007431;
0.500498497578;65.8160985253;
0.550548347335;71.4268963076;
0.600598197093;77.154377573;
0.650648046851;92.5263274047;
0.700697896609;107.898277236;
0.750747746366;123.270227068;
0.800797596124;138.277937868;
0.850847445882;130.79620811;
0.90089729564;123.314478352;
0.950947145397;115.832748594;
1.00099699516;108.240725938;
1.05104684491;95.2227269184;
1.10109669467;82.2047278991;
1.15114654443;69.1867288799;
1.20119639419;56.4585300565;
1.25124624394;55.5630748901;
1.3012960937;54.6676197237;
1.35134594346;53.7721645572;
1.40139579322;52.9256283726;
1.45144564297;53.7841768001;
1.50149549273;54.6427252276;
1.55154534249;55.5012736552;
1.60159519225;56.3085271325;
1.65164504201;55.5577670281;
1.70169489176;54.8070069238;
1.75174474152;54.0562468194;
1.80179459128;53.3632182419;
1.85184444104;54.2224660298;
1.90189429079;55.0817138178;
1.95194414055;55.9409616057;
2.00199399031;56.7372911731;
2.05204384007;56.0173426213;
2.10209368983;55.2973940696;
2.15214353958;54.5774455178;
2.20219338934;53.9188732819;
2.2522432391;54.5993813163;
2.30229308886;55.2798893507;
2.35234293861;55.9603973851;
2.40239278837;56.5753805263;
2.45244263813;55.885359931;
2.50249248789;55.1953393356;
2.55254233765;54.5053187403;
2.6025921874;53.8862787575;
2.65264203716;54.5667003245;
2.70269188692;55.2471218916;
2.75274173668;55.9275434587;
2.80279158643;56.533588332;
2.85284143619;55.8805675129;
2.90289128595;55.2275466938;
2.95294113571;54.5745258747;
3.00299098547;53.998325159;
3.05304083522;54.6307389951;
3.10309068498;55.2631528313;
3.15314053474;55.8955666674;
3.2031903845;56.4474381061;
3.25324023425;55.8163620221;
3.30329008401;55.1852859381;
3.35333993377;54.5542098541;
3.40338978353;54.007314005;
3.45343963329;54.6191178073;
3.50348948304;55.2309216097;
3.5535393328;55.842725412;
3.60358918256;56.3733801478;
3.65363903232;55.8536186371;
3.70368888207;55.3338571263;
3.75373873183;54.8140956156;
3.80378858159;54.3726340606;
3.85383843135;54.88724538;
3.90388828111;55.4018566995;
3.95393813086;55.9164680189;
4.00398798062;56.3451944712;
4.05403783038;55.7819606496;
4.10408768014;55.2187268279;
4.15413752989;54.6554930063;
4.20418737965;54.1841816836;
4.25423722941;54.7196316596;
4.30428707917;55.2550816356;
4.35433692892;55.7905316116;
4.40438677868;56.2385735326;
4.45443662844;55.7767841706;
4.5044864782;55.3149948086;
4.55453632796;54.8532054465;
4.60458617771;54.4787121793;
4.65463602747;54.9695829757;
4.70468587723;55.4604537721;
4.75473572699;55.9513245684;
4.80478557674;56.3417986128;
4.8548354265;55.7826923591;
4.90488527626;55.2235861053;
4.95493512602;54.6644798516;
5.00498497578;54.2138151311;
5.05503482553;54.7434568529;
5.10508467529;55.2730985747;
5.15513452505;55.8027402966;
5.20518437481;56.2283752137;
5.25523422456;55.7539551594;
5.30528407432;55.2795351052;
5.35533392408;54.8051150509;
5.40538377384;54.4312287211;
5.4554336236;54.8913969261;
5.50548347335;55.3515651312;
5.55553332311;55.8117333362;
5.60558317287;56.1637843743;
5.65563302263;55.6547619547;
5.70568287238;55.1457395352;
5.75573272214;54.6367171157;
5.8057825719;54.2358566937;
5.85583242166;54.6629930793;
5.90588227142;55.0901294648;
5.95593212117;55.5172658504;
6.00598197093;55.8327984697;
6.05603182069;55.3261847764;
6.10608167045;54.8195710831;
6.1561315202;54.3129573899;
6.20618136996;53.9389697675;
6.25623121972;54.5061983086;
6.30628106948;55.0734268497;
6.35633091924;55.6406553908;
6.40638076899;56.0822270543;
6.45643061875;55.6638350264;
6.50648046851;55.2454429984;
6.55653031827;54.8270509704;
6.60658016802;54.5139353852;
6.65663001778;54.8962822529;
6.70667986754;55.2786291206;
6.7567297173;55.6609759882;
6.80677956706;55.9486336178;
6.85682941681;55.6319509172;
6.90687926657;55.3152682166;
6.95692911633;54.998585516;
7.00697896609;54.7706596328;
7.05702881584;55.0904905307;
7.1070786656;55.4103214287;
7.15712851536;55.7301523266;
7.20717836512;55.9547756137;
7.25722821487;55.610797208;
7.30727806463;55.2668188023;
7.35732791439;54.9228403965;
7.40737776415;54.6741488247;
7.45742761391;54.9765765866;
7.50747746366;55.2790043485;
7.55752731342;55.5814321105;
7.60757716318;55.7963697035;
7.65762701294;55.5209008915;
7.70767686269;55.2454320796;
7.75772671245;54.9699632676;
7.80777656221;54.7796564998;
7.85782641197;55.0522829747;
7.90787626173;55.3249094495;
7.95792611148;55.5975359243;
8.00797596124;55.7822072106;
8.058025811;55.5029136014;
8.10807566076;55.2236199923;
8.15812551051;54.9443263832;
8.20817536027;54.7471107822;
8.25822521003;54.9702960382;
8.30827505979;55.1934812941;
8.35832490955;55.4166665501;
8.4083747593;55.5432323873;
8.45842460906;55.1889999414;
8.50847445882;54.8347674954;
8.55852430858;54.4805350495;
8.60857415833;54.2470952662;
8.65862400809;54.597957071;
8.70867385785;54.9488188758;
8.75872370761;55.2996806806;
8.80877355737;55.5270739507;
8.85882340712;55.1736015211;
8.90887325688;54.8201290914;
8.95892310664;54.4666566618;
9.0089729564;54.2352210968;
9.05902280615;54.5624456242;
9.10907265591;54.8896701516;
9.15912250567;55.2168946791;
9.20917235543;55.4324648724;
9.25922220519;55.1504427741;
9.30927205494;54.8684206758;
9.3593219047;54.5863985775;
9.40937175446;54.4068039056;
9.45942160422;54.6717900546;
9.50947145397;54.9367762036;
9.55952130373;55.2017623526;
9.60957115349;55.3641175723;
9.65962100325;55.0924272151;
9.70967085301;54.8207368578;
9.75972070276;54.5490465005;
9.80977055252;54.3787276281;
9.85982040228;54.62630983;
9.90987025204;54.873892032;
9.95992010179;55.121474234;
10.0099699516;55.4605087384;
10.0600198013;56.1671836185;
10.1100696511;56.8738584986;
10.1601195008;57.5805333787;
10.2101693506;58.0291964966;
10.2602192003;57.4660426888;
10.3102690501;56.902888881;
10.3603188999;56.3397350732;
10.4103687496;56.0819292186;
10.4604185994;56.9926738222;
10.5104684491;57.9034184258;
10.5605182989;58.8141630294;
10.6105681486;59.2063260461;
10.6606179984;57.6611339064;
10.7106678482;56.1159417667;
10.7607176979;54.570749627;
10.8107675477;53.6149254612;
10.8608173974;54.8092175012;
10.9108672472;56.0035095413;
10.9609170969;57.1978015813;
11.0109669467;57.8427158467;
11.0610167965;56.5298338158;
11.1110666462;55.2169517849;
11.161116496;53.9040697539;
11.2111663457;53.1646029149;
11.2612161955;54.4218641004;
11.3112660453;55.6791252858;
11.361315895;56.9363864713;
11.4113657448;57.6488396717;
11.4614155945;56.5070203184;
11.5114654443;55.3652009651;
11.561515294;54.2233816118;
11.6115651438;53.5746874932;
11.6616149936;54.5669226752;
11.7116648433;55.5591578571;
11.7617146931;56.5513930391;
11.8117645428;57.1064950586;
11.8618143926;56.2390508354;
11.9118642423;55.3716066122;
11.9619140921;54.5041623889;
12.0119639419;53.989471796;
12.0620137916;54.5977226769;
12.1120636414;55.2059735578;
12.1621134911;55.8142244387;
12.2121633409;56.2088103551;
12.2622131907;55.9378769246;
12.3122630404;55.666943494;
12.3623128902;55.3960100635;
12.4123627399;55.167585725;
12.4624125897;55.0687466561;
12.5124624394;54.9699075871;
12.5625122892;54.8710685182;
12.612562139;54.8968619853;
12.6626119887;55.2945780046;
12.7126618385;55.6922940239;
12.7627116882;56.0900100432;
12.812761538;56.206365037;
12.8628113877;55.5006109611;
12.9128612375;54.7948568852;
12.9629110873;54.0891028093;
13.012960937;53.7696273482;
13.0630107868;54.5555130646;
13.1130606365;55.341398781;
13.1631104863;56.1272844974;
13.213160336;56.4516190375;
13.2632101858;55.4821996113;
13.3132600356;54.5127801851;
13.3633098853;53.5433607589;
13.4133597351;53.1341356653;
13.4634095848;54.2633693138;
13.5134594346;55.3926029623;
13.5635092844;56.5218366108;
13.6135591341;57.0177985437;
13.6636089839;55.8094980318;
13.7136588336;54.6011975199;
13.7637086834;53.392897008;
13.8137585331;52.8693437387;
13.8638083829;54.1519532022;
13.9138582327;55.4345626657;
13.9639080824;56.7171721292;
14.0139579322;57.2840030096;
14.0640077819;56.000016363;
14.1140576317;54.7160297164;
14.1641074814;53.4320430697;
14.2141573312;52.9441530411;
14.264207181;54.4745568064;
14.3142570307;56.0049605718;
14.3643068805;57.5353643372;
14.4143567302;58.1885073544;
14.46440658;56.6606599326;
14.5144564297;55.1328125108;
14.5645062795;53.604965089;
14.6145561293;52.9004887914;
14.664605979;54.2037058543;
14.7146558288;55.5069229173;
14.7647056785;56.8101399803;
14.8147555283;57.3443708395;
14.8648053781;56.0392499816;
14.9148552278;54.7341291237;
14.9649050776;53.4290082658;
15.0149549273;52.9488315251;
15.0650047771;54.4045448874;
15.1150546268;55.8602582497;
15.1651044766;57.315971612;
15.2151543264;57.9146680633;
15.2652041761;56.539948306;
15.3152540259;55.1652285486;
15.3653038756;53.7905087913;
15.4153537254;53.1947864452;
15.4654035751;54.3594158545;
15.5154534249;55.5240452639;
15.5655032747;56.6886746733;
15.6155531244;57.1264726903;
15.6656029742;55.9521774037;
15.7156528239;54.7778821171;
15.7657026737;53.6035868305;
15.8157525235;53.1471293178;
15.8658023732;54.2535773687;
15.915852223;55.3600254196;
15.9659020727;56.4664734704;
16.0159519225;56.8922115342;
16.0660017722;55.8629147475;
16.116051622;54.8336179608;
16.1661014718;53.804321174;
16.2161513215;53.41890946;
16.2662011713;54.3848777393;
16.316251021;55.3508460186;
16.3663008708;56.3168142979;
16.4163507205;56.7574047281;
16.4664005703;56.1151910078;
16.5164504201;55.4729772875;
16.5665002698;54.8307635672;
16.6165501196;54.5053464369;
16.6665999693;54.8211640783;
16.7166498191;55.1369817198;
16.7666996688;55.4527993613;
16.8167495186;55.580724627;
16.8667993684;55.3350972656;
16.9168492181;55.0894699042;
16.9668990679;54.8438425427;
17.0169489176;54.6482072007;
17.0669987674;54.5502045744;
17.1170486172;54.4522019482;
17.1670984669;54.3541993219;
17.2171483167;54.5248749252;
17.2671981664;55.2110444796;
17.3172480162;55.897214034;
17.3672978659;56.5833835884;
17.4173477157;56.7044297427;
17.4673975655;55.7601718818;
17.5174474152;54.8159140209;
17.567497265;53.87165616;
17.6175471147;53.597219262;
17.6675969645;54.5634899013;
17.7176468142;55.5297605407;
17.767696664;56.49603118;
17.8177465138;56.7232586282;
17.8677963635;55.6052433382;
17.9178462133;54.4872280482;
17.967896063;53.3692127582;
18.0179459128;53.1588632287;
18.0679957626;54.5722489645;
18.1180456123;55.9856347004;
18.1680954621;57.3990204362;
18.2181453118;57.7746417056;
18.2681951616;56.3255970356;
18.3182450113;54.8765523657;
18.3682948611;53.4275076958;
18.4183447109;52.9931487078;
18.4683945606;54.3124557251;
18.5184444104;55.6317627423;
18.5684942601;56.9510697595;
18.6185441099;57.2927398729;
18.6685939596;55.9734550296;
18.7186438094;54.6541701864;
18.7686936592;53.3348853432;
18.8187435089;53.0656832276;
18.8687933587;54.550367749;
18.9188432084;56.0350522705;
18.9688930582;57.5197367919;
19.0189429079;57.8817379873;
19.0689927577;56.4001483205;
19.1190426075;54.9185586537;
19.1690924572;53.4369689869;
19.219142307;53.0182514479;
19.2691921567;54.3156546525;
19.3192420065;55.6130578571;
19.3692918563;56.9104610617;
19.419341706;57.2059883324;
19.4693915558;55.9108848867;
19.5194414055;54.615781441;
19.5694912553;53.3206779953;
19.619541105;53.0263258999;
19.6695909548;54.294394742;
19.7196408046;55.5624635841;
19.7696906543;56.8305324263;
19.8197405041;57.1099493717;
19.8697903538;55.8714131086;
19.9198402036;54.6328768455;
19.9698900533;53.3943405824;
20.0199399031;53.170944068;
20.0699897529;54.4804320968;
20.1200396026;55.7899201255;
20.1700894524;57.0994081543;
20.2201393021;57.4192717561;
20.2701891519;56.269373293;
20.3202390016;55.11947483;
20.3702888514;53.969576367;
20.4203387012;53.7064568494;
20.4703885509;54.7387504482;
20.5204384007;55.7710440469;
20.5704882504;56.8033376457;
20.6205381002;57.0602156014;
20.67058795;56.202886391;
20.7206377997;55.3455571806;
20.7706876495;54.4882279702;
20.8207374992;54.2207539404;
20.870787349;54.7870309164;
20.9208371987;55.3533078924;
20.9708870485;55.9195848685;
21.0209368983;56.0178529071;
21.070986748;55.4653550872;
21.1210365978;54.9128572673;
21.1710864475;54.3603594475;
21.2211362973;54.1383560165;
21.271186147;54.3684513957;
21.3212359968;54.5985467749;
21.3712858466;54.8286421541;
21.4213356963;55.0021919507;
21.4713855461;55.0996417548;
21.5214353958;55.197091559;
21.5714852456;55.2945413631;
21.6215350954;55.0752495328;
21.6715849451;54.4365612687;
21.7216347949;53.7978730047;
21.7716846446;53.1591847407;
21.8217344944;53.5018433862;
21.8717843441;55.1229756919;
21.9218341939;56.7441079976;
21.9718840437;58.3652403034;
22.0219338934;58.583897401;
22.0719837432;57.0048053912;
22.1220335929;55.4257133813;
22.1720834427;53.8466213715;
22.2221332924;53.0919216573;
22.2721831422;53.3770140715;
22.322232992;53.6621064857;
22.3722828417;53.9471988999;
22.4223326915;53.927709189;
22.4723825412;53.530204666;
22.522432391;53.1327001431;
22.5724822407;52.7351956201;
22.6225320905;53.0176691058;
22.6725819403;54.1305729582;
22.72263179;55.2434768105;
22.7726816398;56.3563806629;
22.8227314895;56.523426675;
22.8727813393;55.5537634732;
22.9228311891;54.5841002714;
22.9728810388;53.6144370697;
23.0229308886;53.4874349245;
23.0729807383;54.3569891582;
23.1230305881;55.226543392;
23.1730804378;56.0960976257;
23.2231302876;56.3314940057;
23.2731801374;55.8288483077;
23.3232299871;55.3262026098;
23.3732798369;54.8235569118;
23.4233296866;54.6056302085;
23.4733795364;54.7137979747;
23.5234293861;54.8219657409;
23.5734792359;54.9301335071;
23.6235290857;55.1248275428;
23.6735789354;55.4170487787;
23.7236287852;55.7092700146;
23.7736786349;56.0014912505;
23.8237284847;55.8664359848;
23.8737783345;55.2574179686;
23.9238281842;54.6483999524;
23.973878034;54.0393819362;
24.0239278837;54.1924872741;
24.0739777335;55.1775932158;
24.1240275832;56.1626991575;
24.174077433;57.1478050993;
24.2241272828;57.0829788073;
24.2741771325;55.8901042979;
24.3242269823;54.6972297884;
24.374276832;53.504355279;
24.4243266818;53.5368141694;
24.4743765315;54.8649378451;
24.5244263813;56.1930615208;
24.5744762311;57.5211851965;
24.6245260808;57.5030794402;
24.6745759306;56.0839917464;
24.7246257803;54.6649040526;
24.7746756301;53.2458163588;
24.8247254798;53.2718142969;
24.8747753296;54.7778892326;
24.9248251794;56.2839641682;
24.9748750291;57.7900391039;
25.0249248789;57.7937277786;
25.0749747286;56.2829804677;
25.1250245784;54.7722331568;
25.1750744282;53.261485846;
25.2251242779;53.1716625446;
25.2751741277;54.4915149044;
25.3252239774;55.8113672642;
25.3752738272;57.131219624;
25.4253236769;57.115496603;
25.4753735267;55.7957202683;
25.5254233765;54.4759439336;
25.5754732262;53.1561675988;
25.625523076;53.2578144015;
25.6755729257;54.7253885456;
25.7256227755;56.1929626897;
25.7756726252;57.6605368337;
25.825722475;57.6255092202;
25.8757723248;56.169386355;
25.9258221745;54.7132634898;
25.9758720243;53.2571406246;
26.025921874;53.2115327808;
26.0759717238;54.4788169598;
26.1260215735;55.7461011388;
26.1760714233;57.0133853178;
26.2261212731;56.9597717817;
26.2761711228;55.6961494778;
26.3262209726;54.4325271738;
26.3762708223;53.1689048699;
26.4263206721;53.2811136413;
26.4763705219;54.6336820511;
26.5264203716;55.986250461;
26.5764702214;57.3388188709;
26.6265200711;57.3147613995;
26.6765699209;56.0693096464;
26.7266197706;54.8238578933;
26.7766696204;53.5784061402;
26.8267194702;53.5653275657;
26.8767693199;54.628300332;
26.9268191697;55.6912730984;
26.9768690194;56.7542458647;
27.0269188692;56.6874483576;
27.0769687189;55.6498633775;
27.1270185687;54.6122783974;
27.1770684185;53.5746934174;
27.2271182682;53.6204675917;
27.277168118;54.5823384219;
27.3272179677;55.5442092522;
27.3772678175;56.5060800825;
27.4273176673;56.6078920749;
27.477367517;55.9940181589;
27.5274173668;55.380144243;
27.5774672165;54.766270327;
27.6275170663;54.6618885696;
27.677566916;54.9747093991;
27.7276167658;55.2875302286;
27.7776666156;55.600351058;
27.8277164653;55.7076673022;
27.8777663151;55.6493932117;
27.9278161648;55.5911191212;
27.9778660146;55.5328450307;
28.0279158643;55.332749266;
28.0779657141;55.0202064912;
28.1280155639;54.7076637164;
28.1780654136;54.3951209416;
28.2281152634;54.6549772774;
28.2781651131;55.3613968846;
28.3282149629;56.0678164918;
28.3782648126;56.774236099;
28.4283146624;56.5267348145;
28.4783645122;55.546980612;
28.5284143619;54.5672264095;
28.5784642117;53.587472207;
28.6285140614;53.8563799618;
28.6785639112;55.0683563853;
28.728613761;56.2803328087;
28.7786636107;57.4923092322;
28.8287134605;57.235641616;
28.8787633102;55.8876626451;
28.92881316;54.5396836741;
28.9788630097;53.1917047032;
29.0289128595;53.3538484175;
29.0789627093;54.6199717636;
29.129012559;55.8860951098;
29.1790624088;57.152218456;
29.2291122585;56.9289448028;
29.2791621083;55.6345021113;
29.329211958;54.3400594198;
29.3792618078;53.0456167282;
29.4293116576;53.3775574268;
29.4793615073;54.8601664481;
29.5294113571;56.3427754693;
29.5794612068;57.8253844906;
29.6295110566;57.5595800394;
29.6795609064;56.0769425088;
29.7296107561;54.5943049781;
29.7796606059;53.1116674474;
29.8297104556;53.4338754979;
29.8797603054;54.9916481042;
29.9298101551;56.5494207106;
29.9798600049;58.1071933169;
30.0299098547;57.8170852433;
30.0799597044;56.2827042104;
30.1300095542;54.7483231774;
30.1800594039;53.2139421445;
30.2301092537;53.4864972352;
30.2801591034;54.9557311746;
30.3302089532;56.424965114;
30.380258803;57.8941990535;
30.4303086527;57.5981699224;
30.4803585025;56.1523655689;
30.5304083522;54.7065612154;
30.580458202;53.2607568619;
30.6305080517;53.5455362637;
30.6805579015;54.9388248968;
30.7306077513;56.3321135299;
30.780657601;57.725402163;
30.8307074508;57.4696696756;
30.8807573005;56.1752388801;
30.9308071503;54.8808080846;
30.9808570001;53.5863772891;
31.0309068498;53.8231024922;
31.0809566996;55.0081835214;
31.1310065493;56.1932645506;
31.1810563991;57.3783455799;
31.2311062488;57.1286314072;
31.2811560986;56.0051386104;
31.3312059484;54.8816458136;
31.3812557981;53.7581530168;
31.4313056479;53.9609899403;
31.4813554976;54.9579582315;
31.5314053474;55.9549265227;
31.5814551971;56.951894814;
31.6315050469;56.9072909059;
31.6815548967;56.2495916126;
31.7316047464;55.5918923194;
31.7816545962;54.9341930262;
31.8317044459;55.7414427262;
31.8817542957;57.3963611778;
31.9318041454;59.0512796294;
31.9818539952;60.706198081;
32.031903845;60.3350555531;
32.0819536947;58.8115560014;
32.1320035445;57.2880564497;
32.1820533942;55.764556898;
32.232103244;54.7835791682;
32.2821530938;54.1058837934;
32.3322029435;53.4281884185;
32.3822527933;52.7504930437;
32.432302643;53.312740598;
32.4823524928;54.5562124945;
32.5324023425;55.799684391;
32.5824521923;57.0431562875;
32.6325020421;56.8527030057;
32.6825518918;55.888081747;
32.7326017416;54.9234604883;
32.7826515913;53.9588392297;
32.8327014411;54.1076385584;
32.8827512908;54.8471127306;
32.9328011406;55.5865869028;
32.9828509904;56.326061075;
33.0329008401;56.259547709;
33.0829506899;55.7729303209;
33.1330005396;55.2863129329;
33.1830503894;54.7996955449;
33.2331002392;54.7153820336;
33.2831500889;54.8370742269;
33.3331999387;54.9587664203;
33.3832497884;55.0804586136;
33.4332996382;55.2477481495;
33.4833494879;55.4379736353;
33.5333993377;55.6281991211;
33.5834491875;55.8184246068;
33.6334990372;55.5410402114;
33.683548887;55.0326265132;
33.7335987367;54.524212815;
33.7836485865;54.0157991168;
33.8336984362;54.2988770437;
33.883748286;54.9660053938;
33.9337981358;55.633133744;
33.9838479855;56.3002620942;
34.0338978353;55.917281621;
34.083947685;55.0339379199;
34.1339975348;54.1505942188;
34.1840473845;53.2672505177;
34.2340972343;53.7209352415;
34.2841470841;54.8001522171;
34.3341969338;55.8793691927;
34.3842467836;56.9585861683;
34.4342966333;56.4838530538;
34.4843464831;55.2953617344;
34.5343963329;54.106870415;
34.5844461826;52.9183790956;
34.6344960324;53.5693457385;
34.6845458821;55.0496932042;
34.7345957319;56.5300406699;
34.7846455816;58.0103881356;
34.8346954314;57.4314689799;
34.8847452812;55.9412319173;
34.9347951309;54.4509948547;
34.9848449807;52.9607577921;
35.0348948304;53.596974941;
35.0849446802;55.1567149636;
35.1349945299;56.7164549863;
35.1850443797;58.2761950089;
35.2350942295;57.6516339961;
35.2851440792;56.0962279183;
35.335193929;54.5408218404;
35.3852437787;52.9854157626;
35.4352936285;53.585643358;
35.4853434783;55.0871306871;
35.535393328;56.5886180162;
35.5854431778;58.0901053453;
35.6354930275;57.4708482134;
35.6855428773;55.9818139125;
35.735592727;54.4927796117;
35.7856425768;53.0037453108;
35.8356924266;53.4931420901;
35.8857422763;54.778363637;
35.9357921261;56.0635851838;
35.9858419758;57.3488067307;
36.0358918256;56.7915356737;
36.0859416753;55.5074746578;
36.1359915251;54.2234136418;
36.1860413749;52.9393526259;
36.2360912246;53.578395519;
36.2861410744;54.9612103818;
36.3361909241;56.3440252446;
36.3862407739;57.7268401074;
36.4362906236;57.2016568753;
36.4863404734;55.9530819658;
36.5363903232;54.7045070563;
36.5864401729;53.4559321468;
36.6364900227;53.8812887366;
36.6865398724;54.9286786599;
36.7365897222;55.9760685832;
36.786639572;57.0234585065;
36.8366894217;56.5288938491;
36.8867392715;55.4728327507;
36.9367891212;54.4167716523;
36.986838971;53.360710554;
37.0368888207;53.8253493415;
37.0869386705;54.8325315094;
37.1369885203;55.8397136774;
37.18703837;56.8468958453;
37.2370882198;56.600291608;
37.2871380695;55.9155169784;
37.3371879193;55.2307423488;
37.387237769;54.5459677192;
37.4372876188;54.6607797119;
37.4873374686;55.0492592309;
37.5373873183;55.4377387499;
37.5874371681;55.826218269;
37.6374870178;55.8441077661;
37.6875368676;55.7378045452;
37.7375867173;55.6315013243;
37.7876365671;55.5251981034;
37.8376864169;55.2984158897;
37.8877362666;55.032109642;
37.9377861164;54.7658033943;
37.9878359661;54.4994971466;
38.0378858159;54.7052952826;
38.0879356657;55.0626708941;
38.1379855154;55.4200465056;
38.1880353652;55.7774221171;
38.2380852149;55.3868658089;
38.2881350647;54.7613458308;
38.3381849144;54.1358258526;
38.3882347642;53.5103058744;
38.438284614;54.2096920931;
38.4883344637;55.3162307643;
38.5383843135;56.4227694356;
38.5884341632;57.5293081068;
38.638484013;56.8112181672;
38.6885338627;55.5447670583;
38.7385837125;54.2783159494;
38.7886335623;53.0118648404;
38.838683412;53.6494227314;
38.8887332618;54.8464341963;
38.9387831115;56.0434456613;
38.9888329613;57.2404571263;
39.0388828111;56.5360324394;
39.0889326608;55.2855261973;
39.1389825106;54.0350199551;
39.1890323603;52.784513713;
39.2390822101;53.6965514788;
39.2891320598;55.2154573985;
39.3391819096;56.7343633181;
39.3892317594;58.2532692377;
39.4392816091;57.3880545573;
39.4893314589;55.8692896414;
39.5393813086;54.3505247256;
39.5894311584;52.8317598098;
39.6394810081;53.5288396156;
39.6895308579;54.819081921;
39.7395807077;56.1093242264;
39.7896305574;57.3995665318;
39.8396804072;56.6439833948;
39.8897302569;55.3537829601;
39.9397801067;54.0635825253;
39.9898299564;52.7733820906;
40.0398798062;53.5376950817;
40.089929656;54.8259387482;
40.1399795057;56.1141824148;
40.1900293555;57.4024260813;
40.2400792052;56.6289011533;
40.290129055;55.3424687277;
40.3401789048;54.056036302;
40.3902287545;52.7696038764;
40.4402786043;53.5649518121;
40.490328454;54.8653159804;
40.5403783038;56.1656801486;
40.5904281535;57.4660443169;
40.6404780033;56.6933516309;
40.6905278531;55.4304483497;
40.7405777028;54.1675450685;
40.7906275526;52.9046417873;
40.8406774023;53.7495009146;
40.8907272521;55.0800020112;
40.9407771018;56.4105031078;
40.9908269516;57.7410042043;
41.0408768014;57.0026884651;
41.0909266511;55.8001210408;
41.1409765009;54.5975536164;
41.1910263506;53.3949861921;
41.2410762004;54.072739902;
41.2911260502;55.1612699644;
41.3411758999;56.2498000268;
41.3912257497;57.3383300892;
41.4412755994;56.777867468;
41.4913254492;55.8668710968;
41.5413752989;54.9558747256;
41.5914251487;54.0448783544;
41.6414749985;54.4750272708;
41.6915248482;55.1824510021;
41.741574698;55.8898747335;
41.7916245477;56.5972984648;
41.8416743975;56.3017561492;
41.8917242472;55.8046468298;
41.941774097;55.3075375103;
41.9918239468;54.8104281908;
42.0418737965;54.8536652153;
42.0919236463;55.002405954;
42.141973496;55.1511466927;
42.1920233458;55.2998874314;
42.2420731955;55.258134868;
42.2921230453;55.1802671881;
42.3421728951;55.1023995083;
42.3922227448;55.0245318285;
42.4422725946;54.7945281093;
42.4923224443;54.5365349979;
42.5423722941;54.2785418865;
42.5924221439;54.0205487751;
42.6424719936;54.6500250883;
42.6925218434;55.4378414946;
42.7425716931;56.2256579009;
42.7926215429;57.0134743072;
42.8426713926;56.2641704676;
42.8927212424;55.249081772;
42.9427710922;54.2339930764;
42.9928209419;53.2189043808;
43.0428707917;53.9523349017;
43.0929206414;54.9785646159;
43.1429704912;56.0047943301;
43.1930203409;57.0310240443;
43.2430701907;56.1839821556;
43.2931200405;55.033375397;
43.3431698902;53.8827686385;
43.39321974;52.7321618799;
43.4432695897;53.6836192112;
43.4933194395;54.9644607015;
43.5433692892;56.2453021918;
43.593419139;57.5261436821;
43.6434689888;56.5676574116;
43.6935188385;55.2701600916;
43.7435686883;53.9726627715;
43.793618538;52.6751654515;
43.8436683878;53.8184760526;
43.8937182376;55.3184672256;
43.9437680873;56.8184583986;
43.9938179371;58.3184495716;
44.0438677868;57.188982827;
44.0939176366;55.6889663122;
44.1439674863;54.1889497975;
44.1940173361;52.6889332828;
44.2440671859;53.6650065045;
44.2941170356;54.9772335708;
44.3441668854;56.2894606372;
44.3942167351;57.6016877036;
44.4442665849;56.5926865208;
44.4943164346;55.280430945;
44.5443662844;53.9681753693;
44.5944161342;52.6559197935;
44.6444659839;53.8298772987;
44.6945158337;55.3160380121;
44.7445656834;56.8021987255;
44.7946155332;58.2883594389;
44.844665383;57.1779717157;
44.8947152327;55.7545728803;
44.9447650825;54.331174045;
44.9948149322;52.9077752096;
45.044864782;53.8426132545;
45.0949146317;55.0499897022;
45.1449644815;56.2573661498;
45.1950143313;57.4647425975;
45.245064181;56.4851530029;
45.2951140308;55.2636137148;
45.3451638805;54.0420744268;
45.3952137303;52.8205351387;
45.44526358;53.8624600292;
45.4953134298;55.1437234735;
45.5453632796;56.4249869179;
45.5954131293;57.7062503622;
45.6454629791;56.8376235042;
45.6955128288;55.7520937671;
45.7455626786;54.6665640301;
45.7956125283;53.581034293;
45.8456623781;54.0308124449;
45.8957122279;54.6281073337;
45.9457620776;55.2254022226;
45.9958119274;55.8226971114;
46.0458617771;57.9832483596;
46.0959116269;60.2865519087;
46.1459614767;62.5898554578;
46.1960113264;64.8931590068;
46.2460611762;62.3804744574;
46.2961110259;59.4507592392;
46.3461608757;56.5210440211;
46.3962107254;53.5913288029;
46.4462605752;53.8869595622;
46.496310425;54.4467764101;
46.5463602747;55.0065932579;
46.5964101245;55.5664101058;
46.6464599742;55.4185037311;
46.696509824;55.2159144131;
46.7465596737;55.0133250951;
46.7966095235;54.8107357772;
46.8466593733;54.6438351897;
46.896709223;54.4795278278;
46.9467590728;54.3152204659;
46.9968089225;54.1509131039;
47.0468587723;54.771912484;
47.0969086221;55.4463895237;
47.1469584718;56.1208665634;
47.1970083216;56.7953436031;
47.2470581713;55.9455394997;
47.2971080211;54.9988338434;
47.3471578708;54.0521281871;
47.3972077206;53.1054225308;
47.4472575704;54.0151339248;
47.4973074201;55.0345304798;
47.5473572699;56.0539270347;
47.5974071196;57.0733235897;
47.6474569694;56.0577014611;
47.6975068191;54.9308972951;
47.7475566689;53.804093129;
47.7976065187;52.6772889629;
47.8476563684;53.8201453355;
47.8977062182;55.0769879608;
47.9477560679;56.3338305861;
47.9978059177;57.5906732114;
48.0478557674;56.4167913704;
48.0979056172;55.1314710141;
48.147955467;53.8461506579;
48.1980053167;52.5608303016;
48.2480551665;53.9570857374;
48.2981050162;55.4646432005;
48.348154866;56.9722006635;
48.3982047158;58.4797581266;
48.4482545655;57.0803928723;
48.4983044153;55.572882925;
48.548354265;54.0653729776;
48.5984041148;52.5578630302;
48.6484539645;53.7610587081;
48.6985038143;55.0535291745;
48.7485536641;56.3459996409;
48.7986035138;57.6384701073;
48.8486533636;56.4179379867;
48.8987032133;55.1252806253;
48.9487530631;53.8326232639;
48.9988029128;52.5399659025;
49.0488527626;53.9537084069;
49.0989026124;55.43376326;
49.1489524621;56.9138181131;
49.1990023119;58.3938729662;
49.2490521616;57.0222657031;
49.2991020114;55.5926629992;
49.3491518611;54.1630602953;
49.3992017109;52.7334575914;
49.4492515607;54.0234532178;
49.4993014104;55.3575240248;
49.5493512602;56.6915948317;
49.5994011099;58.0256656386;
49.6494509597;56.7662433314;
49.6995008095;55.4754166638;
49.7495506592;54.1845899962;
49.799600509;52.8937633285;
49.8496503587;56.783;
49.8997002085;56.783;
49.9497500582;56.783;
49.999799908;56.783;
