0;0;0;1;1;1;
0.199999908;1.0;8.0;0.199999908;1.0;8.0;
0.399999908;0.0;58.0;0.399999908;0.0;58.0;
0.599999908;0.0;245.0;0.599999908;0.0;245.0;
0.799999908;0.0;115.0;0.799999908;0.0;115.0;
0.999999908;0.0;80.0;0.999999908;0.0;80.0;
1.199999908;0.0;163.0;1.199999908;0.0;163.0;
1.399999908;0.0;157.0;1.399999908;0.0;157.0;
1.599999908;0.0;165.0;1.599999908;0.0;165.0;
1.799999908;0.0;158.0;1.799999908;0.0;158.0;
1.999999908;0.0;166.0;1.999999908;0.0;166.0;
2.199999908;0.0;158.0;2.199999908;0.0;158.0;
2.399999908;0.0;167.0;2.399999908;0.0;167.0;
2.599999908;0.0;157.0;2.599999908;0.0;157.0;
2.799999908;0.0;166.0;2.799999908;0.0;166.0;
2.999999908;0.0;157.0;2.999999908;0.0;157.0;
3.199999908;0.0;167.0;3.199999908;0.0;167.0;
3.399999908;0.0;157.0;3.399999908;0.0;157.0;
3.599999908;0.0;167.0;3.599999908;0.0;167.0;
3.799999908;0.0;158.0;3.799999908;0.0;158.0;
3.999999908;0.0;166.0;3.999999908;0.0;166.0;
4.199999908;0.0;158.0;4.199999908;0.0;158.0;
4.399999908;0.0;167.0;4.399999908;0.0;167.0;
4.599999908;0.0;157.0;4.599999908;0.0;157.0;
4.799999908;0.0;167.0;4.799999908;0.0;167.0;
4.999999908;0.0;157.0;4.999999908;0.0;157.0;
5.199999908;0.0;167.0;5.199999908;0.0;167.0;
5.399999908;0.0;157.0;5.399999908;0.0;157.0;
5.599999908;0.0;167.0;5.599999908;0.0;167.0;
5.799999908;0.0;157.0;5.799999908;0.0;157.0;
5.999999908;0.0;165.0;5.999999908;0.0;165.0;
6.199999908;0.0;158.0;6.199999908;0.0;158.0;
6.399999908;0.0;166.0;6.399999908;0.0;166.0;
6.599999908;0.0;158.0;6.599999908;0.0;158.0;
6.799999908;0.0;167.0;6.799999908;0.0;167.0;
6.999999908;0.0;158.0;6.999999908;0.0;158.0;
7.199999908;0.0;166.0;7.199999908;0.0;166.0;
7.399999908;0.0;158.0;7.399999908;0.0;158.0;
7.599999908;0.0;166.0;7.599999908;0.0;166.0;
7.799999908;0.0;158.0;7.799999908;0.0;158.0;
7.999999908;0.0;166.0;7.999999908;0.0;166.0;
8.199999908;0.0;158.0;8.199999908;0.0;158.0;
8.399999908;0.0;165.0;8.399999908;0.0;165.0;
8.599999908;0.0;158.0;8.599999908;0.0;158.0;
8.799999908;0.0;165.0;8.799999908;0.0;165.0;
8.999999908;0.0;158.0;8.999999908;0.0;158.0;
9.199999908;0.0;166.0;9.199999908;0.0;166.0;
9.399999908;0.0;157.0;9.399999908;0.0;157.0;
9.599999908;0.0;166.0;9.599999908;0.0;166.0;
9.799999908;0.0;157.0;9.799999908;0.0;157.0;
9.999999908;0.0;166.0;9.999999908;0.0;166.0;
10.199999908;0.0;31.0;10.199999908;0.0;31.0;
10.399999908;0.0;84.0;10.399999908;0.0;84.0;
10.599999908;0.0;165.0;10.599999908;0.0;165.0;
10.799999908;0.0;158.0;10.799999908;0.0;158.0;
10.999999908;0.0;167.0;10.999999908;0.0;167.0;
11.199999908;0.0;157.0;11.199999908;0.0;157.0;
11.399999908;0.0;167.0;11.399999908;0.0;167.0;
11.599999908;0.0;158.0;11.599999908;0.0;158.0;
11.799999908;0.0;167.0;11.799999908;0.0;167.0;
11.999999908;0.0;158.0;11.999999908;0.0;158.0;
12.199999908;0.0;167.0;12.199999908;0.0;167.0;
12.399999908;0.0;158.0;12.399999908;0.0;158.0;
12.599999908;0.0;167.0;12.599999908;0.0;167.0;
12.799999908;0.0;157.0;12.799999908;0.0;157.0;
12.999999908;0.0;167.0;12.999999908;0.0;167.0;
13.199999908;0.0;157.0;13.199999908;0.0;157.0;
13.399999908;0.0;169.0;13.399999908;0.0;169.0;
13.599999908;0.0;154.0;13.599999908;0.0;154.0;
13.799999908;0.0;172.0;13.799999908;0.0;172.0;
13.999999908;0.0;151.0;13.999999908;0.0;151.0;
14.199999908;0.0;169.0;14.199999908;0.0;169.0;
14.399999908;0.0;156.0;14.399999908;0.0;156.0;
14.599999908;0.0;163.0;14.599999908;0.0;163.0;
14.799999908;0.0;160.0;14.799999908;0.0;160.0;
14.999999908;0.0;158.0;14.999999908;0.0;158.0;
15.199999908;0.0;167.0;15.199999908;0.0;167.0;
15.399999908;0.0;157.0;15.399999908;0.0;157.0;
15.599999908;0.0;166.0;15.599999908;0.0;166.0;
15.799999908;0.0;158.0;15.799999908;0.0;158.0;
15.999999908;0.0;166.0;15.999999908;0.0;166.0;
16.199999908;0.0;157.0;16.199999908;0.0;157.0;
16.399999908;0.0;167.0;16.399999908;0.0;167.0;
16.599999908;0.0;158.0;16.599999908;0.0;158.0;
16.799999908;0.0;166.0;16.799999908;0.0;166.0;
16.999999908;0.0;157.0;16.999999908;0.0;157.0;
17.199999908;0.0;167.0;17.199999908;0.0;167.0;
17.399999908;0.0;158.0;17.399999908;0.0;158.0;
17.599999908;0.0;168.0;17.599999908;0.0;168.0;
17.799999908;0.0;156.0;17.799999908;0.0;156.0;
17.999999908;0.0;172.0;17.999999908;0.0;172.0;
18.199999908;0.0;152.0;18.199999908;0.0;152.0;
18.399999908;0.0;173.0;18.399999908;0.0;173.0;
18.599999908;0.0;151.0;18.599999908;0.0;151.0;
18.799999908;0.0;167.0;18.799999908;0.0;167.0;
18.999999908;0.0;157.0;18.999999908;0.0;157.0;
19.199999908;0.0;161.0;19.199999908;0.0;161.0;
19.399999908;0.0;163.0;19.399999908;0.0;163.0;
19.599999908;0.0;157.0;19.599999908;0.0;157.0;
19.799999908;0.0;166.0;19.799999908;0.0;166.0;
19.999999908;0.0;158.0;19.999999908;0.0;158.0;
20.199999908;0.0;167.0;20.199999908;0.0;167.0;
20.399999908;0.0;157.0;20.399999908;0.0;157.0;
20.599999908;0.0;168.0;20.599999908;0.0;168.0;
20.799999908;0.0;157.0;20.799999908;0.0;157.0;
20.999999908;0.0;166.0;20.999999908;0.0;166.0;
21.199999908;0.0;158.0;21.199999908;0.0;158.0;
21.399999908;0.0;165.0;21.399999908;0.0;165.0;
21.599999908;0.0;158.0;21.599999908;0.0;158.0;
21.799999908;0.0;86.0;21.799999908;0.0;86.0;
21.999999908;0.0;45.0;21.999999908;0.0;45.0;
22.199999908;0.0;144.0;22.199999908;0.0;144.0;
22.399999908;0.0;154.0;22.399999908;0.0;154.0;
22.599999908;0.0;157.0;22.599999908;0.0;157.0;
22.799999908;0.0;165.0;22.799999908;0.0;165.0;
22.999999908;0.0;157.0;22.999999908;0.0;157.0;
23.199999908;0.0;167.0;23.199999908;0.0;167.0;
23.399999908;0.0;158.0;23.399999908;0.0;158.0;
23.599999908;0.0;167.0;23.599999908;0.0;167.0;
23.799999908;0.0;157.0;23.799999908;0.0;157.0;
23.999999908;0.0;168.0;23.999999908;0.0;168.0;
24.199999908;0.0;157.0;24.199999908;0.0;157.0;
24.399999908;0.0;171.0;24.399999908;0.0;171.0;
24.599999908;0.0;154.0;24.599999908;0.0;154.0;
24.799999908;0.0;173.0;24.799999908;0.0;173.0;
24.999999908;0.0;152.0;24.999999908;0.0;152.0;
25.199999908;0.0;169.0;25.199999908;0.0;169.0;
25.399999908;0.0;154.0;25.399999908;0.0;154.0;
25.599999908;0.0;164.0;25.599999908;0.0;164.0;
25.799999908;0.0;161.0;25.799999908;0.0;161.0;
25.999999908;0.0;157.0;25.999999908;0.0;157.0;
26.199999908;0.0;166.0;26.199999908;0.0;166.0;
26.399999908;0.0;157.0;26.399999908;0.0;157.0;
26.599999908;0.0;167.0;26.599999908;0.0;167.0;
26.799999908;0.0;157.0;26.799999908;0.0;157.0;
26.999999908;0.0;166.0;26.999999908;0.0;166.0;
27.199999908;0.0;158.0;27.199999908;0.0;158.0;
27.399999908;0.0;167.0;27.399999908;0.0;167.0;
27.599999908;0.0;158.0;27.599999908;0.0;158.0;
27.799999908;0.0;167.0;27.799999908;0.0;167.0;
27.999999908;0.0;158.0;27.999999908;0.0;158.0;
28.199999908;0.0;167.0;28.199999908;0.0;167.0;
28.399999908;0.0;158.0;28.399999908;0.0;158.0;
28.599999908;0.0;169.0;28.599999908;0.0;169.0;
28.799999908;0.0;155.0;28.799999908;0.0;155.0;
28.999999908;0.0;171.0;28.999999908;0.0;171.0;
29.199999908;0.0;153.0;29.199999908;0.0;153.0;
29.399999908;0.0;172.0;29.399999908;0.0;172.0;
29.599999908;0.0;152.0;29.599999908;0.0;152.0;
29.799999908;0.0;167.0;29.799999908;0.0;167.0;
29.999999908;0.0;158.0;29.999999908;0.0;158.0;
30.199999908;0.0;161.0;30.199999908;0.0;161.0;
30.399999908;0.0;164.0;30.399999908;0.0;164.0;
30.599999908;0.0;158.0;30.599999908;0.0;158.0;
30.799999908;0.0;167.0;30.799999908;0.0;167.0;
30.999999908;0.0;158.0;30.999999908;0.0;158.0;
31.199999908;0.0;167.0;31.199999908;0.0;167.0;
31.399999908;0.0;157.0;31.399999908;0.0;157.0;
31.599999908;0.0;168.0;31.599999908;0.0;168.0;
31.799999908;0.0;91.0;31.799999908;0.0;91.0;
31.999999908;0.0;46.0;31.999999908;0.0;46.0;
32.199999908;0.0;153.0;32.199999908;0.0;153.0;
32.399999908;0.0;157.0;32.399999908;0.0;157.0;
32.599999908;0.0;167.0;32.599999908;0.0;167.0;
32.799999908;0.0;157.0;32.799999908;0.0;157.0;
32.999999908;0.0;167.0;32.999999908;0.0;167.0;
33.199999908;0.0;158.0;33.199999908;0.0;158.0;
33.399999908;0.0;167.0;33.399999908;0.0;167.0;
33.599999908;0.0;157.0;33.599999908;0.0;157.0;
33.799999908;0.0;167.0;33.799999908;0.0;167.0;
33.999999908;0.0;156.0;33.999999908;0.0;156.0;
34.199999908;0.0;170.0;34.199999908;0.0;170.0;
34.399999908;0.0;154.0;34.399999908;0.0;154.0;
34.599999908;0.0;173.0;34.599999908;0.0;173.0;
34.799999908;0.0;151.0;34.799999908;0.0;151.0;
34.999999908;0.0;171.0;34.999999908;0.0;171.0;
35.199999908;0.0;154.0;35.199999908;0.0;154.0;
35.399999908;0.0;165.0;35.399999908;0.0;165.0;
35.599999908;0.0;160.0;35.599999908;0.0;160.0;
35.799999908;0.0;158.0;35.799999908;0.0;158.0;
35.999999908;0.0;165.0;35.999999908;0.0;165.0;
36.199999908;0.0;158.0;36.199999908;0.0;158.0;
36.399999908;0.0;167.0;36.399999908;0.0;167.0;
36.599999908;0.0;158.0;36.599999908;0.0;158.0;
36.799999908;0.0;166.0;36.799999908;0.0;166.0;
36.999999908;0.0;157.0;36.999999908;0.0;157.0;
37.199999908;0.0;168.0;37.199999908;0.0;168.0;
37.399999908;0.0;157.0;37.399999908;0.0;157.0;
37.599999908;0.0;168.0;37.599999908;0.0;168.0;
37.799999908;0.0;157.0;37.799999908;0.0;157.0;
37.999999908;0.0;166.0;37.999999908;0.0;166.0;
38.199999908;0.0;158.0;38.199999908;0.0;158.0;
38.399999908;0.0;169.0;38.399999908;0.0;169.0;
38.599999908;0.0;156.0;38.599999908;0.0;156.0;
38.799999908;0.0;170.0;38.799999908;0.0;170.0;
38.999999908;0.0;153.0;38.999999908;0.0;153.0;
39.199999908;0.0;174.0;39.199999908;0.0;174.0;
39.399999908;0.0;151.0;39.399999908;0.0;151.0;
39.599999908;0.0;167.0;39.599999908;0.0;167.0;
39.799999908;0.0;156.0;39.799999908;0.0;156.0;
39.999999908;0.0;162.0;39.999999908;0.0;162.0;
40.199999908;0.0;161.0;40.199999908;0.0;161.0;
40.399999908;0.0;158.0;40.399999908;0.0;158.0;
40.599999908;0.0;166.0;40.599999908;0.0;166.0;
40.799999908;0.0;158.0;40.799999908;0.0;158.0;
40.999999908;0.0;167.0;40.999999908;0.0;167.0;
41.199999908;0.0;158.0;41.199999908;0.0;158.0;
41.399999908;0.0;167.0;41.399999908;0.0;167.0;
41.599999908;0.0;158.0;41.599999908;0.0;158.0;
41.799999908;0.0;167.0;41.799999908;0.0;167.0;
41.999999908;0.0;158.0;41.999999908;0.0;158.0;
42.199999908;0.0;166.0;42.199999908;0.0;166.0;
42.399999908;0.0;157.0;42.399999908;0.0;157.0;
42.599999908;0.0;168.0;42.599999908;0.0;168.0;
42.799999908;0.0;157.0;42.799999908;0.0;157.0;
42.999999908;0.0;169.0;42.999999908;0.0;169.0;
43.199999908;0.0;154.0;43.199999908;0.0;154.0;
43.399999908;0.0;172.0;43.399999908;0.0;172.0;
43.599999908;0.0;152.0;43.599999908;0.0;152.0;
43.799999908;0.0;172.0;43.799999908;0.0;172.0;
43.999999908;0.0;152.0;43.999999908;0.0;152.0;
44.199999908;0.0;166.0;44.199999908;0.0;166.0;
44.399999908;0.0;158.0;44.399999908;0.0;158.0;
44.599999908;0.0;160.0;44.599999908;0.0;160.0;
44.799999908;0.0;165.0;44.799999908;0.0;165.0;
44.999999908;0.0;158.0;44.999999908;0.0;158.0;
45.199999908;0.0;166.0;45.199999908;0.0;166.0;
45.399999908;0.0;157.0;45.399999908;0.0;157.0;
45.599999908;0.0;168.0;45.599999908;0.0;168.0;
45.799999908;0.0;157.0;45.799999908;0.0;157.0;
45.999999908;0.0;99.0;45.999999908;0.0;99.0;
46.199999908;0.0;30.0;46.199999908;0.0;30.0;
46.399999908;0.0;139.0;46.399999908;0.0;139.0;
46.599999908;0.0;166.0;46.599999908;0.0;166.0;
46.799999908;0.0;157.0;46.799999908;0.0;157.0;
46.999999908;0.0;167.0;46.999999908;0.0;167.0;
47.199999908;0.0;157.0;47.199999908;0.0;157.0;
47.399999908;0.0;168.0;47.399999908;0.0;168.0;
47.599999908;0.0;155.0;47.599999908;0.0;155.0;
47.799999908;0.0;171.0;47.799999908;0.0;171.0;
47.999999908;0.0;152.0;47.999999908;0.0;152.0;
48.199999908;0.0;172.0;48.199999908;0.0;172.0;
48.399999908;0.0;153.0;48.399999908;0.0;153.0;
48.599999908;0.0;166.0;48.599999908;0.0;166.0;
48.799999908;0.0;157.0;48.799999908;0.0;157.0;
48.999999908;0.0;161.0;48.999999908;0.0;161.0;
49.199999908;0.0;164.0;49.199999908;0.0;164.0;
49.399999908;0.0;158.0;49.399999908;0.0;158.0;
49.599999908;0.0;166.0;49.599999908;0.0;166.0;
49.799999908;0.0;158.0;49.799999908;0.0;158.0;
